epoch  (ms),time  (-07:00),elapsed  (s),Pressure  (Pa)
1588210646414,2020-04-30T01:37:29.155050,0.0,97892.546875
1588210646461,2020-04-30T01:37:29.185747,0.047,97892.5625
1588210646508,2020-04-30T01:37:29.230185,0.094,97892.6953125
1588210646554,2020-04-30T01:37:29.245453,0.14,97893.1171875
1588210646600,2020-04-30T01:37:29.305100,0.186,97892.2578125
1588210646647,2020-04-30T01:37:29.380102,0.233,97893.0
1588210646694,2020-04-30T01:37:29.425385,0.28,97892.90625
1588210646740,2020-04-30T01:37:29.500090,0.326,97892.46875
1588210646787,2020-04-30T01:37:29.545432,0.373,97891.5625
1588210646834,2020-04-30T01:37:29.590095,0.42,97891.3125
1588210646881,2020-04-30T01:37:29.635428,0.467,97891.1640625
1588210646928,2020-04-30T01:37:29.680275,0.514,97890.5625
1588210646975,2020-04-30T01:37:29.725321,0.561,97890.5625
1588210647020,2020-04-30T01:37:29.800377,0.606,97890.484375
1588210647067,2020-04-30T01:37:29.860656,0.653,97891.1328125
1588210647114,2020-04-30T01:37:29.904996,0.7,97890.40625
1588210647161,2020-04-30T01:37:29.935183,0.747,97890.125
1588210647208,2020-04-30T01:37:29.994985,0.794,97890.15625
1588210647255,2020-04-30T01:37:30.055111,0.841,97890.796875
1588210647302,2020-04-30T01:37:30.114982,0.888,97891.28125
1588210647348,2020-04-30T01:37:30.145148,0.934,97892.0859375
1588210647394,2020-04-30T01:37:30.205007,0.98,97891.921875
1588210647441,2020-04-30T01:37:30.235173,1.027,97892.046875
1588210647488,2020-04-30T01:37:30.294994,1.074,97892.109375
1588210647534,2020-04-30T01:37:30.355116,1.12,97891.9375
1588210647581,2020-04-30T01:37:30.414999,1.167,97891.7109375
1588210647628,2020-04-30T01:37:30.445170,1.214,97891.8046875
1588210647675,2020-04-30T01:37:30.505014,1.261,97891.5390625
1588210647722,2020-04-30T01:37:30.535173,1.308,97890.984375
1588210647767,2020-04-30T01:37:30.595043,1.353,97891.703125
1588210647814,2020-04-30T01:37:30.655456,1.4,97891.375
1588210647861,2020-04-30T01:37:30.715114,1.447,97891.46875
1588210647908,2020-04-30T01:37:30.745434,1.494,97892.28125
1588210647955,2020-04-30T01:37:30.790143,1.541,97892.671875
1588210648002,2020-04-30T01:37:30.835502,1.588,97891.796875
1588210648049,2020-04-30T01:37:30.910204,1.635,97892.34375
1588210648095,2020-04-30T01:37:30.955538,1.681,97892.015625
1588210648142,2020-04-30T01:37:31.000187,1.728,97892.828125
1588210648188,2020-04-30T01:37:31.045492,1.774,97892.34375
1588210648235,2020-04-30T01:37:31.090288,1.821,97892.671875
1588210648282,2020-04-30T01:37:31.151035,1.868,97892.765625
1588210648328,2020-04-30T01:37:31.225089,1.914,97892.765625
1588210648375,2020-04-30T01:37:31.270242,1.961,97892.859375
1588210648422,2020-04-30T01:37:31.315018,2.008,97892.6953125
1588210648469,2020-04-30T01:37:31.360247,2.055,97893.0234375
1588210648516,2020-04-30T01:37:31.405069,2.102,97893.515625
1588210648561,2020-04-30T01:37:31.510263,2.147,97893.734375
1588210648608,2020-04-30T01:37:31.570038,2.194,97894.15625
1588210648655,2020-04-30T01:37:31.615136,2.241,97894.0
1588210648702,2020-04-30T01:37:31.660005,2.288,97894.21875
1588210648749,2020-04-30T01:37:31.690268,2.335,97894.3125
1588210648796,2020-04-30T01:37:31.750032,2.382,97893.734375
1588210648843,2020-04-30T01:37:31.810205,2.429,97893.890625
1588210648889,2020-04-30T01:37:31.870033,2.475,97894.96875
1588210648935,2020-04-30T01:37:31.900176,2.521,97894.96875
1588210648982,2020-04-30T01:37:31.960269,2.568,97895.515625
