epoch  (ms),time  (-07:00),elapsed  (s),X-Axis  (deg/s),Y-Axis  (deg/s),Z-Axis  (deg/s)
1588210646340,2020-04-30T01:37:29.050412,0.0,-0.48399391770362854,0.4992378056049347,0.4268292784690857
1588210646380,2020-04-30T01:37:29.056650,0.04,-0.45350611209869385,-0.007621951401233673,0.4077743887901306
1588210646419,2020-04-30T01:37:29.071094,0.079,-0.5525915026664734,-0.3849085569381714,0.39253050088882446
1588210646460,2020-04-30T01:37:29.071661,0.12,-0.5259146690368652,-0.3201219439506531,0.46875
1588210646500,2020-04-30T01:37:29.087860,0.16,-0.5564024448394775,-0.24390244483947754,0.43064025044441223
1588210646541,2020-04-30T01:37:29.094158,0.201,-0.5411585569381714,-0.2820121943950653,0.3849085569381714
1588210646580,2020-04-30T01:37:29.101660,0.24,-0.5564024448394775,-0.3048780560493469,0.396341472864151
1588210646620,2020-04-30T01:37:29.131650,0.28,-0.5411585569381714,-0.29725611209869385,0.43445122241973877
1588210646661,2020-04-30T01:37:29.138581,0.321,-0.5602134466171265,-0.38109755516052246,0.4192073345184326
1588210646700,2020-04-30T01:37:29.146654,0.36,-0.5754573345184326,-0.240091472864151,0.39253050088882446
1588210646741,2020-04-30T01:37:29.153583,0.401,-0.5830792784690857,-0.2934451401233673,0.4268292784690857
1588210646781,2020-04-30T01:37:29.161657,0.441,-0.5716463327407837,-0.27439025044441223,0.396341472864151
1588210646820,2020-04-30T01:37:29.168584,0.48,-0.5716463327407837,-0.3353658616542816,0.3772865831851959
1588210646861,2020-04-30T01:37:29.170369,0.521,-0.5373475551605225,-0.240091472864151,0.40015244483947754
1588210646901,2020-04-30T01:37:29.183686,0.561,-0.5297256112098694,-0.34679877758026123,0.4573170840740204
1588210646941,2020-04-30T01:37:29.185491,0.601,-0.5221036672592163,-0.2705792784690857,0.43064025044441223
1588210646982,2020-04-30T01:37:29.213638,0.642,-0.5297256112098694,-0.323932945728302,0.396341472864151
1588210647021,2020-04-30T01:37:29.221134,0.681,-0.5640243887901306,-0.3544207513332367,0.40015244483947754
1588210647062,2020-04-30T01:37:29.222923,0.722,-0.5297256112098694,-0.23246951401233673,0.4039634168148041
1588210647102,2020-04-30T01:37:29.231162,0.762,-0.47637197375297546,-0.32774391770362854,0.4268292784690857
1588210647141,2020-04-30T01:37:29.237928,0.801,-0.5259146690368652,-0.2896341383457184,0.4268292784690857
1588210647182,2020-04-30T01:37:29.245776,0.842,-0.5335366129875183,-0.33917683362960815,0.4611280560493469
1588210647222,2020-04-30T01:37:29.260428,0.882,-0.5716463327407837,-0.22103658318519592,0.4268292784690857
1588210647263,2020-04-30T01:37:29.266744,0.923,-0.5449694991111755,-0.3772865831851959,0.4268292784690857
1588210647302,2020-04-30T01:37:29.275481,0.962,-0.5106707215309143,-0.3048780560493469,0.4153963625431061
1588210647342,2020-04-30T01:37:29.281718,1.002,-0.5106707215309143,-0.32774391770362854,0.38109755516052246
1588210647383,2020-04-30T01:37:29.290516,1.043,-0.5449694991111755,-0.3010670840740204,0.39253050088882446
1588210647423,2020-04-30T01:37:29.296707,1.083,-0.5411585569381714,-0.2896341383457184,0.3849085569381714
1588210647462,2020-04-30T01:37:29.303632,1.122,-0.48399391770362854,-0.3544207513332367,0.4382621943950653
1588210647503,2020-04-30T01:37:29.319216,1.163,-0.5259146690368652,-0.2515243887901306,0.3734756112098694
1588210647543,2020-04-30T01:37:29.326221,1.203,-0.5487805008888245,-0.3353658616542816,0.44588416814804077
1588210647584,2020-04-30T01:37:29.334241,1.244,-0.5716463327407837,-0.24771341681480408,0.41158536076545715
1588210647623,2020-04-30T01:37:29.348690,1.283,-0.5297256112098694,-0.3887195289134979,0.4153963625431061
1588210647663,2020-04-30T01:37:29.364216,1.323,-0.5602134466171265,-0.27439025044441223,0.3658536672592163
1588210647704,2020-04-30T01:37:29.371714,1.364,-0.5449694991111755,-0.3429878056049347,0.41158536076545715
1588210647743,2020-04-30T01:37:29.378751,1.403,-0.5678353905677795,-0.3010670840740204,0.4192073345184326
1588210647784,2020-04-30T01:37:29.394213,1.444,-0.5525915026664734,-0.2896341383457184,0.42301830649375916
1588210647824,2020-04-30T01:37:29.408677,1.484,-0.5030487775802612,-0.3315548896789551,0.41158536076545715
1588210647863,2020-04-30T01:37:29.416138,1.523,-0.5335366129875183,-0.26676830649375916,0.4039634168148041
1588210647904,2020-04-30T01:37:29.423642,1.564,-0.5221036672592163,-0.3772865831851959,0.43064025044441223
1588210647944,2020-04-30T01:37:29.431200,1.604,-0.5411585569381714,-0.23628048598766327,0.4077743887901306
1588210647984,2020-04-30T01:37:29.438641,1.644,-0.5411585569381714,-0.31631097197532654,0.43064025044441223
1588210648025,2020-04-30T01:37:29.440552,1.685,-0.5068597793579102,-0.26676830649375916,0.41158536076545715
1588210648064,2020-04-30T01:37:29.447935,1.724,-0.49542683362960815,-0.31631097197532654,0.4192073345184326
1588210648105,2020-04-30T01:37:29.455515,1.765,-0.5259146690368652,-0.2629573345184326,0.3887195289134979
1588210648145,2020-04-30T01:37:29.462918,1.805,-0.5259146690368652,-0.3125,0.4077743887901306
1588210648184,2020-04-30T01:37:29.470550,1.844,-0.47256097197532654,-0.2705792784690857,0.4153963625431061
1588210648225,2020-04-30T01:37:29.485520,1.885,-0.5030487775802612,-0.24771341681480408,0.4496951401233673
1588210648265,2020-04-30T01:37:29.491712,1.925,-0.5182926654815674,-0.35823172330856323,0.43445122241973877
1588210648306,2020-04-30T01:37:29.499230,1.966,-0.5945122241973877,-0.2515243887901306,0.4153963625431061
1588210648345,2020-04-30T01:37:29.506709,2.005,-0.5525915026664734,-0.33917683362960815,0.4496951401233673
1588210648385,2020-04-30T01:37:29.514219,2.045,-0.5564024448394775,-0.27439025044441223,0.4077743887901306
1588210648426,2020-04-30T01:37:29.521711,2.086,-0.5564024448394775,-0.3658536672592163,0.4268292784690857
1588210648465,2020-04-30T01:37:29.536183,2.125,-0.5792682766914368,-0.27820122241973877,0.38109755516052246
1588210648507,2020-04-30T01:37:29.544219,2.167,-0.5259146690368652,-0.27439025044441223,0.4192073345184326
1588210648546,2020-04-30T01:37:29.551180,2.206,-0.5221036672592163,-0.3125,0.42301830649375916
1588210648586,2020-04-30T01:37:29.558659,2.246,-0.5297256112098694,-0.2896341383457184,0.41158536076545715
1588210648627,2020-04-30T01:37:29.566137,2.287,-0.5716463327407837,-0.31631097197532654,0.39253050088882446
1588210648666,2020-04-30T01:37:29.567934,2.326,-0.5602134466171265,-0.2705792784690857,0.43445122241973877
1588210648706,2020-04-30T01:37:29.581185,2.366,-0.5068597793579102,-0.3429878056049347,0.4382621943950653
1588210648747,2020-04-30T01:37:29.582927,2.407,-0.4992378056049347,-0.28582316637039185,0.41158536076545715
1588210648786,2020-04-30T01:37:29.603640,2.446,-0.5221036672592163,-0.3429878056049347,0.42301830649375916
1588210648827,2020-04-30T01:37:29.605427,2.487,-0.5678353905677795,-0.3048780560493469,0.4039634168148041
1588210648867,2020-04-30T01:37:29.611813,2.527,-0.5411585569381714,-0.31631097197532654,0.45350611209869385
1588210648906,2020-04-30T01:37:29.627943,2.566,-0.5030487775802612,-0.2934451401233673,0.43064025044441223
1588210648947,2020-04-30T01:37:29.641726,2.607,-0.5182926654815674,-0.31631097197532654,0.396341472864151
1588210648987,2020-04-30T01:37:29.650384,2.647,-0.5411585569381714,-0.3010670840740204,0.39253050088882446
