epoch  (ms),time  (-07:00),elapsed  (s),X-Axis  (T),Y-Axis  (T),Z-Axis  (T)
1588210243979,2020-04-30T01:31:45.062427,0.0,-62.8125,-10.625,68.3125
1588210244078,2020-04-30T01:31:45.124138,0.099,-63.1875,-11.0,67.9375
1588210244178,2020-04-30T01:31:45.175235,0.199,-63.1875,-11.75,67.5625
1588210244277,2020-04-30T01:31:45.252202,0.298,-63.1875,-13.5625,68.75
1588210244377,2020-04-30T01:31:45.317155,0.398,-64.3125,-9.875,68.75
1588210244475,2020-04-30T01:31:45.384718,0.496,-63.5625,-9.5,68.375
1588210244575,2020-04-30T01:31:45.437204,0.596,-63.5625,-10.25,68.375
1588210244674,2020-04-30T01:31:45.527161,0.695,-62.4375,-7.3125,68.0
1588210244774,2020-04-30T01:31:45.647181,0.795,-63.5625,-5.5,66.8125
1588210244874,2020-04-30T01:31:45.744628,0.895,-62.8125,-2.9375,65.5625
1588210244973,2020-04-30T01:31:45.804644,0.994,-63.1875,-3.625,66.375
1588210245073,2020-04-30T01:31:45.864822,1.094,-63.9375,-4.75,70.75
1588210245172,2020-04-30T01:31:45.947140,1.193,-65.375,-4.75,75.125
1588210245272,2020-04-30T01:31:46.037225,1.293,-67.625,-1.4375,76.3125
1588210245372,2020-04-30T01:31:46.134725,1.393,-69.0625,-3.25,76.3125
1588210245470,2020-04-30T01:31:46.187190,1.491,-69.4375,1.125,74.75
1588210245569,2020-04-30T01:31:46.277164,1.59,-68.6875,2.25,70.75
1588210245669,2020-04-30T01:31:46.329630,1.69,-68.3125,4.8125,68.0
1588210245769,2020-04-30T01:31:46.412510,1.79,-67.625,0.75,61.625
1588210245868,2020-04-30T01:31:46.457135,1.889,-66.5,7.75,54.875
1588210245968,2020-04-30T01:31:46.532129,1.989,-64.3125,8.875,47.6875
1588210246067,2020-04-30T01:31:46.584718,2.088,-63.9375,7.75,40.9375
1588210246167,2020-04-30T01:31:46.667322,2.188,-63.5625,4.4375,39.75
1588210246267,2020-04-30T01:31:46.719654,2.288,-64.3125,9.1875,37.375
1588210246366,2020-04-30T01:31:46.802130,2.387,-63.5625,9.9375,38.5625
1588210246466,2020-04-30T01:31:46.847228,2.487,-64.3125,7.75,42.125
1588210246564,2020-04-30T01:31:46.930148,2.585,-62.0625,7.75,41.3125
1588210246664,2020-04-30T01:31:46.974702,2.685,-61.75,4.4375,44.125
1588210246763,2020-04-30T01:31:47.035089,2.784,-61.0,4.8125,44.875
1588210246863,2020-04-30T01:31:47.107060,2.884,-60.625,4.4375,49.3125
1588210246962,2020-04-30T01:31:47.154847,2.983,-59.875,4.0625,54.4375
1588210247062,2020-04-30T01:31:47.232129,3.083,-61.0,3.0,61.1875
1588210247162,2020-04-30T01:31:47.273050,3.183,-62.0625,1.125,66.8125
1588210247261,2020-04-30T01:31:47.327257,3.282,-62.8125,0.375,68.375
1588210247361,2020-04-30T01:31:47.372156,3.382,-63.1875,2.25,69.5625
1588210247460,2020-04-30T01:31:47.432199,3.481,-62.4375,1.125,67.5625
1588210247559,2020-04-30T01:31:47.477756,3.58,-62.8125,1.875,69.1875
1588210247658,2020-04-30T01:31:47.537131,3.679,-62.8125,-2.1875,70.0
1588210247758,2020-04-30T01:31:47.590251,3.779,-63.9375,1.5,71.9375
1588210247857,2020-04-30T01:31:47.657942,3.878,-64.6875,1.5,73.5625
1588210247957,2020-04-30T01:31:47.717834,3.978,-64.6875,0.375,74.3125
1588210248057,2020-04-30T01:31:47.773813,4.078,-63.9375,-5.125,74.3125
1588210248156,2020-04-30T01:31:47.824829,4.177,-64.6875,0.0,75.125
1588210248256,2020-04-30T01:31:47.875744,4.277,-64.6875,0.75,73.5625
1588210248355,2020-04-30T01:31:47.920464,4.376,-63.9375,0.375,71.9375
1588210248455,2020-04-30T01:31:47.986892,4.476,-63.5625,-1.4375,65.5625
1588210248553,2020-04-30T01:31:48.028252,4.574,-62.0625,3.6875,60.8125
1588210248653,2020-04-30T01:31:48.095736,4.674,-61.375,1.125,56.4375
1588210248752,2020-04-30T01:31:48.140918,4.773,-59.5,3.6875,50.875
1588210248852,2020-04-30T01:31:48.197124,4.873,-60.25,3.3125,48.875
1588210248952,2020-04-30T01:31:48.265986,4.973,-58.8125,5.1875,44.9375
1588210249051,2020-04-30T01:31:48.309759,5.072,-58.8125,5.9375,39.75
1588210249151,2020-04-30T01:31:48.371429,5.172,-59.875,6.25,25.0625
1588210249251,2020-04-30T01:31:48.422479,5.272,-62.0625,8.5,13.5
1588210249350,2020-04-30T01:31:48.489642,5.371,-63.5625,11.4375,6.3125
1588210249450,2020-04-30T01:31:48.535085,5.471,-64.6875,14.375,8.3125
1588210249549,2020-04-30T01:31:48.602788,5.57,-64.3125,11.8125,8.75
1588210249647,2020-04-30T01:31:48.647363,5.668,-63.9375,13.625,8.3125
1588210249747,2020-04-30T01:31:48.707785,5.768,-64.3125,14.375,7.5
1588210249847,2020-04-30T01:31:48.752545,5.868,-63.9375,11.8125,7.9375
1588210249946,2020-04-30T01:31:48.812423,5.967,-64.3125,8.875,9.125
1588210250046,2020-04-30T01:31:48.857160,6.067,-62.8125,13.25,12.3125
1588210250146,2020-04-30T01:31:48.940939,6.167,-62.4375,11.8125,14.3125
1588210250245,2020-04-30T01:31:48.999773,6.266,-61.75,12.125,15.5
1588210250345,2020-04-30T01:31:49.052851,6.366,-61.375,5.1875,15.875
1588210250444,2020-04-30T01:31:49.091980,6.465,-61.0,8.875,18.25
1588210250544,2020-04-30T01:31:49.160933,6.565,-61.0,10.6875,15.875
1588210250644,2020-04-30T01:31:49.204294,6.665,-62.0625,11.8125,14.3125
1588210250742,2020-04-30T01:31:49.266628,6.763,-62.8125,10.3125,14.6875
1588210250841,2020-04-30T01:31:49.300535,6.862,-62.0625,11.0625,13.5
1588210250941,2020-04-30T01:31:49.369593,6.962,-62.4375,12.5,12.3125
1588210251041,2020-04-30T01:31:49.427232,7.062,-62.0625,11.8125,13.125
1588210251140,2020-04-30T01:31:49.472634,7.161,-63.1875,10.6875,12.6875
1588210251240,2020-04-30T01:31:49.532420,7.261,-62.0625,11.8125,12.6875
1588210251339,2020-04-30T01:31:49.577265,7.36,-61.375,12.875,12.6875
1588210251439,2020-04-30T01:31:49.638980,7.46,-62.8125,9.9375,13.0625
1588210251539,2020-04-30T01:31:49.689955,7.56,-62.8125,12.5,12.3125
1588210251638,2020-04-30T01:31:49.751266,7.659,-62.8125,12.5,12.3125
1588210251736,2020-04-30T01:31:49.795570,7.757,-62.4375,12.125,12.6875
1588210251836,2020-04-30T01:31:49.855044,7.857,-63.1875,7.75,13.5
1588210251936,2020-04-30T01:31:49.899552,7.957,-62.4375,11.8125,13.5
1588210252035,2020-04-30T01:31:49.960565,8.056,-62.8125,12.5,11.875
1588210252135,2020-04-30T01:31:50.053784,8.156,-62.4375,10.6875,12.6875
1588210252234,2020-04-30T01:31:50.170107,8.255,-63.1875,8.875,13.5
1588210252334,2020-04-30T01:31:50.229885,8.355,-62.8125,12.5,13.5
1588210252434,2020-04-30T01:31:50.409682,8.455,-62.8125,12.5,12.6875
1588210252533,2020-04-30T01:31:50.492183,8.554,-63.5625,11.4375,12.6875
1588210252633,2020-04-30T01:31:50.634664,8.654,-62.4375,13.625,12.3125
1588210252732,2020-04-30T01:31:50.702549,8.753,-62.8125,11.8125,13.5
1588210252832,2020-04-30T01:31:50.787494,8.853,-63.1875,11.8125,12.6875
1588210252930,2020-04-30T01:31:50.904675,8.951,-63.5625,11.0625,12.6875
1588210253030,2020-04-30T01:31:51.002171,9.051,-63.1875,13.25,12.6875
1588210253129,2020-04-30T01:31:51.122194,9.15,-62.8125,11.4375,12.6875
1588210253229,2020-04-30T01:31:51.167224,9.25,-62.8125,12.875,12.3125
1588210253329,2020-04-30T01:31:51.234767,9.35,-63.5625,8.5,12.3125
1588210253428,2020-04-30T01:31:51.294673,9.449,-63.1875,11.4375,11.5
1588210253528,2020-04-30T01:31:51.392563,9.549,-64.3125,12.5,8.6875
1588210253627,2020-04-30T01:31:51.452136,9.648,-63.9375,11.0625,8.3125
1588210253727,2020-04-30T01:31:51.543684,9.748,-63.5625,5.1875,9.125
1588210253827,2020-04-30T01:31:51.610109,9.848,-63.5625,11.0625,7.9375
1588210253926,2020-04-30T01:31:51.692199,9.947,-63.1875,11.8125,7.5
1588210254024,2020-04-30T01:31:51.752435,10.045,-63.5625,10.6875,8.3125
1588210254124,2020-04-30T01:31:51.835669,10.145,-63.9375,8.875,7.9375
1588210254224,2020-04-30T01:31:51.887607,10.245,-63.9375,11.8125,8.6875
1588210254323,2020-04-30T01:31:51.977327,10.344,-62.4375,9.5625,8.3125
1588210254423,2020-04-30T01:31:52.038997,10.444,-63.1875,11.0625,8.6875
1588210254522,2020-04-30T01:31:52.097382,10.543,-63.1875,11.0625,9.9375
1588210254622,2020-04-30T01:31:52.157319,10.643,-62.8125,12.125,9.9375
1588210254722,2020-04-30T01:31:52.254640,10.743,-63.1875,11.8125,8.75
1588210254821,2020-04-30T01:31:52.307014,10.842,-62.4375,8.875,8.6875
1588210254921,2020-04-30T01:31:52.427033,10.942,-62.8125,10.6875,9.5
1588210255021,2020-04-30T01:31:52.524534,11.042,-63.5625,11.8125,9.9375
1588210255120,2020-04-30T01:31:52.577111,11.141,-62.8125,10.3125,9.125
1588210255220,2020-04-30T01:31:52.674528,11.241,-62.8125,5.1875,9.5
1588210255319,2020-04-30T01:31:52.764627,11.34,-63.1875,11.8125,10.3125
1588210255418,2020-04-30T01:31:52.854679,11.439,-63.9375,11.0625,8.6875
1588210255517,2020-04-30T01:31:52.907287,11.538,-63.1875,10.3125,9.5
1588210255617,2020-04-30T01:31:52.991788,11.638,-63.5625,12.125,9.9375
1588210255716,2020-04-30T01:31:53.064979,11.737,-63.9375,12.5,9.5
1588210255816,2020-04-30T01:31:53.139662,11.837,-64.6875,12.125,8.3125
1588210255916,2020-04-30T01:31:53.192178,11.937,-63.5625,11.4375,8.6875
1588210256015,2020-04-30T01:31:53.299251,12.036,-62.8125,11.8125,9.9375
1588210256115,2020-04-30T01:31:53.357709,12.136,-63.1875,12.875,8.3125
1588210256214,2020-04-30T01:31:53.432435,12.235,-62.8125,10.6875,7.9375
1588210256314,2020-04-30T01:31:53.485297,12.335,-62.0625,7.375,8.75
1588210256414,2020-04-30T01:31:53.574728,12.435,-63.9375,12.5,9.125
1588210256513,2020-04-30T01:31:53.657220,12.534,-63.5625,12.125,8.6875
1588210256613,2020-04-30T01:31:53.732229,12.634,-63.1875,10.6875,8.3125
1588210256711,2020-04-30T01:31:53.807428,12.732,-62.8125,6.625,8.75
1588210256811,2020-04-30T01:31:53.889677,12.832,-63.1875,10.6875,7.125
1588210256910,2020-04-30T01:31:53.964972,12.931,-63.5625,11.4375,6.75
1588210257010,2020-04-30T01:31:54.025102,13.031,-62.8125,9.5625,6.75
1588210257109,2020-04-30T01:31:54.099833,13.13,-62.8125,9.5625,7.125
1588210257209,2020-04-30T01:31:54.197614,13.23,-62.8125,9.9375,6.75
1588210257309,2020-04-30T01:31:54.287172,13.33,-63.9375,10.6875,7.125
1588210257408,2020-04-30T01:31:54.347233,13.429,-63.9375,8.875,7.125
1588210257508,2020-04-30T01:31:54.467282,13.529,-63.9375,12.125,8.3125
1588210257607,2020-04-30T01:31:54.534704,13.628,-63.1875,11.8125,8.3125
1588210257707,2020-04-30T01:31:54.609724,13.728,-63.1875,11.4375,7.125
1588210257807,2020-04-30T01:31:54.662199,13.828,-62.8125,8.5,8.3125
1588210257906,2020-04-30T01:31:54.767204,13.927,-63.9375,11.0625,7.5
1588210258004,2020-04-30T01:31:54.819691,14.025,-62.8125,12.125,7.9375
1588210258104,2020-04-30T01:31:54.887203,14.125,-63.5625,10.6875,7.5
1588210258204,2020-04-30T01:31:54.962380,14.225,-63.5625,6.25,8.3125
1588210258303,2020-04-30T01:31:55.077220,14.324,-63.5625,12.5,8.6875
1588210258403,2020-04-30T01:31:55.143943,14.424,-63.9375,12.5,7.5
1588210258502,2020-04-30T01:31:55.307339,14.523,-62.8125,10.6875,8.3125
1588210258602,2020-04-30T01:31:55.374738,14.623,-63.5625,9.1875,7.9375
1588210258702,2020-04-30T01:31:55.524998,14.723,-63.9375,11.8125,8.3125
1588210258801,2020-04-30T01:31:55.577544,14.822,-63.1875,12.125,9.125
1588210258901,2020-04-30T01:31:55.655948,14.922,-62.8125,11.8125,8.6875
1588210259001,2020-04-30T01:31:55.704817,15.022,-63.9375,12.875,8.75
1588210259100,2020-04-30T01:31:55.795081,15.121,-63.5625,12.5,8.6875
1588210259198,2020-04-30T01:31:55.892513,15.219,-64.3125,12.875,9.125
1588210259298,2020-04-30T01:31:55.937214,15.319,-63.1875,10.6875,7.9375
1588210259397,2020-04-30T01:31:56.012434,15.418,-63.5625,11.8125,9.125
1588210259497,2020-04-30T01:31:56.114232,15.518,-63.1875,11.8125,7.9375
1588210259597,2020-04-30T01:31:56.200218,15.618,-63.5625,12.875,8.6875
1588210259696,2020-04-30T01:31:56.259708,15.717,-63.9375,6.625,9.125
1588210259796,2020-04-30T01:31:56.357215,15.817,-63.5625,13.25,8.3125
1588210259896,2020-04-30T01:31:56.432216,15.917,-63.1875,11.8125,8.3125
1588210259995,2020-04-30T01:31:56.492201,16.016,-63.5625,12.875,8.75
1588210260095,2020-04-30T01:31:56.537446,16.116,-64.3125,8.5,8.6875
1588210260194,2020-04-30T01:31:56.635808,16.215,-63.5625,11.4375,8.6875
1588210260294,2020-04-30T01:31:56.709709,16.315,-64.3125,12.5,8.6875
1588210260392,2020-04-30T01:31:56.784708,16.413,-63.9375,11.4375,8.3125
1588210260492,2020-04-30T01:31:56.829719,16.513,-63.5625,12.5,8.3125
1588210260591,2020-04-30T01:31:56.906532,16.612,-63.1875,11.4375,9.125
1588210260691,2020-04-30T01:31:57.002251,16.712,-63.5625,12.875,7.5
1588210260791,2020-04-30T01:31:57.069719,16.812,-63.1875,12.125,8.3125
1588210260890,2020-04-30T01:31:57.152466,16.911,-63.5625,9.9375,8.75
1588210260990,2020-04-30T01:31:57.251865,17.011,-63.9375,11.0625,7.9375
1588210261089,2020-04-30T01:31:57.311111,17.11,-63.9375,12.125,7.5
1588210261189,2020-04-30T01:31:57.362472,17.21,-63.1875,8.5,8.6875
1588210261289,2020-04-30T01:31:57.429847,17.31,-63.9375,13.25,8.6875
1588210261388,2020-04-30T01:31:57.527232,17.409,-63.1875,12.875,8.3125
1588210261488,2020-04-30T01:31:57.602224,17.509,-62.8125,12.125,8.3125
1588210261587,2020-04-30T01:31:57.650356,17.608,-63.5625,7.0,9.5
1588210261686,2020-04-30T01:31:57.738015,17.707,-63.9375,13.25,7.9375
1588210261785,2020-04-30T01:31:57.804664,17.806,-63.5625,11.8125,8.6875
1588210261885,2020-04-30T01:31:57.872185,17.906,-63.5625,10.6875,7.9375
1588210261984,2020-04-30T01:31:57.939742,18.005,-63.9375,11.4375,8.3125
1588210262084,2020-04-30T01:31:58.029671,18.105,-63.5625,12.125,7.5
1588210262184,2020-04-30T01:31:58.082109,18.205,-63.9375,12.875,8.3125
1588210262283,2020-04-30T01:31:58.164623,18.304,-63.5625,12.5,7.125
1588210262383,2020-04-30T01:31:58.224901,18.404,-63.5625,11.8125,8.3125
1588210262482,2020-04-30T01:31:58.337211,18.503,-63.9375,9.9375,8.3125
1588210262582,2020-04-30T01:31:58.389554,18.603,-64.3125,11.4375,8.3125
1588210262682,2020-04-30T01:31:58.464583,18.703,-63.1875,10.3125,8.3125
1588210262781,2020-04-30T01:31:58.524601,18.802,-63.1875,12.875,8.3125
1588210262879,2020-04-30T01:31:58.637231,18.9,-63.1875,13.25,8.3125
1588210262979,2020-04-30T01:31:58.712209,19.0,-63.9375,12.875,8.6875
1588210263079,2020-04-30T01:31:58.787234,19.1,-63.9375,6.25,8.3125
1588210263178,2020-04-30T01:31:58.900192,19.199,-63.1875,7.375,8.3125
1588210263278,2020-04-30T01:31:58.944758,19.299,-63.1875,12.875,7.9375
1588210263377,2020-04-30T01:31:59.004775,19.398,-63.1875,12.125,9.5
1588210263477,2020-04-30T01:31:59.049787,19.498,-62.8125,9.1875,7.9375
1588210263577,2020-04-30T01:31:59.162931,19.598,-63.5625,11.8125,8.6875
1588210263676,2020-04-30T01:31:59.211949,19.697,-63.5625,10.3125,8.3125
1588210263776,2020-04-30T01:31:59.274842,19.797,-63.5625,12.5,7.9375
1588210263876,2020-04-30T01:31:59.334944,19.897,-63.9375,12.125,7.9375
1588210263975,2020-04-30T01:31:59.432234,19.996,-63.9375,10.6875,8.3125
1588210264073,2020-04-30T01:31:59.492473,20.094,-63.9375,12.875,7.9375
1588210264173,2020-04-30T01:31:59.553209,20.194,-63.9375,11.4375,7.125
1588210264272,2020-04-30T01:31:59.613191,20.293,-63.5625,13.25,8.75
1588210264372,2020-04-30T01:31:59.725012,20.393,-63.1875,12.875,7.5
1588210264472,2020-04-30T01:31:59.793170,20.493,-63.5625,12.125,8.75
1588210264571,2020-04-30T01:31:59.853262,20.592,-63.5625,6.625,7.9375
1588210264671,2020-04-30T01:31:59.905033,20.692,-64.3125,11.8125,8.3125
1588210264771,2020-04-30T01:32:00.024998,20.792,-63.5625,11.8125,8.6875
1588210264870,2020-04-30T01:32:00.071249,20.891,-63.5625,10.6875,8.3125
1588210264970,2020-04-30T01:32:00.145092,20.991,-64.3125,7.375,9.125
1588210265069,2020-04-30T01:32:00.200005,21.09,-63.5625,11.8125,8.6875
1588210265169,2020-04-30T01:32:00.294812,21.19,-63.5625,12.125,8.6875
1588210265269,2020-04-30T01:32:00.377230,21.29,-63.5625,11.4375,9.5
1588210265367,2020-04-30T01:32:00.429729,21.388,-64.3125,13.25,8.75
1588210265466,2020-04-30T01:32:00.512250,21.487,-63.5625,8.125,7.9375
1588210265566,2020-04-30T01:32:00.594748,21.587,-63.1875,9.9375,7.9375
1588210265666,2020-04-30T01:32:00.669721,21.687,-62.8125,12.5,7.9375
1588210265765,2020-04-30T01:32:00.729884,21.786,-62.8125,12.125,8.3125
1588210265865,2020-04-30T01:32:00.812095,21.886,-63.9375,12.5,8.75
1588210265964,2020-04-30T01:32:00.872353,21.985,-63.5625,12.875,8.3125
1588210266064,2020-04-30T01:32:00.939725,22.085,-63.1875,6.625,8.3125
1588210266164,2020-04-30T01:32:01.007255,22.185,-64.6875,12.5,8.6875
1588210266263,2020-04-30T01:32:01.089755,22.284,-63.1875,13.625,8.3125
1588210266363,2020-04-30T01:32:01.149983,22.384,-63.1875,12.5,7.9375
1588210266462,2020-04-30T01:32:01.219017,22.483,-63.5625,8.5,7.9375
1588210266562,2020-04-30T01:32:01.272045,22.583,-62.8125,13.625,8.3125
1588210266660,2020-04-30T01:32:01.329734,22.681,-63.9375,11.8125,9.125
1588210266760,2020-04-30T01:32:01.382248,22.781,-63.5625,12.5,8.6875
1588210266859,2020-04-30T01:32:01.465025,22.88,-63.5625,11.0625,8.6875
1588210266959,2020-04-30T01:32:01.509748,22.98,-63.5625,11.4375,8.3125
1588210267059,2020-04-30T01:32:01.586948,23.08,-63.1875,12.125,8.3125
1588210267158,2020-04-30T01:32:01.653184,23.179,-63.5625,11.8125,9.9375
1588210267258,2020-04-30T01:32:01.727525,23.279,-63.1875,12.875,8.6875
1588210267357,2020-04-30T01:32:01.787401,23.378,-63.9375,12.5,8.75
1588210267457,2020-04-30T01:32:01.839774,23.478,-63.9375,11.8125,8.6875
1588210267557,2020-04-30T01:32:01.937403,23.578,-62.8125,9.9375,7.5
1588210267656,2020-04-30T01:32:02.013855,23.677,-63.5625,12.875,8.6875
1588210267756,2020-04-30T01:32:02.081180,23.777,-63.5625,8.875,8.3125
1588210267855,2020-04-30T01:32:02.133319,23.876,-63.5625,12.125,8.3125
1588210267954,2020-04-30T01:32:02.199876,23.975,-63.1875,6.625,9.125
1588210268053,2020-04-30T01:32:02.282869,24.074,-62.8125,12.125,8.6875
1588210268153,2020-04-30T01:32:02.349915,24.174,-63.1875,12.125,8.3125
1588210268252,2020-04-30T01:32:02.410182,24.273,-63.9375,11.8125,8.3125
1588210268352,2020-04-30T01:32:02.537640,24.373,-63.9375,9.5625,8.6875
1588210268452,2020-04-30T01:32:02.612242,24.473,-64.3125,12.5,8.3125
1588210268551,2020-04-30T01:32:02.687269,24.572,-63.5625,9.9375,8.6875
1588210268651,2020-04-30T01:32:02.739743,24.672,-63.9375,12.5,8.6875
1588210268751,2020-04-30T01:32:02.814955,24.772,-63.5625,12.5,9.125
1588210268850,2020-04-30T01:32:02.867458,24.871,-63.9375,11.4375,8.3125
1588210268950,2020-04-30T01:32:02.934913,24.971,-64.3125,12.5,9.125
1588210269049,2020-04-30T01:32:03.010011,25.07,-63.1875,10.6875,7.9375
1588210269147,2020-04-30T01:32:03.085017,25.168,-64.3125,13.25,8.3125
1588210269247,2020-04-30T01:32:03.159904,25.268,-63.5625,12.875,7.125
1588210269347,2020-04-30T01:32:03.212546,25.368,-63.9375,12.5,9.125
1588210269446,2020-04-30T01:32:03.294773,25.467,-64.3125,6.625,8.6875
1588210269546,2020-04-30T01:32:03.347281,25.567,-63.9375,13.25,9.125
1588210269646,2020-04-30T01:32:03.430703,25.667,-63.1875,14.0,7.5
1588210269745,2020-04-30T01:32:03.504967,25.766,-63.5625,10.3125,8.6875
1588210269845,2020-04-30T01:32:03.602261,25.866,-64.6875,8.5,8.6875
1588210269944,2020-04-30T01:32:03.654639,25.965,-63.9375,12.125,8.3125
1588210270044,2020-04-30T01:32:03.714604,26.065,-63.9375,9.5625,8.6875
1588210270144,2020-04-30T01:32:03.774800,26.165,-63.9375,12.5,8.6875
1588210270243,2020-04-30T01:32:03.849974,26.264,-63.5625,13.25,8.6875
1588210270343,2020-04-30T01:32:03.902615,26.364,-63.5625,12.875,9.125
1588210270442,2020-04-30T01:32:03.962543,26.463,-64.3125,11.8125,8.3125
1588210270541,2020-04-30T01:32:04.007260,26.562,-63.5625,11.0625,8.3125
1588210270640,2020-04-30T01:32:04.074903,26.661,-63.1875,11.8125,8.6875
1588210270740,2020-04-30T01:32:04.135032,26.761,-63.1875,12.875,7.9375
1588210270839,2020-04-30T01:32:04.217257,26.86,-63.5625,12.5,8.3125
1588210270939,2020-04-30T01:32:04.262251,26.96,-63.9375,7.0,8.3125
1588210271039,2020-04-30T01:32:04.329957,27.06,-63.5625,12.875,8.3125
1588210271138,2020-04-30T01:32:04.427276,27.159,-62.8125,12.5,8.3125
1588210271238,2020-04-30T01:32:04.502247,27.259,-63.9375,12.125,8.6875
1588210271337,2020-04-30T01:32:04.569775,27.358,-63.5625,9.1875,8.6875
1588210271437,2020-04-30T01:32:04.614755,27.458,-63.1875,12.125,7.9375
1588210271537,2020-04-30T01:32:04.704792,27.558,-63.1875,11.4375,7.9375
1588210271636,2020-04-30T01:32:04.787265,27.657,-62.8125,10.6875,7.9375
1588210271736,2020-04-30T01:32:04.862264,27.757,-63.5625,12.125,8.6875
1588210271835,2020-04-30T01:32:04.915100,27.856,-64.3125,12.125,8.6875
1588210271934,2020-04-30T01:32:04.982521,27.955,-64.6875,12.5,8.3125
1588210272033,2020-04-30T01:32:05.057433,28.054,-64.3125,10.3125,8.3125
1588210272133,2020-04-30T01:32:05.117662,28.154,-63.5625,12.5,7.9375
1588210272232,2020-04-30T01:32:05.169974,28.253,-64.3125,11.0625,7.9375
1588210272332,2020-04-30T01:32:05.237447,28.353,-63.5625,10.6875,7.5
1588210272432,2020-04-30T01:32:05.289987,28.453,-63.9375,7.0,8.6875
1588210272531,2020-04-30T01:32:05.357589,28.552,-63.1875,13.625,7.5
1588210272631,2020-04-30T01:32:05.402573,28.652,-63.1875,12.5,7.9375
1588210272730,2020-04-30T01:32:05.492378,28.751,-63.5625,12.5,9.125
1588210272830,2020-04-30T01:32:05.552338,28.851,-63.5625,8.125,9.125
1588210272930,2020-04-30T01:32:05.649828,28.951,-63.1875,13.25,7.9375
1588210273029,2020-04-30T01:32:05.694854,29.05,-63.1875,12.875,7.9375
1588210273129,2020-04-30T01:32:05.769888,29.15,-62.8125,12.125,7.9375
1588210273229,2020-04-30T01:32:05.814908,29.25,-63.1875,12.5,8.3125
1588210273327,2020-04-30T01:32:05.890239,29.348,-63.9375,11.0625,8.6875
1588210273426,2020-04-30T01:32:05.957280,29.447,-63.1875,12.5,8.6875
1588210273526,2020-04-30T01:32:06.009924,29.547,-63.5625,11.0625,9.125
1588210273626,2020-04-30T01:32:06.099794,29.647,-63.9375,12.5,9.125
1588210273725,2020-04-30T01:32:06.167410,29.746,-63.1875,12.5,7.9375
1588210273825,2020-04-30T01:32:06.227145,29.846,-63.9375,11.4375,8.3125
1588210273924,2020-04-30T01:32:06.272547,29.945,-63.1875,7.375,8.3125
1588210274024,2020-04-30T01:32:06.332414,30.045,-64.3125,12.125,8.3125
1588210274124,2020-04-30T01:32:06.384658,30.145,-63.5625,11.8125,8.3125
1588210274223,2020-04-30T01:32:06.467252,30.244,-63.9375,11.4375,8.6875
1588210274323,2020-04-30T01:32:06.527153,30.344,-63.1875,8.125,9.5
1588210274422,2020-04-30T01:32:06.617139,30.443,-63.9375,12.875,9.5
1588210274521,2020-04-30T01:32:06.662479,30.542,-63.1875,12.5,7.9375
1588210274620,2020-04-30T01:32:06.752173,30.641,-63.1875,10.6875,8.75
1588210274720,2020-04-30T01:32:06.797175,30.741,-63.1875,12.875,9.5
1588210274819,2020-04-30T01:32:06.857287,30.84,-64.3125,11.4375,7.9375
1588210274919,2020-04-30T01:32:06.909740,30.94,-63.1875,12.125,9.125
1588210275019,2020-04-30T01:32:06.999720,31.04,-63.1875,12.125,7.9375
1588210275118,2020-04-30T01:32:07.059738,31.139,-63.5625,13.25,8.3125
1588210275218,2020-04-30T01:32:07.149893,31.239,-64.3125,12.125,7.125
1588210275317,2020-04-30T01:32:07.269686,31.338,-64.3125,13.625,8.6875
1588210275417,2020-04-30T01:32:07.314810,31.438,-64.3125,8.5,9.125
1588210275517,2020-04-30T01:32:07.389892,31.538,-63.5625,12.875,8.75
1588210275615,2020-04-30T01:32:07.457310,31.636,-63.5625,12.875,8.6875
1588210275714,2020-04-30T01:32:07.547148,31.735,-63.1875,11.0625,8.6875
1588210275814,2020-04-30T01:32:07.607302,31.835,-62.8125,6.25,9.125
1588210275914,2020-04-30T01:32:07.697291,31.935,-63.5625,12.125,9.5
1588210276013,2020-04-30T01:32:07.757315,32.034,-63.5625,12.125,7.5
1588210276113,2020-04-30T01:32:07.839794,32.134,-62.8125,11.8125,8.6875
1588210276212,2020-04-30T01:32:07.884791,32.233,-63.5625,8.5,8.6875
1588210276312,2020-04-30T01:32:07.975175,32.333,-63.1875,11.8125,8.6875
1588210276412,2020-04-30T01:32:08.034944,32.433,-63.9375,12.125,8.6875
1588210276511,2020-04-30T01:32:08.124998,32.532,-63.5625,11.0625,9.125
1588210276609,2020-04-30T01:32:08.169970,32.63,-63.5625,11.8125,8.6875
1588210276709,2020-04-30T01:32:08.240415,32.73,-63.5625,10.6875,7.9375
1588210276809,2020-04-30T01:32:08.343822,32.83,-64.3125,12.125,7.5
1588210276908,2020-04-30T01:32:08.432568,32.929,-63.5625,11.8125,8.6875
1588210277008,2020-04-30T01:32:08.478808,33.029,-63.5625,12.875,8.6875
1588210277107,2020-04-30T01:32:08.567333,33.128,-63.5625,10.3125,8.3125
1588210277207,2020-04-30T01:32:08.664833,33.228,-63.1875,12.5,8.6875
1588210277307,2020-04-30T01:32:08.732379,33.328,-63.5625,10.6875,8.75
1588210277406,2020-04-30T01:32:08.814855,33.427,-63.5625,11.8125,9.125
1588210277504,2020-04-30T01:32:08.927369,33.525,-63.5625,12.5,7.5
1588210277604,2020-04-30T01:32:08.994796,33.625,-63.5625,12.125,8.3125
1588210277704,2020-04-30T01:32:09.054882,33.725,-64.6875,5.1875,8.6875
1588210277803,2020-04-30T01:32:09.212386,33.824,-63.9375,12.5,8.3125
1588210277903,2020-04-30T01:32:09.257341,33.924,-63.9375,12.5,8.6875
1588210278002,2020-04-30T01:32:09.347356,34.023,-63.5625,12.875,8.6875
1588210278102,2020-04-30T01:32:09.482581,34.123,-63.9375,6.25,8.3125
1588210278202,2020-04-30T01:32:09.542471,34.223,-63.9375,12.5,8.6875
1588210278301,2020-04-30T01:32:09.632443,34.322,-63.9375,12.875,8.6875
1588210278401,2020-04-30T01:32:09.759786,34.422,-62.8125,11.0625,7.9375
1588210278499,2020-04-30T01:32:09.804774,34.52,-63.5625,9.1875,8.6875
1588210278599,2020-04-30T01:32:09.902382,34.62,-63.1875,11.4375,9.5
1588210278698,2020-04-30T01:32:09.977282,34.719,-63.9375,12.875,7.9375
1588210278798,2020-04-30T01:32:10.119964,34.819,-63.9375,9.9375,7.9375
1588210278897,2020-04-30T01:32:10.165049,34.918,-63.1875,11.4375,8.3125
1588210278997,2020-04-30T01:32:10.284850,35.018,-63.1875,10.6875,8.6875
1588210279097,2020-04-30T01:32:10.367494,35.118,-63.1875,12.875,7.9375
1588210279196,2020-04-30T01:32:10.442572,35.217,-64.3125,11.4375,7.9375
1588210279296,2020-04-30T01:32:10.547701,35.317,-63.5625,12.5,8.3125
1588210279396,2020-04-30T01:32:10.644875,35.417,-65.0625,13.25,8.3125
1588210279495,2020-04-30T01:32:10.734853,35.516,-63.5625,12.875,8.6875
1588210279595,2020-04-30T01:32:10.824829,35.616,-64.6875,7.375,8.6875
1588210279693,2020-04-30T01:32:10.907567,35.714,-63.9375,13.625,8.3125
1588210279793,2020-04-30T01:32:10.967375,35.814,-63.5625,12.125,8.6875
1588210279892,2020-04-30T01:32:11.064850,35.913,-62.8125,10.3125,8.6875
1588210279992,2020-04-30T01:32:11.124823,36.013,-65.375,6.625,8.6875
1588210280091,2020-04-30T01:32:11.193168,36.112,-64.6875,11.8125,8.3125
1588210280191,2020-04-30T01:32:11.244857,36.212,-63.1875,12.125,8.3125
1588210280291,2020-04-30T01:32:11.327788,36.312,-62.8125,12.125,7.9375
1588210280390,2020-04-30T01:32:11.380584,36.411,-63.1875,12.5,9.125
1588210280490,2020-04-30T01:32:11.439950,36.511,-63.1875,11.8125,6.75
1588210280589,2020-04-30T01:32:11.492735,36.61,-63.1875,11.4375,7.9375
1588210280689,2020-04-30T01:32:11.552409,36.71,-63.5625,10.6875,8.3125
1588210280789,2020-04-30T01:32:11.604852,36.81,-64.3125,12.5,8.6875
1588210280887,2020-04-30T01:32:11.664889,36.908,-63.9375,11.4375,9.125
1588210280986,2020-04-30T01:32:11.710063,37.007,-63.5625,12.5,7.9375
1588210281086,2020-04-30T01:32:11.778999,37.107,-62.8125,8.125,8.6875
1588210281186,2020-04-30T01:32:11.829980,37.207,-62.8125,12.875,9.125
1588210281285,2020-04-30T01:32:11.889968,37.306,-63.5625,11.8125,8.3125
1588210281385,2020-04-30T01:32:11.935698,37.406,-63.5625,12.5,8.3125
1588210281484,2020-04-30T01:32:11.994836,37.505,-62.8125,7.375,7.9375
1588210281584,2020-04-30T01:32:12.054759,37.605,-63.5625,12.125,9.125
1588210281684,2020-04-30T01:32:12.107189,37.705,-63.1875,12.5,7.5
1588210281783,2020-04-30T01:32:12.167296,37.804,-64.6875,13.25,8.3125
1588210281883,2020-04-30T01:32:12.213591,37.904,-63.5625,7.375,8.6875
1588210281981,2020-04-30T01:32:12.279833,38.002,-63.5625,11.8125,8.3125
1588210282081,2020-04-30T01:32:12.344040,38.102,-63.9375,12.5,8.3125
1588210282180,2020-04-30T01:32:12.426555,38.201,-63.5625,12.125,8.3125
1588210282280,2020-04-30T01:32:12.467442,38.301,-63.9375,12.5,8.3125
1588210282379,2020-04-30T01:32:12.542409,38.4,-63.5625,11.8125,7.5
1588210282479,2020-04-30T01:32:12.594796,38.5,-62.8125,12.875,8.3125
1588210282579,2020-04-30T01:32:12.647507,38.6,-63.1875,11.4375,9.125
1588210282678,2020-04-30T01:32:12.692576,38.699,-63.5625,13.625,8.3125
1588210282778,2020-04-30T01:32:12.760459,38.799,-63.5625,12.5,8.3125
1588210282877,2020-04-30T01:32:12.819995,38.898,-63.5625,13.625,8.3125
1588210282977,2020-04-30T01:32:12.879846,38.998,-64.3125,5.5625,7.9375
1588210283077,2020-04-30T01:32:12.932882,39.098,-63.9375,10.3125,8.6875
1588210283175,2020-04-30T01:32:12.992853,39.196,-62.8125,11.4375,8.3125
1588210283274,2020-04-30T01:32:13.045611,39.295,-63.5625,12.125,8.3125
1588210283374,2020-04-30T01:32:13.105008,39.395,-63.1875,6.25,8.3125
1588210283474,2020-04-30T01:32:13.172666,39.495,-64.3125,11.4375,7.5
1588210283573,2020-04-30T01:32:13.234348,39.594,-63.9375,12.125,8.3125
1588210283673,2020-04-30T01:32:13.299954,39.694,-63.1875,11.0625,8.3125
1588210283772,2020-04-30T01:32:13.344918,39.793,-62.4375,11.4375,8.6875
1588210283872,2020-04-30T01:32:13.405068,39.893,-63.9375,11.0625,8.6875
1588210283972,2020-04-30T01:32:13.450339,39.993,-63.5625,10.6875,8.75
1588210284071,2020-04-30T01:32:13.509997,40.092,-63.9375,12.125,8.6875
1588210284171,2020-04-30T01:32:13.555038,40.192,-62.8125,12.5,8.6875
1588210284271,2020-04-30T01:32:13.637718,40.292,-63.1875,11.8125,8.3125
1588210284369,2020-04-30T01:32:13.682615,40.39,-63.5625,12.875,7.9375
1588210284468,2020-04-30T01:32:13.750333,40.489,-63.9375,7.0,8.6875
1588210284568,2020-04-30T01:32:13.802591,40.589,-63.5625,12.5,8.6875
1588210284668,2020-04-30T01:32:13.863495,40.689,-63.9375,12.875,8.6875
1588210284767,2020-04-30T01:32:13.907479,40.788,-63.5625,13.25,8.3125
1588210284867,2020-04-30T01:32:13.967566,40.888,-63.5625,5.1875,9.5
1588210284966,2020-04-30T01:32:14.012914,40.987,-63.1875,12.5,9.125
1588210285066,2020-04-30T01:32:14.073176,41.087,-64.6875,12.5,7.9375
1588210285166,2020-04-30T01:32:14.147886,41.187,-63.9375,13.25,8.6875
1588210285265,2020-04-30T01:32:14.214863,41.286,-63.1875,10.3125,8.3125
1588210285365,2020-04-30T01:32:14.259860,41.386,-63.5625,9.5625,10.3125
1588210285464,2020-04-30T01:32:14.320361,41.485,-63.5625,12.5,7.9375
1588210285563,2020-04-30T01:32:14.365467,41.584,-63.1875,12.125,7.9375
1588210285662,2020-04-30T01:32:14.425083,41.683,-64.3125,13.25,7.5
1588210285762,2020-04-30T01:32:14.492942,41.783,-63.5625,10.6875,8.3125
1588210285861,2020-04-30T01:32:14.544784,41.882,-63.1875,12.125,8.3125
1588210285961,2020-04-30T01:32:14.627556,41.982,-63.1875,9.9375,7.9375
1588210286061,2020-04-30T01:32:14.680422,42.082,-63.1875,12.125,8.3125
1588210286160,2020-04-30T01:32:14.739786,42.181,-63.9375,13.625,7.9375
1588210286260,2020-04-30T01:32:14.792338,42.281,-63.9375,10.6875,8.6875
1588210286359,2020-04-30T01:32:14.852359,42.38,-63.1875,7.75,8.6875
1588210286459,2020-04-30T01:32:14.897434,42.48,-64.3125,12.5,8.3125
1588210286559,2020-04-30T01:32:14.957274,42.58,-63.9375,12.5,7.9375
1588210286657,2020-04-30T01:32:15.017450,42.678,-63.5625,12.125,8.3125
1588210286756,2020-04-30T01:32:15.092478,42.777,-64.3125,8.875,8.3125
1588210286856,2020-04-30T01:32:15.137205,42.877,-63.5625,11.4375,8.3125
1588210286956,2020-04-30T01:32:15.197696,42.977,-63.5625,11.0625,7.5
1588210287055,2020-04-30T01:32:15.242462,43.076,-63.5625,12.875,9.9375
1588210287155,2020-04-30T01:32:15.302404,43.176,-63.5625,11.0625,8.3125
1588210287254,2020-04-30T01:32:15.354731,43.275,-63.9375,11.4375,8.3125
1588210287354,2020-04-30T01:32:15.422227,43.375,-62.8125,12.5,7.9375
1588210287454,2020-04-30T01:32:15.474718,43.475,-63.1875,11.8125,7.9375
1588210287553,2020-04-30T01:32:15.542200,43.574,-63.1875,13.25,8.3125
1588210287653,2020-04-30T01:32:15.602209,43.674,-63.9375,12.125,8.3125
1588210287751,2020-04-30T01:32:15.647421,43.772,-64.3125,12.875,7.9375
1588210287851,2020-04-30T01:32:15.714723,43.872,-63.1875,6.625,8.6875
1588210287950,2020-04-30T01:32:15.760631,43.971,-63.9375,12.5,8.3125
1588210288050,2020-04-30T01:32:15.819711,44.071,-63.1875,11.0625,7.9375
1588210288149,2020-04-30T01:32:15.864851,44.17,-63.9375,10.6875,8.6875
1588210288249,2020-04-30T01:32:15.932383,44.27,-64.3125,5.9375,7.9375
1588210288349,2020-04-30T01:32:15.977343,44.37,-63.1875,12.125,9.5
1588210288448,2020-04-30T01:32:16.037671,44.469,-62.8125,12.5,8.3125
1588210288548,2020-04-30T01:32:16.089913,44.569,-63.9375,11.4375,8.6875
1588210288647,2020-04-30T01:32:16.149838,44.668,-63.9375,10.6875,9.125
1588210288747,2020-04-30T01:32:16.202429,44.768,-63.9375,11.8125,8.3125
1588210288845,2020-04-30T01:32:16.263213,44.866,-64.3125,11.4375,7.5
1588210288945,2020-04-30T01:32:16.307641,44.966,-63.5625,12.875,8.3125
1588210289044,2020-04-30T01:32:16.367719,45.065,-63.1875,10.3125,8.3125
1588210289144,2020-04-30T01:32:16.412405,45.165,-63.9375,11.4375,8.3125
1588210289244,2020-04-30T01:32:16.472378,45.265,-63.1875,12.125,8.3125
1588210289343,2020-04-30T01:32:16.517319,45.364,-63.5625,11.0625,8.3125
1588210289443,2020-04-30T01:32:16.600142,45.464,-63.5625,12.125,9.125
1588210289543,2020-04-30T01:32:16.648728,45.564,-63.9375,12.5,7.9375
1588210289642,2020-04-30T01:32:16.704952,45.663,-64.6875,12.5,7.9375
1588210289742,2020-04-30T01:32:16.764951,45.763,-64.3125,7.75,8.6875
1588210289841,2020-04-30T01:32:16.824737,45.862,-63.5625,12.5,7.9375
1588210289941,2020-04-30T01:32:16.884722,45.962,-63.9375,12.875,8.3125
1588210290039,2020-04-30T01:32:16.930082,46.06,-63.5625,10.6875,7.5
1588210290139,2020-04-30T01:32:16.989705,46.16,-64.3125,6.25,8.3125
1588210290238,2020-04-30T01:32:17.042837,46.259,-64.3125,12.875,9.125
1588210290338,2020-04-30T01:32:17.109870,46.359,-64.3125,12.5,7.125
1588210290438,2020-04-30T01:32:17.155194,46.459,-63.1875,12.125,7.9375
1588210290537,2020-04-30T01:32:17.222527,46.558,-63.1875,14.0,7.9375
1588210290637,2020-04-30T01:32:17.267541,46.658,-63.9375,12.5,7.9375
1588210290736,2020-04-30T01:32:17.328375,46.757,-64.3125,12.125,8.3125
1588210290836,2020-04-30T01:32:17.372799,46.857,-64.3125,11.0625,8.6875
1588210290936,2020-04-30T01:32:17.455657,46.957,-63.9375,12.125,8.3125
1588210291035,2020-04-30T01:32:17.514872,47.056,-64.3125,13.25,8.6875
1588210291135,2020-04-30T01:32:17.574822,47.156,-63.9375,12.5,8.3125
1588210291234,2020-04-30T01:32:17.619858,47.255,-64.3125,7.375,9.125
1588210291334,2020-04-30T01:32:17.680119,47.355,-63.5625,13.25,8.3125
1588210291434,2020-04-30T01:32:17.740614,47.455,-63.9375,12.125,7.5
1588210291532,2020-04-30T01:32:17.800022,47.553,-64.3125,12.5,8.3125
1588210291631,2020-04-30T01:32:17.844864,47.652,-63.1875,9.1875,8.6875
1588210291731,2020-04-30T01:32:17.912869,47.752,-63.5625,12.5,9.9375
1588210291831,2020-04-30T01:32:17.972940,47.852,-63.9375,12.5,7.5
1588210291930,2020-04-30T01:32:18.017675,47.951,-63.9375,12.125,8.6875
1588210292030,2020-04-30T01:32:18.092567,48.051,-64.3125,12.875,9.125
1588210292129,2020-04-30T01:32:18.137336,48.15,-63.1875,11.0625,7.9375
1588210292229,2020-04-30T01:32:18.197294,48.25,-63.5625,12.5,6.75
1588210292329,2020-04-30T01:32:18.242451,48.35,-64.3125,11.0625,8.3125
1588210292428,2020-04-30T01:32:18.309950,48.449,-63.9375,12.125,8.6875
1588210292528,2020-04-30T01:32:18.369787,48.549,-63.1875,12.125,7.9375
1588210292627,2020-04-30T01:32:18.430057,48.648,-63.5625,12.875,8.6875
1588210292727,2020-04-30T01:32:18.474860,48.748,-63.9375,7.0,9.125
1588210292827,2020-04-30T01:32:18.534926,48.848,-64.6875,13.25,8.3125
1588210292925,2020-04-30T01:32:18.580190,48.946,-63.5625,11.4375,7.125
1588210293024,2020-04-30T01:32:18.685194,49.045,-63.9375,10.6875,7.9375
1588210293124,2020-04-30T01:32:18.729969,49.145,-63.1875,8.5,7.9375
1588210293224,2020-04-30T01:32:18.790364,49.245,-63.5625,11.4375,8.3125
1588210293323,2020-04-30T01:32:18.835169,49.344,-63.9375,12.875,8.3125
1588210293423,2020-04-30T01:32:18.895014,49.444,-64.3125,12.5,8.3125
1588210293522,2020-04-30T01:32:18.947468,49.543,-63.9375,13.25,8.6875
1588210293622,2020-04-30T01:32:19.007227,49.643,-63.9375,12.875,7.5
1588210293722,2020-04-30T01:32:19.052227,49.743,-63.9375,13.25,9.125
1588210293821,2020-04-30T01:32:19.112227,49.842,-62.8125,10.6875,8.3125
1588210293921,2020-04-30T01:32:19.179725,49.942,-62.8125,12.125,8.3125
1588210294021,2020-04-30T01:32:19.224727,50.042,-63.9375,13.625,8.6875
1588210294120,2020-04-30T01:32:19.284745,50.141,-63.5625,10.6875,8.3125
1588210294220,2020-04-30T01:32:19.329843,50.241,-63.9375,7.75,8.3125
1588210294318,2020-04-30T01:32:19.389727,50.339,-63.5625,12.875,8.6875
1588210294418,2020-04-30T01:32:19.457380,50.439,-63.9375,12.875,8.6875
1588210294517,2020-04-30T01:32:19.524738,50.538,-62.8125,12.125,7.9375
1588210294617,2020-04-30T01:32:19.577236,50.638,-63.5625,9.1875,8.6875
1588210294716,2020-04-30T01:32:19.637284,50.737,-63.5625,11.4375,8.6875
1588210294816,2020-04-30T01:32:19.682414,50.837,-62.8125,13.25,8.3125
1588210294916,2020-04-30T01:32:19.742514,50.937,-63.1875,12.875,9.125
1588210295015,2020-04-30T01:32:19.794926,51.036,-64.6875,12.125,9.125
1588210295115,2020-04-30T01:32:19.854789,51.136,-62.8125,9.1875,7.9375
1588210295214,2020-04-30T01:32:19.899910,51.235,-64.3125,12.875,8.3125
1588210295314,2020-04-30T01:32:19.959794,51.335,-62.4375,10.3125,7.9375
1588210295414,2020-04-30T01:32:20.004787,51.435,-64.3125,12.5,8.6875
1588210295513,2020-04-30T01:32:20.064992,51.534,-63.5625,13.625,8.3125
1588210295613,2020-04-30T01:32:20.117370,51.634,-63.5625,11.8125,7.9375
1588210295712,2020-04-30T01:32:20.184954,51.733,-63.1875,7.375,8.75
1588210295812,2020-04-30T01:32:20.252411,51.833,-63.9375,12.5,8.6875
1588210295912,2020-04-30T01:32:20.304799,51.933,-63.9375,12.125,7.9375
1588210296010,2020-04-30T01:32:20.394886,52.031,-64.3125,12.875,8.3125
1588210296109,2020-04-30T01:32:20.440030,52.13,-64.3125,12.125,8.3125
1588210296209,2020-04-30T01:32:20.499962,52.23,-63.9375,11.4375,8.6875
1588210296309,2020-04-30T01:32:20.544806,52.33,-64.3125,12.5,7.9375
1588210296408,2020-04-30T01:32:20.612400,52.429,-63.9375,11.8125,8.3125
1588210296508,2020-04-30T01:32:20.664938,52.529,-63.5625,12.125,8.6875
1588210296607,2020-04-30T01:32:20.762472,52.628,-63.9375,11.8125,8.3125
1588210296707,2020-04-30T01:32:20.822472,52.728,-63.5625,12.5,7.5
1588210296807,2020-04-30T01:32:20.882498,52.828,-63.9375,6.25,8.3125
1588210296906,2020-04-30T01:32:20.927390,52.927,-63.9375,11.8125,7.9375
1588210297006,2020-04-30T01:32:20.987534,53.027,-63.5625,11.8125,8.3125
1588210297105,2020-04-30T01:32:21.040274,53.126,-65.75,11.8125,8.3125
1588210297205,2020-04-30T01:32:21.099918,53.226,-63.5625,9.5625,8.6875
1588210297305,2020-04-30T01:32:21.144806,53.326,-63.5625,13.625,9.125
1588210297404,2020-04-30T01:32:21.212461,53.425,-63.5625,12.875,7.5
1588210297504,2020-04-30T01:32:21.264971,53.525,-63.9375,12.875,7.125
1588210297604,2020-04-30T01:32:21.362641,53.625,-62.8125,12.875,9.5
1588210297703,2020-04-30T01:32:21.437565,53.724,-63.1875,12.5,8.6875
1588210297801,2020-04-30T01:32:21.482473,53.822,-63.9375,12.5,7.125
1588210297901,2020-04-30T01:32:21.564943,53.922,-64.6875,10.6875,8.3125
1588210298001,2020-04-30T01:32:21.609890,54.022,-64.3125,12.125,8.3125
1588210298100,2020-04-30T01:32:21.669953,54.121,-63.1875,12.125,7.9375
1588210298200,2020-04-30T01:32:21.722457,54.221,-62.8125,9.9375,7.125
1588210298299,2020-04-30T01:32:21.782477,54.32,-62.8125,8.5,9.125
1588210298399,2020-04-30T01:32:21.834903,54.42,-63.1875,13.25,8.3125
1588210298499,2020-04-30T01:32:21.895032,54.52,-63.5625,12.125,7.9375
1588210298598,2020-04-30T01:32:21.947588,54.619,-63.9375,12.5,7.9375
1588210298698,2020-04-30T01:32:22.007692,54.719,-65.0,11.8125,7.9375
1588210298797,2020-04-30T01:32:22.052832,54.818,-63.9375,11.8125,8.3125
1588210298897,2020-04-30T01:32:22.112757,54.918,-63.5625,12.875,7.9375
1588210298997,2020-04-30T01:32:22.172805,55.018,-64.3125,11.8125,7.9375
1588210299096,2020-04-30T01:32:22.232721,55.117,-64.3125,9.9375,7.5
1588210299196,2020-04-30T01:32:22.284945,55.217,-63.9375,13.25,6.75
1588210299295,2020-04-30T01:32:22.345149,55.316,-64.3125,13.625,7.9375
1588210299394,2020-04-30T01:32:22.405081,55.415,-63.9375,6.25,9.125
1588210299493,2020-04-30T01:32:22.472528,55.514,-63.9375,14.0,9.9375
1588210299593,2020-04-30T01:32:22.532471,55.614,-64.3125,12.875,10.3125
1588210299692,2020-04-30T01:32:22.607408,55.713,-63.1875,12.5,11.125
1588210299792,2020-04-30T01:32:22.682520,55.813,-63.1875,6.625,9.9375
1588210299892,2020-04-30T01:32:22.757425,55.913,-61.0,10.3125,18.25
1588210299991,2020-04-30T01:32:22.832473,56.012,-59.875,8.875,24.625
1588210300091,2020-04-30T01:32:22.884919,56.112,-61.375,6.625,36.5625
1588210300190,2020-04-30T01:32:22.982872,56.211,-61.75,3.6875,58.0
1588210300290,2020-04-30T01:32:23.042483,56.311,-66.875,1.5,69.9375
1588210300390,2020-04-30T01:32:23.124918,56.411,-67.625,0.75,74.375
1588210300489,2020-04-30T01:32:23.185195,56.51,-69.4375,-1.0625,75.5625
1588210300589,2020-04-30T01:32:23.245104,56.61,-68.6875,-0.3125,77.125
1588210300689,2020-04-30T01:32:23.289904,56.71,-70.1875,-0.3125,78.3125
1588210300788,2020-04-30T01:32:23.364933,56.809,-70.1875,-3.625,78.6875
1588210300888,2020-04-30T01:32:23.424946,56.909,-70.1875,-7.6875,78.6875
1588210300986,2020-04-30T01:32:23.492260,57.007,-69.8125,-2.1875,79.5
1588210301085,2020-04-30T01:32:23.537270,57.106,-68.6875,-1.0625,79.0625
1588210301185,2020-04-30T01:32:23.604776,57.206,-68.3125,-1.8125,77.875
1588210301285,2020-04-30T01:32:23.687273,57.306,-67.625,-3.625,75.5
1588210301384,2020-04-30T01:32:23.754868,57.405,-66.5,-2.1875,73.9375
1588210301484,2020-04-30T01:32:23.807389,57.505,-65.375,0.375,69.9375
1588210301584,2020-04-30T01:32:23.890018,57.605,-65.375,1.5,66.75
1588210301683,2020-04-30T01:32:23.957322,57.704,-63.9375,5.9375,60.8125
1588210301783,2020-04-30T01:32:24.009809,57.804,-63.1875,3.6875,57.1875
1588210301882,2020-04-30T01:32:24.077446,57.903,-63.1875,1.875,62.0
1588210301982,2020-04-30T01:32:24.144948,58.003,-64.6875,-8.0625,75.125
1588210302082,2020-04-30T01:32:24.204908,58.103,-69.0625,-6.9375,82.25
1588210302181,2020-04-30T01:32:24.264887,58.202,-69.0625,-8.4375,83.0625
1588210302281,2020-04-30T01:32:24.332614,58.302,-68.6875,-6.9375,81.0625
1588210302380,2020-04-30T01:32:24.384818,58.401,-66.5,-8.0625,76.3125
1588210302480,2020-04-30T01:32:24.452385,58.501,-63.9375,-2.1875,69.5625
1588210302580,2020-04-30T01:32:24.504932,58.601,-62.8125,0.375,62.0
1588210302679,2020-04-30T01:32:24.572489,58.7,-62.4375,0.375,59.625
1588210302777,2020-04-30T01:32:24.624911,58.798,-63.1875,-0.6875,62.0
1588210302877,2020-04-30T01:32:24.692493,58.898,-62.8125,-5.5,67.125
1588210302977,2020-04-30T01:32:24.767488,58.998,-63.1875,-9.125,72.375
1588210303076,2020-04-30T01:32:24.834929,59.097,-65.0,-15.0,74.3125
1588210303176,2020-04-30T01:32:24.887461,59.197,-64.6875,-11.75,72.3125
1588210303275,2020-04-30T01:32:24.954928,59.296,-65.0,-11.0,71.5625
1588210303375,2020-04-30T01:32:25.014936,59.396,-63.1875,-10.25,68.75
1588210303475,2020-04-30T01:32:25.104917,59.496,-63.1875,-14.6875,66.375
1588210303574,2020-04-30T01:32:25.149940,59.595,-62.0625,-8.0625,65.5625
1588210303674,2020-04-30T01:32:25.224937,59.695,-62.8125,-7.6875,64.375
1588210303773,2020-04-30T01:32:25.307390,59.794,-62.4375,-8.4375,65.5625
1588210303873,2020-04-30T01:32:25.352475,59.894,-62.8125,-8.0625,67.9375
1588210303973,2020-04-30T01:32:25.442452,59.994,-63.5625,-9.875,69.9375
1588210304072,2020-04-30T01:32:25.487458,60.093,-64.3125,-11.0,71.125
1588210304172,2020-04-30T01:32:25.554940,60.193,-64.3125,-12.4375,70.375
1588210304272,2020-04-30T01:32:25.607386,60.293,-63.1875,-9.875,69.9375
1588210304371,2020-04-30T01:32:25.689896,60.392,-63.5625,-8.8125,68.75
1588210304471,2020-04-30T01:32:25.757393,60.492,-62.8125,-9.125,68.375
1588210304570,2020-04-30T01:32:25.832485,60.591,-63.5625,-16.875,69.5625
1588210304670,2020-04-30T01:32:25.900042,60.691,-63.9375,-8.0625,69.125
1588210304770,2020-04-30T01:32:25.959884,60.791,-63.9375,-8.8125,69.1875
1588210304869,2020-04-30T01:32:26.012428,60.89,-64.6875,-9.125,69.5625
1588210304967,2020-04-30T01:32:26.087382,60.988,-64.3125,-11.375,70.3125
