epoch  (ms),time  (-07:00),elapsed  (s),X-Axis  (T),Y-Axis  (T),Z-Axis  (T)
1588209930270,2020-04-30T01:26:05.352850,0.0,-57.625,153.3125,335.875
1588209930369,2020-04-30T01:26:05.361593,0.099,-58.375,153.3125,336.75
1588209930469,2020-04-30T01:26:05.375917,0.199,-56.5,150.375,336.4375
1588209930569,2020-04-30T01:26:05.390278,0.299,-57.25,154.4375,336.0
1588209930668,2020-04-30T01:26:05.406527,0.398,-58.0,153.6875,336.0625
1588209930766,2020-04-30T01:26:05.421528,0.496,-57.25,153.6875,335.25
1588209930866,2020-04-30T01:26:05.444028,0.596,-58.0,149.25,334.875
1588209930966,2020-04-30T01:26:05.480260,0.696,-58.75,156.6875,332.9375
1588209931065,2020-04-30T01:26:05.496526,0.795,-57.625,157.8125,330.875
1588209931165,2020-04-30T01:26:05.511520,0.895,-58.75,157.4375,331.625
1588209931264,2020-04-30T01:26:05.533354,0.994,-58.75,151.5,333.25
1588209931364,2020-04-30T01:26:05.548355,1.094,-57.625,155.5625,333.375
1588209931462,2020-04-30T01:26:05.570860,1.192,-58.0,153.6875,334.875
1588209931562,2020-04-30T01:26:05.593356,1.292,-58.0,151.5,337.75
1588209931661,2020-04-30T01:26:05.615245,1.391,-58.0,145.875,338.0625
1588209931761,2020-04-30T01:26:05.639034,1.491,-58.75,151.875,337.375
1588209931861,2020-04-30T01:26:05.660858,1.591,-58.75,152.25,334.0625
1588209931960,2020-04-30T01:26:05.682752,1.69,-59.875,154.5,331.8125
1588209932060,2020-04-30T01:26:05.697748,1.79,-63.25,147.0,329.375
1588209932159,2020-04-30T01:26:05.721536,1.889,-64.75,154.5,328.9375
1588209932258,2020-04-30T01:26:05.742752,1.988,-65.125,153.75,328.5
1588209932357,2020-04-30T01:26:05.759035,2.087,-61.75,153.375,331.8125
1588209932457,2020-04-30T01:26:05.780248,2.187,-58.0,146.25,337.0
1588209932556,2020-04-30T01:26:05.796531,2.286,-54.25,151.875,342.625
1588209932656,2020-04-30T01:26:05.811537,2.386,-52.0,148.5,345.875
1588209932756,2020-04-30T01:26:05.840857,2.486,-52.375,149.25,347.0
1588209932855,2020-04-30T01:26:05.863362,2.585,-53.875,148.125,342.625
1588209932955,2020-04-30T01:26:05.907751,2.685,-57.625,150.375,337.0
1588209933053,2020-04-30T01:26:05.922755,2.783,-59.875,153.0,334.3125
1588209933153,2020-04-30T01:26:05.975865,2.883,-61.75,152.25,332.625
1588209933252,2020-04-30T01:26:06.005865,2.982,-62.875,153.0,331.875
1588209933352,2020-04-30T01:26:06.035368,3.082,-64.75,152.25,330.1875
1588209933451,2020-04-30T01:26:06.072908,3.181,-65.125,153.75,330.5625
1588209933551,2020-04-30T01:26:06.111655,3.281,-68.0625,152.625,329.375
1588209933651,2020-04-30T01:26:06.141660,3.381,-69.9375,153.75,330.25
1588209933750,2020-04-30T01:26:06.192887,3.48,-71.8125,152.625,330.5625
1588209933850,2020-04-30T01:26:06.215980,3.58,-72.5625,150.375,331.375
1588209933948,2020-04-30T01:26:06.239586,3.678,-75.1875,153.75,332.5625
1588209934048,2020-04-30T01:26:06.268619,3.778,-74.4375,154.5,333.0
1588209934147,2020-04-30T01:26:06.306002,3.877,-77.0625,156.0,332.5625
1588209934247,2020-04-30T01:26:06.329046,3.977,-78.1875,157.0625,332.1875
1588209934346,2020-04-30T01:26:06.366548,4.076,-78.1875,156.0,334.25
1588209934446,2020-04-30T01:26:06.396550,4.176,-78.9375,155.625,336.1875
1588209934546,2020-04-30T01:26:06.425874,4.276,-78.5625,154.875,337.5
1588209934644,2020-04-30T01:26:06.449049,4.374,-78.1875,155.25,337.8125
1588209934743,2020-04-30T01:26:06.486549,4.473,-79.6875,154.875,337.4375
1588209934843,2020-04-30T01:26:06.508378,4.573,-80.0625,155.625,337.8125
1588209934943,2020-04-30T01:26:06.523378,4.673,-80.8125,156.375,335.875
1588209935042,2020-04-30T01:26:06.545275,4.772,-80.8125,159.6875,336.1875
1588209935142,2020-04-30T01:26:06.567774,4.872,-81.5625,160.0625,337.8125
1588209935240,2020-04-30T01:26:06.590271,4.97,-81.9375,161.9375,339.0
1588209935340,2020-04-30T01:26:06.612780,5.07,-82.3125,161.5625,341.4375
1588209935439,2020-04-30T01:26:06.629054,5.169,-84.1875,158.25,344.375
1588209935539,2020-04-30T01:26:06.644055,5.269,-83.0625,155.25,345.125
1588209935638,2020-04-30T01:26:06.673378,5.368,-82.3125,157.8125,344.3125
1588209935738,2020-04-30T01:26:06.688380,5.468,-81.9375,156.6875,343.875
1588209935838,2020-04-30T01:26:06.710267,5.568,-82.3125,155.5625,344.625
1588209935937,2020-04-30T01:26:06.725279,5.667,-81.9375,153.75,344.25
1588209936035,2020-04-30T01:26:06.747772,5.765,-81.9375,155.25,344.625
1588209936135,2020-04-30T01:26:06.764056,5.865,-81.1875,155.25,345.0625
1588209936235,2020-04-30T01:26:06.807773,5.965,-81.1875,154.875,345.4375
1588209936334,2020-04-30T01:26:06.822779,6.064,-82.3125,151.125,344.625
1588209936434,2020-04-30T01:26:06.837775,6.164,-81.5625,155.25,344.625
1588209936533,2020-04-30T01:26:06.861559,6.263,-81.9375,150.75,345.4375
1588209936633,2020-04-30T01:26:06.882774,6.363,-82.6875,153.375,345.875
1588209936731,2020-04-30T01:26:06.920268,6.461,-81.9375,147.75,347.0625
1588209936831,2020-04-30T01:26:06.935273,6.561,-81.5625,155.25,347.0625
1588209936930,2020-04-30T01:26:06.957778,6.66,-81.9375,154.125,345.4375
1588209937030,2020-04-30T01:26:06.972780,6.76,-81.9375,152.25,346.25
1588209937130,2020-04-30T01:26:07.002783,6.86,-81.9375,146.625,345.4375
1588209937229,2020-04-30T01:26:07.019062,6.959,-81.5625,155.25,345.5
1588209937329,2020-04-30T01:26:07.047900,7.059,-81.9375,154.875,345.875
1588209937427,2020-04-30T01:26:07.062900,7.157,-81.5625,153.375,345.8125
1588209937527,2020-04-30T01:26:07.085394,7.257,-82.6875,147.0,346.25
1588209937626,2020-04-30T01:26:07.100397,7.356,-82.3125,154.5,346.6875
1588209937726,2020-04-30T01:26:07.116762,7.456,-81.5625,154.125,345.875
1588209937825,2020-04-30T01:26:07.132574,7.555,-82.6875,153.375,345.4375
1588209937925,2020-04-30T01:26:07.154152,7.655,-82.3125,148.875,345.875
1588209938025,2020-04-30T01:26:07.175934,7.755,-81.5625,153.75,346.25
1588209938123,2020-04-30T01:26:07.205330,7.853,-81.9375,155.625,346.25
1588209938222,2020-04-30T01:26:07.227895,7.952,-82.6875,153.375,346.25
1588209938322,2020-04-30T01:26:07.244724,8.052,-81.9375,147.75,345.875
1588209938422,2020-04-30T01:26:07.259262,8.152,-83.0625,154.125,347.5625
1588209938521,2020-04-30T01:26:07.281643,8.251,-81.9375,154.125,345.875
1588209938621,2020-04-30T01:26:07.296691,8.351,-82.3125,154.125,346.6875
1588209938720,2020-04-30T01:26:07.318806,8.45,-81.9375,148.875,346.6875
1588209938819,2020-04-30T01:26:07.340924,8.549,-81.9375,154.5,347.5
1588209938918,2020-04-30T01:26:07.355516,8.648,-82.3125,154.875,347.0625
1588209939018,2020-04-30T01:26:07.386024,8.748,-82.6875,153.375,346.6875
1588209939117,2020-04-30T01:26:07.408303,8.847,-81.9375,149.625,347.5
1588209939217,2020-04-30T01:26:07.430420,8.947,-81.5625,153.375,347.125
1588209939317,2020-04-30T01:26:07.446556,9.047,-82.3125,155.25,346.6875
1588209939416,2020-04-30T01:26:07.469156,9.146,-81.5625,154.5,345.9375
1588209939514,2020-04-30T01:26:07.490373,9.244,-81.9375,152.25,347.5625
1588209939614,2020-04-30T01:26:07.527945,9.344,-81.5625,152.625,346.8125
1588209939714,2020-04-30T01:26:07.543564,9.444,-83.0625,154.125,346.6875
1588209939813,2020-04-30T01:26:07.565981,9.543,-82.3125,151.875,346.6875
1588209939913,2020-04-30T01:26:07.590938,9.643,-81.5625,152.25,347.875
1588209940012,2020-04-30T01:26:07.610527,9.742,-82.6875,153.75,346.6875
1588209940112,2020-04-30T01:26:07.648091,9.842,-81.9375,154.125,347.0625
1588209940210,2020-04-30T01:26:07.713260,9.94,-83.0625,153.0,346.6875
1588209940310,2020-04-30T01:26:07.771979,10.04,-81.9375,151.5,347.875
1588209940409,2020-04-30T01:26:07.828417,10.139,-82.6875,151.125,347.125
1588209940509,2020-04-30T01:26:07.870877,10.239,-82.6875,154.5,346.6875
1588209940609,2020-04-30T01:26:07.899060,10.339,-82.6875,154.125,346.75
1588209940708,2020-04-30T01:26:07.941070,10.438,-81.9375,153.75,347.5625
1588209940808,2020-04-30T01:26:07.956222,10.538,-81.9375,154.125,347.5625
1588209940906,2020-04-30T01:26:07.992755,10.636,-82.6875,153.375,347.0625
1588209941006,2020-04-30T01:26:08.013625,10.736,-82.3125,154.5,346.6875
1588209941105,2020-04-30T01:26:08.029971,10.835,-82.3125,154.5,347.0625
1588209941205,2020-04-30T01:26:08.052784,10.935,-81.1875,153.0,345.9375
1588209941304,2020-04-30T01:26:08.063155,11.034,-82.6875,153.75,345.9375
1588209941404,2020-04-30T01:26:08.072150,11.134,-81.9375,153.375,346.8125
1588209941502,2020-04-30T01:26:08.150847,11.232,-82.3125,155.625,347.125
1588209941602,2020-04-30T01:26:08.183524,11.332,-81.9375,153.375,347.625
1588209941701,2020-04-30T01:26:08.285215,11.431,-82.3125,154.5,346.3125
1588209941801,2020-04-30T01:26:08.308706,11.531,-82.6875,153.75,346.75
1588209941901,2020-04-30T01:26:08.344526,11.631,-81.5625,154.875,347.125
1588209942000,2020-04-30T01:26:08.357911,11.73,-83.0625,154.125,346.3125
1588209942100,2020-04-30T01:26:08.376355,11.83,-83.4375,154.5,347.125
1588209942198,2020-04-30T01:26:08.388042,11.928,-81.9375,153.0,347.0625
1588209942298,2020-04-30T01:26:08.416388,12.028,-81.5625,154.5,347.0625
1588209942397,2020-04-30T01:26:08.438406,12.127,-83.0625,152.25,348.0
1588209942497,2020-04-30T01:26:08.463554,12.227,-81.9375,153.0,347.1875
1588209942596,2020-04-30T01:26:08.510892,12.326,-81.9375,153.0,347.1875
1588209942696,2020-04-30T01:26:08.520360,12.426,-81.9375,154.875,348.3125
1588209942794,2020-04-30T01:26:08.526793,12.524,-82.3125,154.5,347.125
1588209942894,2020-04-30T01:26:08.536621,12.624,-81.9375,153.75,347.5625
1588209942993,2020-04-30T01:26:08.543900,12.723,-82.6875,154.125,347.1875
1588209943093,2020-04-30T01:26:08.554629,12.823,-82.6875,154.875,348.0
1588209943193,2020-04-30T01:26:08.565836,12.923,-82.6875,154.5,346.75
1588209943292,2020-04-30T01:26:08.571639,13.022,-81.9375,154.125,347.0625
1588209943392,2020-04-30T01:26:08.580248,13.122,-81.9375,154.125,346.0
1588209943490,2020-04-30T01:26:08.592697,13.22,-82.3125,154.5,346.3125
1588209943789,2020-04-30T01:26:08.606650,13.519,-82.3125,153.75,346.375
1588209943888,2020-04-30T01:26:08.617054,13.618,-80.8125,154.125,346.75
1588209943988,2020-04-30T01:26:08.648812,13.718,-82.3125,154.5,346.6875
1588209944088,2020-04-30T01:26:08.662120,13.818,-81.5625,154.125,346.75
1588209944186,2020-04-30T01:26:08.690715,13.916,-83.0625,153.375,346.8125
1588209944285,2020-04-30T01:26:08.705721,14.015,-82.3125,156.0,346.75
1588209944385,2020-04-30T01:26:08.722107,14.115,-82.6875,153.75,347.5625
1588209944485,2020-04-30T01:26:08.737802,14.215,-82.3125,153.0,346.8125
1588209944584,2020-04-30T01:26:08.758868,14.314,-81.5625,152.625,347.625
1588209944684,2020-04-30T01:26:08.773875,14.414,-82.3125,155.25,346.75
1588209944783,2020-04-30T01:26:08.795765,14.513,-81.5625,154.125,347.5625
1588209944882,2020-04-30T01:26:08.811224,14.612,-81.9375,154.875,347.5
1588209944981,2020-04-30T01:26:08.826183,14.711,-81.5625,148.875,347.9375
1588209945081,2020-04-30T01:26:08.847974,14.811,-81.5625,155.625,348.4375
1588209945180,2020-04-30T01:26:08.862985,14.91,-82.6875,153.75,346.375
1588209945280,2020-04-30T01:26:08.879337,15.01,-82.3125,155.625,346.375
1588209945380,2020-04-30T01:26:08.894942,15.11,-82.6875,151.125,347.9375
1588209945479,2020-04-30T01:26:08.923605,15.209,-82.3125,154.125,347.5625
1588209945577,2020-04-30T01:26:08.938595,15.307,-83.0625,155.25,348.0
1588209945677,2020-04-30T01:26:08.960729,15.407,-82.3125,150.375,347.125
1588209945777,2020-04-30T01:26:08.983245,15.507,-81.9375,147.0,347.625
1588209945876,2020-04-30T01:26:08.999567,15.606,-83.0625,154.125,347.0625
1588209945976,2020-04-30T01:26:09.014544,15.706,-82.3125,155.25,347.125
1588209946075,2020-04-30T01:26:09.044025,15.805,-81.5625,154.125,347.5625
1588209946175,2020-04-30T01:26:09.058886,15.905,-83.0625,148.5,346.8125
1588209946275,2020-04-30T01:26:09.080763,16.005,-83.0625,154.5,348.0
1588209946373,2020-04-30T01:26:09.095762,16.103,-81.5625,155.625,348.0
1588209946472,2020-04-30T01:26:09.125494,16.202,-81.9375,153.75,347.625
1588209946572,2020-04-30T01:26:09.140485,16.302,-81.9375,147.375,347.1875
1588209946672,2020-04-30T01:26:09.163608,16.402,-81.9375,154.125,347.125
1588209946771,2020-04-30T01:26:09.178680,16.501,-82.6875,154.875,346.8125
1588209946871,2020-04-30T01:26:09.200495,16.601,-82.3125,151.5,346.8125
1588209946970,2020-04-30T01:26:09.215498,16.7,-82.6875,151.875,347.1875
1588209947070,2020-04-30T01:26:09.231840,16.8,-82.6875,153.0,347.625
1588209947168,2020-04-30T01:26:09.247641,16.898,-82.3125,153.0,347.1875
1588209947268,2020-04-30T01:26:09.273373,16.998,-82.3125,154.125,347.1875
1588209947367,2020-04-30T01:26:09.290979,17.097,-82.6875,152.625,347.5625
1588209947467,2020-04-30T01:26:09.322258,17.197,-82.3125,153.75,347.5625
1588209947567,2020-04-30T01:26:09.370088,17.297,-82.3125,152.25,347.625
1588209947666,2020-04-30T01:26:09.381693,17.396,-81.1875,154.5,347.1875
1588209947766,2020-04-30T01:26:09.395569,17.496,-81.9375,154.5,347.625
1588209947866,2020-04-30T01:26:09.449535,17.596,-82.3125,154.125,347.625
1588209947965,2020-04-30T01:26:09.501303,17.695,-82.6875,154.5,347.1875
1588209948063,2020-04-30T01:26:09.524361,17.793,-82.3125,153.0,346.8125
1588209948163,2020-04-30T01:26:09.538858,17.893,-81.5625,150.75,346.375
1588209948262,2020-04-30T01:26:09.550366,17.992,-83.0625,153.0,347.625
1588209948362,2020-04-30T01:26:09.560910,18.092,-81.9375,153.75,347.625
1588209948462,2020-04-30T01:26:09.569305,18.192,-82.6875,154.125,347.625
1588209948561,2020-04-30T01:26:09.602117,18.291,-81.5625,154.875,347.625
1588209948661,2020-04-30T01:26:09.612600,18.391,-82.6875,153.75,348.0
1588209948761,2020-04-30T01:26:09.625569,18.491,-83.0625,154.125,347.625
1588209948859,2020-04-30T01:26:09.633902,18.589,-82.6875,151.5,347.6875
1588209948958,2020-04-30T01:26:09.650977,18.688,-83.0625,155.625,346.375
1588209949058,2020-04-30T01:26:09.665747,18.788,-82.3125,153.375,348.4375
1588209949158,2020-04-30T01:26:09.681862,18.888,-82.6875,153.75,347.625
1588209949257,2020-04-30T01:26:09.704380,18.987,-81.9375,150.0,347.1875
1588209949357,2020-04-30T01:26:09.720251,19.087,-82.3125,154.5,348.0
1588209949455,2020-04-30T01:26:09.741113,19.185,-81.9375,155.625,348.8125
1588209949554,2020-04-30T01:26:09.763353,19.284,-81.9375,154.125,346.0
1588209949654,2020-04-30T01:26:09.779647,19.384,-81.5625,150.75,347.25
1588209949754,2020-04-30T01:26:09.794625,19.484,-83.0625,154.5,348.4375
1588209949853,2020-04-30T01:26:09.830839,19.583,-82.3125,154.125,347.1875
1588209949953,2020-04-30T01:26:09.845757,19.683,-82.3125,154.125,346.375
1588209950053,2020-04-30T01:26:09.862410,19.783,-83.0625,148.5,347.1875
1588209950151,2020-04-30T01:26:09.888289,19.881,-83.4375,154.5,348.0
1588209950250,2020-04-30T01:26:09.908571,19.98,-81.9375,154.5,347.1875
1588209950350,2020-04-30T01:26:09.945967,20.08,-82.6875,153.0,347.6875
1588209950450,2020-04-30T01:26:10.003887,20.18,-81.5625,146.625,348.0
1588209950549,2020-04-30T01:26:10.034507,20.279,-82.6875,155.25,347.1875
1588209950649,2020-04-30T01:26:10.076771,20.379,-82.3125,154.125,347.6875
1588209950748,2020-04-30T01:26:10.097242,20.478,-83.0625,154.125,347.625
1588209950846,2020-04-30T01:26:10.117136,20.576,-83.0625,148.875,346.8125
1588209950946,2020-04-30T01:26:10.151772,20.676,-82.3125,154.875,348.0
1588209951046,2020-04-30T01:26:10.170236,20.776,-81.9375,154.5,347.9375
1588209951145,2020-04-30T01:26:10.194208,20.875,-82.3125,154.875,348.0
1588209951245,2020-04-30T01:26:10.227846,20.975,-82.6875,148.5,347.1875
1588209951345,2020-04-30T01:26:10.243459,21.075,-83.0625,154.125,347.625
1588209951444,2020-04-30T01:26:10.267061,21.174,-81.9375,154.5,347.625
1588209951542,2020-04-30T01:26:10.296599,21.272,-82.6875,153.375,348.0
1588209951642,2020-04-30T01:26:10.324281,21.372,-82.6875,148.125,348.4375
1588209951741,2020-04-30T01:26:10.346844,21.471,-82.6875,155.625,349.1875
1588209951841,2020-04-30T01:26:10.364365,21.571,-82.6875,154.125,347.625
1588209951941,2020-04-30T01:26:10.384756,21.671,-82.3125,153.375,347.1875
1588209952040,2020-04-30T01:26:10.393542,21.77,-82.3125,147.0,347.1875
1588209952140,2020-04-30T01:26:10.417364,21.87,-82.3125,154.125,348.0
1588209952238,2020-04-30T01:26:10.450478,21.968,-82.6875,154.5,347.25
1588209952338,2020-04-30T01:26:10.482153,22.068,-81.1875,151.875,347.6875
1588209952437,2020-04-30T01:26:10.490542,22.167,-82.3125,150.375,348.125
1588209952537,2020-04-30T01:26:10.502078,22.267,-82.6875,154.5,348.0
1588209952637,2020-04-30T01:26:10.523607,22.367,-82.6875,156.0,347.6875
1588209952736,2020-04-30T01:26:10.551038,22.466,-82.3125,154.125,347.25
1588209952836,2020-04-30T01:26:10.577191,22.566,-82.6875,149.25,346.5625
1588209952934,2020-04-30T01:26:10.636043,22.664,-81.9375,153.75,346.8125
1588209953033,2020-04-30T01:26:10.665279,22.763,-82.3125,154.125,347.1875
1588209953133,2020-04-30T01:26:10.701853,22.863,-82.3125,152.25,346.8125
1588209953233,2020-04-30T01:26:10.728336,22.963,-82.6875,150.75,346.8125
1588209953332,2020-04-30T01:26:10.763228,23.062,-81.9375,155.25,346.4375
1588209953432,2020-04-30T01:26:10.792640,23.162,-83.0625,153.375,348.0625
1588209953532,2020-04-30T01:26:10.826849,23.262,-82.3125,152.625,346.375
1588209953630,2020-04-30T01:26:10.847570,23.36,-82.3125,150.0,346.875
1588209953729,2020-04-30T01:26:10.859797,23.459,-83.0625,153.0,347.6875
1588209953829,2020-04-30T01:26:10.872115,23.559,-83.0625,154.5,348.0625
1588209953929,2020-04-30T01:26:10.887217,23.659,-81.9375,153.375,348.0625
1588209954028,2020-04-30T01:26:10.905274,23.758,-82.3125,151.5,347.625
1588209954128,2020-04-30T01:26:10.918816,23.858,-82.6875,154.875,348.875
1588209954227,2020-04-30T01:26:10.930927,23.957,-83.0625,154.5,348.125
1588209954325,2020-04-30T01:26:10.948473,24.055,-81.9375,152.625,346.8125
1588209954425,2020-04-30T01:26:10.958598,24.155,-81.9375,151.125,348.875
1588209954525,2020-04-30T01:26:10.966962,24.255,-82.3125,154.5,347.625
1588209954624,2020-04-30T01:26:10.970337,24.354,-82.3125,154.125,348.0625
1588209954724,2020-04-30T01:26:10.973805,24.454,-80.8125,155.625,347.6875
1588209954824,2020-04-30T01:26:11.003671,24.554,-81.9375,153.375,347.625
1588209954923,2020-04-30T01:26:11.025959,24.653,-82.6875,153.75,348.125
1588209955021,2020-04-30T01:26:11.047615,24.751,-82.3125,155.25,348.875
1588209955121,2020-04-30T01:26:11.062693,24.851,-82.3125,154.5,347.25
1588209955220,2020-04-30T01:26:11.084369,24.95,-82.3125,154.875,347.6875
1588209955320,2020-04-30T01:26:11.116736,25.05,-81.9375,153.0,347.75
1588209955420,2020-04-30T01:26:11.156263,25.15,-82.6875,154.875,346.875
1588209955519,2020-04-30T01:26:11.173672,25.249,-82.3125,154.875,347.6875
1588209955619,2020-04-30T01:26:11.199213,25.349,-81.9375,155.25,346.0
1588209955717,2020-04-30T01:26:11.229862,25.447,-82.3125,154.125,347.75
1588209955817,2020-04-30T01:26:11.245522,25.547,-81.9375,155.25,347.75
1588209955916,2020-04-30T01:26:11.254919,25.646,-81.5625,154.875,347.6875
1588209956016,2020-04-30T01:26:11.264256,25.746,-81.9375,154.5,346.5625
1588209956116,2020-04-30T01:26:11.275389,25.846,-81.5625,154.5,347.6875
1588209956215,2020-04-30T01:26:11.282132,25.945,-81.1875,154.875,346.9375
1588209956315,2020-04-30T01:26:11.303360,26.045,-81.9375,154.5,347.25
1588209956413,2020-04-30T01:26:11.317344,26.143,-81.9375,154.875,347.1875
1588209956512,2020-04-30T01:26:11.353754,26.242,-81.9375,153.0,347.1875
1588209956612,2020-04-30T01:26:11.368772,26.342,-82.3125,154.125,347.3125
1588209956712,2020-04-30T01:26:11.391208,26.442,-82.6875,151.5,347.25
1588209956811,2020-04-30T01:26:11.406350,26.541,-80.8125,154.875,347.25
1588209956911,2020-04-30T01:26:11.428217,26.641,-81.9375,153.375,346.875
1588209957011,2020-04-30T01:26:11.445270,26.741,-82.6875,153.75,346.5625
1588209957109,2020-04-30T01:26:11.466137,26.839,-81.9375,153.0,346.8125
1588209957208,2020-04-30T01:26:11.481153,26.938,-81.9375,154.875,346.0
1588209957308,2020-04-30T01:26:11.503442,27.038,-82.3125,152.625,346.4375
1588209957408,2020-04-30T01:26:11.518869,27.138,-81.9375,153.75,345.1875
1588209957507,2020-04-30T01:26:11.540812,27.237,-82.3125,151.5,346.375
1588209957607,2020-04-30T01:26:11.555805,27.337,-81.5625,154.125,346.9375
1588209957706,2020-04-30T01:26:11.579599,27.436,-81.9375,154.125,346.4375
1588209957804,2020-04-30T01:26:11.602150,27.534,-81.5625,153.0,346.875
1588209957904,2020-04-30T01:26:11.617092,27.634,-81.1875,148.875,346.375
1588209958004,2020-04-30T01:26:11.638930,27.734,-81.5625,154.5,347.625
1588209958103,2020-04-30T01:26:11.654325,27.833,-81.5625,153.0,346.8125
1588209958203,2020-04-30T01:26:11.683078,27.933,-81.9375,151.875,346.375
1588209958303,2020-04-30T01:26:11.705589,28.033,-81.5625,148.875,347.1875
1588209958401,2020-04-30T01:26:11.722459,28.131,-81.1875,152.625,348.0625
1588209958500,2020-04-30T01:26:11.752360,28.23,-81.9375,152.625,348.0625
1588209958600,2020-04-30T01:26:11.773932,28.33,-81.5625,149.625,347.6875
1588209958700,2020-04-30T01:26:11.788928,28.43,-82.3125,146.625,347.1875
1588209958799,2020-04-30T01:26:11.810834,28.529,-81.5625,152.625,347.625
1588209958899,2020-04-30T01:26:11.826273,28.629,-81.1875,153.0,346.4375
1588209958998,2020-04-30T01:26:11.848877,28.728,-80.8125,152.25,345.6875
1588209959096,2020-04-30T01:26:11.863106,28.826,-79.6875,147.0,344.4375
1588209959196,2020-04-30T01:26:11.879370,28.926,-78.5625,151.125,343.1875
1588209959296,2020-04-30T01:26:11.900553,29.026,-78.5625,152.625,338.75
1588209959395,2020-04-30T01:26:11.916874,29.125,-77.0625,151.125,338.375
1588209959495,2020-04-30T01:26:11.931859,29.225,-77.0625,144.0,339.3125
1588209959595,2020-04-30T01:26:11.953911,29.325,-77.4375,151.875,340.8125
1588209959694,2020-04-30T01:26:11.976422,29.424,-77.0625,152.25,340.125
1588209959792,2020-04-30T01:26:11.998922,29.522,-75.9375,153.0,338.4375
1588209959892,2020-04-30T01:26:12.021414,29.622,-75.1875,146.625,337.1875
1588209959991,2020-04-30T01:26:12.036406,29.721,-75.1875,150.75,337.1875
1588209960091,2020-04-30T01:26:12.062093,29.821,-75.1875,151.5,337.625
1588209960191,2020-04-30T01:26:12.087043,29.921,-74.8125,151.5,337.1875
1588209960290,2020-04-30T01:26:12.099550,30.02,-75.5625,147.0,336.0
1588209960390,2020-04-30T01:26:12.129815,30.12,-74.0625,153.75,334.75
1588209960488,2020-04-30T01:26:12.171776,30.218,-74.8125,154.125,333.5
1588209960588,2020-04-30T01:26:12.193672,30.318,-73.6875,150.0,333.125
1588209960687,2020-04-30T01:26:12.233199,30.417,-73.6875,142.875,333.125
1588209960787,2020-04-30T01:26:12.282666,30.517,-72.9375,153.75,332.8125
1588209960887,2020-04-30T01:26:12.360958,30.617,-72.5625,151.5,333.1875
1588209960986,2020-04-30T01:26:12.390817,30.716,-71.8125,151.875,332.8125
1588209961086,2020-04-30T01:26:12.423207,30.816,-70.6875,143.25,333.9375
1588209961184,2020-04-30T01:26:12.455013,30.914,-69.5625,151.5,335.9375
1588209961283,2020-04-30T01:26:12.482405,31.013,-69.1875,148.875,335.6875
1588209961383,2020-04-30T01:26:12.529933,31.113,-68.5,149.625,336.5
1588209961483,2020-04-30T01:26:12.592885,31.213,-69.1875,143.25,336.875
1588209961582,2020-04-30T01:26:12.639695,31.312,-69.1875,150.0,336.8125
1588209961682,2020-04-30T01:26:12.668397,31.412,-69.5625,149.25,336.875
1588209961782,2020-04-30T01:26:12.686385,31.512,-70.6875,149.25,337.9375
1588209961880,2020-04-30T01:26:12.702481,31.61,-69.5625,150.75,333.5
1588209961979,2020-04-30T01:26:12.716483,31.709,-67.375,151.125,333.125
1588209962079,2020-04-30T01:26:12.741447,31.809,-65.5,153.0,332.0625
1588209962179,2020-04-30T01:26:12.757650,31.909,-63.625,153.375,329.9375
1588209962278,2020-04-30T01:26:12.772444,32.008,-61.75,151.875,329.9375
1588209962378,2020-04-30T01:26:12.808401,32.108,-60.25,153.0,329.625
1588209962477,2020-04-30T01:26:12.830827,32.207,-58.75,151.5,332.8125
1588209962575,2020-04-30T01:26:12.847604,32.305,-58.0,150.0,337.25
1588209962675,2020-04-30T01:26:12.863019,32.405,-56.5,149.25,340.8125
1588209962775,2020-04-30T01:26:12.884900,32.505,-55.375,148.5,344.875
1588209962874,2020-04-30T01:26:12.900678,32.604,-55.75,149.25,344.5
1588209962974,2020-04-30T01:26:12.928200,32.704,-56.125,149.25,345.3125
1588209963074,2020-04-30T01:26:12.943949,32.804,-55.75,149.625,343.6875
1588209963173,2020-04-30T01:26:12.974885,32.903,-56.125,149.25,343.6875
1588209963271,2020-04-30T01:26:12.989724,33.001,-56.125,150.375,343.3125
1588209963371,2020-04-30T01:26:13.044334,33.101,-56.5,151.5,341.1875
1588209963470,2020-04-30T01:26:13.057046,33.2,-56.5,150.375,341.3125
1588209963570,2020-04-30T01:26:13.067192,33.3,-56.5,151.125,340.4375
1588209963670,2020-04-30T01:26:13.069803,33.4,-56.875,151.875,339.3125
1588209963769,2020-04-30T01:26:13.097511,33.499,-56.875,151.5,338.5
1588209963869,2020-04-30T01:26:13.110609,33.599,-55.75,151.875,337.6875
1588209963969,2020-04-30T01:26:13.131342,33.699,-57.625,151.875,338.5
1588209964067,2020-04-30T01:26:13.146252,33.797,-57.625,152.625,337.1875
1588209964166,2020-04-30T01:26:13.169063,33.896,-57.25,150.375,337.1875
1588209964266,2020-04-30T01:26:13.185272,33.996,-56.125,154.5,337.1875
1588209964366,2020-04-30T01:26:13.201380,34.096,-57.25,154.5,337.25
1588209964465,2020-04-30T01:26:13.220678,34.195,-56.875,150.75,336.8125
1588209964565,2020-04-30T01:26:13.239134,34.295,-56.875,150.0,336.5
1588209964664,2020-04-30T01:26:13.266028,34.394,-57.25,153.0,337.6875
1588209964762,2020-04-30T01:26:13.288161,34.492,-57.625,153.0,338.0625
1588209964862,2020-04-30T01:26:13.304388,34.592,-58.0,154.5,337.1875
1588209964962,2020-04-30T01:26:13.319388,34.692,-56.875,147.375,336.5
1588209965061,2020-04-30T01:26:13.341427,34.791,-56.875,151.875,336.9375
1588209965161,2020-04-30T01:26:13.356464,34.891,-56.875,153.75,335.625
1588209965261,2020-04-30T01:26:13.385934,34.991,-57.25,152.25,336.0625
