epoch  (ms),time  (-07:00),elapsed  (s),X-Axis  (T),Y-Axis  (T),Z-Axis  (T)
1588209930306,2020-04-30T01:26:05.324592,0.0,-64.625,-8.75,70.3125
1588209930405,2020-04-30T01:26:05.354283,0.099,-62.8125,-9.125,70.6875
1588209930503,2020-04-30T01:26:05.399311,0.197,-63.5625,-11.0,70.3125
1588209930603,2020-04-30T01:26:05.466703,0.297,-62.4375,-11.375,69.125
1588209930703,2020-04-30T01:26:05.511680,0.397,-62.0625,-8.8125,67.125
1588209930802,2020-04-30T01:26:05.601697,0.496,-62.4375,-7.3125,66.375
1588209930902,2020-04-30T01:26:05.646697,0.596,-62.8125,-6.9375,66.375
1588209931001,2020-04-30T01:26:05.736678,0.695,-62.8125,-5.875,66.75
1588209931101,2020-04-30T01:26:05.781734,0.795,-62.4375,-4.375,66.75
1588209931201,2020-04-30T01:26:05.849226,0.895,-63.5625,-2.5625,66.75
1588209931300,2020-04-30T01:26:05.909263,0.994,-64.6875,-3.25,69.1875
1588209931398,2020-04-30T01:26:05.984196,1.092,-65.375,-3.25,69.9375
1588209931498,2020-04-30T01:26:06.044296,1.192,-65.0,-2.9375,71.5
1588209931598,2020-04-30T01:26:06.111989,1.292,-65.375,-4.0,73.5
1588209931697,2020-04-30T01:26:06.164301,1.391,-67.625,-5.125,74.3125
1588209931797,2020-04-30T01:26:06.224502,1.491,-67.25,-2.9375,75.875
1588209931897,2020-04-30T01:26:06.284378,1.591,-67.25,-3.25,76.6875
1588209931996,2020-04-30T01:26:06.359204,1.69,-68.3125,-2.9375,78.6875
1588209932096,2020-04-30T01:26:06.411725,1.79,-70.1875,-9.125,80.6875
1588209932195,2020-04-30T01:26:06.501730,1.889,-69.8125,-2.5625,79.875
1588209932293,2020-04-30T01:26:06.561690,1.987,-69.4375,0.375,75.5
1588209932393,2020-04-30T01:26:06.606682,2.087,-67.9375,3.0,68.3125
1588209932493,2020-04-30T01:26:06.697115,2.187,-65.0,0.375,58.0
1588209932592,2020-04-30T01:26:06.749193,2.286,-64.6875,7.0,49.3125
1588209932692,2020-04-30T01:26:06.809307,2.386,-62.8125,7.75,44.875
1588209932792,2020-04-30T01:26:06.877017,2.486,-63.1875,6.625,48.5
1588209932891,2020-04-30T01:26:06.959247,2.585,-64.6875,0.0,56.8125
1588209932991,2020-04-30T01:26:07.019239,2.685,-65.0,6.25,58.0
1588209933089,2020-04-30T01:26:07.094591,2.783,-64.3125,7.0,56.4375
1588209933189,2020-04-30T01:26:07.139561,2.883,-63.1875,4.8125,58.8125
1588209933288,2020-04-30T01:26:07.206747,2.982,-63.1875,0.375,57.25
1588209933388,2020-04-30T01:26:07.266841,3.082,-61.75,3.0,60.0
1588209933487,2020-04-30T01:26:07.327180,3.181,-61.75,0.0,64.75
1588209933587,2020-04-30T01:26:07.371973,3.281,-61.0,-2.1875,67.1875
1588209933687,2020-04-30T01:26:07.431732,3.381,-61.75,-1.4375,69.5625
1588209933786,2020-04-30T01:26:07.506713,3.48,-62.8125,-1.0625,70.75
1588209933886,2020-04-30T01:26:07.582350,3.58,-62.0625,-0.3125,69.9375
1588209933985,2020-04-30T01:26:07.636855,3.679,-61.75,-0.6875,70.3125
1588209934084,2020-04-30T01:26:07.695579,3.778,-61.0,-0.3125,69.9375
1588209934183,2020-04-30T01:26:07.745065,3.877,-61.75,-1.4375,69.9375
1588209934283,2020-04-30T01:26:07.823491,3.977,-61.75,0.0,71.9375
1588209934382,2020-04-30T01:26:07.886079,4.076,-61.375,-2.1875,71.5625
1588209934482,2020-04-30T01:26:07.935952,4.176,-62.4375,0.75,70.75
1588209934582,2020-04-30T01:26:08.010883,4.276,-62.4375,-0.6875,70.75
1588209934681,2020-04-30T01:26:08.080569,4.375,-62.8125,0.0,71.125
1588209934781,2020-04-30T01:26:08.146869,4.475,-63.1875,-5.125,69.9375
1588209934880,2020-04-30T01:26:08.227788,4.574,-62.4375,1.125,65.9375
1588209934980,2020-04-30T01:26:08.272679,4.674,-61.0,2.9375,63.5625
1588209935078,2020-04-30T01:26:08.312812,4.772,-61.375,3.3125,60.375
1588209935178,2020-04-30T01:26:08.385487,4.872,-60.25,-2.1875,58.4375
1588209935277,2020-04-30T01:26:08.437678,4.971,-60.625,5.9375,56.4375
1588209935377,2020-04-30T01:26:08.498290,5.071,-59.875,4.4375,55.25
1588209935477,2020-04-30T01:26:08.550245,5.171,-60.625,4.4375,54.0625
1588209935576,2020-04-30T01:26:08.624607,5.27,-59.125,0.375,53.625
1588209935676,2020-04-30T01:26:08.684363,5.37,-59.125,1.875,54.0
1588209935775,2020-04-30T01:26:08.752253,5.469,-59.5,-0.6875,54.8125
1588209935875,2020-04-30T01:26:08.834747,5.569,-59.5,0.75,56.4375
1588209935973,2020-04-30T01:26:08.902221,5.667,-58.8125,0.375,58.375
1588209936073,2020-04-30T01:26:08.947276,5.767,-59.875,-1.4375,61.625
1588209936172,2020-04-30T01:26:09.007469,5.866,-62.4375,-6.9375,76.6875
1588209936272,2020-04-30T01:26:09.052219,5.966,-70.1875,-11.375,87.4375
1588209936372,2020-04-30T01:26:09.127253,6.066,-76.4375,-13.9375,88.625
1588209936471,2020-04-30T01:26:09.194641,6.165,-83.0,-17.625,80.3125
1588209936571,2020-04-30T01:26:09.240025,6.265,-88.5,-12.4375,75.875
1588209936670,2020-04-30T01:26:09.307107,6.364,-91.8125,-4.75,67.9375
1588209936770,2020-04-30T01:26:09.361490,6.464,-93.6875,3.6875,53.625
1588209936870,2020-04-30T01:26:09.441364,6.564,-94.0,5.875,50.4375
1588209936968,2020-04-30T01:26:09.482938,6.662,-94.75,7.0,42.5
1588209937067,2020-04-30T01:26:09.519537,6.761,-96.25,0.75,42.875
1588209937167,2020-04-30T01:26:09.562746,6.861,-97.6875,1.125,47.6875
1588209937267,2020-04-30T01:26:09.622858,6.961,-96.25,0.75,47.25
1588209937366,2020-04-30T01:26:09.689368,7.06,-97.3125,0.0,46.0625
1588209937466,2020-04-30T01:26:09.764804,7.16,-97.6875,-5.125,47.25
1588209937565,2020-04-30T01:26:09.809396,7.259,-97.0,0.0,48.4375
1588209937665,2020-04-30T01:26:09.870930,7.359,-95.875,-1.4375,50.875
1588209937765,2020-04-30T01:26:09.914905,7.459,-95.5,-3.25,55.25
1588209937864,2020-04-30T01:26:09.990628,7.558,-95.5,-11.375,55.25
1588209937962,2020-04-30T01:26:10.025978,7.656,-95.875,-6.5625,54.8125
1588209938062,2020-04-30T01:26:10.094077,7.756,-96.25,-3.625,52.4375
1588209938162,2020-04-30T01:26:10.134712,7.856,-97.0,-2.1875,50.875
1588209938261,2020-04-30T01:26:10.192253,7.955,-96.25,1.5,49.6875
1588209938361,2020-04-30T01:26:10.244277,8.055,-96.25,1.125,48.0625
1588209938460,2020-04-30T01:26:10.304610,8.154,-95.5,2.625,45.25
1588209938560,2020-04-30T01:26:10.358707,8.254,-96.625,4.0625,44.5
1588209938660,2020-04-30T01:26:10.447524,8.354,-96.9375,5.1875,42.875
1588209938759,2020-04-30T01:26:10.508193,8.453,-95.875,5.5625,41.6875
1588209938859,2020-04-30T01:26:10.560958,8.553,-96.625,3.6875,40.125
1588209938957,2020-04-30T01:26:10.630463,8.651,-96.9375,1.875,40.5
1588209939057,2020-04-30T01:26:10.674065,8.751,-96.25,7.0,40.5
1588209939156,2020-04-30T01:26:10.733271,8.85,-96.25,5.5625,40.125
1588209939256,2020-04-30T01:26:10.779062,8.95,-96.625,6.25,41.3125
1588209939355,2020-04-30T01:26:10.836893,9.049,-96.9375,-0.3125,41.3125
1588209939455,2020-04-30T01:26:10.882809,9.149,-97.3125,5.9375,40.9375
1588209939555,2020-04-30T01:26:10.942960,9.249,-96.9375,5.875,40.5
1588209939654,2020-04-30T01:26:11.002397,9.348,-97.3125,4.8125,41.3125
1588209939754,2020-04-30T01:26:11.084783,9.448,-97.0,3.0,40.9375
1588209939854,2020-04-30T01:26:11.139312,9.548,-96.9375,5.5625,40.875
1588209939953,2020-04-30T01:26:11.205700,9.647,-96.625,2.625,41.3125
1588209940053,2020-04-30T01:26:11.250128,9.747,-96.9375,4.4375,40.5
1588209940151,2020-04-30T01:26:11.317746,9.845,-96.625,5.5625,40.875
1588209940251,2020-04-30T01:26:11.384451,9.945,-96.9375,4.4375,40.5
1588209940350,2020-04-30T01:26:11.444460,10.044,-96.625,6.25,41.3125
1588209940450,2020-04-30T01:26:11.489762,10.144,-96.625,4.4375,41.6875
1588209940549,2020-04-30T01:26:11.557257,10.243,-96.625,2.625,41.3125
1588209940649,2020-04-30T01:26:11.639710,10.343,-97.3125,5.875,41.3125
1588209940749,2020-04-30T01:26:11.700003,10.443,-96.9375,5.5625,41.3125
1588209940848,2020-04-30T01:26:11.760023,10.542,-95.875,0.75,40.875
1588209940948,2020-04-30T01:26:11.834822,10.642,-96.9375,6.25,41.3125
1588209941047,2020-04-30T01:26:11.902352,10.741,-96.625,6.625,41.6875
1588209941147,2020-04-30T01:26:11.954469,10.841,-96.25,1.875,41.3125
1588209941245,2020-04-30T01:26:12.014385,10.939,-96.625,-0.6875,41.3125
1588209941345,2020-04-30T01:26:12.067859,11.039,-96.25,6.25,40.5
1588209941444,2020-04-30T01:26:12.127809,11.138,-97.3125,5.875,39.6875
1588209941544,2020-04-30T01:26:12.174853,11.238,-95.875,4.8125,41.3125
1588209941644,2020-04-30T01:26:12.240927,11.338,-95.875,1.5,41.6875
1588209941743,2020-04-30T01:26:12.285327,11.437,-96.25,4.0625,41.3125
1588209941843,2020-04-30T01:26:12.384610,11.537,-96.625,4.8125,41.3125
1588209941942,2020-04-30T01:26:12.407956,11.636,-97.6875,5.5625,40.5
1588209942042,2020-04-30T01:26:12.466771,11.736,-96.625,1.5,41.6875
1588209942142,2020-04-30T01:26:12.510170,11.836,-96.9375,4.0625,40.875
1588209942241,2020-04-30T01:26:12.579991,11.935,-96.625,5.1875,41.6875
1588209942339,2020-04-30T01:26:12.624525,12.033,-97.0,5.5625,42.125
1588209942439,2020-04-30T01:26:12.683834,12.133,-96.25,5.875,40.875
1588209942539,2020-04-30T01:26:12.734401,12.233,-96.625,5.875,41.3125
1588209942638,2020-04-30T01:26:12.794374,12.332,-96.25,6.625,41.3125
1588209942738,2020-04-30T01:26:12.861878,12.432,-96.25,0.0,40.875
1588209942837,2020-04-30T01:26:12.914521,12.531,-96.625,3.6875,41.6875
1588209942937,2020-04-30T01:26:12.975344,12.631,-96.9375,6.25,41.6875
1588209943037,2020-04-30T01:26:13.032912,12.731,-96.9375,4.8125,40.5
1588209943136,2020-04-30T01:26:13.094632,12.83,-96.9375,0.75,41.3125
1588209943236,2020-04-30T01:26:13.139620,12.93,-96.25,5.1875,41.6875
1588209943335,2020-04-30T01:26:13.215192,13.029,-97.3125,5.9375,40.9375
1588209943435,2020-04-30T01:26:13.262243,13.129,-96.625,1.125,41.3125
1588209943535,2020-04-30T01:26:13.319801,13.229,-96.25,6.625,41.6875
1588209943633,2020-04-30T01:26:13.372470,13.327,-96.625,4.8125,40.875
1588209943732,2020-04-30T01:26:13.439648,13.426,-96.9375,5.5625,40.5
1588209943832,2020-04-30T01:26:13.484567,13.526,-96.25,5.1875,41.3125
1588209943932,2020-04-30T01:26:13.544477,13.626,-96.25,6.25,41.3125
1588209944031,2020-04-30T01:26:13.604401,13.725,-95.5,6.25,40.875
1588209944131,2020-04-30T01:26:13.671919,13.825,-96.9375,4.8125,40.5
1588209944230,2020-04-30T01:26:13.724406,13.924,-96.9375,-0.6875,41.3125
1588209944330,2020-04-30T01:26:13.791902,14.024,-96.625,5.1875,41.3125
1588209944430,2020-04-30T01:26:13.836913,14.124,-97.3125,5.5625,41.3125
1588209944529,2020-04-30T01:26:13.919646,14.223,-96.9375,3.6875,41.3125
1588209944629,2020-04-30T01:26:13.972631,14.323,-96.9375,-0.3125,41.6875
1588209944729,2020-04-30T01:26:14.039404,14.423,-96.9375,4.8125,41.3125
1588209944828,2020-04-30T01:26:14.106891,14.522,-97.0,5.5625,40.9375
1588209944928,2020-04-30T01:26:14.151918,14.622,-96.625,4.4375,40.9375
1588209945026,2020-04-30T01:26:14.211900,14.72,-95.5,4.4375,41.3125
1588209945126,2020-04-30T01:26:14.256914,14.82,-96.625,3.0,42.125
1588209945225,2020-04-30T01:26:14.317037,14.919,-96.625,5.1875,41.6875
1588209945325,2020-04-30T01:26:14.362093,15.019,-96.9375,4.4375,42.125
1588209945424,2020-04-30T01:26:14.429980,15.118,-96.625,6.25,41.3125
1588209945524,2020-04-30T01:26:14.476400,15.218,-96.625,5.1875,41.6875
1588209945624,2020-04-30T01:26:14.543945,15.318,-96.625,5.1875,41.3125
1588209945723,2020-04-30T01:26:14.587088,15.417,-96.25,-0.3125,41.6875
1588209945823,2020-04-30T01:26:14.646961,15.517,-97.3125,6.25,42.125
1588209945922,2020-04-30T01:26:14.692024,15.616,-96.625,5.5625,40.875
1588209946022,2020-04-30T01:26:14.752028,15.716,-96.625,4.4375,40.875
1588209946122,2020-04-30T01:26:14.796930,15.816,-96.625,0.0,42.5
1588209946220,2020-04-30T01:26:14.864392,15.914,-95.875,6.625,42.125
1588209946319,2020-04-30T01:26:14.919423,16.013,-96.625,4.0625,40.875
1588209946419,2020-04-30T01:26:14.977231,16.113,-97.0,6.25,41.3125
1588209946519,2020-04-30T01:26:15.022623,16.213,-96.9375,5.1875,42.125
1588209946618,2020-04-30T01:26:15.089556,16.312,-96.9375,4.8125,41.3125
1588209946718,2020-04-30T01:26:15.156908,16.412,-96.25,6.25,40.5
1588209946817,2020-04-30T01:26:15.216913,16.511,-96.625,5.1875,41.3125
1588209946917,2020-04-30T01:26:15.277041,16.611,-97.0,4.8125,42.125
1588209947017,2020-04-30T01:26:15.322069,16.711,-96.25,4.8125,41.3125
1588209947116,2020-04-30T01:26:15.382046,16.81,-95.875,5.875,41.3125
1588209947216,2020-04-30T01:26:15.434565,16.91,-97.3125,1.875,42.125
1588209947314,2020-04-30T01:26:15.494430,17.008,-96.625,5.1875,41.3125
1588209947414,2020-04-30T01:26:15.546942,17.108,-96.625,5.1875,40.9375
1588209947513,2020-04-30T01:26:15.606916,17.207,-96.9375,5.5625,41.6875
1588209947613,2020-04-30T01:26:15.659406,17.307,-96.9375,-1.4375,41.3125
1588209947712,2020-04-30T01:26:15.719582,17.406,-96.25,5.1875,42.5
1588209947812,2020-04-30T01:26:15.779278,17.506,-96.625,5.5625,42.0625
1588209947912,2020-04-30T01:26:15.846911,17.606,-96.25,3.6875,40.875
1588209948011,2020-04-30T01:26:15.891913,17.705,-96.25,0.0,41.3125
1588209948111,2020-04-30T01:26:15.974493,17.805,-96.25,4.4375,42.125
1588209948210,2020-04-30T01:26:16.019415,17.904,-95.5,6.25,41.6875
1588209948309,2020-04-30T01:26:16.087007,18.003,-95.5,5.1875,41.3125
1588209948408,2020-04-30T01:26:16.139408,18.102,-96.25,5.5625,41.6875
1588209948508,2020-04-30T01:26:16.199406,18.202,-97.3125,4.0625,41.6875
1588209948607,2020-04-30T01:26:16.252005,18.301,-96.625,4.8125,41.6875
1588209948707,2020-04-30T01:26:16.326990,18.401,-96.9375,5.5625,40.875
1588209948807,2020-04-30T01:26:16.379547,18.501,-95.875,3.6875,41.6875
1588209948906,2020-04-30T01:26:16.454753,18.6,-96.25,4.8125,41.3125
1588209949006,2020-04-30T01:26:16.514564,18.7,-97.0,5.1875,40.9375
1588209949105,2020-04-30T01:26:16.559602,18.799,-96.25,1.875,41.3125
1588209949205,2020-04-30T01:26:16.619677,18.899,-97.3125,5.9375,42.125
1588209949305,2020-04-30T01:26:16.664875,18.999,-96.25,4.4375,41.6875
1588209949403,2020-04-30T01:26:16.724557,19.097,-95.875,4.0625,40.9375
1588209949502,2020-04-30T01:26:16.769738,19.196,-97.3125,0.0,42.125
1588209949602,2020-04-30T01:26:16.844436,19.296,-96.625,6.625,40.5
1588209949702,2020-04-30T01:26:16.889469,19.396,-96.25,4.0625,41.6875
1588209949801,2020-04-30T01:26:16.949418,19.495,-96.625,4.8125,41.6875
1588209949901,2020-04-30T01:26:17.009527,19.595,-97.0,2.25,41.6875
1588209950001,2020-04-30T01:26:17.084547,19.695,-96.625,5.1875,40.5
1588209950100,2020-04-30T01:26:17.129580,19.794,-97.3125,5.1875,41.6875
1588209950200,2020-04-30T01:26:17.196953,19.894,-96.625,1.5,41.6875
1588209950299,2020-04-30T01:26:17.249421,19.993,-95.5,3.6875,42.5
1588209950397,2020-04-30T01:26:17.309399,20.091,-96.25,3.6875,41.6875
1588209950497,2020-04-30T01:26:17.362059,20.191,-96.25,4.0625,41.3125
1588209950597,2020-04-30T01:26:17.429502,20.291,-96.25,4.4375,41.6875
1588209950696,2020-04-30T01:26:17.474642,20.39,-95.875,5.5625,42.125
1588209950796,2020-04-30T01:26:17.534660,20.49,-96.25,5.1875,41.6875
1588209950896,2020-04-30T01:26:17.580109,20.59,-96.25,5.875,40.875
1588209950995,2020-04-30T01:26:17.639806,20.689,-96.25,3.3125,41.6875
1588209951095,2020-04-30T01:26:17.699425,20.789,-96.25,1.5,42.125
1588209951194,2020-04-30T01:26:17.744568,20.888,-97.0,4.4375,41.3125
1588209951294,2020-04-30T01:26:17.812663,20.988,-96.625,4.4375,41.6875
1588209951392,2020-04-30T01:26:17.864439,21.086,-95.875,1.125,41.3125
1588209951492,2020-04-30T01:26:17.924446,21.186,-96.625,6.625,42.125
1588209951591,2020-04-30T01:26:17.969293,21.285,-96.625,5.1875,41.3125
1588209951691,2020-04-30T01:26:18.051775,21.385,-95.875,5.1875,40.5
1588209951791,2020-04-30T01:26:18.104269,21.485,-96.9375,-0.6875,41.3125
1588209951890,2020-04-30T01:26:18.164313,21.584,-96.9375,4.8125,41.6875
1588209951990,2020-04-30T01:26:18.224276,21.684,-96.625,5.5625,40.9375
1588209952089,2020-04-30T01:26:18.284298,21.783,-96.25,5.1875,40.5
1588209952189,2020-04-30T01:26:18.337045,21.883,-95.5,2.9375,41.6875
1588209952289,2020-04-30T01:26:18.411796,21.983,-97.0,2.625,42.125
1588209952387,2020-04-30T01:26:18.456780,22.081,-97.0,6.25,42.5
1588209952486,2020-04-30T01:26:18.524326,22.18,-96.625,4.8125,41.6875
1588209952586,2020-04-30T01:26:18.569312,22.28,-96.625,6.25,41.3125
1588209952686,2020-04-30T01:26:18.629610,22.38,-96.625,5.1875,40.5
1588209952785,2020-04-30T01:26:18.674560,22.479,-97.0,5.5625,41.6875
1588209952885,2020-04-30T01:26:18.749437,22.579,-97.6875,4.8125,41.3125
1588209952984,2020-04-30T01:26:18.817083,22.678,-96.25,6.625,42.125
1588209953084,2020-04-30T01:26:18.862074,22.778,-96.625,6.25,41.3125
1588209953184,2020-04-30T01:26:18.929806,22.878,-96.625,6.25,40.875
1588209953283,2020-04-30T01:26:18.974919,22.977,-96.625,1.5,42.0625
1588209953381,2020-04-30T01:26:19.057086,23.075,-96.625,5.875,41.3125
1588209953481,2020-04-30T01:26:19.102082,23.175,-97.3125,4.4375,42.5
1588209953581,2020-04-30T01:26:19.177059,23.275,-96.9375,4.0625,40.875
1588209953680,2020-04-30T01:26:19.229677,23.374,-95.875,-1.8125,42.125
1588209953780,2020-04-30T01:26:19.289781,23.474,-96.625,6.625,41.6875
1588209953879,2020-04-30T01:26:19.349585,23.573,-96.9375,5.1875,41.6875
1588209953979,2020-04-30T01:26:19.416940,23.673,-96.625,5.5625,41.3125
1588209954079,2020-04-30T01:26:19.461976,23.773,-96.625,1.5,41.3125
1588209954178,2020-04-30T01:26:19.529441,23.872,-96.625,2.9375,42.0625
1588209954278,2020-04-30T01:26:19.574441,23.972,-96.25,5.5625,42.875
1588209954376,2020-04-30T01:26:19.634741,24.07,-96.25,1.875,41.3125
1588209954476,2020-04-30T01:26:19.679841,24.17,-96.625,4.4375,41.6875
1588209954575,2020-04-30T01:26:19.747251,24.269,-96.9375,4.8125,41.3125
1588209954675,2020-04-30T01:26:19.792517,24.369,-96.25,5.5625,41.6875
1588209954774,2020-04-30T01:26:19.867020,24.468,-96.625,4.8125,40.5
1588209954874,2020-04-30T01:26:19.911964,24.568,-97.0,5.5625,40.9375
1588209954974,2020-04-30T01:26:19.972031,24.668,-96.25,3.6875,41.75
1588209955073,2020-04-30T01:26:20.016964,24.767,-96.25,5.5625,41.6875
1588209955173,2020-04-30T01:26:20.076964,24.867,-96.625,3.0,41.3125
1588209955272,2020-04-30T01:26:20.167165,24.966,-96.9375,6.625,41.6875
1588209955372,2020-04-30T01:26:20.212122,25.066,-96.25,5.5625,41.6875
1588209955470,2020-04-30T01:26:20.309634,25.164,-96.625,5.1875,41.3125
1588209955570,2020-04-30T01:26:20.354665,25.264,-96.25,-0.6875,41.6875
1588209955669,2020-04-30T01:26:20.423230,25.363,-97.0,4.8125,42.125
1588209955769,2020-04-30T01:26:20.474760,25.463,-96.25,6.25,41.6875
1588209955869,2020-04-30T01:26:20.542147,25.563,-95.875,3.0,41.3125
1588209955968,2020-04-30T01:26:20.586959,25.662,-97.0,-1.0625,42.5
1588209956068,2020-04-30T01:26:20.647078,25.762,-96.625,5.9375,42.875
1588209956168,2020-04-30T01:26:20.692175,25.862,-96.9375,4.4375,41.3125
1588209956267,2020-04-30T01:26:20.782577,25.961,-97.375,3.6875,42.125
1588209956367,2020-04-30T01:26:20.864759,26.061,-97.0,4.0625,42.5
1588209956466,2020-04-30T01:26:21.007258,26.16,-95.875,3.6875,41.6875
1588209956564,2020-04-30T01:26:21.051990,26.258,-96.625,4.0625,41.3125
1588209956664,2020-04-30T01:26:21.119334,26.358,-96.25,3.0,41.3125
1588209956764,2020-04-30T01:26:21.164312,26.458,-97.0,5.9375,42.125
1588209956863,2020-04-30T01:26:21.232040,26.557,-96.25,6.25,42.125
1588209956963,2020-04-30T01:26:21.276961,26.657,-96.25,5.875,42.875
1588209957063,2020-04-30T01:26:21.336982,26.757,-96.25,2.625,43.6875
1588209957162,2020-04-30T01:26:21.411991,26.856,-96.25,4.8125,46.5
1588209957262,2020-04-30T01:26:21.456997,26.956,-96.25,1.125,50.0625
1588209957361,2020-04-30T01:26:21.531981,27.055,-95.125,-2.9375,56.8125
1588209957461,2020-04-30T01:26:21.577133,27.155,-94.0625,-11.0,63.1875
1588209957561,2020-04-30T01:26:21.637875,27.255,-92.5625,-7.6875,64.75
1588209957659,2020-04-30T01:26:21.704490,27.353,-92.9375,-9.875,66.75
1588209957758,2020-04-30T01:26:21.764494,27.452,-91.8125,-12.4375,66.75
1588209957858,2020-04-30T01:26:21.817020,27.552,-90.75,-20.1875,67.1875
1588209957958,2020-04-30T01:26:21.877302,27.652,-89.25,-16.125,69.125
1588209958057,2020-04-30T01:26:21.922083,27.751,-84.125,-20.875,65.5625
1588209958157,2020-04-30T01:26:21.989472,27.851,-77.125,-24.5625,57.625
1588209958256,2020-04-30T01:26:22.034466,27.95,-70.1875,-24.1875,49.25
1588209958356,2020-04-30T01:26:22.094618,28.05,-63.9375,-18.3125,52.4375
1588209958456,2020-04-30T01:26:22.141380,28.15,-61.375,-16.125,59.25
1588209958554,2020-04-30T01:26:22.206969,28.248,-61.375,-13.1875,73.5
1588209958653,2020-04-30T01:26:22.252002,28.347,-63.5625,-5.5,76.6875
1588209958753,2020-04-30T01:26:22.311964,28.447,-62.0625,-5.125,76.3125
1588209958853,2020-04-30T01:26:22.379588,28.547,-61.75,-4.75,73.125
1588209958952,2020-04-30T01:26:22.439472,28.646,-61.75,-7.3125,71.125
1588209959052,2020-04-30T01:26:22.484487,28.746,-60.625,-3.25,68.75
1588209959151,2020-04-30T01:26:22.551958,28.845,-60.25,-5.125,66.75
1588209959251,2020-04-30T01:26:22.596960,28.945,-60.625,-2.5625,66.375
1588209959351,2020-04-30T01:26:22.657101,29.045,-59.875,-5.875,66.0
1588209959450,2020-04-30T01:26:22.717350,29.144,-60.25,-3.25,67.5625
1588209959548,2020-04-30T01:26:22.761970,29.242,-60.25,-5.125,67.5625
1588209959648,2020-04-30T01:26:22.829466,29.342,-61.0,-3.25,69.125
1588209959748,2020-04-30T01:26:22.874611,29.442,-61.375,-7.3125,69.5625
1588209959847,2020-04-30T01:26:22.934919,29.541,-61.75,-4.0,69.5625
1588209959947,2020-04-30T01:26:22.979473,29.641,-61.0,-2.9375,70.75
1588209960046,2020-04-30T01:26:23.039474,29.74,-61.75,-3.25,71.9375
1588209960146,2020-04-30T01:26:23.091969,29.84,-61.0,-7.3125,71.125
1588209960246,2020-04-30T01:26:23.159487,29.94,-61.375,-1.8125,69.9375
1588209960345,2020-04-30T01:26:23.204484,30.039,-61.0,-2.1875,67.5625
1588209960443,2020-04-30T01:26:23.264496,30.137,-60.25,-2.1875,66.0
1588209960543,2020-04-30T01:26:23.309454,30.237,-59.5,-5.5,62.8125
1588209960643,2020-04-30T01:26:23.376963,30.337,-60.25,-0.3125,64.0
1588209960742,2020-04-30T01:26:23.429315,30.436,-64.3125,0.0,71.5625
1588209960842,2020-04-30T01:26:23.496849,30.536,-67.9375,-3.25,79.875
1588209960941,2020-04-30T01:26:23.541954,30.635,-70.1875,-3.25,80.6875
1588209961041,2020-04-30T01:26:23.602065,30.735,-71.625,-4.375,82.25
1588209961141,2020-04-30T01:26:23.646984,30.835,-71.25,-2.5625,81.4375
1588209961240,2020-04-30T01:26:23.706979,30.934,-70.875,-2.9375,81.4375
1588209961340,2020-04-30T01:26:23.759488,31.034,-70.875,-2.1875,82.25
1588209961438,2020-04-30T01:26:23.819466,31.132,-70.1875,-4.0,81.0625
1588209961538,2020-04-30T01:26:23.879474,31.232,-70.1875,-2.5625,79.875
1588209961637,2020-04-30T01:26:23.931999,31.331,-69.0625,-5.875,79.875
1588209961737,2020-04-30T01:26:23.999678,31.431,-67.25,-4.75,80.3125
1588209961836,2020-04-30T01:26:24.053462,31.53,-67.625,-5.125,79.5
1588209961936,2020-04-30T01:26:24.112209,31.63,-66.5,-3.25,75.9375
1588209962036,2020-04-30T01:26:24.157760,31.73,-66.5,-9.5,75.9375
1588209962135,2020-04-30T01:26:24.217051,31.829,-66.125,-3.625,75.5
1588209962235,2020-04-30T01:26:24.261961,31.929,-66.125,-5.875,76.6875
1588209962333,2020-04-30T01:26:24.329482,32.027,-67.25,-6.1875,79.0625
1588209962433,2020-04-30T01:26:24.396990,32.127,-68.6875,-8.0625,79.875
1588209962532,2020-04-30T01:26:24.456981,32.226,-69.4375,-3.625,80.6875
1588209962632,2020-04-30T01:26:24.501969,32.326,-66.875,-10.25,77.9375
1588209962731,2020-04-30T01:26:24.569484,32.425,-65.0,-5.5,71.9375
1588209962831,2020-04-30T01:26:24.614475,32.525,-62.4375,-8.4375,68.375
1588209962931,2020-04-30T01:26:24.674494,32.625,-62.8125,-2.5625,66.375
1588209963030,2020-04-30T01:26:24.719601,32.724,-63.1875,-2.9375,67.5625
1588209963130,2020-04-30T01:26:24.779609,32.824,-63.5625,-5.5,69.5625
1588209963230,2020-04-30T01:26:24.824815,32.924,-63.9375,-5.125,72.375
1588209963329,2020-04-30T01:26:24.892190,33.023,-64.3125,-7.3125,72.75
1588209963427,2020-04-30T01:26:24.937067,33.121,-65.0,-9.125,73.9375
1588209963527,2020-04-30T01:26:24.996985,33.221,-65.0,-7.6875,73.5625
1588209963626,2020-04-30T01:26:25.056999,33.32,-64.6875,-8.0625,73.5625
1588209963726,2020-04-30T01:26:25.102007,33.42,-63.9375,-9.875,71.9375
1588209963826,2020-04-30T01:26:25.199484,33.52,-64.3125,-8.0625,71.5625
1588209963925,2020-04-30T01:26:25.244630,33.619,-64.6875,-14.3125,71.9375
1588209964025,2020-04-30T01:26:25.341990,33.719,-64.3125,-8.0625,72.75
1588209964125,2020-04-30T01:26:25.402104,33.819,-64.3125,-8.8125,72.375
1588209964224,2020-04-30T01:26:25.477122,33.918,-63.9375,-9.5,73.125
1588209964324,2020-04-30T01:26:25.522009,34.018,-65.0,-13.9375,72.75
1588209964423,2020-04-30T01:26:25.582050,34.117,-63.9375,-7.6875,72.3125
1588209964522,2020-04-30T01:26:25.627132,34.216,-63.9375,-8.4375,73.125
1588209964621,2020-04-30T01:26:25.694817,34.315,-64.3125,-11.0,72.75
1588209964721,2020-04-30T01:26:25.746978,34.415,-63.5625,-13.9375,73.125
1588209964820,2020-04-30T01:26:25.814425,34.514,-63.9375,-8.8125,72.75
1588209964920,2020-04-30T01:26:25.867058,34.614,-64.3125,-8.8125,71.9375
1588209965020,2020-04-30T01:26:25.927006,34.714,-63.9375,-8.4375,72.75
1588209965119,2020-04-30T01:26:25.972033,34.813,-64.3125,-10.625,73.125
1588209965219,2020-04-30T01:26:26.032049,34.913,-65.375,-11.0,73.5
