epoch  (ms),time  (-07:00),elapsed  (s),X-Axis  (T),Y-Axis  (T),Z-Axis  (T)
1588210073430,2020-04-30T01:28:42.978088,0.0,-215.4375,93.0625,99.0625
1588210073531,2020-04-30T01:28:43.046226,0.101,-215.125,94.1875,99.0625
1588210073631,2020-04-30T01:28:43.151550,0.201,-216.1875,86.9375,100.25
1588210073730,2020-04-30T01:28:43.205897,0.3,-216.1875,93.4375,101.5625
1588210073831,2020-04-30T01:28:43.285716,0.401,-216.5625,94.1875,98.6875
1588210073931,2020-04-30T01:28:43.360664,0.501,-218.375,86.9375,97.8125
1588210074031,2020-04-30T01:28:43.443127,0.601,-218.375,93.8125,96.6875
1588210074132,2020-04-30T01:28:43.488121,0.702,-219.4375,96.6875,97.4375
1588210074231,2020-04-30T01:28:43.555616,0.801,-220.5625,90.5625,97.875
1588210074331,2020-04-30T01:28:43.608138,0.901,-221.25,95.625,100.75
1588210074432,2020-04-30T01:28:43.713178,1.002,-221.25,96.375,106.5
1588210074532,2020-04-30T01:28:43.765655,1.102,-221.625,93.4375,119.875
1588210074631,2020-04-30T01:28:43.855590,1.201,-222.375,88.75,133.8125
1588210074732,2020-04-30T01:28:43.930599,1.302,-223.8125,85.125,144.0
1588210074832,2020-04-30T01:28:44.073155,1.402,-224.1875,82.25,152.125
1588210074932,2020-04-30T01:28:44.133102,1.502,-225.25,80.4375,155.375
1588210075033,2020-04-30T01:28:44.208116,1.603,-226.0,80.0625,154.5625
1588210075132,2020-04-30T01:28:44.260758,1.702,-226.0,85.125,148.875
1588210075232,2020-04-30T01:28:44.350606,1.802,-225.625,88.375,139.5
1588210075333,2020-04-30T01:28:44.395598,1.903,-224.875,92.375,127.6875
1588210075433,2020-04-30T01:28:44.470614,2.003,-225.25,93.8125,116.25
1588210075532,2020-04-30T01:28:44.515621,2.102,-223.0625,96.375,106.875
1588210075633,2020-04-30T01:28:44.598128,2.203,-222.6875,96.6875,101.125
1588210075733,2020-04-30T01:28:44.643128,2.303,-223.4375,98.5,99.5625
1588210075832,2020-04-30T01:28:44.718139,2.402,-222.375,97.0625,103.5625
1588210075934,2020-04-30T01:28:44.785614,2.504,-220.5625,89.5,116.625
1588210076033,2020-04-30T01:28:44.860666,2.603,-218.75,89.8125,131.3125
1588210076133,2020-04-30T01:28:44.943125,2.703,-217.3125,88.375,134.625
1588210076234,2020-04-30T01:28:45.018130,2.804,-215.5,82.25,135.4375
1588210076333,2020-04-30T01:28:45.093373,2.903,-214.75,85.125,139.9375
1588210076433,2020-04-30T01:28:45.178971,3.003,-216.9375,85.5,145.625
1588210076534,2020-04-30T01:28:45.250479,3.104,-222.0,81.875,143.5625
1588210076634,2020-04-30T01:28:45.289241,3.204,-226.0,86.9375,144.375
1588210076733,2020-04-30T01:28:45.379056,3.303,-226.6875,83.6875,145.5625
1588210076833,2020-04-30T01:28:45.438123,3.403,-227.4375,80.75,147.6875
1588210076934,2020-04-30T01:28:45.513136,3.504,-227.4375,83.6875,148.0625
1588210077034,2020-04-30T01:28:45.566360,3.604,-227.0625,82.9375,149.6875
1588210077133,2020-04-30T01:28:45.633148,3.703,-226.0,84.375,151.75
1588210077234,2020-04-30T01:28:45.685644,3.804,-226.0,83.3125,154.5625
1588210077334,2020-04-30T01:28:45.775743,3.904,-225.25,81.5,153.75
1588210077434,2020-04-30T01:28:45.836181,4.004,-225.25,81.5,154.625
1588210077535,2020-04-30T01:28:45.897723,4.105,-225.625,82.5625,153.75
1588210077634,2020-04-30T01:28:45.951329,4.204,-226.6875,82.9375,151.3125
1588210077734,2020-04-30T01:28:46.008898,4.304,-228.5,82.25,153.75
1588210077835,2020-04-30T01:28:46.053135,4.405,-230.3125,80.75,157.4375
1588210077934,2020-04-30T01:28:46.128120,4.504,-229.25,79.3125,159.0625
1588210078034,2020-04-30T01:28:46.173144,4.604,-228.875,77.875,162.75
1588210078135,2020-04-30T01:28:46.233137,4.705,-228.875,79.0,163.25
1588210078235,2020-04-30T01:28:46.285673,4.805,-229.25,71.75,167.6875
1588210078334,2020-04-30T01:28:46.353144,4.904,-229.9375,73.1875,166.8125
1588210078435,2020-04-30T01:28:46.413145,5.005,-229.9375,73.1875,165.625
1588210078535,2020-04-30T01:28:46.473260,5.105,-229.25,68.125,167.625
1588210078635,2020-04-30T01:28:46.518170,5.205,-230.6875,73.875,166.875
1588210078736,2020-04-30T01:28:46.563186,5.306,-231.0625,73.5625,167.625
1588210078835,2020-04-30T01:28:46.645884,5.405,-231.0625,66.3125,166.0625
1588210078935,2020-04-30T01:28:46.691393,5.505,-231.4375,73.1875,164.8125
1588210079036,2020-04-30T01:28:46.752629,5.606,-230.6875,75.0,164.375
1588210079136,2020-04-30T01:28:46.796838,5.706,-229.9375,71.375,166.8125
1588210079235,2020-04-30T01:28:46.857810,5.805,-227.4375,71.375,170.5625
1588210079336,2020-04-30T01:28:46.901421,5.906,-226.6875,71.0,173.3125
1588210079436,2020-04-30T01:28:46.968125,6.006,-226.6875,68.125,175.75
1588210079536,2020-04-30T01:28:47.013132,6.106,-226.6875,67.375,175.4375
1588210079637,2020-04-30T01:28:47.081200,6.207,-227.0625,63.75,175.4375
1588210079736,2020-04-30T01:28:47.126786,6.306,-226.3125,66.6875,176.1875
1588210079836,2020-04-30T01:28:47.200847,6.406,-226.3125,66.3125,177.0
1588210079937,2020-04-30T01:28:47.245741,6.507,-226.0,65.1875,177.375
1588210080037,2020-04-30T01:28:47.313408,6.607,-226.0,67.375,178.25
1588210080136,2020-04-30T01:28:47.358306,6.706,-226.0,67.375,177.0625
1588210080237,2020-04-30T01:28:47.418506,6.807,-226.3125,64.5,177.4375
1588210080337,2020-04-30T01:28:47.463136,6.907,-226.3125,65.5625,177.0
1588210080436,2020-04-30T01:28:47.530688,7.006,-227.0625,67.75,177.0625
1588210080538,2020-04-30T01:28:47.575688,7.108,-226.6875,64.5,177.8125
1588210080637,2020-04-30T01:28:47.635809,7.207,-227.0625,67.375,177.0
1588210080738,2020-04-30T01:28:47.681183,7.308,-226.6875,66.625,177.8125
1588210080838,2020-04-30T01:28:47.748124,7.408,-226.3125,61.5625,177.8125
1588210080937,2020-04-30T01:28:47.830512,7.507,-226.3125,63.375,178.3125
1588210081038,2020-04-30T01:28:47.890486,7.608,-226.0,65.9375,176.625
1588210081138,2020-04-30T01:28:47.935800,7.708,-226.6875,60.125,177.5
1588210081238,2020-04-30T01:28:47.996057,7.808,-226.6875,66.3125,177.5
1588210081339,2020-04-30T01:28:48.043289,7.909,-227.0625,66.6875,177.0625
1588210081438,2020-04-30T01:28:48.094336,8.008,-226.6875,61.25,177.4375
1588210081538,2020-04-30T01:28:48.168979,8.108,-226.375,65.9375,177.0625
1588210081639,2020-04-30T01:28:48.213165,8.209,-226.6875,64.875,176.625
1588210081739,2020-04-30T01:28:48.280622,8.309,-226.6875,63.375,177.0625
1588210081838,2020-04-30T01:28:48.340648,8.408,-226.6875,65.9375,177.0
1588210081939,2020-04-30T01:28:48.400635,8.509,-226.3125,66.3125,177.0
1588210082039,2020-04-30T01:28:48.453167,8.609,-227.0625,66.6875,177.0625
1588210082139,2020-04-30T01:28:48.513916,8.709,-226.6875,66.625,178.1875
1588210082240,2020-04-30T01:28:48.558370,8.81,-226.3125,65.1875,177.5
1588210082339,2020-04-30T01:28:48.625669,8.909,-227.0625,66.3125,177.4375
1588210082439,2020-04-30T01:28:48.670683,9.009,-226.6875,66.3125,177.0
1588210082540,2020-04-30T01:28:48.738171,9.11,-226.6875,67.0,176.625
1588210082640,2020-04-30T01:28:48.783320,9.21,-227.0625,67.75,177.5
1588210082739,2020-04-30T01:28:48.850680,9.309,-226.3125,67.0,177.0
1588210082840,2020-04-30T01:28:48.895671,9.41,-226.6875,66.3125,177.4375
1588210082940,2020-04-30T01:28:48.963185,9.51,-226.3125,67.75,176.625
1588210083039,2020-04-30T01:28:49.015676,9.609,-227.0625,67.75,177.0625
1588210083141,2020-04-30T01:28:49.090680,9.711,-227.0625,65.1875,176.625
1588210083240,2020-04-30T01:28:49.150670,9.81,-226.3125,67.0,176.625
1588210083340,2020-04-30T01:28:49.218431,9.91,-226.6875,65.1875,178.25
1588210083441,2020-04-30T01:28:49.263180,10.011,-227.0625,61.5625,177.0
1588210083540,2020-04-30T01:28:49.323164,10.11,-226.375,66.6875,177.0625
1588210083640,2020-04-30T01:28:49.368249,10.21,-226.3125,63.375,177.375
1588210083741,2020-04-30T01:28:49.435656,10.311,-227.0625,57.9375,177.8125
1588210083841,2020-04-30T01:28:49.488173,10.411,-226.3125,68.125,177.4375
1588210083940,2020-04-30T01:28:49.548865,10.51,-226.3125,67.75,176.1875
1588210084041,2020-04-30T01:28:49.594451,10.611,-225.625,61.9375,177.4375
1588210084141,2020-04-30T01:28:49.654465,10.711,-226.3125,65.1875,177.5
1588210084241,2020-04-30T01:28:49.698164,10.811,-226.6875,64.875,177.5
1588210084342,2020-04-30T01:28:49.743201,10.912,-226.375,68.125,177.0625
1588210084441,2020-04-30T01:28:49.803167,11.011,-226.0,67.375,176.6875
1588210084541,2020-04-30T01:28:49.871037,11.111,-228.125,65.9375,176.1875
1588210084642,2020-04-30T01:28:49.932632,11.212,-227.8125,67.75,176.625
1588210084742,2020-04-30T01:28:50.002846,11.312,-226.6875,68.125,176.625
1588210084841,2020-04-30T01:28:50.061368,11.411,-227.4375,65.9375,176.625
1588210084942,2020-04-30T01:28:50.122917,11.512,-226.3125,66.6875,177.0
1588210085042,2020-04-30T01:28:50.173485,11.612,-225.625,64.125,177.0
1588210085143,2020-04-30T01:28:50.215886,11.713,-226.0,66.3125,178.3125
1588210085243,2020-04-30T01:28:50.290620,11.813,-226.3125,66.6875,176.625
1588210085342,2020-04-30T01:28:50.336368,11.912,-227.0625,66.3125,176.625
1588210085443,2020-04-30T01:28:50.396254,12.013,-227.4375,62.3125,177.875
1588210085543,2020-04-30T01:28:50.441050,12.113,-226.0,66.3125,177.125
1588210085642,2020-04-30T01:28:50.512571,12.212,-226.6875,66.625,177.375
1588210085744,2020-04-30T01:28:50.560694,12.314,-226.3125,60.125,177.4375
1588210085843,2020-04-30T01:28:50.620655,12.413,-227.0625,64.5,177.0625
1588210085943,2020-04-30T01:28:50.666363,12.513,-227.0625,67.0,177.5
1588210086044,2020-04-30T01:28:50.729614,12.614,-226.6875,60.875,177.0625
1588210086143,2020-04-30T01:28:50.785811,12.713,-227.0625,65.9375,177.0625
1588210086243,2020-04-30T01:28:50.845953,12.813,-227.0625,65.5625,176.625
1588210086344,2020-04-30T01:28:50.892909,12.914,-226.3125,65.9375,177.0
1588210086444,2020-04-30T01:28:50.950663,13.014,-226.6875,67.75,176.5625
1588210086543,2020-04-30T01:28:50.995664,13.113,-226.6875,64.5,176.1875
1588210086644,2020-04-30T01:28:51.063189,13.214,-226.3125,66.6875,177.5
1588210086744,2020-04-30T01:28:51.116425,13.314,-226.375,66.3125,177.5
1588210086844,2020-04-30T01:28:51.183312,13.414,-226.6875,65.9375,177.4375
1588210086945,2020-04-30T01:28:51.228232,13.515,-226.0,65.9375,177.5
1588210087044,2020-04-30T01:28:51.273212,13.614,-226.3125,66.3125,177.4375
1588210087144,2020-04-30T01:28:51.333197,13.714,-227.0625,65.9375,176.25
1588210087245,2020-04-30T01:28:51.378290,13.815,-226.3125,65.5625,177.0625
1588210087345,2020-04-30T01:28:51.445665,13.915,-226.375,65.5625,176.25
1588210087444,2020-04-30T01:28:51.490655,14.014,-226.3125,62.6875,176.625
1588210087545,2020-04-30T01:28:51.550659,14.115,-227.0625,67.75,177.5
1588210087645,2020-04-30T01:28:51.595660,14.215,-227.0625,65.1875,177.875
1588210087745,2020-04-30T01:28:51.655656,14.315,-227.0625,62.3125,177.875
1588210087846,2020-04-30T01:28:51.700731,14.416,-226.0,64.875,176.75
1588210087945,2020-04-30T01:28:51.760694,14.515,-225.625,65.5625,176.625
1588210088045,2020-04-30T01:28:51.813213,14.615,-226.6875,60.875,178.3125
1588210088146,2020-04-30T01:28:51.888156,14.716,-227.4375,67.0,176.6875
1588210088246,2020-04-30T01:28:51.933172,14.816,-227.4375,67.375,177.0625
1588210088345,2020-04-30T01:28:51.993300,14.915,-227.0625,62.6875,177.875
1588210088446,2020-04-30T01:28:52.041486,15.016,-226.6875,65.1875,176.625
1588210088546,2020-04-30T01:28:52.113213,15.116,-226.3125,67.0,177.5
1588210088647,2020-04-30T01:28:52.158278,15.217,-226.0,67.0,176.625
1588210088746,2020-04-30T01:28:52.231786,15.316,-227.0625,67.0,175.8125
1588210088846,2020-04-30T01:28:52.270660,15.416,-226.375,66.6875,177.0625
1588210088947,2020-04-30T01:28:52.330835,15.517,-226.3125,66.3125,177.5
1588210089047,2020-04-30T01:28:52.375678,15.617,-226.0,65.9375,176.625
1588210089146,2020-04-30T01:28:52.435675,15.716,-226.3125,66.3125,177.0
1588210089247,2020-04-30T01:28:52.480665,15.817,-227.0625,62.6875,178.3125
1588210089347,2020-04-30T01:28:52.548173,15.917,-226.3125,66.6875,177.0625
1588210089447,2020-04-30T01:28:52.593825,16.017,-226.6875,66.3125,177.0625
1588210089548,2020-04-30T01:28:52.661212,16.118,-226.6875,67.0,177.875
1588210089647,2020-04-30T01:28:52.705673,16.217,-226.6875,66.3125,177.4375
1588210089748,2020-04-30T01:28:52.750673,16.318,-226.375,60.875,177.125
1588210089848,2020-04-30T01:28:52.810573,16.418,-227.4375,67.0,178.3125
1588210089948,2020-04-30T01:28:52.870627,16.518,-227.4375,68.125,176.25
1588210090049,2020-04-30T01:28:52.938196,16.619,-226.3125,59.0625,177.0
1588210090148,2020-04-30T01:28:52.990886,16.718,-227.8125,65.5625,177.0625
1588210090248,2020-04-30T01:28:53.080711,16.818,-227.0625,66.625,177.0
1588210090349,2020-04-30T01:28:53.133032,16.919,-227.0625,60.5,177.875
1588210090449,2020-04-30T01:28:53.208035,17.019,-227.0625,62.3125,176.625
1588210090548,2020-04-30T01:28:53.268031,17.118,-226.6875,66.3125,176.1875
1588210090649,2020-04-30T01:28:53.350640,17.219,-227.0625,60.875,177.875
1588210090749,2020-04-30T01:28:53.395522,17.319,-225.625,66.6875,177.0
1588210090849,2020-04-30T01:28:53.485537,17.419,-227.0625,66.3125,176.25
1588210090950,2020-04-30T01:28:53.538027,17.52,-227.0625,67.0,176.625
1588210091049,2020-04-30T01:28:53.628294,17.619,-227.0625,67.0,176.625
1588210091149,2020-04-30T01:28:53.673039,17.719,-226.6875,67.0,177.4375
1588210091250,2020-04-30T01:28:53.748304,17.82,-227.0625,66.3125,176.625
1588210091350,2020-04-30T01:28:53.793499,17.92,-227.0625,66.3125,177.4375
1588210091449,2020-04-30T01:28:53.853334,18.019,-227.4375,67.0,176.5625
1588210091550,2020-04-30T01:28:53.905726,18.12,-226.6875,66.3125,177.5
1588210091650,2020-04-30T01:28:53.965895,18.22,-226.6875,67.0,177.875
1588210091751,2020-04-30T01:28:54.010794,18.321,-226.3125,63.75,177.4375
1588210091851,2020-04-30T01:28:54.101323,18.421,-226.3125,67.0,176.25
1588210091950,2020-04-30T01:28:54.145742,18.52,-226.0,65.5625,177.4375
1588210092051,2020-04-30T01:28:54.205705,18.621,-227.4375,60.125,177.0625
1588210092151,2020-04-30T01:28:54.250717,18.721,-226.6875,64.875,177.125
1588210092250,2020-04-30T01:28:54.318331,18.82,-226.3125,66.3125,175.375
1588210092351,2020-04-30T01:28:54.371087,18.921,-226.0,59.75,177.5
1588210092451,2020-04-30T01:28:54.430801,19.021,-227.4375,66.6875,177.0625
1588210092551,2020-04-30T01:28:54.476325,19.121,-226.6875,66.3125,177.0625
1588210092652,2020-04-30T01:28:54.541648,19.222,-227.0625,61.9375,177.0625
1588210092751,2020-04-30T01:28:54.596341,19.321,-227.0625,64.125,177.125
1588210092851,2020-04-30T01:28:54.640697,19.421,-226.375,67.0,177.5
1588210092952,2020-04-30T01:28:54.700691,19.522,-226.6875,67.0,177.0625
1588210093052,2020-04-30T01:28:54.745712,19.622,-227.0625,66.6875,176.6875
1588210093151,2020-04-30T01:28:54.805758,19.721,-227.0625,65.9375,177.5
1588210093252,2020-04-30T01:28:54.850698,19.822,-227.4375,66.3125,177.5
1588210093352,2020-04-30T01:28:54.918193,19.922,-227.0625,65.5625,177.0625
1588210093453,2020-04-30T01:28:54.963213,20.023,-226.6875,65.9375,177.0625
1588210093553,2020-04-30T01:28:55.023358,20.123,-226.6875,65.5625,177.5
1588210093652,2020-04-30T01:28:55.091028,20.222,-226.3125,66.3125,177.5
1588210093753,2020-04-30T01:28:55.150724,20.323,-227.0625,66.3125,176.625
1588210093853,2020-04-30T01:28:55.203261,20.423,-226.6875,65.9375,177.5
1588210093953,2020-04-30T01:28:55.263312,20.523,-227.0625,67.75,176.625
1588210094054,2020-04-30T01:28:55.308596,20.624,-226.0,63.0625,177.5
1588210094153,2020-04-30T01:28:55.383991,20.723,-226.6875,65.1875,176.625
1588210094253,2020-04-30T01:28:55.428491,20.823,-226.6875,66.6875,177.0
1588210094354,2020-04-30T01:28:55.495833,20.924,-226.3125,61.25,176.625
1588210094454,2020-04-30T01:28:55.540945,21.024,-227.0625,65.5625,177.9375
1588210094553,2020-04-30T01:28:55.601056,21.123,-226.6875,67.0,176.625
1588210094654,2020-04-30T01:28:55.669070,21.224,-226.6875,61.9375,177.5
1588210094754,2020-04-30T01:28:55.758188,21.324,-227.8125,66.3125,177.125
1588210094853,2020-04-30T01:28:55.810708,21.423,-226.6875,63.0625,176.625
1588210094955,2020-04-30T01:28:55.870712,21.525,-227.4375,61.5625,177.0
1588210095054,2020-04-30T01:28:55.923208,21.624,-227.4375,65.1875,176.25
1588210095154,2020-04-30T01:28:55.990562,21.724,-227.0625,66.6875,177.125
1588210095253,2020-04-30T01:28:56.035543,21.823,-227.0625,66.6875,177.9375
1588210095354,2020-04-30T01:28:56.080549,21.924,-226.375,65.9375,178.3125
1588210095454,2020-04-30T01:28:56.163326,22.024,-227.4375,64.5,176.625
1588210095555,2020-04-30T01:28:56.215697,22.125,-226.0,66.6875,177.8125
1588210095655,2020-04-30T01:28:56.275738,22.225,-226.6875,66.3125,177.0625
1588210095754,2020-04-30T01:28:56.328234,22.324,-227.4375,64.875,176.625
1588210095855,2020-04-30T01:28:56.395708,22.425,-226.0,66.6875,177.5
1588210095955,2020-04-30T01:28:56.448401,22.525,-226.375,66.6875,177.5
1588210096055,2020-04-30T01:28:56.508370,22.625,-226.6875,65.1875,176.625
1588210096156,2020-04-30T01:28:56.553233,22.726,-226.375,67.375,175.8125
1588210096255,2020-04-30T01:28:56.613253,22.825,-226.6875,65.5625,176.25
1588210096355,2020-04-30T01:28:56.666249,22.925,-226.6875,63.75,177.5
1588210096456,2020-04-30T01:28:56.741081,23.026,-226.6875,66.6875,177.0625
1588210096556,2020-04-30T01:28:56.786002,23.126,-226.0,65.1875,177.0625
1588210096655,2020-04-30T01:28:56.847307,23.225,-226.6875,58.6875,177.5
1588210096756,2020-04-30T01:28:56.890747,23.326,-226.6875,66.6875,177.5
1588210096856,2020-04-30T01:28:56.958221,23.426,-226.6875,67.0,176.625
1588210096955,2020-04-30T01:28:57.010961,23.525,-226.3125,60.125,177.875
1588210097057,2020-04-30T01:28:57.070723,23.627,-226.6875,66.6875,177.5
1588210097156,2020-04-30T01:28:57.123817,23.726,-226.0,66.3125,176.625
1588210097256,2020-04-30T01:28:57.183343,23.826,-227.4375,60.125,177.5
1588210097357,2020-04-30T01:28:57.228916,23.927,-227.0625,66.6875,177.5
1588210097456,2020-04-30T01:28:57.288571,24.026,-227.0625,67.75,177.125
1588210097556,2020-04-30T01:28:57.336114,24.126,-227.4375,67.75,177.875
1588210097657,2020-04-30T01:28:57.394193,24.227,-227.0625,65.9375,176.625
1588210097757,2020-04-30T01:28:57.439134,24.327,-227.0625,65.9375,177.0
1588210097856,2020-04-30T01:28:57.513238,24.426,-226.6875,68.8125,177.0625
1588210097957,2020-04-30T01:28:57.565759,24.527,-226.0,65.1875,177.0
1588210098057,2020-04-30T01:28:57.625705,24.627,-226.3125,67.0,177.0
1588210098157,2020-04-30T01:28:57.670717,24.727,-226.3125,68.8125,177.8125
1588210098258,2020-04-30T01:28:57.715709,24.828,-226.6875,68.125,177.0625
1588210098357,2020-04-30T01:28:57.775753,24.927,-227.0625,65.5625,176.1875
1588210098458,2020-04-30T01:28:57.828167,25.028,-226.6875,65.9375,177.0625
1588210098558,2020-04-30T01:28:57.903395,25.128,-227.4375,66.3125,177.5
1588210098658,2020-04-30T01:28:57.948231,25.228,-226.6875,61.25,176.625
1588210098757,2020-04-30T01:28:58.008239,25.327,-227.4375,66.3125,177.5
1588210098858,2020-04-30T01:28:58.060792,25.428,-226.3125,66.6875,177.875
1588210098958,2020-04-30T01:28:58.128323,25.528,-227.4375,59.0625,176.625
1588210099058,2020-04-30T01:28:58.188240,25.628,-226.6875,65.1875,177.0625
1588210099159,2020-04-30T01:28:58.270717,25.729,-226.375,66.6875,176.625
1588210099258,2020-04-30T01:28:58.315855,25.828,-226.6875,60.125,177.0
1588210099358,2020-04-30T01:28:58.384160,25.928,-227.0625,62.6875,176.25
1588210099459,2020-04-30T01:28:58.428221,26.029,-226.6875,65.1875,176.25
1588210099559,2020-04-30T01:28:58.495713,26.129,-227.4375,61.5625,177.0625
1588210099658,2020-04-30T01:28:58.540712,26.228,-227.0625,64.875,176.5625
1588210099759,2020-04-30T01:28:58.600714,26.329,-226.6875,65.1875,177.5
1588210099859,2020-04-30T01:28:58.645744,26.429,-226.0,66.6875,177.875
1588210099958,2020-04-30T01:28:58.705718,26.528,-226.3125,67.0,176.625
1588210100059,2020-04-30T01:28:58.750719,26.629,-226.6875,63.375,176.625
1588210100159,2020-04-30T01:28:58.818222,26.729,-227.0625,66.3125,177.875
1588210100259,2020-04-30T01:28:58.870849,26.829,-226.6875,67.75,177.4375
1588210100360,2020-04-30T01:28:58.930865,26.93,-227.4375,63.75,177.4375
1588210100459,2020-04-30T01:28:58.976588,27.029,-226.3125,63.75,177.4375
1588210100559,2020-04-30T01:28:59.043268,27.129,-226.375,65.1875,176.625
1588210100660,2020-04-30T01:28:59.095718,27.23,-226.3125,66.3125,177.0625
1588210100760,2020-04-30T01:28:59.163276,27.33,-226.375,65.1875,176.6875
1588210100859,2020-04-30T01:28:59.215731,27.429,-225.625,66.625,177.0
1588210100960,2020-04-30T01:28:59.260881,27.53,-226.6875,64.5,177.0625
1588210101060,2020-04-30T01:28:59.321172,27.63,-226.3125,66.6875,177.4375
1588210101160,2020-04-30T01:28:59.380732,27.73,-226.3125,65.9375,176.625
1588210101261,2020-04-30T01:28:59.440729,27.831,-226.6875,60.125,177.0
1588210101360,2020-04-30T01:28:59.485732,27.93,-227.0625,67.0,177.5
1588210101460,2020-04-30T01:28:59.545740,28.03,-227.0625,65.1875,177.8125
1588210101561,2020-04-30T01:28:59.591111,28.131,-226.6875,60.125,177.0
1588210101661,2020-04-30T01:28:59.650883,28.231,-226.375,65.5625,177.5
1588210101760,2020-04-30T01:28:59.695978,28.33,-227.4375,67.0,177.0625
1588210101861,2020-04-30T01:28:59.755855,28.431,-227.0625,61.5625,176.625
1588210101961,2020-04-30T01:28:59.808249,28.531,-227.0625,63.75,176.625
1588210102060,2020-04-30T01:28:59.868256,28.63,-227.0625,66.3125,175.9375
1588210102160,2020-04-30T01:28:59.913249,28.73,-226.0,61.5625,177.8125
1588210102261,2020-04-30T01:28:59.973244,28.831,-226.6875,66.3125,177.0625
1588210102361,2020-04-30T01:29:00.018418,28.931,-225.625,64.125,177.0
1588210102460,2020-04-30T01:29:00.079017,29.03,-226.6875,67.0,176.625
1588210102561,2020-04-30T01:29:00.123358,29.131,-226.6875,67.75,176.625
1588210102661,2020-04-30T01:29:00.198303,29.231,-226.6875,65.5625,177.5
1588210102761,2020-04-30T01:29:00.265794,29.331,-227.0625,65.5625,177.0625
1588210102862,2020-04-30T01:29:00.325777,29.432,-226.3125,67.375,177.375
1588210102961,2020-04-30T01:29:00.370598,29.531,-227.0625,65.5625,176.625
1588210103061,2020-04-30T01:29:00.430605,29.631,-227.0625,67.0,176.25
1588210103162,2020-04-30T01:29:00.475739,29.732,-227.0625,67.375,177.8125
1588210103262,2020-04-30T01:29:00.543279,29.832,-226.6875,66.3125,176.625
1588210103361,2020-04-30T01:29:00.588247,29.931,-226.3125,67.0,177.4375
1588210103462,2020-04-30T01:29:00.649533,30.032,-227.4375,67.375,176.625
1588210103562,2020-04-30T01:29:00.695922,30.132,-226.3125,67.375,176.625
1588210103662,2020-04-30T01:29:00.738244,30.232,-227.0625,67.375,176.625
1588210103763,2020-04-30T01:29:00.813266,30.333,-226.6875,66.3125,177.0
1588210103862,2020-04-30T01:29:00.865832,30.432,-227.0625,63.0625,177.375
1588210103962,2020-04-30T01:29:00.925753,30.532,-228.1875,66.3125,177.5
1588210104063,2020-04-30T01:29:00.978889,30.633,-226.6875,67.0,176.625
1588210104163,2020-04-30T01:29:01.038233,30.733,-226.0,62.6875,177.5
1588210104262,2020-04-30T01:29:01.083399,30.832,-226.6875,65.1875,177.875
1588210104363,2020-04-30T01:29:01.154065,30.933,-227.0625,65.9375,177.375
1588210104463,2020-04-30T01:29:01.195731,31.033,-226.3125,59.75,176.625
1588210104562,2020-04-30T01:29:01.255742,31.132,-226.375,65.5625,176.625
1588210104663,2020-04-30T01:29:01.300739,31.233,-226.3125,66.6875,177.0625
1588210104763,2020-04-30T01:29:01.361875,31.333,-226.3125,60.5,176.625
1588210104863,2020-04-30T01:29:01.405868,31.433,-226.375,66.3125,176.625
1588210104964,2020-04-30T01:29:01.473622,31.534,-226.6875,67.75,175.375
1588210105063,2020-04-30T01:29:01.518252,31.633,-227.4375,63.375,176.625
1588210105163,2020-04-30T01:29:01.578264,31.733,-227.0625,66.6875,177.0
1588210105264,2020-04-30T01:29:01.623283,31.834,-227.0625,66.3125,177.8125
1588210105364,2020-04-30T01:29:01.683259,31.934,-227.0625,65.9375,177.0
1588210105463,2020-04-30T01:29:01.743256,32.033,-227.4375,67.375,176.1875
1588210105564,2020-04-30T01:29:01.803270,32.134,-226.3125,65.9375,177.4375
1588210105664,2020-04-30T01:29:01.848256,32.234,-226.6875,66.3125,177.0
1588210105764,2020-04-30T01:29:01.908272,32.334,-227.0625,67.375,176.25
1588210105865,2020-04-30T01:29:01.953249,32.435,-226.3125,66.3125,177.0625
1588210105964,2020-04-30T01:29:02.013361,32.534,-227.0625,67.75,177.4375
1588210106064,2020-04-30T01:29:02.065968,32.634,-226.6875,66.6875,176.625
1588210106165,2020-04-30T01:29:02.125940,32.735,-226.6875,66.3125,176.625
1588210106265,2020-04-30T01:29:02.171283,32.835,-227.0625,66.6875,175.375
1588210106364,2020-04-30T01:29:02.238391,32.934,-227.0625,67.375,176.25
1588210106465,2020-04-30T01:29:02.298549,33.035,-226.3125,66.6875,177.4375
1588210106565,2020-04-30T01:29:02.343414,33.135,-226.6875,67.0,177.5
1588210106666,2020-04-30T01:29:02.403578,33.236,-227.0625,68.4375,177.0
1588210106766,2020-04-30T01:29:02.448253,33.336,-227.0625,63.75,176.1875
1588210106865,2020-04-30T01:29:02.508386,33.435,-226.6875,67.75,176.25
1588210106966,2020-04-30T01:29:02.560757,33.536,-226.3125,67.75,177.0
1588210107066,2020-04-30T01:29:02.620614,33.636,-226.6875,62.3125,177.0
1588210107165,2020-04-30T01:29:02.673280,33.735,-226.6875,67.375,176.625
1588210107267,2020-04-30T01:29:02.733409,33.837,-226.6875,67.0,176.5625
1588210107366,2020-04-30T01:29:02.778498,33.936,-226.3125,61.25,177.875
1588210107466,2020-04-30T01:29:02.847266,34.036,-227.4375,66.3125,177.0625
1588210107567,2020-04-30T01:29:02.898261,34.137,-226.0,65.1875,177.0
1588210107666,2020-04-30T01:29:02.958425,34.236,-226.6875,62.6875,177.875
1588210107766,2020-04-30T01:29:03.003524,34.336,-226.6875,64.5,177.5
1588210107867,2020-04-30T01:29:03.074698,34.437,-226.3125,64.875,176.625
1588210107967,2020-04-30T01:29:03.109363,34.537,-226.0,67.0,176.625
1588210108066,2020-04-30T01:29:03.179264,34.636,-226.6875,67.0,176.1875
1588210108167,2020-04-30T01:29:03.220942,34.737,-226.6875,65.9375,177.5
1588210108267,2020-04-30T01:29:03.281776,34.837,-227.0625,66.6875,177.875
1588210108367,2020-04-30T01:29:03.325874,34.937,-226.3125,66.6875,176.25
1588210108468,2020-04-30T01:29:03.385983,35.038,-226.0,65.1875,176.625
1588210108567,2020-04-30T01:29:03.430891,35.137,-226.6875,68.125,177.0625
1588210108667,2020-04-30T01:29:03.501625,35.237,-227.0625,66.3125,176.25
1588210108768,2020-04-30T01:29:03.543350,35.338,-226.3125,67.375,176.625
1588210108868,2020-04-30T01:29:03.603271,35.438,-227.4375,67.0,177.5
1588210108967,2020-04-30T01:29:03.655761,35.537,-227.0625,66.6875,176.625
1588210109068,2020-04-30T01:29:03.700757,35.638,-225.625,64.5,176.25
1588210109168,2020-04-30T01:29:03.760898,35.738,-227.0625,66.6875,176.625
1588210109269,2020-04-30T01:29:03.814128,35.839,-226.3125,68.4375,177.4375
1588210109369,2020-04-30T01:29:03.873287,35.939,-225.625,61.25,177.0
1588210109468,2020-04-30T01:29:03.918272,36.038,-227.0625,67.75,177.5
1588210109569,2020-04-30T01:29:03.978275,36.139,-227.0625,66.6875,177.0
1588210109669,2020-04-30T01:29:04.023289,36.239,-226.6875,58.3125,177.8125
1588210109768,2020-04-30T01:29:04.091602,36.338,-227.0625,67.0,177.0625
1588210109870,2020-04-30T01:29:04.135878,36.44,-226.6875,64.875,177.0
1588210109969,2020-04-30T01:29:04.219039,36.539,-226.3125,62.3125,177.4375
1588210110069,2020-04-30T01:29:04.264223,36.639,-226.3125,65.1875,177.5
1588210110170,2020-04-30T01:29:04.323347,36.74,-226.6875,66.6875,176.25
1588210110269,2020-04-30T01:29:04.368568,36.839,-227.0625,65.9375,177.0625
1588210110369,2020-04-30T01:29:04.435865,36.939,-227.4375,68.4375,176.25
1588210110470,2020-04-30T01:29:04.480776,37.04,-226.6875,65.9375,177.5
1588210110570,2020-04-30T01:29:04.540882,37.14,-226.6875,67.75,176.25
1588210110669,2020-04-30T01:29:04.588490,37.239,-226.6875,68.4375,177.0
1588210110770,2020-04-30T01:29:04.645869,37.34,-227.8125,65.9375,176.625
1588210110870,2020-04-30T01:29:04.690894,37.44,-226.6875,66.6875,177.5
1588210110970,2020-04-30T01:29:04.758352,37.54,-227.0625,67.75,176.1875
1588210111071,2020-04-30T01:29:04.810850,37.641,-226.3125,66.3125,176.1875
1588210111170,2020-04-30T01:29:04.871122,37.74,-226.3125,67.0,177.8125
1588210111270,2020-04-30T01:29:04.915800,37.84,-227.0625,66.3125,177.4375
1588210111371,2020-04-30T01:29:04.975881,37.941,-227.0625,64.875,177.875
1588210111471,2020-04-30T01:29:05.020910,38.041,-226.3125,64.875,177.5
1588210111570,2020-04-30T01:29:05.081304,38.14,-227.0625,66.6875,176.25
1588210111671,2020-04-30T01:29:05.125625,38.241,-227.4375,61.9375,177.0
1588210111771,2020-04-30T01:29:05.170623,38.341,-227.4375,68.125,176.6875
1588210111871,2020-04-30T01:29:05.238141,38.441,-226.3125,66.6875,176.625
1588210111972,2020-04-30T01:29:05.283135,38.542,-227.0625,59.0625,177.4375
1588210112071,2020-04-30T01:29:05.343214,38.641,-227.0625,67.75,177.5
1588210112171,2020-04-30T01:29:05.388445,38.741,-226.3125,66.3125,177.0625
1588210112272,2020-04-30T01:29:05.448186,38.842,-227.0625,61.25,177.5
1588210112371,2020-04-30T01:29:05.500674,38.941,-226.3125,67.0,177.5
1588210112471,2020-04-30T01:29:05.583461,39.041,-227.4375,68.125,175.8125
1588210112572,2020-04-30T01:29:05.628462,39.142,-226.6875,64.125,177.5
1588210112672,2020-04-30T01:29:05.688358,39.242,-226.6875,64.875,176.25
1588210112771,2020-04-30T01:29:05.734001,39.341,-227.4375,64.875,176.625
1588210112872,2020-04-30T01:29:05.793150,39.442,-226.6875,67.0,176.625
1588210112972,2020-04-30T01:29:05.845634,39.542,-226.3125,67.75,176.25
1588210113072,2020-04-30T01:29:05.905683,39.642,-227.4375,65.5625,176.625
1588210113173,2020-04-30T01:29:05.950814,39.743,-226.6875,67.75,176.625
1588210113272,2020-04-30T01:29:06.010777,39.842,-226.6875,68.125,176.5625
1588210113372,2020-04-30T01:29:06.063901,39.942,-227.4375,68.125,177.375
1588210113473,2020-04-30T01:29:06.138663,40.043,-227.0625,66.6875,176.625
1588210113573,2020-04-30T01:29:06.183321,40.143,-226.3125,66.3125,177.4375
1588210113674,2020-04-30T01:29:06.266180,40.244,-227.4375,66.3125,177.0
1588210113773,2020-04-30T01:29:06.312218,40.343,-226.6875,65.5625,177.875
1588210113873,2020-04-30T01:29:06.371245,40.443,-226.6875,68.4375,177.4375
1588210113974,2020-04-30T01:29:06.415999,40.544,-227.0625,60.5,176.1875
1588210114074,2020-04-30T01:29:06.485506,40.644,-227.4375,65.9375,177.0625
1588210114173,2020-04-30T01:29:06.528423,40.743,-226.6875,65.1875,176.625
1588210114274,2020-04-30T01:29:06.588698,40.844,-227.0625,59.0625,177.0625
1588210114374,2020-04-30T01:29:06.635117,40.944,-227.0625,66.6875,176.6875
1588210114474,2020-04-30T01:29:06.695683,41.044,-226.6875,65.9375,176.625
1588210114575,2020-04-30T01:29:06.761134,41.145,-226.6875,59.75,177.0625
1588210114674,2020-04-30T01:29:06.805797,41.244,-227.0625,66.6875,176.625
1588210114774,2020-04-30T01:29:06.873768,41.344,-226.6875,65.5625,176.625
1588210114875,2020-04-30T01:29:06.918334,41.445,-227.0625,65.5625,177.0625
1588210114975,2020-04-30T01:29:06.978350,41.545,-227.8125,67.375,176.625
1588210115074,2020-04-30T01:29:07.023363,41.644,-226.6875,67.0,177.0
1588210115175,2020-04-30T01:29:07.090881,41.745,-226.6875,66.6875,177.0625
1588210115275,2020-04-30T01:29:07.135805,41.845,-227.4375,68.8125,174.5625
1588210115374,2020-04-30T01:29:07.195838,41.944,-228.125,67.375,174.1875
1588210115476,2020-04-30T01:29:07.241263,42.046,-229.625,71.75,170.5625
1588210115575,2020-04-30T01:29:07.300955,42.145,-231.4375,74.25,164.0
1588210115675,2020-04-30T01:29:07.346175,42.245,-232.875,76.4375,158.3125
1588210115776,2020-04-30T01:29:07.406380,42.346,-234.6875,77.5,155.0
1588210115875,2020-04-30T01:29:07.458482,42.445,-234.3125,79.3125,154.1875
1588210115975,2020-04-30T01:29:07.533415,42.545,-233.25,76.4375,155.8125
1588210116076,2020-04-30T01:29:07.589450,42.646,-233.5625,78.625,155.8125
1588210116176,2020-04-30T01:29:07.646281,42.746,-233.9375,79.3125,154.625
1588210116277,2020-04-30T01:29:07.690881,42.847,-232.125,73.5625,156.6875
1588210116376,2020-04-30T01:29:07.753593,42.946,-233.25,80.0625,156.6875
1588210116476,2020-04-30T01:29:07.795940,43.046,-232.5,80.75,155.0
1588210116577,2020-04-30T01:29:07.858279,43.147,-232.125,73.1875,156.6875
1588210116677,2020-04-30T01:29:07.908855,43.247,-232.125,78.25,156.6875
1588210116776,2020-04-30T01:29:07.968430,43.346,-230.3125,78.25,158.6875
1588210116877,2020-04-30T01:29:08.022705,43.447,-230.0,77.1875,155.0
1588210116977,2020-04-30T01:29:08.082661,43.547,-227.4375,82.25,153.375
1588210117077,2020-04-30T01:29:08.134996,43.647,-226.0,83.6875,152.5625
1588210117178,2020-04-30T01:29:08.201121,43.748,-224.5625,83.3125,150.9375
1588210117277,2020-04-30T01:29:08.268422,43.847,-224.5625,85.875,146.0625
1588210117377,2020-04-30T01:29:08.313460,43.947,-224.1875,88.375,141.5625
1588210117478,2020-04-30T01:29:08.374392,44.048,-224.1875,90.1875,139.5
1588210117578,2020-04-30T01:29:08.422740,44.148,-223.0625,89.8125,138.6875
1588210117677,2020-04-30T01:29:08.500741,44.247,-221.625,87.6875,140.3125
1588210117778,2020-04-30T01:29:08.545732,44.348,-220.1875,88.375,143.625
1588210117878,2020-04-30T01:29:08.620733,44.448,-218.375,85.875,144.4375
1588210117977,2020-04-30T01:29:08.665899,44.547,-218.75,84.75,146.8125
1588210118079,2020-04-30T01:29:08.733154,44.649,-217.625,84.75,145.1875
1588210118178,2020-04-30T01:29:08.778358,44.748,-215.8125,84.75,148.875
1588210118278,2020-04-30T01:29:08.845732,44.848,-219.125,80.0625,150.9375
1588210118379,2020-04-30T01:29:08.898536,44.949,-220.1875,82.25,154.1875
1588210118478,2020-04-30T01:29:08.958268,45.048,-223.0625,83.6875,151.75
1588210118578,2020-04-30T01:29:09.010659,45.148,-223.8125,77.5,149.75
1588210118679,2020-04-30T01:29:09.078233,45.249,-223.8125,86.5625,147.6875
1588210118779,2020-04-30T01:29:09.130870,45.349,-223.4375,85.5,148.0625
1588210118878,2020-04-30T01:29:09.190718,45.448,-223.8125,80.0625,144.875
1588210118979,2020-04-30T01:29:09.236041,45.549,-222.375,85.125,142.375
1588210119079,2020-04-30T01:29:09.295707,45.649,-222.75,85.875,140.3125
1588210119179,2020-04-30T01:29:09.340717,45.749,-222.0,84.0625,137.875
1588210119280,2020-04-30T01:29:09.400757,45.85,-223.0625,88.75,135.0625
1588210119379,2020-04-30T01:29:09.453263,45.949,-221.25,88.0,134.1875
1588210119479,2020-04-30T01:29:09.520944,46.049,-218.375,90.9375,126.875
1588210119580,2020-04-30T01:29:09.565774,46.15,-218.375,92.0,117.875
1588210119680,2020-04-30T01:29:09.625839,46.25,-219.4375,95.25,112.5625
1588210119779,2020-04-30T01:29:09.678445,46.349,-221.625,94.875,108.0625
1588210119880,2020-04-30T01:29:09.746042,46.45,-224.5625,96.6875,104.8125
1588210119980,2020-04-30T01:29:09.792788,46.55,-227.0625,96.6875,103.1875
1588210120080,2020-04-30T01:29:09.836930,46.65,-228.125,96.6875,102.375
1588210120181,2020-04-30T01:29:09.897012,46.751,-228.125,96.0,99.5
1588210120280,2020-04-30T01:29:09.948324,46.85,-226.6875,96.375,99.5
1588210120381,2020-04-30T01:29:10.017856,46.951,-225.25,96.375,99.9375
1588210120481,2020-04-30T01:29:10.069201,47.051,-222.0,94.875,98.3125
1588210120580,2020-04-30T01:29:10.129095,47.15,-222.0,93.4375,95.8125
1588210120682,2020-04-30T01:29:10.173883,47.252,-220.5625,96.375,97.875
1588210120781,2020-04-30T01:29:10.245729,47.351,-219.8125,95.625,95.875
1588210120881,2020-04-30T01:29:10.315940,47.451,-219.8125,92.0,94.625
1588210120982,2020-04-30T01:29:10.383600,47.552,-220.1875,93.8125,94.25
1588210121081,2020-04-30T01:29:10.429065,47.651,-219.8125,96.6875,92.625
1588210121181,2020-04-30T01:29:10.511333,47.751,-219.4375,89.125,91.75
1588210121282,2020-04-30T01:29:10.556770,47.852,-220.5625,95.625,90.9375
1588210121382,2020-04-30T01:29:10.616134,47.952,-220.1875,96.6875,92.1875
1588210121481,2020-04-30T01:29:10.663104,48.051,-220.5625,90.5625,91.75
1588210121582,2020-04-30T01:29:10.728343,48.152,-220.5625,95.625,90.9375
1588210121682,2020-04-30T01:29:10.773331,48.252,-220.5625,95.25,88.5
1588210121782,2020-04-30T01:29:10.841332,48.352,-220.5625,95.25,88.125
1588210121883,2020-04-30T01:29:10.888098,48.453,-221.25,97.4375,88.125
1588210121982,2020-04-30T01:29:10.946536,48.552,-220.9375,94.5625,88.0625
1588210122082,2020-04-30T01:29:10.993573,48.652,-220.1875,96.0,88.0625
1588210122183,2020-04-30T01:29:11.058548,48.753,-220.9375,96.375,89.75
1588210122283,2020-04-30T01:29:11.105886,48.853,-220.1875,96.0,88.875
1588210122384,2020-04-30T01:29:11.171529,48.954,-219.8125,96.6875,88.5
1588210122483,2020-04-30T01:29:11.215884,49.053,-219.8125,95.25,88.875
1588210122583,2020-04-30T01:29:11.277453,49.153,-220.1875,94.5625,88.9375
1588210122684,2020-04-30T01:29:11.330338,49.254,-219.8125,96.6875,89.375
1588210122784,2020-04-30T01:29:11.390578,49.354,-220.5625,97.4375,89.75
1588210122883,2020-04-30T01:29:11.434881,49.453,-219.8125,93.4375,89.75
