epoch  (ms),time  (-07:00),elapsed  (s),X-Axis  (deg/s),Y-Axis  (deg/s),Z-Axis  (deg/s)
1588209999001,2020-04-30T01:27:13.604852,0.0,-3.1364328861236572,3.730945110321045,2.5952744483947754
1588209999041,2020-04-30T01:27:13.628408,0.04,-3.24314022064209,3.346036672592163,2.728658676147461
1588209999080,2020-04-30T01:27:13.652039,0.079,-6.775914669036865,1.3109756708145142,2.8163111209869385
1588209999120,2020-04-30T01:27:13.657928,0.119,-8.74618911743164,0.6592987775802612,2.050304889678955
1588209999159,2020-04-30T01:27:13.708385,0.158,-5.842225551605225,3.0564024448394775,0.6288110017776489
1588209999199,2020-04-30T01:27:13.742622,0.198,1.4977134466171265,7.995427131652832,-1.402438998222351
1588209999238,2020-04-30T01:27:13.761221,0.237,12.713415145874023,12.945884704589844,-2.2446646690368652
1588209999278,2020-04-30T01:27:13.772885,0.277,21.01753044128418,17.096036911010742,-3.2012195587158203
1588209999317,2020-04-30T01:27:13.780543,0.316,23.326982498168945,17.52286720275879,-5.285823345184326
1588209999355,2020-04-30T01:27:13.803966,0.354,23.14405632019043,13.990091323852539,-7.671494007110596
1588209999395,2020-04-30T01:27:13.816087,0.394,18.647104263305664,9.984756469726562,-12.34375
1588209999435,2020-04-30T01:27:13.839506,0.434,17.126523971557617,6.977896690368652,-18.75381088256836
1588209999474,2020-04-30T01:27:13.868769,0.473,15.457317352294922,10.605945587158203,-28.326982498168945
1588209999514,2020-04-30T01:27:13.882622,0.513,13.990091323852539,14.676067352294922,-41.128047943115234
1588209999553,2020-04-30T01:27:13.919905,0.552,23.38033676147461,12.85060977935791,-52.64481735229492
1588209999593,2020-04-30T01:27:13.935212,0.592,31.532012939453125,11.21570110321045,-64.16539764404297
1588209999632,2020-04-30T01:27:13.957394,0.631,42.400917053222656,4.927591800689697,-68.6318588256836
1588209999672,2020-04-30T01:27:13.987499,0.671,54.283538818359375,-5.689786911010742,-57.32850646972656
1588209999711,2020-04-30T01:27:14.024903,0.71,43.45274353027344,-7.435213565826416,-42.13795852661133
1588209999750,2020-04-30T01:27:14.047422,0.749,39.752288818359375,2.298018455505371,-23.967226028442383
1588209999789,2020-04-30T01:27:14.069913,0.788,7.259908676147461,26.360519409179688,-16.985519409179688
1588209999829,2020-04-30T01:27:14.084909,0.828,-21.733993530273438,43.4565544128418,-9.889481544494629
1588209999868,2020-04-30T01:27:14.114886,0.867,2.206554889678955,47.89634323120117,-4.744664669036865
1588209999908,2020-04-30T01:27:14.129891,0.907,44.904727935791016,35.602134704589844,-1.8864330053329468
1588209999947,2020-04-30T01:27:14.152978,0.946,17.05411720275879,26.71493911743164,0.5983231663703918
1588209999987,2020-04-30T01:27:14.174890,0.986,-5.933689117431641,26.673019409179688,1.8711891174316406
1588210000026,2020-04-30T01:27:14.189883,1.025,-2.701981782913208,29.516006469726562,7.061738014221191
1588210000066,2020-04-30T01:27:14.219899,1.065,-9.127286911010742,27.21036720275879,12.237043380737305
1588210000105,2020-04-30T01:27:14.237037,1.104,-11.707317352294922,23.140243530273438,8.87195110321045
1588210000144,2020-04-30T01:27:14.264935,1.143,-2.8086891174316406,19.485519409179688,4.988567352294922
1588210000183,2020-04-30T01:27:14.279995,1.182,6.223323345184326,16.451982498168945,5.81935977935791
1588210000223,2020-04-30T01:27:14.294923,1.222,10.483994483947754,11.143293380737305,10.011433601379395
1588210000262,2020-04-30T01:27:14.325047,1.261,2.9344513416290283,2.9153964519500732,11.09375
1588210000302,2020-04-30T01:27:14.340003,1.301,-10.522104263305664,-2.995426893234253,11.688262939453125
1588210000341,2020-04-30T01:27:14.369938,1.34,-15.914634704589844,-4.596036911010742,15.15625
1588210000381,2020-04-30T01:27:14.385013,1.38,-4.1120429039001465,0.27439025044441223,14.851372718811035
1588210000420,2020-04-30T01:27:14.400034,1.419,15.461128234863281,10.724085807800293,18.452743530273438
1588210000460,2020-04-30T01:27:14.430008,1.459,20.00381088256836,14.382622718811035,23.090702056884766
1588210000500,2020-04-30T01:27:14.444934,1.499,15.35442066192627,11.966464042663574,25.449695587158203
1588210000539,2020-04-30T01:27:14.482513,1.538,0.9336890578269958,8.94054889678955,23.170732498168945
1588210000577,2020-04-30T01:27:14.497443,1.576,-21.067073822021484,27.217988967895508,21.42911720275879
1588210000617,2020-04-30T01:27:14.527397,1.616,-29.69893455505371,56.116615295410156,17.629573822021484
1588210000656,2020-04-30T01:27:14.549939,1.655,-4.7103657722473145,78.66996765136719,8.799542427062988
1588210000696,2020-04-30T01:27:14.564960,1.695,69.31021881103516,82.77820587158203,3.1554877758026123
1588210000735,2020-04-30T01:27:14.594953,1.734,101.18902587890625,74.58079528808594,2.03125
1588210000775,2020-04-30T01:27:14.609959,1.774,107.92301940917969,64.40548706054688,14.462653160095215
1588210000814,2020-04-30T01:27:14.632500,1.813,62.50381088256836,43.94817352294922,5.304878234863281
1588210000854,2020-04-30T01:27:14.654966,1.853,57.27134323120117,5.35060977935791,-10.365854263305664
1588210000894,2020-04-30T01:27:14.677429,1.893,65.2743911743164,-8.04878044128418,-15.144817352294922
1588210000933,2020-04-30T01:27:14.708141,1.932,105.96036529541016,-16.829269409179688,-10.39253044128418
1588210000971,2020-04-30T01:27:14.722485,1.97,82.7286605834961,-36.98170852661133,-1.9702744483947754
1588210001011,2020-04-30T01:27:14.745012,2.01,56.40243911743164,-67.65625,-2.766768455505371
1588210001050,2020-04-30T01:27:14.775226,2.049,37.995426177978516,-98.25838470458984,-16.41387176513672
1588210001090,2020-04-30T01:27:14.797424,2.089,32.9496955871582,-103.74237823486328,-27.698171615600586
1588210001129,2020-04-30T01:27:14.827389,2.128,43.83003234863281,-99.45503234863281,-33.48323059082031
1588210001169,2020-04-30T01:27:14.842509,2.168,43.871952056884766,-108.17835998535156,-38.52134323120117
1588210001209,2020-04-30T01:27:14.864882,2.208,33.01829528808594,-116.41006469726562,-40.72789764404297
1588210001248,2020-04-30T01:27:14.895112,2.247,21.55868911743164,-117.50762176513672,-37.721038818359375
1588210001288,2020-04-30T01:27:14.924906,2.287,21.10137176513672,-112.82012176513672,-29.115854263305664
1588210001327,2020-04-30T01:27:14.955656,2.326,11.83689022064209,-105.86128234863281,-23.784299850463867
1588210001367,2020-04-30T01:27:15.007583,2.366,3.6432926654815674,-95.17149353027344,-16.737804412841797
1588210001406,2020-04-30T01:27:15.030634,2.405,3.978658676147461,-73.28125,-10.053354263305664
1588210001444,2020-04-30T01:27:15.052692,2.443,11.421494483947754,-46.2690544128418,-2.480945110321045
1588210001484,2020-04-30T01:27:15.082575,2.483,3.1097562313079834,-22.061738967895508,4.9771342277526855
1588210001523,2020-04-30T01:27:15.097390,2.522,-0.8803353905677795,-3.795731782913208,1.3643293380737305
1588210001563,2020-04-30T01:27:15.142471,2.562,12.57621955871582,14.17682933807373,0.5868902802467346
1588210001603,2020-04-30T01:27:15.157424,2.602,27.66387176513672,18.658536911010742,-2.362804889678955
1588210001642,2020-04-30T01:27:15.202498,2.641,34.69131088256836,8.36128044128418,-8.20503044128418
1588210001682,2020-04-30T01:27:15.217498,2.681,64.19207763671875,-7.644817352294922,-10.678354263305664
1588210001721,2020-04-30T01:27:15.232584,2.72,28.68902587890625,-10.891768455505371,-12.84679889678955
1588210001761,2020-04-30T01:27:15.263844,2.76,-16.497713088989258,-14.96570110321045,-14.637957572937012
1588210001799,2020-04-30T01:27:15.277397,2.798,-122.51905822753906,2.896341562271118,-6.44435977935791
1588210001838,2020-04-30T01:27:15.307485,2.837,-53.662349700927734,5.853658676147461,23.395580291748047
1588210001878,2020-04-30T01:27:15.322468,2.877,-2.675304889678955,9.394055366516113,47.1684455871582
1588210001918,2020-04-30T01:27:15.337730,2.917,31.158536911010742,1.6310975551605225,70.08765411376953
1588210001957,2020-04-30T01:27:15.367878,2.956,27.385671615600586,-8.464177131652832,76.47484588623047
1588210001997,2020-04-30T01:27:15.390536,2.996,-5.685975551605225,6.067073345184326,72.8125
1588210002036,2020-04-30T01:27:15.419902,3.035,12.042683601379395,17.911584854125977,82.69817352294922
1588210002076,2020-04-30T01:27:15.449912,3.075,12.957317352294922,23.951982498168945,94.78659057617188
1588210002115,2020-04-30T01:27:15.472545,3.114,-6.970274448394775,31.95503044128418,99.40548706054688
1588210002155,2020-04-30T01:27:15.494908,3.154,-34.15015411376953,29.39786720275879,93.74237823486328
1588210002194,2020-04-30T01:27:15.509936,3.193,-52.43902587890625,15.525915145874023,76.26524353027344
1588210002232,2020-04-30T01:27:15.547415,3.231,-45.14862823486328,-4.3521342277526855,54.33308029174805
1588210002272,2020-04-30T01:27:15.564217,3.271,-14.485518455505371,-9.386433601379395,42.14558029174805
1588210002312,2020-04-30T01:27:15.585020,3.311,13.58993911743164,3.4222562313079834,41.2690544128418
1588210002351,2020-04-30T01:27:15.609008,3.35,45.525917053222656,21.261432647705078,45.133384704589844
1588210002391,2020-04-30T01:27:15.630011,3.39,57.08079528808594,37.11128234863281,36.86737823486328
1588210002430,2020-04-30T01:27:15.652558,3.429,60.71265411376953,41.48628234863281,20.31631088256836
1588210002470,2020-04-30T01:27:15.674973,3.469,55.54497146606445,46.375762939453125,5.301067352294922
1588210002509,2020-04-30T01:27:15.712526,3.508,39.29878234863281,83.10213470458984,-1.1432926654815674
1588210002549,2020-04-30T01:27:15.734922,3.548,-2.5571646690368652,72.1836929321289,0.9070122241973877
1588210002588,2020-04-30T01:27:15.780021,3.587,-43.84146499633789,18.925304412841797,-6.95121955871582
1588210002626,2020-04-30T01:27:15.802649,3.625,-30.811738967895508,27.480945587158203,-8.620427131652832
1588210002666,2020-04-30T01:27:15.855712,3.665,-12.839177131652832,33.810977935791016,-19.020580291748047
1588210002706,2020-04-30T01:27:15.881899,3.705,-4.348323345184326,29.115854263305664,-18.93292808532715
1588210002745,2020-04-30T01:27:15.914851,3.744,-10.804116249084473,19.192073822021484,-12.53429889678955
1588210002785,2020-04-30T01:27:15.959872,3.784,-5.434451580047607,20.666921615600586,-9.474085807800293
1588210002824,2020-04-30T01:27:15.991706,3.823,-5.480183124542236,16.32240867614746,-5.0495429039001465
1588210002864,2020-04-30T01:27:16.057666,3.863,-7.252286911010742,8.730945587158203,-3.5708842277526855
1588210002903,2020-04-30T01:27:16.090153,3.902,-5.144817352294922,4.0625,-3.5861282348632812
1588210002943,2020-04-30T01:27:16.155112,3.942,-3.795731782913208,1.0365853309631348,-4.009146213531494
1588210002982,2020-04-30T01:27:16.208278,3.981,-2.903963565826416,-3.8452744483947754,-3.7804877758026123
1588210003021,2020-04-30T01:27:16.260161,4.02,-1.924542784690857,-7.77439022064209,-4.264482021331787
1588210003060,2020-04-30T01:27:16.335486,4.059,-1.5358232259750366,-10.78125,-1.566311001777649
1588210003100,2020-04-30T01:27:16.365314,4.099,-6.074695110321045,-17.046493530273438,1.1051830053329468
1588210003139,2020-04-30T01:27:16.409960,4.138,-7.724847793579102,-17.473323822021484,-1.3910061120986938
1588210003179,2020-04-30T01:27:16.432526,4.178,-2.9801828861236572,-9.657011985778809,-5.807927131652832
1588210003218,2020-04-30T01:27:16.477430,4.217,-1.581554889678955,-2.9573171138763428,-3.7347562313079834
1588210003258,2020-04-30T01:27:16.567468,4.257,-3.6509146690368652,-0.2096036672592163,-0.06859756261110306
1588210003297,2020-04-30T01:27:16.597412,4.296,-2.820122003555298,1.6387195587158203,0.2934451401233673
1588210003337,2020-04-30T01:27:16.619897,4.336,1.4443597793579102,5.365853786468506,-2.076981782913208
1588210003376,2020-04-30T01:27:16.642491,4.375,3.7995426654815674,5.255335330963135,-3.262195110321045
1588210003416,2020-04-30T01:27:16.672491,4.415,1.7492378950119019,-4.432164669036865,-7.282774448394775
1588210003454,2020-04-30T01:27:16.709906,4.453,2.1379573345184326,-13.951982498168945,-15.994665145874023
1588210003494,2020-04-30T01:27:16.754954,4.493,0.05335365980863571,-18.608993530273438,-20.887958526611328
1588210003533,2020-04-30T01:27:16.799912,4.532,-0.3125,-20.209604263305664,-26.48246955871582
1588210003573,2020-04-30T01:27:16.829953,4.572,1.4786585569381714,-20.198171615600586,-32.149391174316406
1588210003612,2020-04-30T01:27:16.874940,4.611,0.8650915026664734,-24.588415145874023,-38.26981735229492
1588210003652,2020-04-30T01:27:16.897413,4.651,-5.08003044128418,-32.679115295410156,-38.311737060546875
1588210003691,2020-04-30T01:27:16.912487,4.69,-11.497714042663574,-35.76981735229492,-37.75914764404297
1588210003731,2020-04-30T01:27:16.942805,4.73,-8.51753044128418,-24.93902587890625,-36.44816970825195
1588210003771,2020-04-30T01:27:16.972606,4.77,-8.052591323852539,-10.849847793579102,-29.961891174316406
1588210003810,2020-04-30T01:27:17.002846,4.809,-4.839939117431641,0.7012194991111755,-22.64862823486328
1588210003848,2020-04-30T01:27:17.040220,4.847,6.745427131652832,5.1333842277526855,-14.02439022064209
1588210003888,2020-04-30T01:27:17.088986,4.887,-0.7583841681480408,1.097561001777649,-6.749238014221191
1588210003927,2020-04-30T01:27:17.107536,4.926,7.9458842277526855,6.79878044128418,-2.9573171138763428
1588210003967,2020-04-30T01:27:17.122661,4.966,8.27743911743164,5.625,-4.481707572937012
1588210004006,2020-04-30T01:27:17.137536,5.005,3.723323345184326,7.313262462615967,-0.007621951401233673
1588210004046,2020-04-30T01:27:17.167557,5.045,-4.359755992889404,3.997713565826416,-0.3658536672592163
1588210004085,2020-04-30T01:27:17.189942,5.084,-13.483231544494629,-1.608231782913208,5.918445110321045
1588210004125,2020-04-30T01:27:17.227400,5.124,-12.644817352294922,5.121951103210449,11.547256469726562
1588210004165,2020-04-30T01:27:17.242653,5.164,-7.317073345184326,13.448933601379395,13.079268455505371
1588210004204,2020-04-30T01:27:17.257404,5.203,0.4496951401233673,19.893293380737305,13.860518455505371
1588210004244,2020-04-30T01:27:17.294899,5.243,-1.471036672592163,19.939023971557617,18.845273971557617
1588210004282,2020-04-30T01:27:17.309922,5.281,0.5373475551605225,22.473323822021484,21.19283676147461
1588210004321,2020-04-30T01:27:17.339901,5.32,1.1852134466171265,21.43292808532715,25.605945587158203
1588210004361,2020-04-30T01:27:17.354923,5.36,0.43064025044441223,17.96112823486328,31.73399543762207
1588210004400,2020-04-30T01:27:17.377526,5.399,-0.8460366129875183,10.369665145874023,30.057165145874023
1588210004440,2020-04-30T01:27:17.407551,5.439,-8.338415145874023,-2.6867377758026123,26.909299850463867
1588210004480,2020-04-30T01:27:17.422682,5.479,-10.377286911010742,-6.09375,19.07012176513672
1588210004519,2020-04-30T01:27:17.460717,5.518,-7.084603786468506,-2.3323171138763428,16.341463088989258
1588210004559,2020-04-30T01:27:17.475335,5.558,-4.477896213531494,0.2934451401233673,17.221799850463867
1588210004598,2020-04-30T01:27:17.512564,5.597,-10.369665145874023,-1.71875,15.956555366516113
1588210004638,2020-04-30T01:27:17.534925,5.637,-8.540396690368652,-3.3803353309631348,17.949695587158203
1588210004676,2020-04-30T01:27:17.557447,5.675,-11.352896690368652,6.284298896789551,38.73856735229492
1588210004715,2020-04-30T01:27:17.579925,5.714,8.269817352294922,41.73018264770508,99.32926940917969
1588210004755,2020-04-30T01:27:17.594928,5.754,20.746952056884766,92.17607116699219,124.87423706054688
1588210004794,2020-04-30T01:27:17.624922,5.793,-36.26143264770508,124.87423706054688,124.87423706054688
1588210004834,2020-04-30T01:27:17.647427,5.833,-90.22103881835938,124.87423706054688,124.22256469726562
1588210004874,2020-04-30T01:27:17.677435,5.873,-122.21798706054688,124.24923706054688,124.87423706054688
1588210004913,2020-04-30T01:27:17.699987,5.912,-124.87423706054688,124.87423706054688,124.87423706054688
1588210004953,2020-04-30T01:27:17.714955,5.952,-124.50076293945312,124.87423706054688,124.86280822753906
1588210004992,2020-04-30T01:27:17.737445,5.991,-124.7599105834961,124.86661529541016,124.87423706054688
1588210005032,2020-04-30T01:27:17.759934,6.031,-65.75838470458984,124.87423706054688,124.87423706054688
1588210005071,2020-04-30T01:27:17.784259,6.07,122.6067123413086,123.5099105834961,109.76372528076172
1588210005109,2020-04-30T01:27:17.812680,6.108,124.87423706054688,88.93673706054688,34.92378234863281
1588210005149,2020-04-30T01:27:17.835311,6.148,121.74161529541016,32.58765411376953,5.594512462615967
1588210005189,2020-04-30T01:27:17.850316,6.188,124.443603515625,6.257622241973877,8.029726028442383
1588210005228,2020-04-30T01:27:17.872804,6.227,124.87423706054688,-10.78125,5.724085330963135
1588210005268,2020-04-30T01:27:17.908439,6.267,124.83232116699219,-11.764481544494629,0.6783536672592163
1588210005307,2020-04-30T01:27:17.925040,6.306,123.42607116699219,-11.459604263305664,-3.833841562271118
1588210005347,2020-04-30T01:27:17.947841,6.346,98.22789764404297,8.250761985778809,18.44512176513672
1588210005386,2020-04-30T01:27:17.962909,6.385,19.893293380737305,1.3948171138763428,58.26981735229492
1588210005426,2020-04-30T01:27:18.000148,6.425,25.02667808532715,-13.254573822021484,7.099847793579102
1588210005465,2020-04-30T01:27:18.020770,6.464,123.64329528808594,68.52896881103516,-19.542682647705078
1588210005503,2020-04-30T01:27:18.060036,6.502,85.79268646240234,64.8399429321289,9.775152206420898
1588210005543,2020-04-30T01:27:18.090026,6.542,66.50152587890625,-2.4961891174316406,-15.685976028442383
1588210005583,2020-04-30T01:27:18.112963,6.582,39.904727935791016,5.800304889678955,-11.87881088256836
1588210005622,2020-04-30T01:27:18.142897,6.621,81.3567123413086,26.551067352294922,-17.202743530273438
1588210005662,2020-04-30T01:27:18.157656,6.661,101.14710235595703,37.59146499633789,-17.488567352294922
1588210005701,2020-04-30T01:27:18.187665,6.7,122.8849105834961,45.971797943115234,-24.93902587890625
1588210005741,2020-04-30T01:27:18.217536,6.74,76.6006088256836,48.875762939453125,-18.3498477935791
1588210005780,2020-04-30T01:27:18.248007,6.779,-7.370427131652832,27.721036911010742,-6.840701580047607
1588210005820,2020-04-30T01:27:18.292494,6.819,-27.770580291748047,5.23628044128418,0.804115891456604
1588210005859,2020-04-30T01:27:18.329796,6.858,-27.923019409179688,-3.879573345184326,6.307164669036865
1588210005899,2020-04-30T01:27:18.397490,6.898,-30.78125,-7.0160064697265625,7.881097793579102
1588210005937,2020-04-30T01:27:18.434932,6.936,-26.772104263305664,-5.541158676147461,7.10746955871582
1588210005977,2020-04-30T01:27:18.472560,6.976,-14.786585807800293,-2.057926893234253,5.746951580047607
1588210006016,2020-04-30T01:27:18.518380,7.015,-19.885671615600586,0.39253050088882446,8.704268455505371
1588210006056,2020-04-30T01:27:18.535548,7.055,-19.94283676147461,-0.8917683362960815,9.45503044128418
1588210006095,2020-04-30T01:27:18.557787,7.094,-13.464177131652832,-3.658536672592163,7.240853786468506
1588210006135,2020-04-30T01:27:18.610914,7.134,-10.377286911010742,-3.940548896789551,5.697408676147461
1588210006174,2020-04-30T01:27:18.641052,7.173,-5.186738014221191,-2.3323171138763428,3.86814022064209
1588210006214,2020-04-30T01:27:18.675103,7.213,-3.5518293380737305,-1.5243902206420898,3.205030679702759
1588210006253,2020-04-30T01:27:18.705082,7.252,-4.637957572937012,-0.3010670840740204,3.47560977935791
1588210006293,2020-04-30T01:27:18.750009,7.292,-7.46189022064209,0.6783536672592163,4.477896213531494
1588210006333,2020-04-30T01:27:18.780128,7.332,-4.6875,0.8574695587158203,3.144054889678955
1588210006371,2020-04-30T01:27:18.817517,7.37,-1.764481782913208,-0.2286585420370102,1.1966463327407837
1588210006410,2020-04-30T01:27:18.848548,7.409,0.36966463923454285,-0.35060974955558777,-0.0038109757006168365
1588210006450,2020-04-30T01:27:18.870334,7.449,2.22560977935791,0.4382621943950653,-0.1257621943950653
1588210006489,2020-04-30T01:27:18.885079,7.488,1.5586891174316406,0.78125,0.4039634168148041
1588210006529,2020-04-30T01:27:18.953007,7.528,-0.9260671138763428,0.480182945728302,0.5106707215309143
1588210006568,2020-04-30T01:27:18.976562,7.567,-0.1981707364320755,0.05335365980863571,0.12195122241973877
1588210006608,2020-04-30T01:27:19.012540,7.607,-1.0861281156539917,-0.6021341681480408,0.25533536076545715
1588210006647,2020-04-30T01:27:19.034923,7.646,-3.391768455505371,-0.4382621943950653,0.8231707215309143
1588210006687,2020-04-30T01:27:19.057821,7.686,-7.526677131652832,-0.5640243887901306,1.8140244483947754
1588210006727,2020-04-30T01:27:19.087441,7.726,-11.349085807800293,-1.112804889678955,2.766768455505371
1588210006765,2020-04-30T01:27:19.109941,7.764,-9.382621765136719,-0.9184451699256897,2.271341562271118
1588210006804,2020-04-30T01:27:19.155092,7.803,-5.754573345184326,-0.636432945728302,1.5015244483947754
1588210006844,2020-04-30T01:27:19.237668,7.843,-4.851372241973877,-0.8269817233085632,1.3300305604934692
1588210006883,2020-04-30T01:27:19.267434,7.882,-3.189786672592163,-0.6707317233085632,0.9984756112098694
1588210006923,2020-04-30T01:27:19.297429,7.922,-1.112804889678955,-0.5030487775802612,0.4039634168148041
1588210006962,2020-04-30T01:27:19.312550,7.961,-0.647865891456604,-0.6516768336296082,0.17911586165428162
1588210007002,2020-04-30T01:27:19.342503,8.001,-1.5472561120986938,-0.9413110017776489,0.3125
1588210007042,2020-04-30T01:27:19.357966,8.041,-2.2179877758026123,-0.9108231663703918,0.4916158616542816
1588210007081,2020-04-30T01:27:19.380331,8.08,-2.480945110321045,-0.7278963327407837,0.5602134466171265
1588210007121,2020-04-30T01:27:19.409930,8.12,-3.300304889678955,-0.9222561120986938,0.7278963327407837
1588210007160,2020-04-30T01:27:19.439917,8.159,-3.4489331245422363,-0.960365891456604,0.7278963327407837
1588210007198,2020-04-30T01:27:19.462529,8.197,-2.4885671138763428,-0.7012194991111755,0.5335366129875183
1588210007238,2020-04-30T01:27:19.477423,8.237,-1.2614330053329468,-0.5449694991111755,0.35060974955558777
1588210007277,2020-04-30T01:27:19.507442,8.276,-0.6440548896789551,-0.5792682766914368,0.18292683362960815
1588210007317,2020-04-30T01:27:19.537461,8.316,-0.5945122241973877,-0.4916158616542816,0.09908536821603775
1588210007356,2020-04-30T01:27:19.567474,8.355,-0.3201219439506531,-0.5106707215309143,0.06478658318519592
1588210007396,2020-04-30T01:27:19.589923,8.395,0.0038109757006168365,-0.5983231663703918,-0.02286585420370102
1588210007436,2020-04-30T01:27:19.619928,8.435,0.12957316637039185,-0.5602134466171265,-0.09146341681480408
1588210007475,2020-04-30T01:27:19.635104,8.474,0.08765243738889694,-0.4382621943950653,-0.09527438879013062
1588210007515,2020-04-30T01:27:19.657443,8.514,-0.0419207327067852,-0.4382621943950653,-0.060975611209869385
1588210007554,2020-04-30T01:27:19.679920,8.553,-0.0419207327067852,-0.5068597793579102,-0.05716463550925255
1588210007594,2020-04-30T01:27:19.709928,8.593,-0.1981707364320755,-0.4611280560493469,0.02286585420370102
1588210007632,2020-04-30T01:27:19.732520,8.631,-0.3201219439506531,-0.49542683362960815,0.04573170840740204
1588210007671,2020-04-30T01:27:19.747428,8.67,-0.27439025044441223,-0.5106707215309143,0.0
1588210007711,2020-04-30T01:27:19.784924,8.71,-0.20198170840740204,-0.44207316637039185,0.030487805604934692
1588210007751,2020-04-30T01:27:19.799916,8.75,-0.2515243887901306,-0.4496951401233673,0.01143292710185051
1588210007790,2020-04-30T01:27:19.822492,8.789,-0.32774391770362854,-0.47256097197532654,0.0038109757006168365
1588210007830,2020-04-30T01:27:19.852478,8.829,-0.31631097197532654,-0.5411585569381714,0.026676829904317856
1588210007869,2020-04-30T01:27:19.867448,8.868,-0.22103658318519592,-0.5830792784690857,-0.02286585420370102
1588210007909,2020-04-30T01:27:19.897595,8.908,-0.22484757006168365,-0.4382621943950653,0.02286585420370102
1588210007948,2020-04-30T01:27:19.912981,8.947,-0.2896341383457184,-0.4916158616542816,0.038109757006168365
1588210007988,2020-04-30T01:27:19.927829,8.987,-0.2705792784690857,-0.5716463327407837,0.026676829904317856
1588210008027,2020-04-30T01:27:19.957545,9.026,-0.27439025044441223,-0.5182926654815674,0.05716463550925255
1588210008065,2020-04-30T01:27:19.980266,9.064,-0.3125,-0.4382621943950653,0.038109757006168365
1588210008105,2020-04-30T01:27:20.009933,9.104,-0.19435976445674896,-0.480182945728302,-0.0419207327067852
1588210008145,2020-04-30T01:27:20.024939,9.144,-0.09146341681480408,-0.47637197375297546,-0.049542684108018875
1588210008184,2020-04-30T01:27:20.047489,9.183,-0.05335365980863571,-0.38109755516052246,-0.0038109757006168365
1588210008224,2020-04-30T01:27:20.070396,9.223,0.015243902802467346,-0.3887195289134979,-0.03429878130555153
1588210008263,2020-04-30T01:27:20.084970,9.262,0.08765243738889694,-0.44588416814804077,-0.12195122241973877
1588210008303,2020-04-30T01:27:20.129969,9.302,0.03429878130555153,-0.4496951401233673,-0.09146341681480408
1588210008342,2020-04-30T01:27:20.152919,9.341,-0.038109757006168365,-0.4077743887901306,-0.038109757006168365
1588210008382,2020-04-30T01:27:20.174953,9.381,-0.015243902802467346,-0.4382621943950653,-0.06478658318519592
1588210008421,2020-04-30T01:27:20.197605,9.42,-0.026676829904317856,-0.5144817233085632,-0.06859756261110306
1588210008460,2020-04-30T01:27:20.220043,9.459,-0.1867378056049347,-0.39253050088882446,0.01143292710185051
1588210008499,2020-04-30T01:27:20.245365,9.498,-0.2515243887901306,-0.3849085569381714,0.0038109757006168365
1588210008539,2020-04-30T01:27:20.257594,9.538,-0.2629573345184326,-0.5144817233085632,-0.026676829904317856
1588210008578,2020-04-30T01:27:20.280284,9.577,-0.27439025044441223,-0.5411585569381714,0.015243902802467346
1588210008618,2020-04-30T01:27:20.302645,9.617,-0.13719512522220612,-0.323932945728302,0.03429878130555153
1588210008657,2020-04-30T01:27:20.340345,9.656,-0.1981707364320755,-0.240091472864151,-0.02286585420370102
1588210008697,2020-04-30T01:27:20.362663,9.696,-0.3849085569381714,-0.24390244483947754,0.019054878503084183
1588210008736,2020-04-30T01:27:20.377707,9.735,-0.4077743887901306,-0.26676830649375916,0.1257621943950653
1588210008776,2020-04-30T01:27:20.400074,9.775,-0.3353658616542816,-0.4496951401233673,0.05716463550925255
1588210008815,2020-04-30T01:27:20.423420,9.814,-0.28582316637039185,-0.5411585569381714,-0.01143292710185051
1588210008855,2020-04-30T01:27:20.444942,9.854,-0.22484757006168365,-0.5983231663703918,-0.019054878503084183
1588210008893,2020-04-30T01:27:20.482655,9.892,-0.1448170691728592,-0.5754573345184326,-0.038109757006168365
1588210008933,2020-04-30T01:27:20.505071,9.932,-0.17911586165428162,-0.5945122241973877,-0.0038109757006168365
1588210008972,2020-04-30T01:27:20.520269,9.971,-0.3125,-0.5754573345184326,0.019054878503084183
1588210009012,2020-04-30T01:27:20.543362,10.011,-0.30868902802467346,-0.3734756112098694,-0.015243902802467346
1588210009051,2020-04-30T01:27:20.565612,10.05,-0.35823172330856323,-0.21341463923454285,0.030487805604934692
1588210009091,2020-04-30T01:27:20.587675,10.09,-0.27439025044441223,-0.44207316637039185,-0.007621951401233673
1588210009130,2020-04-30T01:27:20.617571,10.129,-0.21341463923454285,-0.5754573345184326,-0.03429878130555153
1588210009170,2020-04-30T01:27:20.632599,10.169,-0.30868902802467346,-0.40015244483947754,0.026676829904317856
1588210009210,2020-04-30T01:27:20.662799,10.209,-0.3772865831851959,-0.4039634168148041,0.019054878503084183
1588210009249,2020-04-30T01:27:20.685016,10.248,-0.2896341383457184,-0.4382621943950653,0.02286585420370102
1588210009289,2020-04-30T01:27:20.707324,10.288,-0.27439025044441223,-0.39253050088882446,0.0038109757006168365
1588210009327,2020-04-30T01:27:20.729844,10.326,-0.2820121943950653,-0.40015244483947754,0.0
1588210009366,2020-04-30T01:27:20.752412,10.365,-0.29725611209869385,-0.47256097197532654,0.015243902802467346
1588210009406,2020-04-30T01:27:20.789868,10.405,-0.30868902802467346,-0.49542683362960815,0.04573170840740204
1588210009445,2020-04-30T01:27:20.804865,10.444,-0.22484757006168365,-0.48399391770362854,-0.0038109757006168365
1588210009485,2020-04-30T01:27:20.834886,10.484,-0.25533536076545715,-0.44588416814804077,-0.019054878503084183
1588210009524,2020-04-30T01:27:20.852002,10.523,-0.33917683362960815,-0.4039634168148041,0.030487805604934692
1588210009564,2020-04-30T01:27:20.872602,10.563,-0.396341472864151,-0.3315548896789551,0.05716463550925255
1588210009604,2020-04-30T01:27:20.917515,10.603,-0.2705792784690857,-0.42301830649375916,0.060975611209869385
1588210009643,2020-04-30T01:27:20.932607,10.642,-0.2591463327407837,-0.46493902802467346,0.0
1588210009683,2020-04-30T01:27:20.969967,10.682,-0.2515243887901306,-0.4611280560493469,0.06478658318519592
1588210009722,2020-04-30T01:27:20.985020,10.721,-0.22484757006168365,-0.5487805008888245,0.0
1588210009760,2020-04-30T01:27:20.999938,10.759,-0.3429878056049347,-0.4382621943950653,0.007621951401233673
1588210009800,2020-04-30T01:27:21.037515,10.799,-0.44588416814804077,-0.3125,0.060975611209869385
1588210009839,2020-04-30T01:27:21.052639,10.838,-0.32774391770362854,-0.35823172330856323,0.015243902802467346
1588210009879,2020-04-30T01:27:21.082837,10.878,-0.26676830649375916,-0.47256097197532654,0.026676829904317856
1588210009918,2020-04-30T01:27:21.112680,10.917,-0.21341463923454285,-0.38109755516052246,0.030487805604934692
1588210009958,2020-04-30T01:27:21.135378,10.957,-0.27820122241973877,-0.35060974955558777,-0.007621951401233673
1588210009998,2020-04-30T01:27:21.170960,10.997,-0.2515243887901306,-0.44207316637039185,0.01143292710185051
1588210010037,2020-04-30T01:27:21.185600,11.036,-0.24771341681480408,-0.3734756112098694,0.03429878130555153
1588210010077,2020-04-30T01:27:21.204470,11.076,-0.28582316637039185,-0.396341472864151,0.03429878130555153
1588210010116,2020-04-30T01:27:21.225102,11.115,-0.24390244483947754,-0.4496951401233673,0.019054878503084183
1588210010154,2020-04-30T01:27:21.247687,11.153,-0.22484757006168365,-0.41158536076545715,-0.007621951401233673
1588210010194,2020-04-30T01:27:21.278333,11.193,-0.2705792784690857,-0.3849085569381714,0.026676829904317856
1588210010233,2020-04-30T01:27:21.307555,11.232,-0.2286585420370102,-0.5068597793579102,0.030487805604934692
1588210010273,2020-04-30T01:27:21.322631,11.272,-0.17911586165428162,-0.3315548896789551,0.01143292710185051
1588210010313,2020-04-30T01:27:21.344960,11.312,-0.3048780560493469,-0.3125,0.007621951401233673
1588210010352,2020-04-30T01:27:21.367494,11.351,-0.35823172330856323,-0.4192073345184326,0.049542684108018875
1588210010392,2020-04-30T01:27:21.419938,11.391,-0.3048780560493469,-0.4039634168148041,0.02286585420370102
1588210010431,2020-04-30T01:27:21.442559,11.43,-0.16387195885181427,-0.323932945728302,-0.019054878503084183
1588210010471,2020-04-30T01:27:21.465047,11.47,-0.14862805604934692,-0.36966463923454285,-0.0724085345864296
1588210010510,2020-04-30T01:27:21.487442,11.509,-0.23246951401233673,-0.3544207513332367,-0.038109757006168365
1588210010550,2020-04-30T01:27:21.509959,11.549,-0.1981707364320755,-0.3734756112098694,0.0038109757006168365
1588210010588,2020-04-30T01:27:21.540119,11.587,-0.3429878056049347,-0.41158536076545715,0.09146341681480408
1588210010627,2020-04-30T01:27:21.555113,11.626,-0.3544207513332367,-0.49542683362960815,0.049542684108018875
1588210010667,2020-04-30T01:27:21.585119,11.666,-0.3125,-0.3849085569381714,-0.0038109757006168365
1588210010707,2020-04-30T01:27:21.607743,11.706,-0.2820121943950653,-0.3429878056049347,0.0
1588210010746,2020-04-30T01:27:21.631679,11.745,-0.24390244483947754,-0.35060974955558777,0.038109757006168365
1588210010786,2020-04-30T01:27:21.653825,11.785,-0.23628048598766327,-0.35823172330856323,0.03429878130555153
1588210010825,2020-04-30T01:27:21.667470,11.824,-0.24771341681480408,-0.44207316637039185,0.015243902802467346
1588210010865,2020-04-30T01:27:21.689938,11.864,-0.240091472864151,-0.4496951401233673,0.019054878503084183
1588210010904,2020-04-30T01:27:21.720082,11.903,-0.23628048598766327,-0.41158536076545715,-0.02286585420370102
1588210010944,2020-04-30T01:27:21.742654,11.943,-0.27820122241973877,-0.44207316637039185,0.02286585420370102
1588210010982,2020-04-30T01:27:21.765164,11.981,-0.26676830649375916,-0.3315548896789551,0.03429878130555153
1588210011022,2020-04-30T01:27:21.780079,12.021,-0.3010670840740204,-0.35823172330856323,0.026676829904317856
1588210011061,2020-04-30T01:27:21.802875,12.06,-0.3125,-0.45350611209869385,0.060975611209869385
1588210011101,2020-04-30T01:27:21.825212,12.1,-0.3010670840740204,-0.45350611209869385,0.05335365980863571
1588210011140,2020-04-30T01:27:21.847610,12.139,-0.3125,-0.3849085569381714,0.04573170840740204
1588210011180,2020-04-30T01:27:21.877555,12.179,-0.17911586165428162,-0.36966463923454285,0.026676829904317856
1588210011219,2020-04-30T01:27:21.907648,12.218,-0.19054877758026123,-0.3734756112098694,0.026676829904317856
1588210011259,2020-04-30T01:27:21.923106,12.258,-0.27439025044441223,-0.40015244483947754,0.0419207327067852
1588210011298,2020-04-30T01:27:21.949658,12.297,-0.2591463327407837,-0.40015244483947754,0.015243902802467346
1588210011338,2020-04-30T01:27:21.967588,12.337,-0.2096036672592163,-0.4496951401233673,0.0038109757006168365
1588210011377,2020-04-30T01:27:21.997583,12.376,-0.3048780560493469,-0.39253050088882446,0.030487805604934692
1588210011416,2020-04-30T01:27:22.020111,12.415,-0.28582316637039185,-0.3201219439506531,0.04573170840740204
1588210011455,2020-04-30T01:27:22.035943,12.454,-0.22484757006168365,-0.40015244483947754,0.0038109757006168365
1588210011495,2020-04-30T01:27:22.065057,12.494,-0.2096036672592163,-0.5030487775802612,-0.0038109757006168365
1588210011534,2020-04-30T01:27:22.080000,12.533,-0.13338415324687958,-0.46493902802467346,-0.02286585420370102
1588210011574,2020-04-30T01:27:22.102580,12.573,-0.22103658318519592,-0.3429878056049347,-0.026676829904317856
1588210011613,2020-04-30T01:27:22.139975,12.612,-0.36204269528388977,-0.3658536672592163,0.007621951401233673
1588210011653,2020-04-30T01:27:22.155135,12.652,-0.30868902802467346,-0.39253050088882446,0.015243902802467346
1588210011692,2020-04-30T01:27:22.200113,12.691,-0.2705792784690857,-0.36966463923454285,0.0
1588210011732,2020-04-30T01:27:22.215117,12.731,-0.21722561120986938,-0.4573170840740204,-0.007621951401233673
1588210011772,2020-04-30T01:27:22.237862,12.771,-0.22484757006168365,-0.41158536076545715,0.0038109757006168365
1588210011811,2020-04-30T01:27:22.260066,12.81,-0.2934451401233673,-0.31631097197532654,0.08003048598766327
1588210011849,2020-04-30T01:27:22.282605,12.848,-0.29725611209869385,-0.36966463923454285,0.038109757006168365
1588210011889,2020-04-30T01:27:22.312543,12.888,-0.20198170840740204,-0.4496951401233673,-0.03429878130555153
1588210011928,2020-04-30T01:27:22.327452,12.927,-0.20198170840740204,-0.3887195289134979,-0.0419207327067852
1588210011968,2020-04-30T01:27:22.350005,12.967,-0.34679877758026123,-0.34679877758026123,0.0838414654135704
1588210012007,2020-04-30T01:27:22.372604,13.006,-0.39253050088882446,-0.4496951401233673,0.09908536821603775
1588210012047,2020-04-30T01:27:22.388138,13.046,-0.28582316637039185,-0.4192073345184326,0.0
1588210012086,2020-04-30T01:27:22.425015,13.085,-0.23628048598766327,-0.3315548896789551,0.019054878503084183
1588210012126,2020-04-30T01:27:22.440024,13.125,-0.28582316637039185,-0.44207316637039185,-0.030487805604934692
1588210012166,2020-04-30T01:27:22.462518,13.165,-0.29725611209869385,-0.47256097197532654,0.015243902802467346
1588210012205,2020-04-30T01:27:22.485448,13.204,-0.3125,-0.4192073345184326,0.026676829904317856
1588210012243,2020-04-30T01:27:22.522528,13.242,-0.2515243887901306,-0.3429878056049347,-0.0419207327067852
1588210012283,2020-04-30T01:27:22.544955,13.282,-0.25533536076545715,-0.36966463923454285,-0.007621951401233673
1588210012322,2020-04-30T01:27:22.559989,13.321,-0.240091472864151,-0.4382621943950653,0.0
1588210012362,2020-04-30T01:27:22.582660,13.361,-0.2096036672592163,-0.396341472864151,-0.01143292710185051
1588210012401,2020-04-30T01:27:22.605053,13.4,-0.2515243887901306,-0.4573170840740204,0.007621951401233673
1588210012441,2020-04-30T01:27:22.635072,13.44,-0.2515243887901306,-0.3887195289134979,0.03429878130555153
1588210012480,2020-04-30T01:27:22.657582,13.479,-0.323932945728302,-0.20198170840740204,0.05716463550925255
1588210012520,2020-04-30T01:27:22.672724,13.519,-0.26676830649375916,-0.2896341383457184,0.04573170840740204
1588210012560,2020-04-30T01:27:22.702561,13.559,-0.2096036672592163,-0.4573170840740204,-0.019054878503084183
1588210012599,2020-04-30T01:27:22.725171,13.598,-0.20198170840740204,-0.43445122241973877,0.015243902802467346
1588210012639,2020-04-30T01:27:22.747810,13.638,-0.19054877758026123,-0.4192073345184326,0.02286585420370102
1588210012677,2020-04-30T01:27:22.770143,13.676,-0.2096036672592163,-0.3849085569381714,0.030487805604934692
1588210012716,2020-04-30T01:27:22.800064,13.715,-0.28582316637039185,-0.3429878056049347,0.019054878503084183
1588210012756,2020-04-30T01:27:22.830170,13.755,-0.26676830649375916,-0.45350611209869385,-0.01143292710185051
1588210012795,2020-04-30T01:27:22.852827,13.794,-0.15243902802467346,-0.45350611209869385,-0.026676829904317856
1588210012835,2020-04-30T01:27:22.875116,13.834,-0.09908536821603775,-0.35060974955558777,-0.007621951401233673
1588210012875,2020-04-30T01:27:22.905290,13.874,-0.2629573345184326,-0.35060974955558777,-0.01143292710185051
1588210012914,2020-04-30T01:27:22.927569,13.913,-0.24390244483947754,-0.46493902802467346,0.03429878130555153
1588210012954,2020-04-30T01:27:22.942771,13.953,-0.16387195885181427,-0.3849085569381714,-0.030487805604934692
1588210012993,2020-04-30T01:27:22.987780,13.992,-0.24771341681480408,-0.24771341681480408,-0.0038109757006168365
1588210013033,2020-04-30T01:27:23.002570,14.032,-0.20579268038272858,-0.3772865831851959,0.030487805604934692
1588210013071,2020-04-30T01:27:23.025002,14.07,-0.19435976445674896,-0.5030487775802612,-0.0419207327067852
1588210013110,2020-04-30T01:27:23.047472,14.109,-0.17149390280246735,-0.5487805008888245,-0.06478658318519592
1588210013150,2020-04-30T01:27:23.062643,14.149,-0.09908536821603775,-0.4916158616542816,-0.05335365980863571
1588210013189,2020-04-30T01:27:23.092578,14.188,-0.22484757006168365,-0.35823172330856323,0.01143292710185051
1588210013229,2020-04-30T01:27:23.123131,14.228,-0.2820121943950653,-0.34679877758026123,0.03429878130555153
1588210013269,2020-04-30T01:27:23.152665,14.268,-0.25533536076545715,-0.3010670840740204,0.007621951401233673
1588210013308,2020-04-30T01:27:23.167873,14.307,-0.3010670840740204,-0.3849085569381714,0.007621951401233673
1588210013348,2020-04-30T01:27:23.182997,14.347,-0.22484757006168365,-0.5792682766914368,-0.04573170840740204
1588210013387,2020-04-30T01:27:23.213975,14.386,-0.1143292710185051,-0.6059451103210449,-0.060975611209869385
1588210013427,2020-04-30T01:27:23.227730,14.426,-0.22103658318519592,-0.46875,0.04573170840740204
1588210013466,2020-04-30T01:27:23.272543,14.465,-0.35060974955558777,-0.3010670840740204,0.038109757006168365
1588210013504,2020-04-30T01:27:23.287513,14.503,-0.35060974955558777,-0.2591463327407837,0.01143292710185051
1588210013544,2020-04-30T01:27:23.302573,14.543,-0.22484757006168365,-0.3315548896789551,0.007621951401233673
1588210013584,2020-04-30T01:27:23.332587,14.583,-0.2515243887901306,-0.3734756112098694,0.06478658318519592
1588210013623,2020-04-30T01:27:23.347807,14.622,-0.3887195289134979,-0.4916158616542816,-0.0038109757006168365
1588210013663,2020-04-30T01:27:23.377570,14.662,-0.2705792784690857,-0.48399391770362854,-0.026676829904317856
1588210013702,2020-04-30T01:27:23.392679,14.701,-0.23246951401233673,-0.29725611209869385,0.038109757006168365
1588210013742,2020-04-30T01:27:23.416213,14.741,-0.3315548896789551,-0.34679877758026123,0.049542684108018875
1588210013781,2020-04-30T01:27:23.452629,14.78,-0.31631097197532654,-0.4496951401233673,0.03429878130555153
1588210013821,2020-04-30T01:27:23.467483,14.82,-0.24771341681480408,-0.3887195289134979,-0.01143292710185051
1588210013860,2020-04-30T01:27:23.497455,14.859,-0.2934451401233673,-0.40015244483947754,0.02286585420370102
1588210013900,2020-04-30T01:27:23.512575,14.899,-0.36966463923454285,-0.3734756112098694,0.038109757006168365
1588210013939,2020-04-30T01:27:23.534965,14.938,-0.3353658616542816,-0.3772865831851959,0.02286585420370102
1588210013978,2020-04-30T01:27:23.579866,14.977,-0.19054877758026123,-0.44588416814804077,0.0038109757006168365
1588210014017,2020-04-30T01:27:23.595517,15.016,-0.240091472864151,-0.40015244483947754,0.01143292710185051
1588210014057,2020-04-30T01:27:23.609991,15.056,-0.396341472864151,-0.3429878056049347,0.06478658318519592
1588210014096,2020-04-30T01:27:23.647526,15.095,-0.35823172330856323,-0.38109755516052246,0.06478658318519592
1588210014136,2020-04-30T01:27:23.662543,15.135,-0.22103658318519592,-0.34679877758026123,0.019054878503084183
1588210014175,2020-04-30T01:27:23.695413,15.174,-0.21341463923454285,-0.38109755516052246,0.007621951401233673
1588210014215,2020-04-30T01:27:23.707585,15.214,-0.28582316637039185,-0.4153963625431061,-0.007621951401233673
1588210014254,2020-04-30T01:27:23.737883,15.253,-0.3010670840740204,-0.4077743887901306,-0.007621951401233673
1588210014294,2020-04-30T01:27:23.760006,15.293,-0.1867378056049347,-0.49542683362960815,0.007621951401233673
1588210014332,2020-04-30T01:27:23.775486,15.331,-0.21722561120986938,-0.45350611209869385,-0.007621951401233673
1588210014372,2020-04-30T01:27:23.812542,15.371,-0.36966463923454285,-0.35823172330856323,0.06478658318519592
1588210014411,2020-04-30T01:27:23.827490,15.41,-0.32774391770362854,-0.3772865831851959,0.007621951401233673
1588210014451,2020-04-30T01:27:23.850409,15.45,-0.2286585420370102,-0.42301830649375916,-0.02286585420370102
1588210014490,2020-04-30T01:27:23.873299,15.489,-0.20579268038272858,-0.4192073345184326,-0.019054878503084183
1588210014530,2020-04-30T01:27:23.917756,15.529,-0.240091472864151,-0.44207316637039185,-0.01143292710185051
1588210014569,2020-04-30T01:27:23.940698,15.568,-0.2515243887901306,-0.4382621943950653,0.01143292710185051
1588210014609,2020-04-30T01:27:23.955617,15.608,-0.36204269528388977,-0.3315548896789551,0.06478658318519592
1588210014648,2020-04-30T01:27:23.978626,15.647,-0.4077743887901306,-0.36204269528388977,0.04573170840740204
1588210014688,2020-04-30T01:27:24.015713,15.687,-0.2096036672592163,-0.6135671138763428,0.01143292710185051
1588210014728,2020-04-30T01:27:24.037695,15.727,-0.13719512522220612,-0.4573170840740204,0.0038109757006168365
1588210014766,2020-04-30T01:27:24.068639,15.765,-0.3315548896789551,-0.1981707364320755,0.060975611209869385
1588210014805,2020-04-30T01:27:24.082956,15.804,-0.41158536076545715,-0.4382621943950653,0.049542684108018875
1588210014845,2020-04-30T01:27:24.105073,15.844,-0.25533536076545715,-0.5411585569381714,-0.007621951401233673
1588210014884,2020-04-30T01:27:24.135667,15.883,-0.16006097197532654,-0.43064025044441223,-0.02286585420370102
1588210014924,2020-04-30T01:27:24.195288,15.923,-0.2820121943950653,-0.35823172330856323,0.030487805604934692
1588210014963,2020-04-30T01:27:24.225347,15.962,-0.36966463923454285,-0.40015244483947754,0.01143292710185051
1588210015003,2020-04-30T01:27:24.255636,16.002,-0.3544207513332367,-0.31631097197532654,0.03429878130555153
1588210015043,2020-04-30T01:27:24.271727,16.042,-0.323932945728302,-0.33917683362960815,0.026676829904317856
1588210015082,2020-04-30T01:27:24.299954,16.081,-0.24390244483947754,-0.46875,-0.0038109757006168365
1588210015122,2020-04-30T01:27:24.322576,16.121,-0.26676830649375916,-0.4496951401233673,-0.02286585420370102
1588210015160,2020-04-30T01:27:24.345907,16.159,-0.35823172330856323,-0.44207316637039185,0.04573170840740204
1588210015199,2020-04-30T01:27:24.375254,16.198,-0.27820122241973877,-0.35060974955558777,0.05716463550925255
1588210015239,2020-04-30T01:27:24.390200,16.238,-0.27439025044441223,-0.3315548896789551,0.007621951401233673
1588210015278,2020-04-30T01:27:24.427805,16.277,-0.25533536076545715,-0.35823172330856323,0.019054878503084183
1588210015318,2020-04-30T01:27:24.449974,16.317,-0.22484757006168365,-0.36204269528388977,0.026676829904317856
1588210015357,2020-04-30T01:27:24.495352,16.356,-0.2896341383457184,-0.35823172330856323,0.038109757006168365
1588210015397,2020-04-30T01:27:24.517469,16.396,-0.2934451401233673,-0.3544207513332367,0.019054878503084183
1588210015437,2020-04-30T01:27:24.532807,16.436,-0.17530487477779388,-0.39253050088882446,-0.019054878503084183
1588210015476,2020-04-30T01:27:24.577594,16.475,-0.15625,-0.3315548896789551,0.015243902802467346
1588210015516,2020-04-30T01:27:24.600096,16.515,-0.3048780560493469,-0.3201219439506531,0.07621951401233673
1588210015555,2020-04-30T01:27:24.630094,16.554,-0.22103658318519592,-0.4039634168148041,0.007621951401233673
1588210015593,2020-04-30T01:27:24.653930,16.592,-0.20198170840740204,-0.3544207513332367,0.0
1588210015633,2020-04-30T01:27:24.670188,16.632,-0.18292683362960815,-0.3849085569381714,-0.015243902802467346
1588210015672,2020-04-30T01:27:24.697985,16.671,-0.20579268038272858,-0.480182945728302,-0.01143292710185051
1588210015712,2020-04-30T01:27:24.712858,16.711,-0.2515243887901306,-0.4039634168148041,-0.01143292710185051
1588210015751,2020-04-30T01:27:24.750844,16.75,-0.24771341681480408,-0.3201219439506531,-0.019054878503084183
1588210015791,2020-04-30T01:27:24.772597,16.79,-0.240091472864151,-0.34679877758026123,-0.02286585420370102
1588210015831,2020-04-30T01:27:24.787470,16.83,-0.21722561120986938,-0.3658536672592163,-0.007621951401233673
1588210015870,2020-04-30T01:27:24.817467,16.869,-0.22484757006168365,-0.3887195289134979,0.007621951401233673
1588210015910,2020-04-30T01:27:24.832515,16.909,-0.22103658318519592,-0.44207316637039185,-0.049542684108018875
1588210015949,2020-04-30T01:27:24.870492,16.948,-0.23628048598766327,-0.4992378056049347,-0.007621951401233673
1588210015987,2020-04-30T01:27:24.885218,16.986,-0.25533536076545715,-0.46875,0.02286585420370102
1588210016027,2020-04-30T01:27:24.915018,17.026,-0.23628048598766327,-0.35060974955558777,-0.0038109757006168365
1588210016066,2020-04-30T01:27:24.937470,17.065,-0.2515243887901306,-0.19435976445674896,0.026676829904317856
1588210016106,2020-04-30T01:27:24.952537,17.105,-0.3315548896789551,-0.22484757006168365,0.05716463550925255
1588210016146,2020-04-30T01:27:24.975250,17.145,-0.3353658616542816,-0.5030487775802612,0.06478658318519592
1588210016185,2020-04-30T01:27:24.997476,17.184,-0.20579268038272858,-0.6135671138763428,-0.0038109757006168365
1588210016225,2020-04-30T01:27:25.027563,17.224,-0.17530487477779388,-0.5640243887901306,-0.038109757006168365
1588210016264,2020-04-30T01:27:25.057660,17.263,-0.22103658318519592,-0.4992378056049347,-0.007621951401233673
1588210016304,2020-04-30T01:27:25.072909,17.303,-0.40015244483947754,-0.30868902802467346,0.0838414654135704
1588210016343,2020-04-30T01:27:25.095368,17.342,-0.5068597793579102,-0.27820122241973877,0.13719512522220612
1588210016383,2020-04-30T01:27:25.125105,17.382,-0.29725611209869385,-0.31631097197532654,0.02286585420370102
1588210016421,2020-04-30T01:27:25.155114,17.42,-0.24390244483947754,-0.42301830649375916,-0.01143292710185051
1588210016460,2020-04-30T01:27:25.192908,17.459,-0.14100609719753265,-0.5907012224197388,-0.02286585420370102
1588210016500,2020-04-30T01:27:25.216553,17.499,-0.1676829308271408,-0.5259146690368652,-0.019054878503084183
1588210016540,2020-04-30T01:27:25.230510,17.539,-0.36966463923454285,-0.3010670840740204,0.049542684108018875
1588210016579,2020-04-30T01:27:25.252807,17.578,-0.4039634168148041,-0.3429878056049347,0.07621951401233673
1588210016619,2020-04-30T01:27:25.275095,17.618,-0.35060974955558777,-0.3353658616542816,0.030487805604934692
1588210016658,2020-04-30T01:27:25.297504,17.657,-0.27439025044441223,-0.39253050088882446,-0.01143292710185051
1588210016698,2020-04-30T01:27:25.327712,17.697,-0.25533536076545715,-0.5564024448394775,0.01143292710185051
1588210016737,2020-04-30T01:27:25.343374,17.736,-0.26676830649375916,-0.4496951401233673,-0.0038109757006168365
1588210016777,2020-04-30T01:27:25.372652,17.776,-0.36966463923454285,-0.35060974955558777,0.04573170840740204
1588210016816,2020-04-30T01:27:25.395087,17.815,-0.2934451401233673,-0.36204269528388977,0.0419207327067852
1588210016855,2020-04-30T01:27:25.417594,17.854,-0.21341463923454285,-0.3887195289134979,0.007621951401233673
1588210016894,2020-04-30T01:27:25.440062,17.893,-0.3429878056049347,-0.35060974955558777,0.02286585420370102
1588210016934,2020-04-30T01:27:25.456847,17.933,-0.33917683362960815,-0.4573170840740204,0.05716463550925255
1588210016973,2020-04-30T01:27:25.493271,17.972,-0.2705792784690857,-0.47637197375297546,0.030487805604934692
1588210017013,2020-04-30T01:27:25.507661,18.012,-0.22484757006168365,-0.43064025044441223,-0.026676829904317856
1588210017052,2020-04-30T01:27:25.539518,18.051,-0.30868902802467346,-0.3887195289134979,0.02286585420370102
1588210017092,2020-04-30T01:27:25.553025,18.091,-0.3544207513332367,-0.33917683362960815,0.07621951401233673
1588210017131,2020-04-30T01:27:25.567547,18.13,-0.30868902802467346,-0.3849085569381714,0.038109757006168365
1588210017171,2020-04-30T01:27:25.605139,18.17,-0.2286585420370102,-0.3887195289134979,-0.007621951401233673
1588210017210,2020-04-30T01:27:25.620190,18.209,-0.26676830649375916,-0.4077743887901306,0.0
1588210017250,2020-04-30T01:27:25.650118,18.249,-0.27439025044441223,-0.3772865831851959,0.007621951401233673
1588210017288,2020-04-30T01:27:25.665173,18.287,-0.24390244483947754,-0.4077743887901306,0.0038109757006168365
1588210017328,2020-04-30T01:27:25.681870,18.327,-0.2515243887901306,-0.39253050088882446,-0.015243902802467346
1588210017367,2020-04-30T01:27:25.710239,18.366,-0.240091472864151,-0.3734756112098694,0.030487805604934692
1588210017407,2020-04-30T01:27:25.725118,18.406,-0.2591463327407837,-0.3658536672592163,0.0419207327067852
1588210017446,2020-04-30T01:27:25.762684,18.445,-0.23246951401233673,-0.3772865831851959,0.007621951401233673
1588210017486,2020-04-30T01:27:25.777662,18.485,-0.21722561120986938,-0.3201219439506531,0.015243902802467346
1588210017525,2020-04-30T01:27:25.800444,18.524,-0.2820121943950653,-0.35060974955558777,0.030487805604934692
1588210017565,2020-04-30T01:27:25.837556,18.564,-0.2820121943950653,-0.3887195289134979,0.007621951401233673
1588210017605,2020-04-30T01:27:25.867609,18.604,-0.25533536076545715,-0.36966463923454285,0.02286585420370102
1588210017644,2020-04-30T01:27:25.890235,18.643,-0.24771341681480408,-0.2934451401233673,0.03429878130555153
1588210017682,2020-04-30T01:27:25.912670,18.681,-0.25533536076545715,-0.42301830649375916,0.019054878503084183
1588210017722,2020-04-30T01:27:25.927639,18.721,-0.2591463327407837,-0.44588416814804077,-0.019054878503084183
1588210017761,2020-04-30T01:27:25.957706,18.76,-0.24390244483947754,-0.4077743887901306,-0.0038109757006168365
1588210017801,2020-04-30T01:27:25.972621,18.8,-0.24390244483947754,-0.31631097197532654,0.01143292710185051
1588210017840,2020-04-30T01:27:25.995012,18.839,-0.2515243887901306,-0.36204269528388977,0.007621951401233673
1588210017880,2020-04-30T01:27:26.017631,18.879,-0.27439025044441223,-0.35823172330856323,0.0
1588210017919,2020-04-30T01:27:26.032797,18.918,-0.1676829308271408,-0.4192073345184326,0.015243902802467346
1588210017959,2020-04-30T01:27:26.062798,18.958,-0.26676830649375916,-0.49542683362960815,0.007621951401233673
1588210017999,2020-04-30T01:27:26.078956,18.998,-0.2286585420370102,-0.4611280560493469,0.030487805604934692
1588210018038,2020-04-30T01:27:26.108058,19.037,-0.22484757006168365,-0.3772865831851959,0.015243902802467346
1588210018078,2020-04-30T01:27:26.130019,19.077,-0.3315548896789551,-0.33917683362960815,0.060975611209869385
1588210018116,2020-04-30T01:27:26.144847,19.115,-0.31631097197532654,-0.3201219439506531,0.09908536821603775
1588210018155,2020-04-30T01:27:26.182402,19.154,-0.23246951401233673,-0.39253050088882446,0.02286585420370102
1588210018195,2020-04-30T01:27:26.197391,19.194,-0.15243902802467346,-0.4573170840740204,-0.03429878130555153
1588210018234,2020-04-30T01:27:26.219829,19.233,-0.09527438879013062,-0.46493902802467346,-0.04573170840740204
1588210018274,2020-04-30T01:27:26.242446,19.273,-0.29725611209869385,-0.4611280560493469,0.030487805604934692
1588210018314,2020-04-30T01:27:26.272471,19.313,-0.43064025044441223,-0.45350611209869385,0.060975611209869385
1588210018353,2020-04-30T01:27:26.302622,19.352,-0.3544207513332367,-0.36204269528388977,0.07621951401233673
1588210018393,2020-04-30T01:27:26.317524,19.392,-0.27820122241973877,-0.3125,0.03429878130555153
1588210018432,2020-04-30T01:27:26.339975,19.431,-0.24390244483947754,-0.43445122241973877,0.038109757006168365
1588210018472,2020-04-30T01:27:26.362378,19.471,-0.24771341681480408,-0.4611280560493469,-0.01143292710185051
1588210018510,2020-04-30T01:27:26.384872,19.509,-0.26676830649375916,-0.41158536076545715,0.026676829904317856
1588210018549,2020-04-30T01:27:26.422369,19.548,-0.33917683362960815,-0.4192073345184326,0.026676829904317856
1588210018589,2020-04-30T01:27:26.444832,19.588,-0.36966463923454285,-0.3429878056049347,0.05716463550925255
1588210018628,2020-04-30T01:27:26.467358,19.627,-0.25533536076545715,-0.36204269528388977,0.02286585420370102
1588210018668,2020-04-30T01:27:26.497332,19.667,-0.2591463327407837,-0.3772865831851959,0.0
1588210018708,2020-04-30T01:27:26.519837,19.707,-0.27820122241973877,-0.46875,0.0
1588210018747,2020-04-30T01:27:26.542359,19.746,-0.2934451401233673,-0.45350611209869385,0.026676829904317856
1588210018787,2020-04-30T01:27:26.564869,19.786,-0.36204269528388977,-0.41158536076545715,0.030487805604934692
1588210018826,2020-04-30T01:27:26.579849,19.825,-0.24771341681480408,-0.44207316637039185,0.03429878130555153
1588210018866,2020-04-30T01:27:26.602370,19.865,-0.1981707364320755,-0.4077743887901306,0.019054878503084183
1588210018905,2020-04-30T01:27:26.624833,19.904,-0.27439025044441223,-0.36204269528388977,0.03429878130555153
1588210018943,2020-04-30T01:27:26.647334,19.942,-0.3201219439506531,-0.38109755516052246,0.06478658318519592
1588210018983,2020-04-30T01:27:26.669958,19.982,-0.24771341681480408,-0.35060974955558777,0.02286585420370102
1588210019022,2020-04-30T01:27:26.692550,20.021,-0.24390244483947754,-0.42301830649375916,0.0
1588210019062,2020-04-30T01:27:26.722624,20.061,-0.2896341383457184,-0.46875,0.019054878503084183
1588210019102,2020-04-30T01:27:26.737460,20.101,-0.21722561120986938,-0.3849085569381714,0.01143292710185051
1588210019141,2020-04-30T01:27:26.760095,20.14,-0.31631097197532654,-0.2820121943950653,0.02286585420370102
1588210019181,2020-04-30T01:27:26.782677,20.18,-0.30868902802467346,-0.4153963625431061,0.0724085345864296
1588210019220,2020-04-30T01:27:26.797579,20.219,-0.23246951401233673,-0.4611280560493469,-0.0038109757006168365
1588210019260,2020-04-30T01:27:26.827503,20.259,-0.30868902802467346,-0.3887195289134979,0.05716463550925255
1588210019299,2020-04-30T01:27:26.842601,20.298,-0.3048780560493469,-0.47637197375297546,0.049542684108018875
1588210019339,2020-04-30T01:27:26.865160,20.338,-0.19435976445674896,-0.4916158616542816,0.049542684108018875
1588210019377,2020-04-30T01:27:26.887483,20.376,-0.24771341681480408,-0.3544207513332367,0.007621951401233673
1588210019417,2020-04-30T01:27:26.910009,20.416,-0.30868902802467346,-0.41158536076545715,0.038109757006168365
1588210019456,2020-04-30T01:27:26.939983,20.455,-0.2286585420370102,-0.47256097197532654,0.030487805604934692
1588210019496,2020-04-30T01:27:26.954996,20.495,-0.3010670840740204,-0.3353658616542816,0.030487805604934692
1588210019535,2020-04-30T01:27:26.985002,20.534,-0.36966463923454285,-0.3849085569381714,0.038109757006168365
1588210019575,2020-04-30T01:27:26.999982,20.574,-0.3048780560493469,-0.4153963625431061,0.030487805604934692
1588210019614,2020-04-30T01:27:27.015034,20.613,-0.240091472864151,-0.3010670840740204,0.03429878130555153
1588210019654,2020-04-30T01:27:27.052498,20.653,-0.3125,-0.32774391770362854,0.0419207327067852
1588210019693,2020-04-30T01:27:27.067514,20.692,-0.36966463923454285,-0.4382621943950653,0.038109757006168365
1588210019733,2020-04-30T01:27:27.105003,20.732,-0.23246951401233673,-0.40015244483947754,0.0
1588210019771,2020-04-30T01:27:27.119999,20.77,-0.2096036672592163,-0.43064025044441223,0.01143292710185051
1588210019811,2020-04-30T01:27:27.142509,20.81,-0.22484757006168365,-0.38109755516052246,-0.030487805604934692
1588210019850,2020-04-30T01:27:27.165276,20.849,-0.28582316637039185,-0.30868902802467346,0.019054878503084183
1588210019890,2020-04-30T01:27:27.179985,20.889,-0.24771341681480408,-0.27439025044441223,0.01143292710185051
1588210019929,2020-04-30T01:27:27.209979,20.928,-0.29725611209869385,-0.3048780560493469,0.015243902802467346
1588210019969,2020-04-30T01:27:27.225033,20.968,-0.2591463327407837,-0.44588416814804077,-0.0038109757006168365
1588210020008,2020-04-30T01:27:27.248203,21.007,-0.2286585420370102,-0.396341472864151,-0.0038109757006168365
1588210020048,2020-04-30T01:27:27.270132,21.047,-0.26676830649375916,-0.31631097197532654,0.03429878130555153
1588210020087,2020-04-30T01:27:27.285168,21.086,-0.2705792784690857,-0.2820121943950653,0.030487805604934692
1588210020127,2020-04-30T01:27:27.307855,21.126,-0.24771341681480408,-0.3353658616542816,0.015243902802467346
1588210020167,2020-04-30T01:27:27.330371,21.166,-0.21722561120986938,-0.39253050088882446,0.015243902802467346
1588210020205,2020-04-30T01:27:27.355774,21.204,-0.16006097197532654,-0.36966463923454285,0.015243902802467346
1588210020244,2020-04-30T01:27:27.375139,21.243,-0.2286585420370102,-0.40015244483947754,0.02286585420370102
1588210020284,2020-04-30T01:27:27.397637,21.283,-0.2515243887901306,-0.35060974955558777,0.038109757006168365
1588210020323,2020-04-30T01:27:27.412774,21.322,-0.2096036672592163,-0.36204269528388977,0.030487805604934692
1588210020363,2020-04-30T01:27:27.435523,21.362,-0.20198170840740204,-0.3734756112098694,-0.015243902802467346
1588210020402,2020-04-30T01:27:27.460648,21.401,-0.20579268038272858,-0.396341472864151,0.007621951401233673
1588210020442,2020-04-30T01:27:27.479992,21.441,-0.2629573345184326,-0.4496951401233673,0.02286585420370102
1588210020481,2020-04-30T01:27:27.502647,21.48,-0.3010670840740204,-0.25533536076545715,0.0838414654135704
1588210020521,2020-04-30T01:27:27.525047,21.52,-0.22484757006168365,-0.32774391770362854,0.060975611209869385
1588210020561,2020-04-30T01:27:27.555015,21.56,-0.1867378056049347,-0.47256097197532654,-0.038109757006168365
1588210020599,2020-04-30T01:27:27.570010,21.598,-0.2629573345184326,-0.4878048896789551,-0.019054878503084183
1588210020638,2020-04-30T01:27:27.592830,21.637,-0.26676830649375916,-0.4077743887901306,0.019054878503084183
1588210020678,2020-04-30T01:27:27.615144,21.677,-0.31631097197532654,-0.3353658616542816,0.038109757006168365
1588210020717,2020-04-30T01:27:27.630448,21.716,-0.3048780560493469,-0.35823172330856323,0.049542684108018875
1588210020757,2020-04-30T01:27:27.660376,21.756,-0.30868902802467346,-0.3429878056049347,0.060975611209869385
1588210020796,2020-04-30T01:27:27.675321,21.795,-0.3201219439506531,-0.3849085569381714,0.03429878130555153
1588210020836,2020-04-30T01:27:27.705027,21.835,-0.18292683362960815,-0.47256097197532654,0.02286585420370102
1588210020876,2020-04-30T01:27:27.719997,21.875,-0.2629573345184326,-0.4382621943950653,0.019054878503084183
1588210020915,2020-04-30T01:27:27.735011,21.914,-0.3658536672592163,-0.36966463923454285,0.030487805604934692
1588210020955,2020-04-30T01:27:27.765134,21.954,-0.3353658616542816,-0.3772865831851959,0.026676829904317856
1588210020994,2020-04-30T01:27:27.779996,21.993,-0.28582316637039185,-0.3734756112098694,0.02286585420370102
1588210021032,2020-04-30T01:27:27.810089,22.031,-0.2591463327407837,-0.3849085569381714,0.0038109757006168365
1588210021072,2020-04-30T01:27:27.840541,22.071,-0.3048780560493469,-0.4382621943950653,0.049542684108018875
1588210021111,2020-04-30T01:27:27.855064,22.11,-0.2096036672592163,-0.5182926654815674,0.007621951401233673
1588210021151,2020-04-30T01:27:27.902577,22.15,-0.21341463923454285,-0.41158536076545715,0.0419207327067852
1588210021190,2020-04-30T01:27:27.923913,22.189,-0.323932945728302,-0.323932945728302,0.030487805604934692
1588210021230,2020-04-30T01:27:27.945110,22.229,-0.3429878056049347,-0.3772865831851959,0.038109757006168365
1588210021270,2020-04-30T01:27:27.967804,22.269,-0.29725611209869385,-0.3849085569381714,0.06478658318519592
1588210021309,2020-04-30T01:27:27.982891,22.308,-0.30868902802467346,-0.41158536076545715,0.019054878503084183
1588210021349,2020-04-30T01:27:28.005147,22.348,-0.323932945728302,-0.47637197375297546,0.0419207327067852
1588210021388,2020-04-30T01:27:28.027541,22.387,-0.2896341383457184,-0.47637197375297546,0.02286585420370102
1588210021426,2020-04-30T01:27:28.057512,22.425,-0.27439025044441223,-0.4039634168148041,0.049542684108018875
1588210021466,2020-04-30T01:27:28.079991,22.465,-0.34679877758026123,-0.3315548896789551,0.06478658318519592
1588210021505,2020-04-30T01:27:28.094999,22.504,-0.27439025044441223,-0.3658536672592163,0.0419207327067852
1588210021545,2020-04-30T01:27:28.125001,22.544,-0.240091472864151,-0.44588416814804077,0.030487805604934692
1588210021585,2020-04-30T01:27:28.147492,22.584,-0.26676830649375916,-0.3849085569381714,0.038109757006168365
1588210021624,2020-04-30T01:27:28.170028,22.623,-0.28582316637039185,-0.3887195289134979,0.038109757006168365
1588210021664,2020-04-30T01:27:28.192501,22.663,-0.22103658318519592,-0.47256097197532654,-0.01143292710185051
1588210021703,2020-04-30T01:27:28.207667,22.702,-0.26676830649375916,-0.40015244483947754,-0.007621951401233673
1588210021743,2020-04-30T01:27:28.237721,22.742,-0.35823172330856323,-0.3658536672592163,0.01143292710185051
1588210021782,2020-04-30T01:27:28.252823,22.781,-0.32774391770362854,-0.4039634168148041,0.0
1588210021822,2020-04-30T01:27:28.282823,22.821,-0.25533536076545715,-0.40015244483947754,0.007621951401233673
1588210021860,2020-04-30T01:27:28.297861,22.859,-0.23246951401233673,-0.39253050088882446,0.015243902802467346
1588210021899,2020-04-30T01:27:28.313661,22.898,-0.25533536076545715,-0.39253050088882446,0.049542684108018875
1588210021939,2020-04-30T01:27:28.342544,22.938,-0.22103658318519592,-0.42301830649375916,0.019054878503084183
1588210021979,2020-04-30T01:27:28.357581,22.978,-0.2820121943950653,-0.35060974955558777,0.0724085345864296
1588210022018,2020-04-30T01:27:28.402565,23.017,-0.35060974955558777,-0.3544207513332367,0.060975611209869385
1588210022058,2020-04-30T01:27:28.417501,23.057,-0.2096036672592163,-0.44207316637039185,0.038109757006168365
1588210022097,2020-04-30T01:27:28.447513,23.096,-0.21341463923454285,-0.3201219439506531,-0.0038109757006168365
1588210022137,2020-04-30T01:27:28.470034,23.136,-0.2820121943950653,-0.26676830649375916,0.03429878130555153
1588210022176,2020-04-30T01:27:28.485013,23.175,-0.3125,-0.44207316637039185,0.007621951401233673
1588210022216,2020-04-30T01:27:28.507357,23.215,-0.21722561120986938,-0.4611280560493469,-0.030487805604934692
1588210022254,2020-04-30T01:27:28.529849,23.253,-0.17149390280246735,-0.35823172330856323,-0.015243902802467346
1588210022293,2020-04-30T01:27:28.552355,23.292,-0.24771341681480408,-0.3353658616542816,0.03429878130555153
1588210022333,2020-04-30T01:27:28.574870,23.332,-0.22484757006168365,-0.3658536672592163,0.04573170840740204
1588210022373,2020-04-30T01:27:28.590037,23.372,-0.23628048598766327,-0.3048780560493469,0.04573170840740204
1588210022412,2020-04-30T01:27:28.612800,23.411,-0.21722561120986938,-0.32774391770362854,-0.019054878503084183
1588210022452,2020-04-30T01:27:28.635248,23.451,-0.2096036672592163,-0.4077743887901306,-0.0038109757006168365
1588210022491,2020-04-30T01:27:28.672904,23.49,-0.19054877758026123,-0.396341472864151,0.01143292710185051
1588210022531,2020-04-30T01:27:28.695153,23.53,-0.27439025044441223,-0.36966463923454285,0.030487805604934692
1588210022570,2020-04-30T01:27:28.717629,23.569,-0.3125,-0.33917683362960815,0.0419207327067852
1588210022610,2020-04-30T01:27:28.732746,23.609,-0.16387195885181427,-0.3125,-0.0038109757006168365
1588210022649,2020-04-30T01:27:28.762813,23.648,-0.1448170691728592,-0.3010670840740204,-0.01143292710185051
1588210022688,2020-04-30T01:27:28.785234,23.687,-0.09908536821603775,-0.3887195289134979,-0.038109757006168365
1588210022727,2020-04-30T01:27:28.807789,23.726,-0.1676829308271408,-0.3849085569381714,-0.007621951401233673
1588210022767,2020-04-30T01:27:28.830580,23.766,-0.17911586165428162,-0.35060974955558777,0.030487805604934692
1588210022806,2020-04-30T01:27:28.845278,23.805,-0.16006097197532654,-0.36966463923454285,-0.007621951401233673
1588210022846,2020-04-30T01:27:28.875129,23.845,-0.14862805604934692,-0.43064025044441223,-0.019054878503084183
1588210022885,2020-04-30T01:27:28.897563,23.884,-0.16387195885181427,-0.42301830649375916,-0.007621951401233673
1588210022925,2020-04-30T01:27:28.927520,23.924,-0.16387195885181427,-0.4611280560493469,-0.026676829904317856
1588210022964,2020-04-30T01:27:28.949991,23.963,-0.21722561120986938,-0.41158536076545715,-0.019054878503084183
1588210023004,2020-04-30T01:27:28.972537,24.003,-0.23246951401233673,-0.30868902802467346,0.007621951401233673
1588210023043,2020-04-30T01:27:29.002524,24.042,-0.13719512522220612,-0.47256097197532654,-0.038109757006168365
1588210023082,2020-04-30T01:27:29.017571,24.081,-0.13338415324687958,-0.5144817233085632,-0.06478658318519592
1588210023121,2020-04-30T01:27:29.040148,24.12,-0.18292683362960815,-0.4382621943950653,-0.038109757006168365
1588210023161,2020-04-30T01:27:29.070177,24.16,-0.2896341383457184,-0.4192073345184326,0.015243902802467346
1588210023200,2020-04-30T01:27:29.085146,24.199,-0.3201219439506531,-0.36966463923454285,0.06859756261110306
1588210023240,2020-04-30T01:27:29.118523,24.239,-0.35823172330856323,-0.32774391770362854,0.06859756261110306
1588210023279,2020-04-30T01:27:29.130133,24.278,-0.3734756112098694,-0.3315548896789551,0.04573170840740204
1588210023319,2020-04-30T01:27:29.168346,24.318,-0.3353658616542816,-0.5259146690368652,-0.0038109757006168365
1588210023358,2020-04-30T01:27:29.190001,24.357,-0.15625,-0.6059451103210449,-0.019054878503084183
1588210023398,2020-04-30T01:27:29.215251,24.397,-0.22103658318519592,-0.5106707215309143,0.019054878503084183
1588210023438,2020-04-30T01:27:29.242748,24.437,-0.3887195289134979,-0.34679877758026123,0.030487805604934692
1588210023477,2020-04-30T01:27:29.257521,24.476,-0.35823172330856323,-0.3010670840740204,0.0838414654135704
1588210023515,2020-04-30T01:27:29.287590,24.514,-0.323932945728302,-0.3201219439506531,0.0724085345864296
1588210023555,2020-04-30T01:27:29.302750,24.554,-0.323932945728302,-0.3849085569381714,0.026676829904317856
1588210023594,2020-04-30T01:27:29.325138,24.593,-0.26676830649375916,-0.45350611209869385,0.0
1588210023634,2020-04-30T01:27:29.347655,24.633,-0.240091472864151,-0.46875,0.0038109757006168365
1588210023673,2020-04-30T01:27:29.362749,24.672,-0.2896341383457184,-0.42301830649375916,0.03429878130555153
1588210023713,2020-04-30T01:27:29.392900,24.712,-0.39253050088882446,-0.35060974955558777,0.05335365980863571
1588210023752,2020-04-30T01:27:29.407595,24.751,-0.46493902802467346,-0.36966463923454285,0.10670731961727142
1588210023792,2020-04-30T01:27:29.430096,24.791,-0.3544207513332367,-0.49542683362960815,0.0419207327067852
1588210023832,2020-04-30T01:27:29.452591,24.831,-0.18292683362960815,-0.49542683362960815,-0.007621951401233673
1588210023871,2020-04-30T01:27:29.468003,24.87,-0.23628048598766327,-0.3849085569381714,0.007621951401233673
1588210023909,2020-04-30T01:27:29.497497,24.908,-0.3429878056049347,-0.43064025044441223,0.02286585420370102
1588210023949,2020-04-30T01:27:29.512519,24.948,-0.30868902802467346,-0.4496951401233673,0.01143292710185051
1588210023988,2020-04-30T01:27:29.535026,24.987,-0.27439025044441223,-0.40015244483947754,0.015243902802467346
1588210024028,2020-04-30T01:27:29.557527,25.027,-0.34679877758026123,-0.32774391770362854,0.05716463550925255
1588210024067,2020-04-30T01:27:29.595067,25.066,-0.3125,-0.42301830649375916,0.049542684108018875
1588210024107,2020-04-30T01:27:29.617642,25.106,-0.2934451401233673,-0.4916158616542816,0.007621951401233673
1588210024147,2020-04-30T01:27:29.632714,25.146,-0.2896341383457184,-0.3734756112098694,0.01143292710185051
1588210024186,2020-04-30T01:27:29.670213,25.185,-0.3353658616542816,-0.40015244483947754,0.019054878503084183
1588210024226,2020-04-30T01:27:29.695215,25.225,-0.25533536076545715,-0.4382621943950653,0.038109757006168365
1588210024265,2020-04-30T01:27:29.715154,25.264,-0.3201219439506531,-0.39253050088882446,0.0419207327067852
1588210024305,2020-04-30T01:27:29.730905,25.304,-0.4192073345184326,-0.3734756112098694,0.05716463550925255
1588210024343,2020-04-30T01:27:29.760013,25.342,-0.31631097197532654,-0.36966463923454285,0.038109757006168365
1588210024382,2020-04-30T01:27:29.775026,25.381,-0.25533536076545715,-0.396341472864151,0.015243902802467346
1588210024422,2020-04-30T01:27:29.805026,25.421,-0.27439025044441223,-0.42301830649375916,-0.01143292710185051
1588210024461,2020-04-30T01:27:29.835037,25.46,-0.30868902802467346,-0.44207316637039185,0.01143292710185051
1588210024501,2020-04-30T01:27:29.850034,25.5,-0.2820121943950653,-0.5411585569381714,0.015243902802467346
1588210024541,2020-04-30T01:27:29.887513,25.54,-0.10289634019136429,-0.7126524448394775,-0.060975611209869385
1588210024580,2020-04-30T01:27:29.902519,25.579,-0.02286585420370102,-0.6897866129875183,-0.11051829159259796
1588210024620,2020-04-30T01:27:29.932566,25.619,-0.25533536076545715,-0.42301830649375916,-0.015243902802467346
1588210024659,2020-04-30T01:27:29.947519,25.658,-0.3544207513332367,-0.38109755516052246,0.038109757006168365
1588210024699,2020-04-30T01:27:29.985349,25.698,-0.3734756112098694,-0.396341472864151,0.060975611209869385
1588210024738,2020-04-30T01:27:30.030076,25.737,-0.3048780560493469,-0.42301830649375916,0.060975611209869385
1588210024776,2020-04-30T01:27:30.052521,25.775,-0.14100609719753265,-0.4268292784690857,0.0
1588210024816,2020-04-30T01:27:30.075080,25.815,-0.3048780560493469,-0.35823172330856323,0.04573170840740204
1588210024855,2020-04-30T01:27:30.098086,25.854,-0.3429878056049347,-0.36966463923454285,0.038109757006168365
1588210024895,2020-04-30T01:27:30.120055,25.894,-0.2286585420370102,-0.480182945728302,0.0
1588210024935,2020-04-30T01:27:30.150375,25.934,-0.20579268038272858,-0.4611280560493469,-0.026676829904317856
1588210024974,2020-04-30T01:27:30.187606,25.973,-0.240091472864151,-0.3772865831851959,0.05335365980863571
1588210025014,2020-04-30T01:27:30.210207,26.013,-0.28582316637039185,-0.35823172330856323,0.060975611209869385
1588210025053,2020-04-30T01:27:30.232973,26.052,-0.2629573345184326,-0.3201219439506531,-0.01143292710185051
1588210025093,2020-04-30T01:27:30.255310,26.092,-0.29725611209869385,-0.26676830649375916,0.0419207327067852
1588210025132,2020-04-30T01:27:30.285202,26.131,-0.2629573345184326,-0.34679877758026123,-0.01143292710185051
1588210025170,2020-04-30T01:27:30.315307,26.169,-0.1676829308271408,-0.45350611209869385,-0.03429878130555153
1588210025210,2020-04-30T01:27:30.337736,26.209,-0.19435976445674896,-0.4153963625431061,-0.0419207327067852
1588210025250,2020-04-30T01:27:30.360826,26.249,-0.3048780560493469,-0.2896341383457184,0.007621951401233673
1588210025289,2020-04-30T01:27:30.375917,26.288,-0.3010670840740204,-0.27820122241973877,0.04573170840740204
1588210025329,2020-04-30T01:27:30.412632,26.328,-0.20198170840740204,-0.36204269528388977,-0.026676829904317856
1588210025368,2020-04-30T01:27:30.435019,26.367,-0.15243902802467346,-0.4153963625431061,-0.04573170840740204
1588210025408,2020-04-30T01:27:30.465067,26.407,-0.10289634019136429,-0.3429878056049347,-0.030487805604934692
1588210025447,2020-04-30T01:27:30.495427,26.446,-0.20579268038272858,-0.4039634168148041,0.015243902802467346
1588210025487,2020-04-30T01:27:30.510037,26.486,-0.240091472864151,-0.3849085569381714,0.026676829904317856
1588210025526,2020-04-30T01:27:30.547511,26.525,-0.23246951401233673,-0.36204269528388977,-0.0038109757006168365
1588210025566,2020-04-30T01:27:30.562555,26.565,-0.24390244483947754,-0.3544207513332367,0.007621951401233673
1588210025604,2020-04-30T01:27:30.600154,26.603,-0.28582316637039185,-0.3772865831851959,0.026676829904317856
1588210025644,2020-04-30T01:27:30.615149,26.643,-0.41158536076545715,-0.47256097197532654,0.05716463550925255
1588210025683,2020-04-30T01:27:30.630628,26.682,-0.4192073345184326,-0.47637197375297546,0.05716463550925255
1588210025723,2020-04-30T01:27:30.676493,26.722,-0.3125,-0.4573170840740204,0.02286585420370102
1588210025762,2020-04-30T01:27:30.692695,26.761,-0.1981707364320755,-0.47637197375297546,0.015243902802467346
1588210025802,2020-04-30T01:27:30.720177,26.801,-0.22103658318519592,-0.40015244483947754,-0.02286585420370102
1588210025841,2020-04-30T01:27:30.735222,26.84,-0.20579268038272858,-0.45350611209869385,-0.049542684108018875
1588210025881,2020-04-30T01:27:30.757488,26.88,-0.2820121943950653,-0.4611280560493469,0.01143292710185051
1588210025920,2020-04-30T01:27:30.789402,26.919,-0.41158536076545715,-0.41158536076545715,0.026676829904317856
1588210025960,2020-04-30T01:27:30.810027,26.959,-0.4573170840740204,-0.7621951103210449,-0.06859756261110306
1588210026000,2020-04-30T01:27:30.840074,26.999,-0.27439025044441223,-0.9032012224197388,-0.09146341681480408
1588210026038,2020-04-30T01:27:30.870753,27.037,-0.7317073345184326,-0.6669207215309143,0.15243902802467346
1588210026077,2020-04-30T01:27:30.892706,27.076,-1.074695110321045,-0.7660061120986938,0.1867378056049347
1588210026117,2020-04-30T01:27:30.915288,27.116,-0.6173780560493469,-0.7278963327407837,0.09146341681480408
1588210026156,2020-04-30T01:27:30.937982,27.155,-0.46875,-0.5106707215309143,0.05335365980863571
1588210026196,2020-04-30T01:27:30.960070,27.195,-0.6859756112098694,-0.4192073345184326,0.11051829159259796
1588210026235,2020-04-30T01:27:30.982586,27.234,-0.9222561120986938,-0.4153963625431061,0.240091472864151
1588210026275,2020-04-30T01:27:31.005038,27.274,-1.25,-0.3429878056049347,0.27439025044441223
1588210026314,2020-04-30T01:27:31.027551,27.313,-1.6653963327407837,-0.4916158616542816,0.4382621943950653
1588210026354,2020-04-30T01:27:31.050050,27.353,-0.9336890578269958,-0.3048780560493469,0.24390244483947754
1588210026394,2020-04-30T01:27:31.065064,27.393,-1.4977134466171265,-0.32774391770362854,0.4192073345184326
1588210026432,2020-04-30T01:27:31.095059,27.431,-8.24314022064209,-1.4939024448394775,1.9435975551605225
1588210026471,2020-04-30T01:27:31.125042,27.47,-19.127286911010742,-3.1859757900238037,3.8986282348632812
1588210026511,2020-04-30T01:27:31.155039,27.51,-18.0564022064209,-1.2118902206420898,3.410823345184326
1588210026550,2020-04-30T01:27:31.177533,27.549,-9.173018455505371,-0.41158536076545715,1.608231782913208
1588210026590,2020-04-30T01:27:31.192537,27.589,-0.6402438879013062,-2.9153964519500732,-0.36204269528388977
1588210026629,2020-04-30T01:27:31.230336,27.628,0.9527439475059509,-4.012957572937012,-0.792682945728302
1588210026669,2020-04-30T01:27:31.246649,27.668,-10.54878044128418,-2.7820122241973877,2.324695110321045
1588210026709,2020-04-30T01:27:31.267687,27.708,-48.28125,-0.636432945728302,11.112805366516113
1588210026748,2020-04-30T01:27:31.290165,27.747,-98.38414764404297,9.21493911743164,23.868141174316406
1588210026788,2020-04-30T01:27:31.305166,27.787,-124.87423706054688,27.10365867614746,25.8498477935791
1588210026827,2020-04-30T01:27:31.335467,27.826,-124.87423706054688,56.36433029174805,1.6234756708145142
1588210026865,2020-04-30T01:27:31.350133,27.864,-124.33308410644531,58.46799087524414,-45.594512939453125
1588210026905,2020-04-30T01:27:31.372623,27.904,-124.87423706054688,-53.243141174316406,-90.60594940185547
1588210026944,2020-04-30T01:27:31.395030,27.943,-124.87423706054688,-98.83003234863281,-100.3086929321289
1588210026984,2020-04-30T01:27:31.417528,27.983,-92.17607116699219,-24.805641174316406,-38.810977935791016
1588210027023,2020-04-30T01:27:31.447519,28.022,-62.32850646972656,-29.38262176513672,-32.945884704589844
1588210027063,2020-04-30T01:27:31.462570,28.062,-95.92607116699219,-38.7309455871582,-37.59908676147461
1588210027103,2020-04-30T01:27:31.492544,28.102,-124.87423706054688,-53.55183029174805,-39.52362823486328
1588210027142,2020-04-30T01:27:31.507543,28.141,-124.87423706054688,-75.5030517578125,-50.55640411376953
1588210027182,2020-04-30T01:27:31.522537,28.181,-88.34984588623047,-115.56784057617188,-54.31402587890625
1588210027221,2020-04-30T01:27:31.552566,28.22,-46.532012939453125,-124.87423706054688,-56.6996955871582
1588210027259,2020-04-30T01:27:31.567554,28.258,-122.75914764404297,-124.57698822021484,-107.42759704589844
1588210027299,2020-04-30T01:27:31.597615,28.298,-124.87423706054688,-124.58460998535156,-124.87423706054688
1588210027338,2020-04-30T01:27:31.612565,28.337,-120.0,-124.87423706054688,-124.7942123413086
1588210027378,2020-04-30T01:27:31.635398,28.377,-35.14100646972656,-121.71875,-124.38643646240234
1588210027418,2020-04-30T01:27:31.657535,28.417,110.84603881835938,-78.13262176513672,-124.87423706054688
1588210027457,2020-04-30T01:27:31.680047,28.456,124.87423706054688,3.464176893234253,-124.87423706054688
1588210027497,2020-04-30T01:27:31.717537,28.496,123.10594940185547,59.69893264770508,-124.86661529541016
1588210027536,2020-04-30T01:27:31.732731,28.535,57.400917053222656,40.00381088256836,-124.11585998535156
1588210027576,2020-04-30T01:27:31.755205,28.575,-38.01448440551758,-22.301830291748047,-59.61890411376953
1588210027615,2020-04-30T01:27:31.778068,28.614,64.90853881835938,7.3285064697265625,-21.840702056884766
1588210027655,2020-04-30T01:27:31.793023,28.654,1.9283536672592163,10.529726028442383,-38.620426177978516
1588210027693,2020-04-30T01:27:31.824019,28.692,-11.078506469726562,-13.837653160095215,-36.432926177978516
1588210027732,2020-04-30T01:27:31.837702,28.731,-6.901677131652832,-24.645580291748047,-19.653202056884766
1588210027772,2020-04-30T01:27:31.860206,28.771,-12.237043380737305,-35.0190544128418,-17.153202056884766
1588210027812,2020-04-30T01:27:31.882853,28.811,-10.81935977935791,-26.16996955871582,-26.615854263305664
1588210027851,2020-04-30T01:27:31.905394,28.85,-5.369664669036865,-18.765243530273438,-34.84756088256836
1588210027891,2020-04-30T01:27:31.935166,28.89,-4.717988014221191,-23.631860733032227,-34.29878234863281
1588210027930,2020-04-30T01:27:31.950091,28.929,-12.259908676147461,-24.62652587890625,-34.405487060546875
1588210027970,2020-04-30T01:27:31.987735,28.969,-10.201981544494629,-19.020580291748047,-33.189788818359375
1588210028009,2020-04-30T01:27:32.010902,29.008,1.0708842277526855,-11.695884704589844,-28.35365867614746
1588210028049,2020-04-30T01:27:32.032907,29.048,4.279725551605225,-7.160823345184326,-22.240854263305664
1588210028088,2020-04-30T01:27:32.055583,29.087,2.0274391174316406,-4.390244007110596,-15.800305366516113
1588210028126,2020-04-30T01:27:32.077565,29.125,7.282774448394775,-0.9794207811355591,-8.540396690368652
1588210028166,2020-04-30T01:27:32.092740,29.165,18.689023971557617,1.2614330053329468,-0.960365891456604
1588210028206,2020-04-30T01:27:32.115074,29.205,27.21036720275879,6.2080793380737305,1.276676893234253
1588210028245,2020-04-30T01:27:32.137553,29.244,8.349847793579102,6.726372241973877,1.0213414430618286
1588210028285,2020-04-30T01:27:32.175033,29.284,-9.043445587158203,3.7652440071105957,2.103658676147461
1588210028324,2020-04-30T01:27:32.197535,29.323,-8.810976028442383,1.585365891456604,4.245427131652832
1588210028364,2020-04-30T01:27:32.220052,29.363,-4.939024448394775,-3.548018455505371,1.4405487775802612
1588210028403,2020-04-30T01:27:32.257654,29.402,-3.1021342277526855,-7.96875,-0.4192073345184326
1588210028443,2020-04-30T01:27:32.272712,29.442,-2.728658676147461,-15.804116249084473,3.7461891174316406
1588210028482,2020-04-30T01:27:32.295205,29.481,-4.973323345184326,-20.350610733032227,-0.6783536672592163
1588210028522,2020-04-30T01:27:32.317638,29.521,-5.365853786468506,-17.004573822021484,-13.47560977935791
1588210028560,2020-04-30T01:27:32.347647,29.559,-6.573933124542236,-14.237805366516113,-20.2248477935791
1588210028600,2020-04-30T01:27:32.377579,29.599,-3.959603786468506,-10.735518455505371,-25.02286720275879
1588210028639,2020-04-30T01:27:32.400037,29.638,-6.242378234863281,-9.714177131652832,-28.418445587158203
1588210028679,2020-04-30T01:27:32.415021,29.678,-5.8041157722473145,-3.7347562313079834,-26.5625
1588210028718,2020-04-30T01:27:32.452608,29.717,-7.534298896789551,-2.278963565826416,-17.785823822021484
1588210028758,2020-04-30T01:27:32.482572,29.757,-8.578506469726562,-5.967988014221191,-13.689024925231934
1588210028797,2020-04-30T01:27:32.520305,29.796,-7.793445110321045,-13.28506088256836,-18.860519409179688
1588210028837,2020-04-30T01:27:32.550045,29.836,-12.84679889678955,-22.41996955871582,-19.988567352294922
1588210028876,2020-04-30T01:27:32.565316,29.875,-7.873476028442383,-24.84375,-20.910823822021484
1588210028916,2020-04-30T01:27:32.587727,29.915,-4.02439022064209,-26.50533676147461,-20.342988967895508
1588210028954,2020-04-30T01:27:32.625219,29.953,-1.4214938879013062,-23.635671615600586,-17.827743530273438
1588210028994,2020-04-30T01:27:32.647920,29.993,0.05716463550925255,-22.11128044128418,-17.355182647705078
1588210029033,2020-04-30T01:27:32.685234,30.032,-4.992378234863281,-23.07164764404297,-15.945122718811035
1588210029073,2020-04-30T01:27:32.707585,30.072,-8.422256469726562,-22.858232498168945,-14.61128044128418
1588210029112,2020-04-30T01:27:32.745039,30.111,-17.05792808532715,-23.67378044128418,-15.266768455505371
1588210029152,2020-04-30T01:27:32.760003,30.151,-18.07164764404297,-23.11737823486328,-15.73932933807373
1588210029191,2020-04-30T01:27:32.782570,30.19,-9.740854263305664,-17.560976028442383,-16.72637176513672
1588210029231,2020-04-30T01:27:32.812772,30.23,13.39557933807373,-5.8041157722473145,-14.092988014221191
1588210029271,2020-04-30T01:27:32.827710,30.27,46.063262939453125,3.9214940071105957,-1.71875
1588210029310,2020-04-30T01:27:32.873449,30.309,34.63033676147461,5.438262462615967,0.6097561120986938
1588210029350,2020-04-30T01:27:32.887740,30.349,-0.5373475551605225,-0.0038109757006168365,-1.0518293380737305
1588210029388,2020-04-30T01:27:32.917597,30.387,8.769055366516113,34.973323822021484,-8.891006469726562
1588210029427,2020-04-30T01:27:32.932598,30.426,33.628047943115234,61.90167999267578,0.39253050088882446
1588210029467,2020-04-30T01:27:32.962564,30.466,-13.147866249084473,68.78048706054688,-25.605945587158203
1588210029506,2020-04-30T01:27:33.000189,30.505,21.299543380737305,88.1593017578125,-35.25914764404297
1588210029546,2020-04-30T01:27:33.015365,30.545,-16.303354263305664,117.88872528076172,-22.934452056884766
1588210029585,2020-04-30T01:27:33.045100,30.584,-42.57622146606445,124.87423706054688,14.660823822021484
1588210029625,2020-04-30T01:27:33.082568,30.624,7.873476028442383,124.756103515625,62.44283676147461
1588210029665,2020-04-30T01:27:33.112547,30.664,13.418445587158203,121.51676940917969,86.2881088256836
1588210029704,2020-04-30T01:27:33.135054,30.703,6.303353786468506,114.29497528076172,101.25381469726562
1588210029744,2020-04-30T01:27:33.157536,30.743,22.439023971557617,106.95503234863281,98.38034057617188
1588210029782,2020-04-30T01:27:33.187553,30.781,13.761433601379395,82.71341705322266,55.73933029174805
1588210029821,2020-04-30T01:27:33.202981,30.82,-47.160823822021484,108.64710998535156,32.26372146606445
1588210029861,2020-04-30T01:27:33.232546,30.86,30.529726028442383,5.411585330963135,40.79649353027344
1588210029900,2020-04-30T01:27:33.262585,30.899,8.997714042663574,-3.7195122241973877,5.23628044128418
1588210029940,2020-04-30T01:27:33.277554,30.939,16.116615295410156,14.29496955871582,-10.068597793579102
1588210029980,2020-04-30T01:27:33.307539,30.979,14.72560977935791,5.1791157722473145,-7.709603786468506
1588210030019,2020-04-30T01:27:33.322583,31.018,-2.4009146690368652,-9.115854263305664,-5.89939022064209
1588210030059,2020-04-30T01:27:33.345032,31.058,-5.369664669036865,-4.108232021331787,-4.447408676147461
1588210030098,2020-04-30T01:27:33.375073,31.097,-5.102896690368652,-2.4695122241973877,-5.0228657722473145
1588210030138,2020-04-30T01:27:33.397526,31.137,-2.96875,0.6669207215309143,0.5221036672592163
1588210030177,2020-04-30T01:27:33.420034,31.176,-7.240853786468506,9.17682933807373,20.205793380737305
1588210030215,2020-04-30T01:27:33.435045,31.214,-9.108231544494629,-3.6051831245422363,35.594512939453125
1588210030255,2020-04-30T01:27:33.480057,31.254,-6.440548896789551,-25.682165145874023,16.9435977935791
1588210030294,2020-04-30T01:27:33.510093,31.293,-12.168445587158203,-48.29649353027344,-15.735518455505371
1588210030334,2020-04-30T01:27:33.533044,31.333,-14.10060977935791,-47.85061264038086,-19.432165145874023
1588210030374,2020-04-30T01:27:33.547730,31.373,-17.945884704589844,-52.64481735229492,-6.882622241973877
1588210030413,2020-04-30T01:27:33.585222,31.412,-10.243902206420898,-68.4375,2.454268455505371
1588210030453,2020-04-30T01:27:33.609783,31.452,3.55564022064209,-95.92607116699219,32.39329528808594
1588210030492,2020-04-30T01:27:33.637829,31.491,28.010671615600586,-81.33003234863281,61.227134704589844
1588210030532,2020-04-30T01:27:33.660335,31.531,-22.88490867614746,-66.82926940917969,4.584603786468506
1588210030571,2020-04-30T01:27:33.675209,31.57,-124.67607116699219,-72.66768646240234,-68.01067352294922
1588210030609,2020-04-30T01:27:33.705318,31.608,-124.87423706054688,-73.27362823486328,-58.407012939453125
1588210030649,2020-04-30T01:27:33.727904,31.648,-52.5190544128418,26.455793380737305,-29.69512176513672
1588210030689,2020-04-30T01:27:33.757745,31.688,124.87423706054688,60.49542999267578,-29.38262176513672
1588210030728,2020-04-30T01:27:33.802790,31.727,124.87423706054688,53.54039764404297,-50.964176177978516
1588210030768,2020-04-30T01:27:33.817786,31.767,110.88414764404297,35.697410583496094,-87.66006469726562
1588210030807,2020-04-30T01:27:33.847911,31.806,27.153202056884766,29.47789764404297,-97.40091705322266
1588210030847,2020-04-30T01:27:33.863451,31.846,-20.85746955871582,36.66158676147461,-75.72789764404297
1588210030886,2020-04-30T01:27:33.907999,31.885,24.386432647705078,41.128047943115234,-45.78887176513672
1588210030926,2020-04-30T01:27:33.930321,31.925,60.66692352294922,39.3940544128418,-25.830793380737305
1588210030965,2020-04-30T01:27:33.945321,31.964,88.53277587890625,25.25533676147461,-25.46493911743164
1588210031005,2020-04-30T01:27:33.975214,32.004,102.8125,2.7172257900238037,-35.88033676147461
1588210031043,2020-04-30T01:27:33.998006,32.042,84.88948059082031,-6.554878234863281,-44.64176940917969
1588210031083,2020-04-30T01:27:34.043142,32.082,72.39710235595703,-5.8955793380737305,-38.73856735229492
1588210031122,2020-04-30T01:27:34.080321,32.121,63.662349700927734,-16.985519409179688,-13.681403160095215
1588210031162,2020-04-30T01:27:34.102817,32.161,30.16387176513672,-39.447410583496094,15.636433601379395
1588210031201,2020-04-30T01:27:34.125303,32.2,-19.325458526611328,-59.29878234863281,34.287349700927734
1588210031241,2020-04-30T01:27:34.140962,32.24,-63.99390411376953,-69.24542999267578,39.660823822021484
1588210031280,2020-04-30T01:27:34.185288,32.279,-85.81173706054688,-70.9375,38.403202056884766
1588210031320,2020-04-30T01:27:34.208423,32.319,-95.08003234863281,-63.3346061706543,33.967227935791016
1588210031359,2020-04-30T01:27:34.230402,32.358,-99.17301940917969,-47.02743911743164,31.65396499633789
1588210031399,2020-04-30T01:27:34.260737,32.398,-92.8468017578125,-28.52134132385254,34.64558029174805
1588210031437,2020-04-30T01:27:34.283298,32.436,-80.00381469726562,-11.036585807800293,42.82012176513672
1588210031477,2020-04-30T01:27:34.315777,32.476,-62.80106735229492,4.310213565826416,50.58308029174805
1588210031516,2020-04-30T01:27:34.357711,32.515,-42.03887176513672,18.727134704589844,55.754573822021484
1588210031556,2020-04-30T01:27:34.387784,32.555,-29.06631088256836,27.11128044128418,61.60442352294922
1588210031595,2020-04-30T01:27:34.410116,32.594,-32.67149353027344,28.799543380737305,65.44207763671875
1588210031635,2020-04-30T01:27:34.432622,32.634,-44.46646499633789,23.91387176513672,64.34070587158203
1588210031674,2020-04-30T01:27:34.462948,32.673,-52.27515411376953,18.91006088256836,59.35975646972656
1588210031714,2020-04-30T01:27:34.486153,32.713,-52.728660583496094,13.875762939453125,50.10289764404297
1588210031753,2020-04-30T01:27:34.507560,32.752,-51.463417053222656,9.291158676147461,40.30106735229492
1588210031793,2020-04-30T01:27:34.560053,32.792,-43.723323822021484,4.409298896789551,31.04039764404297
1588210031831,2020-04-30T01:27:34.583228,32.83,-37.58384323120117,0.24390244483947754,20.579269409179688
1588210031871,2020-04-30T01:27:34.658448,32.87,-31.131860733032227,-5.03810977935791,9.557927131652832
1588210031910,2020-04-30T01:27:34.672567,32.909,-21.547256469726562,-9.344511985778809,-1.8483232259750366
1588210031950,2020-04-30T01:27:34.687933,32.949,-13.330793380737305,-11.768293380737305,-12.366616249084473
1588210031989,2020-04-30T01:27:34.762569,32.988,-4.447408676147461,-18.74618911743164,-27.21417808532715
1588210032029,2020-04-30T01:27:34.777568,33.028,24.53506088256836,-32.404727935791016,-58.52896499633789
1588210032068,2020-04-30T01:27:34.815434,33.067,70.91082763671875,-58.85670852661133,-111.67301940917969
1588210032108,2020-04-30T01:27:34.845063,33.107,65.9756088256836,-92.26372528076172,-124.87423706054688
1588210032147,2020-04-30T01:27:34.875536,33.146,-11.025153160095215,-109.1692123413086,-124.6493911743164
1588210032187,2020-04-30T01:27:34.921047,33.186,-106.83308410644531,-85.53734588623047,-124.48551940917969
1588210032227,2020-04-30T01:27:34.942579,33.226,-124.87423706054688,-24.16539764404297,-124.87423706054688
1588210032265,2020-04-30T01:27:34.972977,33.264,-124.375,68.03353881835938,-124.87423706054688
1588210032304,2020-04-30T01:27:35.025229,33.303,-124.31784057617188,124.87423706054688,-124.86661529541016
1588210032344,2020-04-30T01:27:35.047680,33.343,-124.87423706054688,124.87423706054688,-124.87423706054688
1588210032383,2020-04-30T01:27:35.070343,33.382,-124.87423706054688,123.57850646972656,-124.87423706054688
1588210032423,2020-04-30T01:27:35.115361,33.422,-124.86280822753906,124.87423706054688,-98.48704528808594
1588210032462,2020-04-30T01:27:35.130224,33.461,-124.87423706054688,124.87423706054688,-27.90777587890625
1588210032502,2020-04-30T01:27:35.167661,33.501,-124.87423706054688,124.85137176513672,6.432927131652832
1588210032542,2020-04-30T01:27:35.205104,33.541,-115.99085998535156,108.349853515625,11.661585807800293
1588210032581,2020-04-30T01:27:35.250262,33.58,-94.61890411376953,67.96875,6.772103786468506
1588210032621,2020-04-30T01:27:35.295321,33.62,-106.77973175048828,42.17606735229492,-2.1303353309631348
1588210032659,2020-04-30T01:27:35.325629,33.658,-67.00838470458984,12.69435977935791,-6.615853786468506
1588210032698,2020-04-30T01:27:35.355236,33.697,-32.75914764404297,-2.096036672592163,-10.66692066192627
1588210032738,2020-04-30T01:27:35.385262,33.737,-16.7873477935791,-0.01143292710185051,-7.595274448394775
1588210032777,2020-04-30T01:27:35.417690,33.776,-26.909299850463867,3.8567073345184326,3.0297257900238037
1588210032817,2020-04-30T01:27:35.445517,33.816,-22.164634704589844,1.1966463327407837,4.61128044128418
1588210032856,2020-04-30T01:27:35.460730,33.855,-8.12118911743164,-3.0449695587158203,-0.2934451401233673
1588210032896,2020-04-30T01:27:35.497432,33.895,1.7530487775802612,-4.005335330963135,-3.7423782348632812
1588210032936,2020-04-30T01:27:35.535021,33.935,12.084604263305664,-6.939786911010742,-3.990091562271118
1588210032975,2020-04-30T01:27:35.579933,33.974,6.684451580047607,-9.092988014221191,0.5411585569381714
1588210033015,2020-04-30T01:27:35.602429,34.014,7.126524448394775,-10.27057933807373,1.8292683362960815
1588210033054,2020-04-30T01:27:35.625016,34.053,13.262195587158203,-10.171494483947754,0.3125
1588210033092,2020-04-30T01:27:35.662426,34.091,16.604421615600586,-8.349847793579102,0.5297256112098694
1588210033132,2020-04-30T01:27:35.677429,34.131,12.282774925231934,-6.867378234863281,-0.03429878130555153
1588210033171,2020-04-30T01:27:35.730312,34.17,9.973323822021484,-6.867378234863281,-1.566311001777649
1588210033211,2020-04-30T01:27:35.752712,34.21,12.519055366516113,-6.8330793380737305,-2.5495426654815674
1588210033251,2020-04-30T01:27:35.782699,34.25,11.570121765136719,-5.773628234863281,-3.9214940071105957
1588210033290,2020-04-30T01:27:35.827624,34.289,4.123475551605225,-3.410823345184326,-3.6432926654815674
1588210033330,2020-04-30T01:27:35.852581,34.329,0.1257621943950653,-0.5716463327407837,-3.2202744483947754
1588210033369,2020-04-30T01:27:35.887828,34.368,2.8544209003448486,-0.240091472864151,-4.279725551605225
1588210033409,2020-04-30T01:27:35.910402,34.408,3.784298896789551,-1.410061001777649,-5.621189117431641
1588210033448,2020-04-30T01:27:35.955130,34.447,4.858994007110596,-2.6448171138763428,-4.306402683258057
1588210033486,2020-04-30T01:27:35.985550,34.485,2.427591562271118,-2.3132622241973877,-2.1341464519500732
1588210033526,2020-04-30T01:27:36.007966,34.525,1.4939024448394775,-2.084603786468506,-1.1242377758026123
