epoch  (ms),time  (-07:00),elapsed  (s),X-Axis  (deg/s),Y-Axis  (deg/s),Z-Axis  (deg/s)
1588209930410,2020-04-30T01:26:05.364270,0.0,-2.259908676147461,-0.060975611209869385,3.2964940071105957
1588209930451,2020-04-30T01:26:05.379931,0.041,-1.8140244483947754,-0.25533536076545715,3.4603660106658936
1588209930491,2020-04-30T01:26:05.394312,0.081,0.5335366129875183,-0.15625,3.8185975551605225
1588209930532,2020-04-30T01:26:05.401766,0.122,-5.0419206619262695,-4.550304889678955,5.3125
1588209930573,2020-04-30T01:26:05.431745,0.163,-15.537347793579102,-6.310975551605225,2.1646342277526855
1588209930612,2020-04-30T01:26:05.454257,0.202,-20.47637176513672,2.4580793380737305,-2.8163111209869385
1588209930653,2020-04-30T01:26:05.484290,0.243,-21.288110733032227,7.46189022064209,-6.501524448394775
1588209930693,2020-04-30T01:26:05.506749,0.283,-23.490854263305664,11.730183601379395,-4.618902683258057
1588209930734,2020-04-30T01:26:05.551771,0.324,-18.391769409179688,22.785823822021484,-0.3429878056049347
1588209930773,2020-04-30T01:26:05.574333,0.363,-16.467226028442383,22.51905632019043,5.807927131652832
1588209930814,2020-04-30T01:26:05.589328,0.404,-18.574695587158203,10.064786911010742,10.85746955871582
1588209930854,2020-04-30T01:26:05.626731,0.444,-22.873476028442383,-1.3567073345184326,14.405488014221191
1588209930895,2020-04-30T01:26:05.649239,0.485,-25.518293380737305,-14.112043380737305,16.1814022064209
1588209930934,2020-04-30T01:26:05.679241,0.524,-38.22408676147461,-20.575458526611328,19.012958526611328
1588209930976,2020-04-30T01:26:05.694250,0.566,-48.27362823486328,-21.916921615600586,23.85289764404297
1588209931015,2020-04-30T01:26:05.716735,0.605,-42.621952056884766,-25.522104263305664,21.730182647705078
1588209931056,2020-04-30T01:26:05.754227,0.646,-37.069358825683594,-26.440549850463867,16.852134704589844
1588209931097,2020-04-30T01:26:05.769241,0.687,-32.42378234863281,-25.86509132385254,12.57621955871582
1588209931137,2020-04-30T01:26:05.814242,0.727,-20.956554412841797,-29.29878044128418,3.7347562313079834
1588209931178,2020-04-30T01:26:05.829224,0.768,-7.347561359405518,-30.762195587158203,-4.6875
1588209931217,2020-04-30T01:26:05.859238,0.807,-2.480945110321045,-24.588415145874023,-7.469512462615967
1588209931258,2020-04-30T01:26:05.881751,0.848,-0.5335366129875183,-16.58917808532715,-11.512957572937012
1588209931298,2020-04-30T01:26:05.896767,0.888,6.1166157722473145,-11.028964042663574,-19.969512939453125
1588209931339,2020-04-30T01:26:05.934255,0.929,7.217988014221191,-4.668445110321045,-22.595273971557617
1588209931378,2020-04-30T01:26:05.949245,0.968,6.13185977935791,-0.9032012224197388,-27.28658676147461
1588209931419,2020-04-30T01:26:05.971665,1.009,-0.9527439475059509,-0.16006097197532654,-28.940549850463867
1588209931459,2020-04-30T01:26:05.994253,1.049,-12.80868911743164,9.580793380737305,-24.542682647705078
1588209931500,2020-04-30T01:26:06.024751,1.09,-21.42530632019043,12.362805366516113,-30.5564022064209
1588209931539,2020-04-30T01:26:06.047127,1.129,-29.00914764404297,2.9535062313079834,-36.13566970825195
1588209931580,2020-04-30T01:26:06.069636,1.17,-27.404726028442383,3.8185975551605225,-34.0815544128418
1588209931620,2020-04-30T01:26:06.099867,1.21,-27.511432647705078,4.0625,-30.914634704589844
1588209931661,2020-04-30T01:26:06.122079,1.251,-32.27134323120117,-1.741615891456604,-27.488567352294922
1588209931702,2020-04-30T01:26:06.144686,1.292,-36.60441970825195,-3.9748475551605225,-22.858232498168945
1588209931742,2020-04-30T01:26:06.167118,1.332,-49.4093017578125,-3.8376524448394775,-14.17682933807373
1588209931783,2020-04-30T01:26:06.197388,1.373,-68.01448059082031,-3.628048896789551,-7.351372241973877
1588209931822,2020-04-30T01:26:06.211754,1.412,-88.76524353027344,-5.240091800689697,-3.879573345184326
1588209931863,2020-04-30T01:26:06.234416,1.453,-110.03048706054688,-9.939024925231934,-1.7492378950119019
1588209931903,2020-04-30T01:26:06.257165,1.493,-124.87423706054688,-12.198933601379395,1.0022865533828735
1588209931944,2020-04-30T01:26:06.287792,1.534,-124.87423706054688,-2.9344513416290283,4.447408676147461
1588209931983,2020-04-30T01:26:06.316826,1.573,-124.54649353027344,9.375,4.8932929039001465
1588209932024,2020-04-30T01:26:06.339347,1.614,-124.87423706054688,17.690549850463867,5.167683124542236
1588209932064,2020-04-30T01:26:06.384328,1.654,-124.87423706054688,31.913110733032227,-0.5411585569381714
1588209932105,2020-04-30T01:26:06.399307,1.695,-124.87042999267578,48.89481735229492,-15.171494483947754
1588209932144,2020-04-30T01:26:06.421680,1.734,-122.6181411743164,41.71112823486328,-7.496189117431641
1588209932185,2020-04-30T01:26:06.444312,1.775,-78.86433410644531,28.76905632019043,-6.314786911010742
1588209932225,2020-04-30T01:26:06.459306,1.815,-29.47408676147461,23.079269409179688,-19.386432647705078
1588209932266,2020-04-30T01:26:06.504288,1.856,6.303353786468506,16.105182647705078,-7.907774448394775
1588209932307,2020-04-30T01:26:06.519155,1.897,50.77362823486328,-7.7972564697265625,0.0724085345864296
1588209932347,2020-04-30T01:26:06.549315,1.937,81.81021881103516,-23.502286911010742,10.365854263305664
1588209932388,2020-04-30T01:26:06.571654,1.978,91.74923706054688,-28.944360733032227,23.727134704589844
1588209932427,2020-04-30T01:26:06.594157,2.017,111.74923706054688,-29.77134132385254,15.800305366516113
1588209932468,2020-04-30T01:26:06.624317,2.058,124.87423706054688,-33.60518264770508,12.061738014221191
1588209932508,2020-04-30T01:26:06.646817,2.098,124.87423706054688,-26.95121955871582,21.859756469726562
1588209932549,2020-04-30T01:26:06.676665,2.139,124.5655517578125,-2.5304877758026123,25.586891174316406
1588209932588,2020-04-30T01:26:06.691856,2.178,124.87423706054688,-2.0083842277526855,29.717988967895508
1588209932629,2020-04-30T01:26:06.729331,2.219,124.87423706054688,-16.764482498168945,36.20045852661133
1588209932669,2020-04-30T01:26:06.751807,2.259,124.7599105834961,-22.778202056884766,32.02362823486328
1588209932710,2020-04-30T01:26:06.774164,2.3,109.96951293945312,-27.83155632019043,26.27667808532715
1588209932749,2020-04-30T01:26:06.811655,2.339,78.79573059082031,-27.05792808532715,27.408536911010742
1588209932790,2020-04-30T01:26:06.826668,2.38,60.62881088256836,-11.703506469726562,17.34375
1588209932830,2020-04-30T01:26:06.871660,2.42,49.500762939453125,-3.6890244483947754,-3.0373475551605225
1588209932871,2020-04-30T01:26:06.901695,2.461,19.344512939453125,-13.639482498168945,-20.07240867614746
1588209932911,2020-04-30T01:26:06.931673,2.501,-47.153202056884766,-16.863567352294922,-15.62881088256836
1588209932952,2020-04-30T01:26:06.954206,2.542,-123.78048706054688,-34.401676177978516,33.20503234863281
1588209932993,2020-04-30T01:26:06.976702,2.583,-124.87423706054688,-47.13414764404297,45.6059455871582
1588209933032,2020-04-30T01:26:06.991752,2.622,-90.39634704589844,-5.308689117431641,-3.170731782913208
1588209933073,2020-04-30T01:26:07.014200,2.663,-73.77286529541016,15.00381088256836,1.589176893234253
1588209933113,2020-04-30T01:26:07.044278,2.703,-64.77896118164062,25.62881088256836,2.8277440071105957
1588209933154,2020-04-30T01:26:07.066940,2.744,-50.16768264770508,22.907773971557617,-0.3353658616542816
1588209933193,2020-04-30T01:26:07.089274,2.783,-46.70350646972656,14.546494483947754,5.46875
1588209933234,2020-04-30T01:26:07.104395,2.824,-47.416160583496094,10.320121765136719,9.615091323852539
1588209933274,2020-04-30T01:26:07.141800,2.864,-53.26600646972656,5.487804889678955,14.80945110321045
1588209933315,2020-04-30T01:26:07.156840,2.905,-51.535823822021484,-6.01753044128418,15.632622718811035
1588209933354,2020-04-30T01:26:07.194222,2.944,-37.89253234863281,-24.104421615600586,13.951982498168945
1588209933395,2020-04-30T01:26:07.224451,2.985,-29.3064022064209,-25.754573822021484,15.94131088256836
1588209933435,2020-04-30T01:26:07.239376,3.025,-27.088415145874023,-27.701982498168945,11.935976028442383
1588209933476,2020-04-30T01:26:07.269287,3.066,-20.609756469726562,-38.05259323120117,4.249238014221191
1588209933516,2020-04-30T01:26:07.284391,3.106,-24.4626522064209,-30.70503044128418,-1.097561001777649
1588209933557,2020-04-30T01:26:07.314401,3.147,-14.363567352294922,-21.451982498168945,-8.125
1588209933598,2020-04-30T01:26:07.329330,3.188,-8.780488014221191,-7.06935977935791,-9.561738014221191
1588209933637,2020-04-30T01:26:07.359875,3.227,-16.524391174316406,11.98932933807373,-6.772103786468506
1588209933678,2020-04-30T01:26:07.396873,3.268,-36.684452056884766,16.855945587158203,-4.988567352294922
1588209933718,2020-04-30T01:26:07.414788,3.308,-43.102134704589844,21.32240867614746,-3.1745426654815674
1588209933759,2020-04-30T01:26:07.449754,3.349,-51.272865295410156,29.737043380737305,4.88185977935791
1588209933798,2020-04-30T01:26:07.479332,3.388,-46.059452056884766,35.9184455871582,7.660061359405518
1588209933839,2020-04-30T01:26:07.509280,3.429,-61.39862823486328,80.21722412109375,23.628049850463867
1588209933879,2020-04-30T01:26:07.525450,3.469,-69.88567352294922,77.9306411743164,19.53506088256836
1588209933920,2020-04-30T01:26:07.547628,3.51,-85.30107116699219,47.51143264770508,10.266768455505371
1588209933959,2020-04-30T01:26:07.584672,3.549,-91.26524353027344,18.8376522064209,8.662347793579102
1588209934000,2020-04-30T01:26:07.601164,3.59,-66.34527587890625,15.945122718811035,21.059452056884766
1588209934040,2020-04-30T01:26:07.638321,3.63,-62.8658561706543,15.65929889678955,19.020580291748047
1588209934081,2020-04-30T01:26:07.677520,3.671,-47.618141174316406,6.596798896789551,12.10746955871582
1588209934121,2020-04-30T01:26:07.698062,3.711,-41.585365295410156,4.782774448394775,9.089177131652832
1588209934162,2020-04-30T01:26:07.726967,3.752,-33.67759323120117,8.494665145874023,6.566311359405518
1588209934203,2020-04-30T01:26:07.760650,3.793,-26.299543380737305,7.057927131652832,-0.4916158616542816
1588209934242,2020-04-30T01:26:07.781680,3.832,-19.153963088989258,5.9603657722473145,-1.09375
1588209934283,2020-04-30T01:26:07.807630,3.873,-16.66539764404297,10.11432933807373,-0.7088415026664734
1588209934323,2020-04-30T01:26:07.825992,3.913,-6.0785064697265625,11.05182933807373,-4.477896213531494
1588209934364,2020-04-30T01:26:07.880384,3.954,4.828505992889404,11.009908676147461,-6.33003044128418
1588209934403,2020-04-30T01:26:07.893440,3.993,11.01753044128418,16.032773971557617,-5.834603786468506
1588209934444,2020-04-30T01:26:07.924542,4.034,19.855182647705078,12.53810977935791,-9.199695587158203
1588209934484,2020-04-30T01:26:07.937715,4.074,36.55487823486328,9.672256469726562,-13.31935977935791
1588209934525,2020-04-30T01:26:07.960715,4.115,49.33308029174805,6.958841800689697,-16.897865295410156
1588209934564,2020-04-30T01:26:07.990945,4.154,64.36357116699219,6.493902683258057,-13.490854263305664
1588209934605,2020-04-30T01:26:08.013214,4.195,54.76753234863281,12.823933601379395,1.4443597793579102
1588209934645,2020-04-30T01:26:08.050428,4.235,10.922256469726562,14.748476028442383,-1.471036672592163
1588209934686,2020-04-30T01:26:08.067504,4.276,-20.54878044128418,13.292683601379395,-16.775915145874023
1588209934726,2020-04-30T01:26:08.098506,4.316,-23.761432647705078,-4.752286911010742,-12.73246955871582
1588209934767,2020-04-30T01:26:08.125129,4.357,-17.717226028442383,-6.246189117431641,-15.133384704589844
1588209934808,2020-04-30T01:26:08.149602,4.398,-22.983993530273438,-14.61128044128418,-22.073171615600586
1588209934847,2020-04-30T01:26:08.177388,4.437,-16.24237823486328,-16.27667808532715,-25.983232498168945
1588209934888,2020-04-30T01:26:08.193821,4.478,-9.969511985778809,-14.698933601379395,-24.416921615600586
1588209934928,2020-04-30T01:26:08.229607,4.518,-7.9268293380737305,-8.330792427062988,-28.475610733032227
1588209934969,2020-04-30T01:26:08.245682,4.559,-10.716464042663574,-10.171494483947754,-35.27058029174805
1588209935008,2020-04-30T01:26:08.288693,4.598,-9.0625,-11.177591323852539,-25.190549850463867
1588209935049,2020-04-30T01:26:08.313469,4.639,2.6143293380737305,-0.1981707364320755,-20.106708526611328
1588209935089,2020-04-30T01:26:08.335904,4.679,5.011433124542236,19.21112823486328,-27.000762939453125
1588209935130,2020-04-30T01:26:08.351165,4.72,-6.962652683258057,25.65167808532715,-28.098323822021484
1588209935169,2020-04-30T01:26:08.374988,4.759,-21.34908676147461,13.532774925231934,-26.779726028442383
1588209935210,2020-04-30T01:26:08.409593,4.8,-37.839176177978516,18.605182647705078,-26.19664764404297
1588209935250,2020-04-30T01:26:08.418108,4.84,-8.71570110321045,11.162347793579102,-36.756858825683594
1588209935291,2020-04-30T01:26:08.440032,4.881,-14.17682933807373,11.44817066192627,-44.192073822021484
1588209935330,2020-04-30T01:26:08.485677,4.92,-13.117378234863281,5.74314022064209,-47.999237060546875
1588209935371,2020-04-30T01:26:08.502741,4.961,-12.69435977935791,16.779726028442383,-41.29954528808594
1588209935413,2020-04-30T01:26:08.513219,5.003,13.064024925231934,6.829268455505371,-37.89253234863281
1588209935452,2020-04-30T01:26:08.530684,5.042,21.592988967895508,-7.378048896789551,-29.06631088256836
1588209935493,2020-04-30T01:26:08.567320,5.083,14.820884704589844,-0.9413110017776489,-25.518293380737305
1588209935533,2020-04-30T01:26:08.590111,5.123,-8.951981544494629,-8.094511985778809,-8.654726028442383
1588209935574,2020-04-30T01:26:08.620136,5.164,21.34908676147461,-26.50914764404297,-53.5746955871582
1588209935613,2020-04-30T01:26:08.634368,5.203,-13.151677131652832,-24.4626522064209,-28.3498477935791
1588209935654,2020-04-30T01:26:08.664436,5.244,-48.879573822021484,-7.995427131652832,12.130335807800293
1588209935694,2020-04-30T01:26:08.679359,5.284,-26.966463088989258,1.1928354501724243,-0.01143292710185051
1588209935735,2020-04-30T01:26:08.695041,5.325,-8.879573822021484,7.77439022064209,-9.089177131652832
1588209935774,2020-04-30T01:26:08.724826,5.364,-25.735519409179688,7.564786911010742,3.5365853309631348
1588209935815,2020-04-30T01:26:08.740246,5.405,-16.227134704589844,1.6006097793579102,3.4298782348632812
1588209935855,2020-04-30T01:26:08.769791,5.445,-4.14253044128418,-3.0564024448394775,-5.826982021331787
1588209935896,2020-04-30T01:26:08.792358,5.486,-1.4176830053329468,-2.7362804412841797,-5.304878234863281
1588209935935,2020-04-30T01:26:08.814829,5.525,4.672255992889404,2.397103786468506,-6.398628234863281
1588209935976,2020-04-30T01:26:08.844436,5.566,10.495427131652832,10.655488014221191,-9.394055366516113
1588209936017,2020-04-30T01:26:08.874540,5.607,12.275153160095215,22.404726028442383,-3.6966464519500732
1588209936057,2020-04-30T01:26:08.904808,5.647,15.575457572937012,28.4375,-0.14862805604934692
1588209936098,2020-04-30T01:26:08.920512,5.688,15.095274925231934,25.46112823486328,1.9283536672592163
1588209936138,2020-04-30T01:26:08.941946,5.728,12.14557933807373,18.182165145874023,9.032011985778809
1588209936179,2020-04-30T01:26:08.964783,5.769,9.41692066192627,5.964177131652832,15.171494483947754
1588209936218,2020-04-30T01:26:08.987292,5.808,4.314024448394775,-10.632621765136719,21.74542808532715
1588209936259,2020-04-30T01:26:09.009805,5.849,-1.5053354501724243,-21.379573822021484,37.782012939453125
1588209936299,2020-04-30T01:26:09.025161,5.889,-6.2271342277526855,-24.405488967895508,49.977134704589844
1588209936340,2020-04-30T01:26:09.047309,5.93,-1.6158536672592163,-19.45121955871582,66.67683410644531
1588209936379,2020-04-30T01:26:09.077758,5.969,-4.409298896789551,-30.434452056884766,56.88643264770508
1588209936420,2020-04-30T01:26:09.099490,6.01,-4.443597793579102,-41.875,50.682167053222656
1588209936460,2020-04-30T01:26:09.136956,6.05,-2.4123475551605225,-43.102134704589844,53.17073440551758
1588209936501,2020-04-30T01:26:09.166972,6.091,-16.47865867614746,-53.772865295410156,58.254573822021484
1588209936540,2020-04-30T01:26:09.190166,6.13,-19.466463088989258,-33.75762176513672,44.58079528808594
1588209936581,2020-04-30T01:26:09.205258,6.171,38.84908676147461,-13.376524925231934,18.708080291748047
1588209936622,2020-04-30T01:26:09.226941,6.212,4.4893293380737305,-6.890244007110596,3.86814022064209
1588209936662,2020-04-30T01:26:09.250265,6.252,-34.26066970825195,-0.9032012224197388,-10.400152206420898
1588209936703,2020-04-30T01:26:09.272592,6.293,-26.5625,11.581555366516113,-11.966464042663574
1588209936743,2020-04-30T01:26:09.295473,6.333,-24.717988967895508,9.165396690368652,-9.424542427062988
1588209936784,2020-04-30T01:26:09.318443,6.374,-29.91996955871582,2.877286672592163,-2.7782013416290283
1588209936823,2020-04-30T01:26:09.341400,6.413,-39.32926940917969,-10.339177131652832,7.038872241973877
1588209936864,2020-04-30T01:26:09.375600,6.454,-46.3033561706543,-8.75,9.80564022064209
1588209936904,2020-04-30T01:26:09.392020,6.494,-44.05106735229492,-2.2865853309631348,14.88185977935791
1588209936945,2020-04-30T01:26:09.433263,6.535,-26.105182647705078,-4.7294206619262695,8.40320110321045
1588209936984,2020-04-30T01:26:09.458271,6.574,-39.77515411376953,-7.96875,11.490091323852539
1588209937025,2020-04-30T01:26:09.487217,6.615,-57.07698440551758,12.172256469726562,32.04649353027344
1588209937065,2020-04-30T01:26:09.513785,6.655,-41.70731735229492,-8.536585807800293,19.496952056884766
1588209937106,2020-04-30T01:26:09.522805,6.696,-0.7507622241973877,-15.73932933807373,3.9291160106658936
1588209937145,2020-04-30T01:26:09.545011,6.735,-7.77439022064209,13.36128044128418,0.8003048896789551
1588209937186,2020-04-30T01:26:09.558303,6.776,-12.766768455505371,7.987804889678955,0.5182926654815674
1588209937227,2020-04-30T01:26:09.573520,6.817,8.033536911010742,-6.707317352294922,4.516005992889404
1588209937267,2020-04-30T01:26:09.605011,6.857,3.0373475551605225,2.5228660106658936,-1.1661585569381714
1588209937308,2020-04-30T01:26:09.624692,6.898,-6.166158676147461,11.09756088256836,-5.990853786468506
1588209937348,2020-04-30T01:26:09.654372,6.938,-1.6387195587158203,6.059451580047607,-3.6509146690368652
1588209937389,2020-04-30T01:26:09.677307,6.979,0.04573170840740204,-0.9794207811355591,-0.5830792784690857
1588209937428,2020-04-30T01:26:09.714801,7.018,-2.3932926654815674,-1.2004573345184326,1.276676893234253
1588209937469,2020-04-30T01:26:09.737669,7.059,1.116615891456604,-2.370426893234253,-0.1981707364320755
1588209937509,2020-04-30T01:26:09.752592,7.099,0.32774391770362854,0.44588416814804077,-0.7774390578269958
1588209937550,2020-04-30T01:26:09.782470,7.14,-1.3300305604934692,-0.09908536821603775,0.4573170840740204
1588209937589,2020-04-30T01:26:09.797227,7.179,-1.894054889678955,0.27439025044441223,-0.36966463923454285
1588209937630,2020-04-30T01:26:09.819770,7.22,-2.2827744483947754,2.38185977935791,-0.9794207811355591
1588209937670,2020-04-30T01:26:09.841828,7.26,-2.324695110321045,0.5868902802467346,0.13719512522220612
1588209937711,2020-04-30T01:26:09.865014,7.301,-0.6669207215309143,-2.1112804412841797,1.6006097793579102
1588209937750,2020-04-30T01:26:09.895014,7.34,-0.43064025044441223,-1.8330793380737305,1.1471036672592163
1588209937791,2020-04-30T01:26:09.910164,7.381,-1.1471036672592163,0.24390244483947754,0.30868902802467346
1588209937831,2020-04-30T01:26:09.932783,7.421,-1.0365853309631348,0.9870427250862122,-0.47256097197532654
1588209937872,2020-04-30T01:26:09.973449,7.462,-0.2591463327407837,0.34679877758026123,-0.9832317233085632
1588209937913,2020-04-30T01:26:09.996270,7.503,1.3986281156539917,-1.8368903398513794,0.05716463550925255
1588209937953,2020-04-30T01:26:10.023196,7.543,0.40015244483947754,-1.5967987775802612,0.48399391770362854
1588209937994,2020-04-30T01:26:10.060518,7.584,0.5525915026664734,-0.08003048598766327,-0.6135671138763428
1588209938033,2020-04-30T01:26:10.086112,7.623,1.8902438879013062,0.7850610017776489,-1.6501524448394775
1588209938074,2020-04-30T01:26:10.105229,7.664,1.1432926654815674,0.7850610017776489,-1.2118902206420898
1588209938114,2020-04-30T01:26:10.120127,7.704,0.9870427250862122,-0.8307927250862122,0.019054878503084183
1588209938155,2020-04-30T01:26:10.149584,7.745,0.8841463327407837,-1.0594512224197388,0.2096036672592163
1588209938194,2020-04-30T01:26:10.173494,7.784,-0.3544207513332367,0.5564024448394775,-0.2629573345184326
1588209938235,2020-04-30T01:26:10.194477,7.825,-0.948932945728302,1.764481782913208,-0.7698171138763428
1588209938275,2020-04-30T01:26:10.224392,7.865,-0.480182945728302,1.764481782913208,-1.1623475551605225
1588209938316,2020-04-30T01:26:10.254238,7.906,-0.4611280560493469,1.3376524448394775,-0.7698171138763428
1588209938357,2020-04-30T01:26:10.277090,7.947,-0.11814024299383163,0.5297256112098694,-0.2096036672592163
1588209938396,2020-04-30T01:26:10.292047,7.986,0.240091472864151,-1.429115891456604,0.7355183362960815
1588209938437,2020-04-30T01:26:10.323142,8.027,-0.3048780560493469,-0.9794207811355591,0.625
1588209938477,2020-04-30T01:26:10.344705,8.067,-1.2881097793579102,0.8993902802467346,-0.36966463923454285
1588209938518,2020-04-30T01:26:10.367121,8.108,-0.28582316637039185,0.5640243887901306,-0.7621951103210449
1588209938558,2020-04-30T01:26:10.389820,8.148,0.08003048598766327,0.23628048598766327,-0.5259146690368652
1588209938599,2020-04-30T01:26:10.412667,8.189,0.4268292784690857,-0.5144817233085632,-0.2820121943950653
1588209938638,2020-04-30T01:26:10.427112,8.228,0.9756097793579102,-1.2271342277526855,-0.01143292710185051
1588209938679,2020-04-30T01:26:10.459419,8.269,0.6173780560493469,-1.0823171138763428,0.12957316637039185
1588209938719,2020-04-30T01:26:10.481033,8.309,0.08003048598766327,-0.1981707364320755,-0.09527438879013062
1588209938760,2020-04-30T01:26:10.513815,8.35,-0.18292683362960815,0.08765243738889694,-0.3849085569381714
1588209938799,2020-04-30T01:26:10.541999,8.389,-0.5830792784690857,0.4077743887901306,-0.1676829308271408
1588209938840,2020-04-30T01:26:10.560012,8.43,-0.09908536821603775,0.16387195885181427,-0.1257621943950653
1588209938880,2020-04-30T01:26:10.601788,8.47,0.5373475551605225,-0.4992378056049347,-0.43445122241973877
1588209938921,2020-04-30T01:26:10.610543,8.511,-0.35823172330856323,0.21341463923454285,-0.625
1588209938962,2020-04-30T01:26:10.638232,8.552,-0.5487805008888245,0.019054878503084183,-0.4573170840740204
1588209939001,2020-04-30T01:26:10.661778,8.591,-0.44588416814804077,-0.5792682766914368,-0.11814024299383163
1588209939042,2020-04-30T01:26:10.676182,8.632,-0.02286585420370102,-0.9298780560493469,-0.0724085345864296
1588209939082,2020-04-30T01:26:10.705722,8.672,-0.42301830649375916,0.24390244483947754,-0.5068597793579102
1588209939123,2020-04-30T01:26:10.727804,8.713,-0.17149390280246735,0.3544207513332367,-0.9756097793579102
1588209939163,2020-04-30T01:26:10.759022,8.753,-0.41158536076545715,0.5221036672592163,-0.8841463327407837
1588209939204,2020-04-30T01:26:10.783587,8.794,-0.5907012224197388,0.21722561120986938,-0.41158536076545715
1588209939243,2020-04-30T01:26:10.812469,8.833,-0.42301830649375916,-0.11814024299383163,-0.2629573345184326
1588209939284,2020-04-30T01:26:10.833857,8.874,0.09527438879013062,-0.06859756261110306,-0.5411585569381714
1588209939324,2020-04-30T01:26:10.849678,8.914,0.396341472864151,0.049542684108018875,-0.960365891456604
1588209939365,2020-04-30T01:26:10.877619,8.955,0.2629573345184326,0.3849085569381714,-1.0213414430618286
1588209939404,2020-04-30T01:26:10.893200,8.994,0.2591463327407837,0.3849085569381714,-0.9146341681480408
1588209939445,2020-04-30T01:26:10.929576,9.035,-0.09908536821603775,0.3353658616542816,-0.5868902802467346
1588209939485,2020-04-30T01:26:10.945635,9.075,-0.29725611209869385,0.13338415324687958,-0.35060974955558777
1588209939526,2020-04-30T01:26:10.960554,9.116,0.1143292710185051,-0.06478658318519592,-0.5030487775802612
1588209939567,2020-04-30T01:26:11.020929,9.157,0.12957316637039185,0.0038109757006168365,-0.7355183362960815
1588209939606,2020-04-30T01:26:11.034913,9.196,0.44588416814804077,-0.0419207327067852,-0.7507622241973877
1588209939647,2020-04-30T01:26:11.080261,9.237,0.7012194991111755,-0.35060974955558777,-0.48399391770362854
1588209939687,2020-04-30T01:26:11.099270,9.277,0.17911586165428162,-0.31631097197532654,0.08003048598766327
1588209939728,2020-04-30T01:26:11.118562,9.318,0.32774391770362854,-0.36204269528388977,0.09908536821603775
1588209939767,2020-04-30T01:26:11.156839,9.357,0.10289634019136429,0.34679877758026123,-0.05335365980863571
1588209939809,2020-04-30T01:26:11.167640,9.399,0.07621951401233673,0.35060974955558777,-0.2820121943950653
1588209939848,2020-04-30T01:26:11.186185,9.438,0.5449694991111755,-0.0038109757006168365,-0.4496951401233673
1588209939889,2020-04-30T01:26:11.209808,9.479,0.3429878056049347,-0.0038109757006168365,-0.3315548896789551
1588209939929,2020-04-30T01:26:11.227977,9.519,-0.15243902802467346,0.7736280560493469,-0.41158536076545715
1588209939970,2020-04-30T01:26:11.245820,9.56,0.6707317233085632,-0.35060974955558777,-0.39253050088882446
1588209940009,2020-04-30T01:26:11.267977,9.599,0.47637197375297546,-0.5221036672592163,-0.1867378056049347
1588209940050,2020-04-30T01:26:11.298985,9.64,0.7012194991111755,-0.1676829308271408,-0.4192073345184326
1588209940091,2020-04-30T01:26:11.319511,9.681,0.8498475551605225,0.2096036672592163,-0.6554878354072571
1588209940131,2020-04-30T01:26:11.334833,9.721,0.9679878354072571,-0.0419207327067852,-0.3048780560493469
1588209940172,2020-04-30T01:26:11.372400,9.762,0.49542683362960815,0.01143292710185051,0.17149390280246735
1588209940211,2020-04-30T01:26:11.394851,9.801,0.44207316637039185,0.030487805604934692,0.1143292710185051
1588209940252,2020-04-30T01:26:11.417534,9.842,0.7888719439506531,-0.396341472864151,-0.15243902802467346
1588209940292,2020-04-30T01:26:11.440262,9.882,0.5678353905677795,-0.1676829308271408,-0.3734756112098694
1588209940333,2020-04-30T01:26:11.454841,9.923,0.5106707215309143,-0.04573170840740204,-0.35823172330856323
1588209940372,2020-04-30T01:26:11.484824,9.962,0.1676829308271408,0.09527438879013062,-0.43064025044441223
1588209940413,2020-04-30T01:26:11.499829,10.003,-0.23628048598766327,0.38109755516052246,-0.6135671138763428
1588209940453,2020-04-30T01:26:11.530265,10.043,0.0724085345864296,0.08003048598766327,-0.5487805008888245
1588209940494,2020-04-30T01:26:11.560267,10.084,0.026676829904317856,0.20579268038272858,-0.4916158616542816
1588209940534,2020-04-30T01:26:11.582822,10.124,0.15243902802467346,-0.22103658318519592,-0.4077743887901306
1588209940575,2020-04-30T01:26:11.619823,10.165,-0.4039634168148041,-0.04573170840740204,-0.43445122241973877
1588209940616,2020-04-30T01:26:11.642930,10.206,-0.5792682766914368,0.24390244483947754,-0.4611280560493469
1588209940655,2020-04-30T01:26:11.672087,10.245,-0.24771341681480408,-0.05335365980863571,-0.5373475551605225
1588209940696,2020-04-30T01:26:11.695171,10.286,0.06859756261110306,0.0,-0.5868902802467346
1588209940736,2020-04-30T01:26:11.709390,10.326,-0.20579268038272858,0.4382621943950653,-0.6935975551605225
1588209940777,2020-04-30T01:26:11.747388,10.367,-0.1676829308271408,0.44207316637039185,-0.6097561120986938
1588209940816,2020-04-30T01:26:11.762415,10.406,-0.2591463327407837,-0.10670731961727142,-0.5411585569381714
1588209940857,2020-04-30T01:26:11.791880,10.447,-0.3734756112098694,0.39253050088882446,-0.7583841681480408
1588209940897,2020-04-30T01:26:11.807778,10.487,-0.18292683362960815,0.43445122241973877,-0.8879573345184326
1588209940938,2020-04-30T01:26:11.837329,10.528,-0.12195122241973877,0.23628048598766327,-0.7964939475059509
1588209940977,2020-04-30T01:26:11.860284,10.567,-0.12957316637039185,-0.04573170840740204,-0.5487805008888245
1588209941018,2020-04-30T01:26:11.889839,10.608,-0.07621951401233673,-0.2629573345184326,-0.40015244483947754
1588209941058,2020-04-30T01:26:11.927358,10.648,-0.4916158616542816,0.09527438879013062,-0.4192073345184326
1588209941099,2020-04-30T01:26:11.942455,10.689,-0.26676830649375916,0.240091472864151,-0.647865891456604
1588209941140,2020-04-30T01:26:11.964923,10.73,-0.015243902802467346,0.19435976445674896,-0.7164634466171265
1588209941180,2020-04-30T01:26:12.003140,10.77,-0.16006097197532654,0.1143292710185051,-0.6592987775802612
1588209941221,2020-04-30T01:26:12.024880,10.811,0.24771341681480408,-0.3125,-0.5411585569381714
1588209941260,2020-04-30T01:26:12.047999,10.85,0.28582316637039185,-0.31631097197532654,-0.6211890578269958
1588209941301,2020-04-30T01:26:12.066081,10.891,0.13719512522220612,-0.2096036672592163,-0.6326219439506531
1588209941341,2020-04-30T01:26:12.086137,10.931,0.14862805604934692,0.030487805604934692,-0.6631097793579102
1588209941382,2020-04-30T01:26:12.124147,10.972,0.35060974955558777,-0.4916158616542816,-0.27439025044441223
1588209941421,2020-04-30T01:26:12.146927,11.011,-0.19054877758026123,-0.5259146690368652,-0.05335365980863571
1588209941462,2020-04-30T01:26:12.167951,11.052,-0.060975611209869385,-0.3048780560493469,-0.33917683362960815
1588209941502,2020-04-30T01:26:12.197055,11.092,0.2286585420370102,-0.5792682766914368,-0.5144817233085632
1588209941543,2020-04-30T01:26:12.213077,11.133,0.3353658616542816,-0.6935975551605225,-0.3125
1588209941582,2020-04-30T01:26:12.249644,11.172,0.01143292710185051,-0.4039634168148041,-0.19054877758026123
1588209941623,2020-04-30T01:26:12.275732,11.213,-0.08003048598766327,-0.16006097197532654,-0.27820122241973877
1588209941664,2020-04-30T01:26:12.302663,11.254,0.28582316637039185,-0.30868902802467346,-0.4878048896789551
1588209941704,2020-04-30T01:26:12.360506,11.294,0.17149390280246735,-0.3772865831851959,-0.5411585569381714
1588209941745,2020-04-30T01:26:12.369589,11.335,0.24390244483947754,-0.09908536821603775,-0.6707317233085632
1588209941785,2020-04-30T01:26:12.383598,11.375,0.2286585420370102,0.12195122241973877,-0.8498475551605225
1588209941826,2020-04-30T01:26:12.412440,11.416,0.32774391770362854,-0.14862805604934692,-0.6516768336296082
1588209941865,2020-04-30T01:26:12.433111,11.455,0.29725611209869385,-0.49542683362960815,-0.21341463923454285
1588209941906,2020-04-30T01:26:12.452903,11.496,0.09527438879013062,-0.6897866129875183,0.14100609719753265
1588209941946,2020-04-30T01:26:12.483171,11.536,0.09908536821603775,-0.4878048896789551,0.015243902802467346
1588209941987,2020-04-30T01:26:12.514094,11.577,0.35823172330856323,-0.29725611209869385,-0.2705792784690857
1588209942026,2020-04-30T01:26:12.537530,11.616,0.29725611209869385,0.12195122241973877,-0.792682945728302
1588209942067,2020-04-30T01:26:12.579335,11.657,0.45350611209869385,-0.2286585420370102,-0.5525915026664734
1588209942107,2020-04-30T01:26:12.584681,11.697,0.3658536672592163,-0.5068597793579102,-0.2096036672592163
1588209942148,2020-04-30T01:26:12.605213,11.738,0.28582316637039185,-0.5602134466171265,-0.0838414654135704
1588209942189,2020-04-30T01:26:12.623242,11.779,0.19054877758026123,-0.2705792784690857,-0.3125
1588209942228,2020-04-30T01:26:12.640369,11.818,0.6059451103210449,-0.4992378056049347,-0.4611280560493469
1588209942269,2020-04-30T01:26:12.671301,11.859,0.7355183362960815,-0.5259146690368652,-0.33917683362960815
1588209942309,2020-04-30T01:26:12.693017,11.899,0.3125,-0.5945122241973877,-0.2820121943950653
1588209942350,2020-04-30T01:26:12.716057,11.94,-0.23628048598766327,0.04573170840740204,-0.6288110017776489
1588209942390,2020-04-30T01:26:12.736871,11.98,0.03429878130555153,-0.2896341383457184,-0.5907012224197388
1588209942431,2020-04-30T01:26:12.752564,12.021,0.43064025044441223,-0.6935975551605225,-0.2096036672592163
1588209942470,2020-04-30T01:26:12.782624,12.06,0.16387195885181427,-0.39253050088882446,-0.27820122241973877
1588209942511,2020-04-30T01:26:12.797379,12.101,-0.0038109757006168365,0.17530487477779388,-0.49542683362960815
1588209942551,2020-04-30T01:26:12.819892,12.141,0.32774391770362854,-0.1676829308271408,-0.6745427250862122
1588209942592,2020-04-30T01:26:12.849387,12.182,0.24771341681480408,-0.20579268038272858,-0.625
1588209942633,2020-04-30T01:26:12.864378,12.223,0.21341463923454285,-0.1448170691728592,-0.6211890578269958
1588209942672,2020-04-30T01:26:12.894472,12.262,0.08765243738889694,-0.15625,-0.5602134466171265
1588209942713,2020-04-30T01:26:12.909474,12.303,-0.39253050088882446,-0.049542684108018875,-0.3887195289134979
1588209942753,2020-04-30T01:26:12.940185,12.343,-0.4153963625431061,-0.4192073345184326,-0.05716463550925255
1588209942794,2020-04-30T01:26:12.954465,12.384,0.09146341681480408,-0.4992378056049347,-0.27820122241973877
1588209942833,2020-04-30T01:26:12.977092,12.423,0.2286585420370102,-0.2934451401233673,-0.6707317233085632
1588209942874,2020-04-30T01:26:13.008087,12.464,-0.11051829159259796,0.13338415324687958,-0.8841463327407837
1588209942914,2020-04-30T01:26:13.028930,12.504,-0.2591463327407837,-0.0838414654135704,-0.6021341681480408
1588209942955,2020-04-30T01:26:13.052861,12.545,-0.3849085569381714,-0.38109755516052246,-0.23628048598766327
1588209942995,2020-04-30T01:26:13.066907,12.585,-0.5030487775802612,-0.3658536672592163,-0.40015244483947754
1588209943036,2020-04-30T01:26:13.089486,12.626,-0.6745427250862122,-0.03429878130555153,-0.7240853905677795
1588209943077,2020-04-30T01:26:13.112005,12.667,-0.6516768336296082,0.34679877758026123,-0.960365891456604
1588209943116,2020-04-30T01:26:13.126848,12.706,-0.0038109757006168365,-0.2591463327407837,-0.7736280560493469
1588209943157,2020-04-30T01:26:13.156845,12.747,-0.6897866129875183,-0.9451219439506531,-0.30868902802467346
1588209943197,2020-04-30T01:26:13.173987,12.787,-1.0022865533828735,-0.12195122241973877,-0.6326219439506531
1588209943238,2020-04-30T01:26:13.194883,12.828,-0.6059451103210449,-0.49542683362960815,-0.8650915026664734
1588209943277,2020-04-30T01:26:13.217813,12.867,-0.25533536076545715,-0.7850610017776489,-0.7088415026664734
1588209943318,2020-04-30T01:26:13.241556,12.908,-0.4153963625431061,-0.4916158616542816,-0.5678353905677795
1588209943358,2020-04-30T01:26:13.262997,12.948,-0.47637197375297546,-0.05716463550925255,-0.7545731663703918
1588209943399,2020-04-30T01:26:13.284453,12.989,-0.21722561120986938,-0.78125,-0.6097561120986938
1588209943438,2020-04-30T01:26:13.306861,13.028,-0.31631097197532654,-0.960365891456604,-0.3315548896789551
1588209943479,2020-04-30T01:26:13.329366,13.069,-0.2629573345184326,-0.22484757006168365,-0.6859756112098694
1588209943519,2020-04-30T01:26:13.351870,13.109,-0.323932945728302,0.23246951401233673,-1.2080793380737305
1588209943560,2020-04-30T01:26:13.374371,13.15,-0.27820122241973877,0.22103658318519592,-1.1814024448394775
1588209943600,2020-04-30T01:26:13.396859,13.19,-0.030487805604934692,-0.23628048598766327,-0.7240853905677795
1588209943641,2020-04-30T01:26:13.411872,13.231,-0.05335365980863571,-0.2934451401233673,-0.6021341681480408
1588209943680,2020-04-30T01:26:13.436716,13.27,-0.007621951401233673,0.02286585420370102,-0.8689024448394775
1588209943721,2020-04-30T01:26:13.457005,13.311,0.17911586165428162,0.1448170691728592,-1.139481782913208
1588209943762,2020-04-30T01:26:13.479478,13.352,0.3887195289134979,-0.019054878503084183,-1.0327744483947754
1588209943802,2020-04-30T01:26:13.502181,13.392,0.31631097197532654,-0.2286585420370102,-0.6592987775802612
1588209943843,2020-04-30T01:26:13.517184,13.433,0.1448170691728592,-0.03429878130555153,-0.6021341681480408
1588209943882,2020-04-30T01:26:13.547272,13.472,0.19435976445674896,0.3125,-0.5716463327407837
1588209943923,2020-04-30T01:26:13.562013,13.513,0.47256097197532654,-0.24771341681480408,-0.049542684108018875
1588209943963,2020-04-30T01:26:13.591873,13.553,0.0724085345864296,-0.6707317233085632,0.7660061120986938
1588209944004,2020-04-30T01:26:13.614370,13.594,-0.15625,-0.1257621943950653,0.8193597793579102
1588209944043,2020-04-30T01:26:13.629380,13.633,-0.060975611209869385,-0.3734756112098694,-0.019054878503084183
1588209944084,2020-04-30T01:26:13.659379,13.674,0.9222561120986938,-0.5144817233085632,-0.45350611209869385
1588209944124,2020-04-30T01:26:13.674396,13.714,1.0137195587158203,-0.6554878354072571,-0.34679877758026123
1588209944165,2020-04-30T01:26:13.704377,13.755,0.21341463923454285,0.16006097197532654,-0.21341463923454285
1588209944205,2020-04-30T01:26:13.719372,13.795,-0.396341472864151,0.5907012224197388,-0.2286585420370102
1588209944246,2020-04-30T01:26:13.741873,13.836,0.01143292710185051,-0.4611280560493469,-0.08765243738889694
1588209944287,2020-04-30T01:26:13.764376,13.877,0.30868902802467346,-0.323932945728302,-0.4878048896789551
1588209944326,2020-04-30T01:26:13.779371,13.916,0.31631097197532654,0.0724085345864296,-0.7278963327407837
1588209944367,2020-04-30T01:26:13.809368,13.957,0.4153963625431061,-0.19054877758026123,-0.6326219439506531
1588209944407,2020-04-30T01:26:13.824390,13.997,0.17149390280246735,-0.22103658318519592,-0.39253050088882446
1588209944448,2020-04-30T01:26:13.846873,14.038,0.35060974955558777,-0.4611280560493469,-0.08003048598766327
1588209944487,2020-04-30T01:26:13.870164,14.077,0.47637197375297546,-0.5754573345184326,-0.08765243738889694
1588209944528,2020-04-30T01:26:13.892019,14.118,0.1676829308271408,-0.35823172330856323,-0.24390244483947754
1588209944568,2020-04-30T01:26:13.914547,14.158,0.12957316637039185,-0.10289634019136429,-0.5411585569381714
1588209944609,2020-04-30T01:26:13.929517,14.199,0.17149390280246735,-0.0724085345864296,-0.647865891456604
1588209944648,2020-04-30T01:26:13.951993,14.238,0.3544207513332367,0.0038109757006168365,-0.4382621943950653
1588209944689,2020-04-30T01:26:13.974477,14.279,0.6631097793579102,-0.3658536672592163,-0.07621951401233673
1588209944729,2020-04-30T01:26:13.996867,14.319,0.22103658318519592,-0.7088415026664734,-0.10289634019136429
1588209944770,2020-04-30T01:26:14.019365,14.36,-0.20579268038272858,-0.6135671138763428,0.015243902802467346
1588209944809,2020-04-30T01:26:14.041853,14.399,0.015243902802467346,-0.5259146690368652,-0.21341463923454285
1588209944851,2020-04-30T01:26:14.071861,14.441,0.2896341383457184,-0.20579268038272858,-0.6059451103210449
1588209944892,2020-04-30T01:26:14.086865,14.482,0.2591463327407837,-0.17149390280246735,-0.7202743887901306
1588209944931,2020-04-30T01:26:14.109366,14.521,0.060975611209869385,0.03429878130555153,-0.5678353905677795
1588209944972,2020-04-30T01:26:14.131859,14.562,0.33917683362960815,-0.42301830649375916,-0.26676830649375916
1588209945012,2020-04-30T01:26:14.161869,14.602,0.20579268038272858,-0.7240853905677795,0.060975611209869385
1588209945053,2020-04-30T01:26:14.184370,14.643,0.09527438879013062,-0.3658536672592163,-0.22103658318519592
1588209945092,2020-04-30T01:26:14.214382,14.682,0.02286585420370102,-0.08003048598766327,-0.5678353905677795
1588209945133,2020-04-30T01:26:14.229381,14.723,0.4382621943950653,-0.32774391770362854,-0.5373475551605225
1588209945173,2020-04-30T01:26:14.251905,14.763,0.35823172330856323,-0.34679877758026123,-0.40015244483947754
1588209945214,2020-04-30T01:26:14.274551,14.804,0.3201219439506531,-0.21722561120986938,-0.27439025044441223
1588209945253,2020-04-30T01:26:14.319495,14.843,0.28582316637039185,-0.3010670840740204,-0.22484757006168365
1588209945294,2020-04-30T01:26:14.334516,14.884,0.10670731961727142,-0.06478658318519592,-0.32774391770362854
1588209945334,2020-04-30T01:26:14.357008,14.924,0.13338415324687958,-0.1143292710185051,-0.5297256112098694
1588209945375,2020-04-30T01:26:14.379829,14.965,0.09527438879013062,-0.05335365980863571,-0.5983231663703918
1588209945414,2020-04-30T01:26:14.401996,15.004,0.07621951401233673,-0.3353658616542816,-0.3887195289134979
1588209945455,2020-04-30T01:26:14.432072,15.045,0.1867378056049347,-0.20579268038272858,-0.24771341681480408
1588209945496,2020-04-30T01:26:14.451676,15.086,0.3734756112098694,-0.06859756261110306,-0.3429878056049347
1588209945536,2020-04-30T01:26:14.471264,15.126,-0.04573170840740204,-0.17530487477779388,-0.4992378056049347
1588209945577,2020-04-30T01:26:14.492711,15.167,-0.07621951401233673,-0.2705792784690857,-0.39253050088882446
1588209945617,2020-04-30T01:26:14.514559,15.207,-0.10289634019136429,-0.21722561120986938,-0.36966463923454285
1588209945658,2020-04-30T01:26:14.537036,15.248,0.19054877758026123,-0.42301830649375916,-0.38109755516052246
1588209945697,2020-04-30T01:26:14.559837,15.287,0.08765243738889694,-0.4192073345184326,-0.2705792784690857
1588209945738,2020-04-30T01:26:14.574524,15.328,-0.1981707364320755,0.07621951401233673,-0.27820122241973877
1588209945778,2020-04-30T01:26:14.597237,15.368,0.23628048598766327,-0.19435976445674896,-0.4611280560493469
1588209945819,2020-04-30T01:26:14.619993,15.409,0.3201219439506531,-0.33917683362960815,-0.5068597793579102
1588209945858,2020-04-30T01:26:14.644219,15.448,0.2515243887901306,-0.4039634168148041,-0.42301830649375916
1588209945899,2020-04-30T01:26:14.664379,15.489,-0.06859756261110306,-0.12957316637039185,-0.5259146690368652
1588209945939,2020-04-30T01:26:14.679752,15.529,0.2096036672592163,-0.28582316637039185,-0.43445122241973877
1588209945980,2020-04-30T01:26:14.717034,15.57,0.29725611209869385,-0.5525915026664734,-0.21341463923454285
1588209946021,2020-04-30T01:26:14.731977,15.611,-0.06478658318519592,-0.4573170840740204,-0.10670731961727142
1588209946060,2020-04-30T01:26:14.754656,15.65,-0.09908536821603775,-0.2705792784690857,-0.36966463923454285
1588209946101,2020-04-30T01:26:14.777011,15.691,-0.09146341681480408,0.17149390280246735,-0.7240853905677795
1588209946141,2020-04-30T01:26:14.791967,15.731,-0.14100609719753265,0.2096036672592163,-0.7164634466171265
1588209946182,2020-04-30T01:26:14.821897,15.772,-0.13719512522220612,-0.007621951401233673,-0.46493902802467346
1588209946222,2020-04-30T01:26:14.836893,15.812,-0.10289634019136429,-0.2096036672592163,-0.31631097197532654
1588209946263,2020-04-30T01:26:14.866908,15.853,-0.24771341681480408,-0.05335365980863571,-0.35060974955558777
1588209946302,2020-04-30T01:26:14.881907,15.892,-0.2286585420370102,0.060975611209869385,-0.5182926654815674
1588209946343,2020-04-30T01:26:14.896908,15.933,0.2591463327407837,-0.13719512522220612,-0.7050305008888245
1588209946383,2020-04-30T01:26:14.927035,15.973,0.14862805604934692,-0.17530487477779388,-0.5830792784690857
1588209946424,2020-04-30T01:26:14.942258,16.014,-0.26676830649375916,-0.0038109757006168365,-0.47637197375297546
1588209946463,2020-04-30T01:26:14.972566,16.053,-0.3125,-0.0724085345864296,-0.47637197375297546
1588209946504,2020-04-30T01:26:14.986925,16.094,-0.2096036672592163,-0.026676829904317856,-0.5335366129875183
1588209946545,2020-04-30T01:26:15.015671,16.135,-0.15625,0.019054878503084183,-0.5068597793579102
1588209946585,2020-04-30T01:26:15.039527,16.175,0.15243902802467346,-0.38109755516052246,-0.47637197375297546
1588209946626,2020-04-30T01:26:15.054551,16.216,-0.10289634019136429,0.038109757006168365,-0.6745427250862122
1588209946665,2020-04-30T01:26:15.084494,16.255,0.1143292710185051,0.0419207327067852,-0.804115891456604
1588209946706,2020-04-30T01:26:15.099500,16.296,0.10289634019136429,-0.2515243887901306,-0.45350611209869385
1588209946746,2020-04-30T01:26:15.122646,16.336,-0.1981707364320755,-0.6707317233085632,-0.21341463923454285
1588209946787,2020-04-30T01:26:15.151932,16.377,-0.36966463923454285,0.049542684108018875,-0.6059451103210449
1588209946827,2020-04-30T01:26:15.174386,16.417,0.4077743887901306,-0.1867378056049347,-1.0785061120986938
1588209946868,2020-04-30T01:26:15.196884,16.458,0.7850610017776489,-0.3772865831851959,-0.8803353905677795
1588209946907,2020-04-30T01:26:15.219390,16.497,0.6288110017776489,-0.7164634466171265,-0.36966463923454285
1588209946948,2020-04-30T01:26:15.234574,16.538,-0.33917683362960815,-0.13338415324687958,-0.09527438879013062
1588209946988,2020-04-30T01:26:15.256986,16.578,-0.17149390280246735,-0.29725611209869385,-0.09527438879013062
1588209947029,2020-04-30T01:26:15.279558,16.619,0.2896341383457184,-0.636432945728302,-0.2820121943950653
1588209947070,2020-04-30T01:26:15.302455,16.66,0.6516768336296082,-0.7545731663703918,-0.49542683362960815
1588209947109,2020-04-30T01:26:15.332038,16.699,0.5564024448394775,-0.22103658318519592,-0.7698171138763428
1588209947150,2020-04-30T01:26:15.347225,16.74,0.3201219439506531,0.01143292710185051,-0.7164634466171265
1588209947190,2020-04-30T01:26:15.377018,16.78,0.20198170840740204,-0.5716463327407837,-0.18292683362960815
1588209947231,2020-04-30T01:26:15.392104,16.821,0.3429878056049347,-0.9298780560493469,0.19435976445674896
1588209947270,2020-04-30T01:26:15.421991,16.86,0.4192073345184326,-0.6935975551605225,-0.22103658318519592
1588209947311,2020-04-30T01:26:15.444503,16.901,0.4611280560493469,-0.3544207513332367,-0.5754573345184326
1588209947351,2020-04-30T01:26:15.459371,16.941,0.07621951401233673,0.06478658318519592,-0.625
1588209947392,2020-04-30T01:26:15.489373,16.982,0.18292683362960815,-0.2096036672592163,-0.42301830649375916
1588209947432,2020-04-30T01:26:15.504368,17.022,0.2591463327407837,-0.5221036672592163,-0.240091472864151
1588209947473,2020-04-30T01:26:15.534368,17.063,0.47637197375297546,-0.5411585569381714,-0.3887195289134979
1588209947512,2020-04-30T01:26:15.549370,17.102,0.40015244483947754,-0.35823172330856323,-0.44207316637039185
1588209947553,2020-04-30T01:26:15.571893,17.143,0.24771341681480408,-0.1867378056049347,-0.6440548896789551
1588209947594,2020-04-30T01:26:15.594433,17.184,0.13719512522220612,-0.2096036672592163,-0.4496951401233673
1588209947634,2020-04-30T01:26:15.609390,17.224,0.0038109757006168365,-0.5030487775802612,-0.32774391770362854
1588209947675,2020-04-30T01:26:15.646882,17.265,0.13719512522220612,-0.0419207327067852,-0.44207316637039185
1588209947714,2020-04-30T01:26:15.661884,17.304,0.3734756112098694,-0.2934451401233673,-0.480182945728302
1588209947755,2020-04-30T01:26:15.691876,17.345,-0.02286585420370102,-0.1257621943950653,-0.6059451103210449
1588209947795,2020-04-30T01:26:15.707235,17.385,-0.07621951401233673,-0.14862805604934692,-0.4496951401233673
1588209947836,2020-04-30T01:26:15.721995,17.426,0.07621951401233673,-0.5945122241973877,-0.41158536076545715
1588209947875,2020-04-30T01:26:15.753794,17.465,0.2934451401233673,-0.5487805008888245,-0.3849085569381714
1588209947916,2020-04-30T01:26:15.767791,17.506,0.03429878130555153,-0.35823172330856323,-0.32774391770362854
1588209947956,2020-04-30T01:26:15.796885,17.546,0.049542684108018875,-0.20198170840740204,-0.3429878056049347
1588209947997,2020-04-30T01:26:15.811918,17.587,0.3010670840740204,-0.12957316637039185,-0.6288110017776489
1588209948038,2020-04-30T01:26:15.834376,17.628,0.17530487477779388,-0.21722561120986938,-0.5335366129875183
1588209948078,2020-04-30T01:26:15.856911,17.668,-0.060975611209869385,-0.23628048598766327,-0.44207316637039185
1588209948119,2020-04-30T01:26:15.871943,17.709,-0.10670731961727142,-0.019054878503084183,-0.5640243887901306
1588209948158,2020-04-30T01:26:15.901901,17.748,0.3849085569381714,-0.3772865831851959,-0.5907012224197388
1588209948199,2020-04-30T01:26:15.916897,17.789,0.4153963625431061,-0.5373475551605225,-0.2934451401233673
1588209948239,2020-04-30T01:26:15.946924,17.829,0.12195122241973877,-0.44588416814804077,-0.12957316637039185
1588209948280,2020-04-30T01:26:15.969410,17.87,-0.08003048598766327,-0.019054878503084183,-0.4878048896789551
1588209948319,2020-04-30T01:26:15.991914,17.909,0.17911586165428162,0.049542684108018875,-0.6821646690368652
1588209948360,2020-04-30T01:26:16.014387,17.95,0.43064025044441223,-0.4077743887901306,-0.4077743887901306
1588209948400,2020-04-30T01:26:16.029394,17.99,0.1981707364320755,-0.4153963625431061,-0.26676830649375916
1588209948441,2020-04-30T01:26:16.051923,18.031,0.08765243738889694,-0.31631097197532654,-0.18292683362960815
1588209948480,2020-04-30T01:26:16.074410,18.07,0.2629573345184326,-0.3544207513332367,-0.36204269528388977
1588209948521,2020-04-30T01:26:16.096964,18.111,0.46493902802467346,-0.3048780560493469,-0.6021341681480408
1588209948562,2020-04-30T01:26:16.119406,18.152,0.0838414654135704,-0.08003048598766327,-0.6135671138763428
1588209948602,2020-04-30T01:26:16.141930,18.192,0.28582316637039185,-0.36204269528388977,-0.4268292784690857
1588209948643,2020-04-30T01:26:16.164418,18.233,0.4268292784690857,-0.39253050088882446,-0.19435976445674896
1588209948683,2020-04-30T01:26:16.194417,18.273,-0.05716463550925255,-0.4153963625431061,-0.2896341383457184
1588209948724,2020-04-30T01:26:16.209433,18.314,-0.09527438879013062,-0.17530487477779388,-0.47256097197532654
1588209948763,2020-04-30T01:26:16.254421,18.353,0.15625,-0.22484757006168365,-0.7050305008888245
1588209948804,2020-04-30T01:26:16.291949,18.394,0.5830792784690857,-0.4192073345184326,-0.647865891456604
1588209948844,2020-04-30T01:26:16.306961,18.434,0.28582316637039185,-0.27439025044441223,-0.47256097197532654
1588209948885,2020-04-30T01:26:16.352019,18.475,-0.16387195885181427,-0.019054878503084183,-0.4153963625431061
1588209948926,2020-04-30T01:26:16.382049,18.516,0.019054878503084183,-0.13719512522220612,-0.44588416814804077
1588209948965,2020-04-30T01:26:16.404649,18.555,0.31631097197532654,-0.4573170840740204,-0.4382621943950653
1588209949006,2020-04-30T01:26:16.419527,18.596,0.27439025044441223,-0.36966463923454285,-0.4611280560493469
1588209949046,2020-04-30T01:26:16.443354,18.636,-0.019054878503084183,0.06859756261110306,-0.6135671138763428
1588209949087,2020-04-30T01:26:16.464640,18.677,0.2286585420370102,-0.1676829308271408,-0.6059451103210449
1588209949126,2020-04-30T01:26:16.487050,18.716,0.11814024299383163,-0.17530487477779388,-0.4992378056049347
1588209949167,2020-04-30T01:26:16.509523,18.757,0.1143292710185051,-0.44207316637039185,-0.21341463923454285
1588209949207,2020-04-30T01:26:16.532439,18.797,0.060975611209869385,-0.43064025044441223,-0.23628048598766327
1588209949248,2020-04-30T01:26:16.547741,18.838,0.049542684108018875,-0.17149390280246735,-0.5144817233085632
1588209949288,2020-04-30T01:26:16.569770,18.878,-0.17530487477779388,0.2629573345184326,-0.7736280560493469
1588209949329,2020-04-30T01:26:16.599512,18.919,-0.10289634019136429,0.17149390280246735,-0.6554878354072571
1588209949368,2020-04-30T01:26:16.622004,18.958,-0.23246951401233673,0.007621951401233673,-0.3849085569381714
1588209949409,2020-04-30T01:26:16.644532,18.999,-0.15625,-0.18292683362960815,-0.3544207513332367
1588209949449,2020-04-30T01:26:16.660903,19.039,-0.19435976445674896,-0.10289634019136429,-0.4573170840740204
1588209949490,2020-04-30T01:26:16.689515,19.08,-0.34679877758026123,0.24771341681480408,-0.5716463327407837
1588209949531,2020-04-30T01:26:16.704528,19.121,-0.33917683362960815,0.5182926654815674,-0.78125
1588209949570,2020-04-30T01:26:16.742116,19.16,-0.1676829308271408,0.36204269528388977,-0.7507622241973877
1588209949611,2020-04-30T01:26:16.757013,19.201,0.0838414654135704,0.019054878503084183,-0.5373475551605225
1588209949651,2020-04-30T01:26:16.772131,19.241,0.09146341681480408,-0.3353658616542816,-0.44207316637039185
1588209949692,2020-04-30T01:26:16.801998,19.282,-0.20579268038272858,0.06859756261110306,-0.6631097793579102
1588209949731,2020-04-30T01:26:16.816914,19.321,-0.19054877758026123,0.2705792784690857,-0.7393292784690857
1588209949772,2020-04-30T01:26:16.846917,19.362,0.23246951401233673,-0.0838414654135704,-0.4992378056049347
1588209949812,2020-04-30T01:26:16.861921,19.402,-0.02286585420370102,-0.6135671138763428,-0.2286585420370102
1588209949853,2020-04-30T01:26:16.884408,19.443,-0.12957316637039185,-0.3315548896789551,-0.323932945728302
1588209949892,2020-04-30T01:26:16.914408,19.482,0.0838414654135704,-0.0724085345864296,-0.8307927250862122
1588209949934,2020-04-30T01:26:16.936912,19.524,0.38109755516052246,-0.21722561120986938,-0.8841463327407837
1588209949973,2020-04-30T01:26:16.974410,19.563,0.5144817233085632,-0.5068597793579102,-0.3887195289134979
1588209950014,2020-04-30T01:26:16.989416,19.604,-0.1257621943950653,-0.3010670840740204,-0.1448170691728592
1588209950055,2020-04-30T01:26:17.050224,19.645,0.0,-0.1981707364320755,-0.27820122241973877
1588209950095,2020-04-30T01:26:17.079515,19.685,0.2096036672592163,-0.3353658616542816,-0.41158536076545715
1588209950136,2020-04-30T01:26:17.102101,19.726,0.38109755516052246,-0.4496951401233673,-0.47637197375297546
1588209950175,2020-04-30T01:26:17.124573,19.765,0.5792682766914368,-0.22484757006168365,-0.7850610017776489
1588209950216,2020-04-30T01:26:17.139810,19.806,0.3734756112098694,-0.01143292710185051,-0.8155487775802612
1588209950256,2020-04-30T01:26:17.184389,19.846,0.36966463923454285,-0.2629573345184326,-0.5221036672592163
1588209950297,2020-04-30T01:26:17.214394,19.887,0.2934451401233673,-0.5678353905677795,-0.0838414654135704
1588209950336,2020-04-30T01:26:17.237188,19.926,0.47637197375297546,-0.7126524448394775,-0.04573170840740204
1588209950377,2020-04-30T01:26:17.259401,19.967,0.2705792784690857,-0.1143292710185051,-0.44588416814804077
1588209950417,2020-04-30T01:26:17.311905,20.007,0.3048780560493469,-0.019054878503084183,-0.6097561120986938
1588209950458,2020-04-30T01:26:17.334553,20.048,0.007621951401233673,0.10289634019136429,-0.5144817233085632
1588209950497,2020-04-30T01:26:17.356996,20.087,0.17149390280246735,-0.27439025044441223,-0.4039634168148041
1588209950538,2020-04-30T01:26:17.402078,20.128,0.019054878503084183,-0.43445122241973877,-0.26676830649375916
1588209950578,2020-04-30T01:26:17.424578,20.168,0.05335365980863571,-0.2096036672592163,-0.42301830649375916
1588209950619,2020-04-30T01:26:17.454579,20.209,0.13719512522220612,0.05335365980863571,-0.647865891456604
1588209950659,2020-04-30T01:26:17.477697,20.249,0.240091472864151,-0.20579268038272858,-0.5945122241973877
1588209950700,2020-04-30T01:26:17.499895,20.29,0.1257621943950653,-0.26676830649375916,-0.4916158616542816
1588209950741,2020-04-30T01:26:17.514726,20.331,-0.05716463550925255,-0.36204269528388977,-0.2629573345184326
1588209950780,2020-04-30T01:26:17.547571,20.37,0.31631097197532654,-0.49542683362960815,-0.15625
1588209950821,2020-04-30T01:26:17.575215,20.411,0.20198170840740204,-0.5487805008888245,-0.27820122241973877
1588209950861,2020-04-30T01:26:17.597046,20.451,-0.20579268038272858,-0.19054877758026123,-0.5144817233085632
1588209950902,2020-04-30T01:26:17.627038,20.492,-0.2896341383457184,0.11051829159259796,-0.7393292784690857
1588209950941,2020-04-30T01:26:17.642036,20.531,0.038109757006168365,-0.33917683362960815,-0.6021341681480408
1588209950982,2020-04-30T01:26:17.673916,20.572,0.3887195289134979,-0.6669207215309143,-0.31631097197532654
1588209951022,2020-04-30T01:26:17.694417,20.612,-0.13338415324687958,-0.23628048598766327,-0.32774391770362854
1588209951063,2020-04-30T01:26:17.739561,20.653,0.0038109757006168365,-0.05716463550925255,-0.480182945728302
1588209951102,2020-04-30T01:26:17.754570,20.692,-0.0724085345864296,0.07621951401233673,-0.6592987775802612
1588209951143,2020-04-30T01:26:17.777028,20.733,0.24771341681480408,-0.35823172330856323,-0.5068597793579102
1588209951183,2020-04-30T01:26:17.807039,20.773,0.07621951401233673,-0.12957316637039185,-0.5221036672592163
1588209951224,2020-04-30T01:26:17.821967,20.814,0.01143292710185051,-0.019054878503084183,-0.5716463327407837
1588209951264,2020-04-30T01:26:17.851983,20.854,0.25533536076545715,-0.23246951401233673,-0.4992378056049347
1588209951305,2020-04-30T01:26:17.874406,20.895,0.26676830649375916,-0.42301830649375916,-0.33917683362960815
1588209951344,2020-04-30T01:26:17.896889,20.934,0.2096036672592163,-0.5106707215309143,-0.31631097197532654
1588209951385,2020-04-30T01:26:17.919396,20.975,0.09146341681480408,-0.17911586165428162,-0.44207316637039185
1588209951426,2020-04-30T01:26:17.934397,21.016,0.1676829308271408,-0.030487805604934692,-0.5525915026664734
1588209951466,2020-04-30T01:26:17.964256,21.056,0.2096036672592163,-0.14100609719753265,-0.5373475551605225
1588209951507,2020-04-30T01:26:17.979257,21.097,0.1143292710185051,-0.22484757006168365,-0.4153963625431061
1588209951546,2020-04-30T01:26:18.009273,21.136,0.24390244483947754,-0.36204269528388977,-0.3353658616542816
1588209951587,2020-04-30T01:26:18.039254,21.177,0.12195122241973877,-0.2591463327407837,-0.4077743887901306
1588209951627,2020-04-30T01:26:18.061754,21.217,0.09527438879013062,-0.19054877758026123,-0.4878048896789551
1588209951668,2020-04-30T01:26:18.091759,21.258,0.17911586165428162,-0.16387195885181427,-0.4611280560493469
1588209951707,2020-04-30T01:26:18.114274,21.297,0.19054877758026123,-0.28582316637039185,-0.47637197375297546
1588209951748,2020-04-30T01:26:18.136754,21.338,-0.2515243887901306,0.03429878130555153,-0.5335366129875183
1588209951788,2020-04-30T01:26:18.166762,21.378,-0.038109757006168365,-0.21722561120986938,-0.4268292784690857
1588209951829,2020-04-30T01:26:18.189256,21.419,0.09908536821603775,-0.16006097197532654,-0.40015244483947754
1588209951869,2020-04-30T01:26:18.211760,21.459,-0.33917683362960815,-0.1981707364320755,-0.36204269528388977
1588209951910,2020-04-30T01:26:18.234367,21.5,-0.6707317233085632,0.13338415324687958,-0.45350611209869385
1588209951949,2020-04-30T01:26:18.249251,21.539,-0.3658536672592163,0.04573170840740204,-0.6669207215309143
1588209951990,2020-04-30T01:26:18.279262,21.58,0.0724085345864296,-0.18292683362960815,-0.7012194991111755
1588209952030,2020-04-30T01:26:18.331935,21.62,-0.08765243738889694,-0.030487805604934692,-0.5830792784690857
1588209952071,2020-04-30T01:26:18.376863,21.661,-0.4878048896789551,0.25533536076545715,-0.4611280560493469
1588209952110,2020-04-30T01:26:18.414267,21.7,-0.38109755516052246,0.2629573345184326,-0.4573170840740204
1588209952151,2020-04-30T01:26:18.429271,21.741,-0.1867378056049347,-0.03429878130555153,-0.5564024448394775
1588209952192,2020-04-30T01:26:18.466780,21.782,-0.16006097197532654,-0.0838414654135704,-0.47256097197532654
1588209952232,2020-04-30T01:26:18.481867,21.822,-0.17911586165428162,0.17149390280246735,-0.6707317233085632
1588209952273,2020-04-30T01:26:18.519273,21.863,0.030487805604934692,0.09527438879013062,-0.8422256112098694
1588209952312,2020-04-30T01:26:18.556768,21.902,-0.09146341681480408,-0.04573170840740204,-0.6211890578269958
1588209952353,2020-04-30T01:26:18.579274,21.943,-0.09527438879013062,-0.32774391770362854,-0.1448170691728592
1588209952393,2020-04-30T01:26:18.639703,21.983,-0.03429878130555153,-0.4382621943950653,-0.17911586165428162
1588209952434,2020-04-30T01:26:18.654537,22.024,-0.2096036672592163,0.0419207327067852,-0.4916158616542816
1588209952474,2020-04-30T01:26:18.699428,22.064,-0.007621951401233673,0.01143292710185051,-0.6554878354072571
1588209952515,2020-04-30T01:26:18.766921,22.105,0.13719512522220612,-0.12957316637039185,-0.6288110017776489
1588209952554,2020-04-30T01:26:18.789756,22.144,0.11814024299383163,-0.17149390280246735,-0.5221036672592163
1588209952595,2020-04-30T01:26:18.819520,22.185,0.0838414654135704,-0.2934451401233673,-0.38109755516052246
1588209952635,2020-04-30T01:26:18.857004,22.225,0.05716463550925255,-0.17530487477779388,-0.4192073345184326
1588209952676,2020-04-30T01:26:18.880431,22.266,0.19435976445674896,-0.3849085569381714,-0.43445122241973877
1588209952715,2020-04-30T01:26:18.902024,22.305,0.14100609719753265,-0.08765243738889694,-0.6821646690368652
1588209952756,2020-04-30T01:26:18.926997,22.346,0.20579268038272858,-0.10289634019136429,-0.5983231663703918
1588209952796,2020-04-30T01:26:18.962041,22.386,0.396341472864151,-0.34679877758026123,-0.3734756112098694
1588209952837,2020-04-30T01:26:18.992039,22.427,-0.1676829308271408,-0.43064025044441223,-0.1143292710185051
1588209952878,2020-04-30T01:26:19.014549,22.468,-0.28582316637039185,-0.36966463923454285,-0.0838414654135704
1588209952917,2020-04-30T01:26:19.037235,22.507,0.1448170691728592,-0.2629573345184326,-0.647865891456604
1588209952958,2020-04-30T01:26:19.052038,22.548,0.5335366129875183,-0.396341472864151,-0.8536585569381714
1588209952998,2020-04-30T01:26:19.089441,22.588,0.4878048896789551,-0.4496951401233673,-0.5297256112098694
1588209953039,2020-04-30T01:26:19.104535,22.629,-0.1448170691728592,-0.2096036672592163,-0.22103658318519592
1588209953079,2020-04-30T01:26:19.134580,22.669,0.019054878503084183,-0.23246951401233673,-0.24771341681480408
1588209953120,2020-04-30T01:26:19.172092,22.71,0.25533536076545715,-0.5297256112098694,-0.33917683362960815
1588209953159,2020-04-30T01:26:19.210834,22.749,0.46875,-0.7164634466171265,-0.323932945728302
1588209953200,2020-04-30T01:26:19.247643,22.79,0.11814024299383163,-0.17911586165428162,-0.4878048896789551
1588209953240,2020-04-30T01:26:19.277221,22.83,0.1143292710185051,-0.1867378056049347,-0.5487805008888245
1588209953281,2020-04-30T01:26:19.307071,22.871,0.38109755516052246,-0.5449694991111755,-0.3429878056049347
1588209953320,2020-04-30T01:26:19.322044,22.91,0.3849085569381714,-0.7088415026664734,-0.1867378056049347
1588209953361,2020-04-30T01:26:19.359438,22.951,0.34679877758026123,-0.6173780560493469,-0.2591463327407837
1588209953401,2020-04-30T01:26:19.389438,22.991,0.39253050088882446,-0.480182945728302,-0.3544207513332367
1588209953442,2020-04-30T01:26:19.434436,23.032,0.1676829308271408,-0.21341463923454285,-0.48399391770362854
1588209953481,2020-04-30T01:26:19.471939,23.071,0.240091472864151,-0.4496951401233673,-0.2629573345184326
1588209953522,2020-04-30T01:26:19.494441,23.112,0.026676829904317856,-0.2934451401233673,-0.3849085569381714
1588209953563,2020-04-30T01:26:19.531957,23.153,0.35060974955558777,-0.240091472864151,-0.5373475551605225
1588209953603,2020-04-30T01:26:19.546930,23.193,0.3125,-0.10670731961727142,-0.5449694991111755
1588209953644,2020-04-30T01:26:19.569442,23.234,0.396341472864151,-0.4153963625431061,-0.5144817233085632
1588209953684,2020-04-30T01:26:19.592070,23.274,-0.0419207327067852,-0.23628048598766327,-0.43445122241973877
1588209953725,2020-04-30T01:26:19.607062,23.315,0.1867378056049347,-0.4992378056049347,-0.2705792784690857
1588209953764,2020-04-30T01:26:19.637096,23.354,0.36966463923454285,-0.47256097197532654,-0.2820121943950653
1588209953805,2020-04-30T01:26:19.651988,23.395,0.11051829159259796,-0.48399391770362854,-0.3353658616542816
1588209953845,2020-04-30T01:26:19.674500,23.435,-0.2934451401233673,-0.16006097197532654,-0.38109755516052246
1588209953886,2020-04-30T01:26:19.711649,23.476,0.0,-0.23246951401233673,-0.5830792784690857
1588209953925,2020-04-30T01:26:19.734543,23.515,0.14100609719753265,-0.46493902802467346,-0.5259146690368652
1588209953966,2020-04-30T01:26:19.764698,23.556,0.23246951401233673,-0.43064025044441223,-0.396341472864151
1588209954006,2020-04-30T01:26:19.794483,23.596,-0.0838414654135704,-0.16006097197532654,-0.3849085569381714
1588209954047,2020-04-30T01:26:19.810024,23.637,0.0038109757006168365,-0.015243902802467346,-0.5030487775802612
1588209954086,2020-04-30T01:26:19.839434,23.676,0.1676829308271408,-0.2934451401233673,-0.47256097197532654
1588209954127,2020-04-30T01:26:19.876909,23.717,0.17911586165428162,-0.3353658616542816,-0.396341472864151
1588209954168,2020-04-30T01:26:19.899441,23.758,0.0038109757006168365,-0.015243902802467346,-0.6211890578269958
1588209954208,2020-04-30T01:26:19.929440,23.798,-0.06859756261110306,0.2096036672592163,-0.8079268336296082
1588209954249,2020-04-30T01:26:19.944448,23.839,0.27439025044441223,-0.2820121943950653,-0.5373475551605225
1588209954288,2020-04-30T01:26:19.974551,23.878,0.2286585420370102,-0.5182926654815674,-0.21722561120986938
1588209954330,2020-04-30T01:26:19.989454,23.92,0.2591463327407837,-0.5182926654815674,-0.1981707364320755
1588209954369,2020-04-30T01:26:20.011918,23.959,0.3544207513332367,-0.35823172330856323,-0.46875
1588209954410,2020-04-30T01:26:20.049457,24.0,0.5259146690368652,-0.27439025044441223,-0.6669207215309143
1588209954450,2020-04-30T01:26:20.064463,24.04,0.1143292710185051,-0.02286585420370102,-0.6707317233085632
1588209954491,2020-04-30T01:26:20.101910,24.081,0.09146341681480408,-0.2286585420370102,-0.47637197375297546
1588209954530,2020-04-30T01:26:20.116916,24.12,0.0419207327067852,-0.32774391770362854,-0.3887195289134979
1588209954571,2020-04-30T01:26:20.154590,24.161,0.08765243738889694,-0.5525915026664734,-0.240091472864151
1588209954611,2020-04-30T01:26:20.169597,24.201,0.14100609719753265,-0.11814024299383163,-0.4382621943950653
1588209954652,2020-04-30T01:26:20.184589,24.242,0.36966463923454285,-0.396341472864151,-0.5602134466171265
1588209954691,2020-04-30T01:26:20.214922,24.281,-0.06478658318519592,-0.35823172330856323,-0.31631097197532654
1588209954732,2020-04-30T01:26:20.229607,24.322,-0.323932945728302,-0.1981707364320755,-0.3429878056049347
1588209954773,2020-04-30T01:26:20.267019,24.363,-0.038109757006168365,-0.4153963625431061,-0.3658536672592163
1588209954813,2020-04-30T01:26:20.282008,24.403,-0.12195122241973877,-0.15625,-0.5182926654815674
1588209954854,2020-04-30T01:26:20.304494,24.444,-0.08003048598766327,0.019054878503084183,-0.6173780560493469
1588209954893,2020-04-30T01:26:20.349558,24.483,-0.3201219439506531,0.25533536076545715,-0.6783536672592163
1588209954934,2020-04-30T01:26:20.364530,24.524,-0.06859756261110306,-0.06478658318519592,-0.5602134466171265
1588209954974,2020-04-30T01:26:20.402099,24.564,-0.20198170840740204,-0.22484757006168365,-0.36204269528388977
1588209955015,2020-04-30T01:26:20.417075,24.605,-0.3048780560493469,-0.04573170840740204,-0.39253050088882446
1588209955055,2020-04-30T01:26:20.439542,24.645,-0.3315548896789551,0.32774391770362854,-0.7888719439506531
1588209955096,2020-04-30T01:26:20.469831,24.686,0.13338415324687958,0.0038109757006168365,-0.7240853905677795
1588209955135,2020-04-30T01:26:20.492037,24.725,-0.0419207327067852,-0.10670731961727142,-0.46493902802467346
1588209955176,2020-04-30T01:26:20.514742,24.766,-0.1867378056049347,-0.36204269528388977,-0.17149390280246735
1588209955217,2020-04-30T01:26:20.529466,24.807,-0.2096036672592163,-0.22484757006168365,-0.323932945728302
1588209955257,2020-04-30T01:26:20.552373,24.847,-0.17911586165428162,0.0724085345864296,-0.6135671138763428
1588209955298,2020-04-30T01:26:20.574418,24.888,-0.27439025044441223,0.3010670840740204,-0.8155487775802612
1588209955337,2020-04-30T01:26:20.611917,24.927,-0.15243902802467346,-0.030487805604934692,-0.5411585569381714
1588209955378,2020-04-30T01:26:20.642050,24.968,-0.12957316637039185,-0.2705792784690857,-0.35060974955558777
1588209955418,2020-04-30T01:26:20.671994,25.008,-0.1676829308271408,-0.240091472864151,-0.3544207513332367
1588209955459,2020-04-30T01:26:20.687207,25.049,0.02286585420370102,-0.30868902802467346,-0.39253050088882446
1588209955498,2020-04-30T01:26:20.709557,25.088,-0.15625,-0.15243902802467346,-0.4382621943950653
1588209955539,2020-04-30T01:26:20.739702,25.129,-0.1981707364320755,-0.019054878503084183,-0.4573170840740204
1588209955579,2020-04-30T01:26:20.762059,25.169,0.049542684108018875,-0.28582316637039185,-0.38109755516052246
1588209955620,2020-04-30T01:26:20.784588,25.21,0.44207316637039185,-0.6897866129875183,-0.36204269528388977
1588209955660,2020-04-30T01:26:20.807087,25.25,0.1257621943950653,-0.24771341681480408,-0.6135671138763428
1588209955701,2020-04-30T01:26:20.837273,25.291,-0.015243902802467346,0.05716463550925255,-0.7583841681480408
1588209955740,2020-04-30T01:26:20.852179,25.33,0.33917683362960815,-0.21341463923454285,-0.4992378056049347
1588209955781,2020-04-30T01:26:20.889654,25.371,0.038109757006168365,-0.47256097197532654,-0.2515243887901306
1588209955821,2020-04-30T01:26:20.904537,25.411,-0.3125,-0.10289634019136429,-0.3010670840740204
1588209955862,2020-04-30T01:26:20.942510,25.452,-0.10670731961727142,-0.09527438879013062,-0.5983231663703918
1588209955903,2020-04-30T01:26:20.979986,25.493,0.4077743887901306,-0.35060974955558777,-0.6173780560493469
1588209955942,2020-04-30T01:26:20.994610,25.532,0.3125,-0.31631097197532654,-0.43445122241973877
1588209955983,2020-04-30T01:26:21.031956,25.573,0.03429878130555153,-0.1867378056049347,-0.3734756112098694
1588209956023,2020-04-30T01:26:21.046978,25.613,-0.015243902802467346,-0.0724085345864296,-0.3849085569381714
1588209956064,2020-04-30T01:26:21.084301,25.654,0.060975611209869385,-0.25533536076545715,-0.3315548896789551
1588209956103,2020-04-30T01:26:21.099295,25.693,0.3849085569381714,-0.47256097197532654,-0.3315548896789551
1588209956144,2020-04-30T01:26:21.121797,25.734,0.24390244483947754,0.06859756261110306,-0.8155487775802612
1588209956184,2020-04-30T01:26:21.166793,25.774,0.15625,0.09908536821603775,-0.8727134466171265
1588209956225,2020-04-30T01:26:21.189282,25.815,0.18292683362960815,-0.3849085569381714,-0.3125
1588209956265,2020-04-30T01:26:21.219500,25.855,0.2705792784690857,-0.7621951103210449,0.10670731961727142
1588209956306,2020-04-30T01:26:21.241905,25.896,0.38109755516052246,-0.7355183362960815,-0.1448170691728592
1588209956345,2020-04-30T01:26:21.256797,25.935,0.20198170840740204,-0.20579268038272858,-0.480182945728302
1588209956386,2020-04-30T01:26:21.286931,25.976,0.1981707364320755,-0.14100609719753265,-0.6097561120986938
1588209956427,2020-04-30T01:26:21.309430,26.017,0.10670731961727142,-0.15243902802467346,-0.5106707215309143
1588209956467,2020-04-30T01:26:21.331933,26.057,0.1448170691728592,-0.23628048598766327,-0.3429878056049347
1588209956508,2020-04-30T01:26:21.354512,26.098,0.026676829904317856,-0.2286585420370102,-0.34679877758026123
1588209956547,2020-04-30T01:26:21.369482,26.137,0.09146341681480408,-0.22103658318519592,-0.4192073345184326
1588209956588,2020-04-30T01:26:21.399494,26.178,-0.16387195885181427,0.049542684108018875,-0.5259146690368652
1588209956628,2020-04-30T01:26:21.422156,26.218,-0.08765243738889694,-0.20579268038272858,-0.48399391770362854
1588209956669,2020-04-30T01:26:21.474477,26.259,0.8574695587158203,-0.8079268336296082,-0.46875
1588209956708,2020-04-30T01:26:21.496940,26.298,1.2652438879013062,-0.7736280560493469,-1.0327744483947754
1588209956749,2020-04-30T01:26:21.511936,26.339,0.7964939475059509,-0.43445122241973877,-1.0670732259750366
1588209956789,2020-04-30T01:26:21.557041,26.379,0.7736280560493469,-0.5411585569381714,-0.9032012224197388
1588209956830,2020-04-30T01:26:21.579563,26.42,1.410061001777649,-1.0289634466171265,-1.410061001777649
1588209956870,2020-04-30T01:26:21.609535,26.46,3.216463565826416,-1.8025915622711182,-2.0198171138763428
1588209956911,2020-04-30T01:26:21.632079,26.501,2.663872003555298,-0.5678353905677795,-2.5876524448394775
1588209956950,2020-04-30T01:26:21.657192,26.54,1.4214938879013062,1.8025915622711182,-3.445122003555298
1588209956991,2020-04-30T01:26:21.691955,26.581,2.115091562271118,2.298018455505371,-3.997713565826416
1588209957032,2020-04-30T01:26:21.721955,26.622,3.0716464519500732,1.9931403398513794,-4.535060882568359
1588209957072,2020-04-30T01:26:21.751931,26.662,5.865091800689697,2.583841562271118,-5.693597793579102
1588209957113,2020-04-30T01:26:21.774538,26.703,9.054878234863281,4.096798896789551,-7.14939022064209
1588209957152,2020-04-30T01:26:21.804450,26.742,7.252286911010742,5.6669206619262695,-12.15320110321045
1588209957193,2020-04-30T01:26:21.826978,26.783,3.685213565826416,10.54878044128418,-6.471036911010742
1588209957233,2020-04-30T01:26:21.856941,26.823,11.573933601379395,15.11432933807373,0.240091472864151
1588209957274,2020-04-30T01:26:21.879659,26.864,22.21036720275879,16.928354263305664,-4.1044206619262695
1588209957313,2020-04-30T01:26:21.894565,26.903,24.45121955871582,21.4748477935791,-7.088414669036865
1588209957354,2020-04-30T01:26:21.917064,26.944,27.41615867614746,32.60289764404297,-9.09679889678955
1588209957394,2020-04-30T01:26:21.947085,26.984,27.37042808532715,54.23018264770508,-3.189786672592163
1588209957435,2020-04-30T01:26:21.984535,27.025,51.067073822021484,78.81478881835938,-13.460366249084473
1588209957475,2020-04-30T01:26:22.006946,27.065,67.12271118164062,75.49923706054688,-20.442073822021484
1588209957516,2020-04-30T01:26:22.029438,27.106,44.8971061706543,43.31936264038086,-16.619665145874023
1588209957555,2020-04-30T01:26:22.052069,27.145,31.33765411376953,25.07621955871582,-20.342988967895508
1588209957596,2020-04-30T01:26:22.074604,27.186,29.16158676147461,31.619665145874023,-16.16615867614746
1588209957637,2020-04-30T01:26:22.104571,27.227,23.3689022064209,36.82926940917969,-17.606708526611328
1588209957677,2020-04-30T01:26:22.134574,27.267,31.391006469726562,34.77134323120117,-23.647104263305664
1588209957718,2020-04-30T01:26:22.164508,27.308,39.16158676147461,34.748477935791016,-30.842226028442383
1588209957757,2020-04-30T01:26:22.186959,27.347,46.619667053222656,31.57393455505371,-30.62881088256836
1588209957798,2020-04-30T01:26:22.224479,27.388,47.39329528808594,25.990854263305664,-24.31402587890625
1588209957838,2020-04-30T01:26:22.246990,27.428,36.25381088256836,21.72637176513672,-19.1310977935791
1588209957879,2020-04-30T01:26:22.269489,27.469,33.08308029174805,6.516768455505371,-16.48628044128418
1588209957918,2020-04-30T01:26:22.291939,27.508,32.317073822021484,5.43064022064209,-12.69054889678955
1588209957959,2020-04-30T01:26:22.306941,27.549,24.108232498168945,15.35060977935791,-18.102134704589844
1588209957999,2020-04-30T01:26:22.359702,27.589,24.409299850463867,16.551067352294922,-23.319360733032227
1588209958040,2020-04-30T01:26:22.374564,27.63,19.36737823486328,28.075458526611328,-18.963415145874023
1588209958080,2020-04-30T01:26:22.412450,27.67,37.309452056884766,27.469512939453125,-25.61737823486328
1588209958121,2020-04-30T01:26:22.426942,27.711,46.1471061706543,19.260671615600586,-26.471036911010742
1588209958160,2020-04-30T01:26:22.441939,27.75,33.36128234863281,24.984756469726562,-17.82012176513672
1588209958201,2020-04-30T01:26:22.479437,27.791,16.303354263305664,24.63033676147461,-12.835366249084473
1588209958242,2020-04-30T01:26:22.494449,27.832,28.563262939453125,1.3338414430618286,-13.936738014221191
1588209958282,2020-04-30T01:26:22.531934,27.872,6.009908676147461,6.5205793380737305,-7.1722564697265625
1588209958323,2020-04-30T01:26:22.546938,27.913,9.984756469726562,4.344512462615967,4.275914669036865
1588209958362,2020-04-30T01:26:22.569446,27.952,3.4679877758026123,-0.8536585569381714,16.95121955871582
1588209958403,2020-04-30T01:26:22.599437,27.993,-4.88185977935791,-1.760670781135559,-2.6448171138763428
1588209958443,2020-04-30T01:26:22.621944,28.033,21.95884132385254,-12.092226028442383,7.42378044128418
1588209958484,2020-04-30T01:26:22.659551,28.074,-15.994665145874023,-9.603658676147461,24.569360733032227
1588209958523,2020-04-30T01:26:22.674569,28.113,4.5083842277526855,-10.3125,20.114330291748047
1588209958564,2020-04-30T01:26:22.712223,28.154,-2.324695110321045,-6.806402683258057,25.15625
1588209958604,2020-04-30T01:26:22.727091,28.194,-6.634908676147461,-8.185976028442383,28.033536911010742
1588209958645,2020-04-30T01:26:22.749449,28.235,-22.96875,-11.52820110321045,35.63643264770508
1588209958684,2020-04-30T01:26:22.771931,28.274,-29.55792808532715,-13.365091323852539,20.02667808532715
1588209958726,2020-04-30T01:26:22.801937,28.316,-11.91310977935791,-6.787347793579102,9.95807933807373
1588209958765,2020-04-30T01:26:22.839449,28.355,-22.439023971557617,-1.8254573345184326,27.17987823486328
1588209958806,2020-04-30T01:26:22.855134,28.396,-20.045732498168945,-12.61432933807373,23.9748477935791
1588209958847,2020-04-30T01:26:22.877050,28.437,4.691310882568359,-5.27439022064209,19.573171615600586
1588209958887,2020-04-30T01:26:22.899814,28.477,24.268293380737305,-1.8864330053329468,29.428354263305664
1588209958928,2020-04-30T01:26:22.930086,28.518,26.749238967895508,-10.331555366516113,22.701982498168945
1588209958967,2020-04-30T01:26:22.961087,28.557,32.49618911743164,-18.810976028442383,12.877286911010742
1588209959008,2020-04-30T01:26:22.981965,28.598,31.66158676147461,-22.20655632019043,20.594512939453125
1588209959048,2020-04-30T01:26:22.996946,28.638,44.405487060546875,-23.643293380737305,20.838415145874023
1588209959089,2020-04-30T01:26:23.026956,28.679,46.35289764404297,-28.159299850463867,18.582317352294922
1588209959128,2020-04-30T01:26:23.056961,28.718,59.62652587890625,-29.413110733032227,27.51905632019043
1588209959169,2020-04-30T01:26:23.109459,28.759,60.46112823486328,-28.22408676147461,25.137195587158203
1588209959209,2020-04-30T01:26:23.131957,28.799,56.211891174316406,-28.20503044128418,26.528202056884766
1588209959250,2020-04-30T01:26:23.154468,28.84,51.318599700927734,-24.893293380737305,28.654726028442383
1588209959289,2020-04-30T01:26:23.184456,28.879,38.940547943115234,-11.848323822021484,35.10289764404297
1588209959330,2020-04-30T01:26:23.199446,28.92,17.530488967895508,3.7423782348632812,30.533536911010742
1588209959371,2020-04-30T01:26:23.229448,28.961,2.5228660106658936,0.2286585420370102,11.95121955871582
1588209959411,2020-04-30T01:26:23.251986,29.001,-2.5,-14.516006469726562,9.092988014221191
1588209959452,2020-04-30T01:26:23.266983,29.042,-5.438262462615967,-21.80259132385254,12.016006469726562
1588209959492,2020-04-30T01:26:23.304458,29.082,-9.969511985778809,-29.279726028442383,12.30564022064209
1588209959533,2020-04-30T01:26:23.326977,29.123,-25.217226028442383,-44.588417053222656,26.03658676147461
1588209959572,2020-04-30T01:26:23.364469,29.162,-29.21875,-51.10518264770508,35.221038818359375
1588209959613,2020-04-30T01:26:23.379468,29.203,-10.887957572937012,-37.98018264770508,38.23170852661133
1588209959653,2020-04-30T01:26:23.394464,29.243,-0.9070122241973877,-21.760671615600586,40.8003044128418
1588209959694,2020-04-30T01:26:23.431844,29.284,-1.0518293380737305,-16.63871955871582,46.19283676147461
1588209959733,2020-04-30T01:26:23.446815,29.323,-4.950457572937012,-19.99237823486328,39.13872146606445
1588209959774,2020-04-30T01:26:23.476875,29.364,-3.7080793380737305,-24.096799850463867,33.79191970825195
1588209959814,2020-04-30T01:26:23.521818,29.404,5.141005992889404,-31.02515411376953,29.012958526611328
1588209959855,2020-04-30T01:26:23.537587,29.445,9.96189022064209,-39.92759323120117,22.73246955871582
1588209959896,2020-04-30T01:26:23.581885,29.486,14.241616249084473,-62.27515411376953,19.249238967895508
1588209959935,2020-04-30T01:26:23.589418,29.525,16.707317352294922,-63.53277587890625,15.918445587158203
1588209959976,2020-04-30T01:26:23.611962,29.566,-4.523628234863281,-21.86737823486328,9.516006469726562
1588209960016,2020-04-30T01:26:23.656992,29.606,-30.00762176513672,4.870427131652832,-21.95121955871582
1588209960057,2020-04-30T01:26:23.671958,29.647,-35.78887176513672,14.447408676147461,-14.615092277526855
1588209960097,2020-04-30T01:26:23.709448,29.687,-85.60975646972656,35.60975646972656,-16.436738967895508
1588209960138,2020-04-30T01:26:23.724461,29.728,-69.3711929321289,48.780487060546875,-31.97408676147461
1588209960177,2020-04-30T01:26:23.761970,29.767,-32.75533676147461,52.49618911743164,-15.655488014221191
1588209960218,2020-04-30T01:26:23.776982,29.808,-48.44131088256836,60.18674087524414,-0.3010670840740204
1588209960258,2020-04-30T01:26:23.791978,29.848,-48.868141174316406,72.56097412109375,-13.83003044128418
1588209960299,2020-04-30T01:26:23.821977,29.889,-11.791158676147461,67.02362823486328,-37.6753044128418
1588209960340,2020-04-30T01:26:23.836986,29.93,27.8810977935791,-5.057164669036865,-35.88795852661133
1588209960379,2020-04-30T01:26:23.874453,29.969,2.473323345184326,-16.72637176513672,-3.601372003555298
1588209960420,2020-04-30T01:26:23.927001,30.01,1.269054889678955,30.0685977935791,-1.1471036672592163
1588209960460,2020-04-30T01:26:23.949874,30.05,12.553354263305664,10.022866249084473,-7.1646342277526855
1588209960501,2020-04-30T01:26:23.972122,30.091,20.39253044128418,-8.692835807800293,-6.871189117431641
1588209960540,2020-04-30T01:26:23.994626,30.13,29.355945587158203,3.7538111209869385,4.6646342277526855
1588209960581,2020-04-30T01:26:24.032222,30.171,30.133384704589844,-3.326981782913208,13.612805366516113
1588209960621,2020-04-30T01:26:24.051245,30.211,13.681403160095215,-28.06783676147461,16.345273971557617
1588209960662,2020-04-30T01:26:24.069558,30.252,17.68292808532715,-20.746952056884766,30.41158676147461
1588209960702,2020-04-30T01:26:24.092170,30.292,13.330793380737305,-13.254573822021484,47.98018264770508
1588209960743,2020-04-30T01:26:24.114744,30.333,16.0251522064209,-12.126524925231934,43.99390411376953
1588209960782,2020-04-30T01:26:24.144500,30.372,15.00381088256836,-9.64557933807373,38.563262939453125
1588209960823,2020-04-30T01:26:24.167440,30.413,17.694360733032227,-3.5060975551605225,28.086891174316406
1588209960863,2020-04-30T01:26:24.196963,30.453,16.24237823486328,-11.154726028442383,19.500762939453125
1588209960904,2020-04-30T01:26:24.226960,30.494,16.341463088989258,-7.153201580047607,8.018292427062988
1588209960945,2020-04-30T01:26:24.264464,30.535,12.884908676147461,3.060213565826416,9.557927131652832
1588209960984,2020-04-30T01:26:24.294694,30.574,10.259146690368652,7.522866249084473,5.278201580047607
1588209961025,2020-04-30T01:26:24.317029,30.615,18.490854263305664,0.2705792784690857,2.0998475551605225
1588209961065,2020-04-30T01:26:24.331953,30.655,41.81783676147461,-6.783536911010742,0.9184451699256897
1588209961106,2020-04-30T01:26:24.361952,30.696,38.07926940917969,-13.997714042663574,16.25
1588209961145,2020-04-30T01:26:24.376971,30.735,32.34756088256836,-20.70121955871582,17.553354263305664
1588209961186,2020-04-30T01:26:24.406960,30.776,25.750762939453125,-17.89634132385254,12.663872718811035
1588209961226,2020-04-30T01:26:24.429451,30.816,15.884146690368652,-5.941310882568359,8.639481544494629
1588209961267,2020-04-30T01:26:24.451954,30.857,8.075457572937012,-2.6791160106658936,2.6028964519500732
1588209961307,2020-04-30T01:26:24.496952,30.897,3.8109757900238037,-8.852896690368652,1.7149391174316406
1588209961348,2020-04-30T01:26:24.519464,30.938,-3.3307926654815674,-9.29496955871582,4.386433124542236
1588209961387,2020-04-30T01:26:24.564451,30.977,-10.97179889678955,-8.62804889678955,7.65625
1588209961428,2020-04-30T01:26:24.579456,31.018,-10.967988014221191,-11.028964042663574,9.272104263305664
1588209961468,2020-04-30T01:26:24.601966,31.058,-8.00685977935791,-11.150915145874023,11.48628044128418
1588209961509,2020-04-30T01:26:24.631973,31.099,-1.2842987775802612,-14.249238014221191,7.065548896789551
1588209961550,2020-04-30T01:26:24.646958,31.14,3.7538111209869385,-20.02286720275879,9.794207572937012
1588209961589,2020-04-30T01:26:24.676966,31.179,7.793445110321045,-20.983232498168945,13.250762939453125
1588209961630,2020-04-30T01:26:24.691968,31.22,3.5899391174316406,-29.035823822021484,10.148628234863281
1588209961670,2020-04-30T01:26:24.722085,31.26,0.8803353905677795,-48.28125,2.7591464519500732
1588209961711,2020-04-30T01:26:24.752159,31.301,-11.09756088256836,-44.756099700927734,-15.66692066192627
1588209961750,2020-04-30T01:26:24.767201,31.34,-7.099847793579102,8.86814022064209,-30.205793380737305
1588209961791,2020-04-30T01:26:24.798077,31.381,-33.52896499633789,47.465702056884766,-68.15548706054688
1588209961831,2020-04-30T01:26:24.820454,31.421,-39.5121955871582,39.69512176513672,-92.42759704589844
1588209961872,2020-04-30T01:26:24.857125,31.462,-56.33003234863281,35.41539764404297,-78.1211929321289
1588209961912,2020-04-30T01:26:24.872139,31.502,-34.92759323120117,21.64634132385254,-22.873476028442383
1588209961953,2020-04-30T01:26:24.894589,31.543,-13.776677131652832,18.555641174316406,13.4375
1588209961992,2020-04-30T01:26:24.917042,31.582,-45.51448440551758,33.666160583496094,22.9001522064209
1588209962033,2020-04-30T01:26:24.931980,31.623,-58.85289764404297,16.985519409179688,20.510671615600586
1588209962074,2020-04-30T01:26:24.969466,31.664,-23.8376522064209,8.212652206420898,9.855183601379395
1588209962114,2020-04-30T01:26:24.984469,31.704,2.2294209003448486,5.453505992889404,3.288872003555298
1588209962155,2020-04-30T01:26:25.021985,31.745,23.189786911010742,0.4153963625431061,2.526676893234253
1588209962194,2020-04-30T01:26:25.059465,31.784,44.283538818359375,1.9054878950119019,-1.5929878950119019
1588209962235,2020-04-30T01:26:25.081972,31.825,54.01295852661133,6.996951580047607,-8.330792427062988
1588209962275,2020-04-30T01:26:25.126979,31.865,63.250762939453125,22.137958526611328,-19.104421615600586
1588209962316,2020-04-30T01:26:25.141966,31.906,89.23018646240234,33.53277587890625,-38.650917053222656
1588209962355,2020-04-30T01:26:25.164471,31.945,118.73094940185547,51.13186264038086,-59.977134704589844
1588209962396,2020-04-30T01:26:25.201971,31.986,124.87423706054688,76.87881469726562,-61.92073440551758
1588209962436,2020-04-30T01:26:25.232419,32.026,105.29725646972656,62.03125,-37.41997146606445
1588209962477,2020-04-30T01:26:25.262167,32.067,115.72409057617188,47.82393264770508,-24.965702056884766
1588209962517,2020-04-30T01:26:25.329464,32.107,124.87423706054688,60.697410583496094,-37.39329528808594
1588209962558,2020-04-30T01:26:25.344463,32.148,121.006103515625,42.5,-24.668445587158203
1588209962597,2020-04-30T01:26:25.374726,32.187,99.18445587158203,33.033538818359375,-4.306402683258057
1588209962638,2020-04-30T01:26:25.397091,32.228,90.36585235595703,38.84146499633789,8.63185977935791
1588209962679,2020-04-30T01:26:25.419776,32.269,87.75534057617188,41.539634704589844,21.939786911010742
1588209962719,2020-04-30T01:26:25.442110,32.309,87.80107116699219,20.46875,27.096036911010742
1588209962760,2020-04-30T01:26:25.457123,32.35,74.33308410644531,-0.5868902802467346,35.09527587890625
1588209962799,2020-04-30T01:26:25.487145,32.389,46.24618911743164,-3.7995426654815674,47.1875
1588209962840,2020-04-30T01:26:25.501984,32.43,49.13872146606445,-8.15929889678955,48.66997146606445
1588209962880,2020-04-30T01:26:25.531978,32.47,42.91539764404297,-9.76753044128418,42.85823440551758
1588209962921,2020-04-30T01:26:25.546967,32.511,33.07545852661133,-13.654726028442383,36.070884704589844
1588209962960,2020-04-30T01:26:25.576988,32.55,45.46875,-28.258384704589844,29.45503044128418
1588209963001,2020-04-30T01:26:25.644852,32.591,34.20350646972656,-33.70426940917969,26.280488967895508
1588209963041,2020-04-30T01:26:25.674774,32.631,19.24161720275879,-39.085365295410156,21.680641174316406
1588209963082,2020-04-30T01:26:25.726995,32.672,19.256860733032227,-39.0434455871582,19.405488967895508
1588209963121,2020-04-30T01:26:25.741954,32.711,22.65625,-26.185213088989258,17.076982498168945
1588209963163,2020-04-30T01:26:25.764461,32.753,21.909299850463867,-13.932927131652832,15.65929889678955
1588209963204,2020-04-30T01:26:25.786862,32.794,13.55945110321045,-4.310213565826416,13.780488014221191
1588209963243,2020-04-30T01:26:25.801865,32.833,11.825457572937012,-0.48399391770362854,12.11128044128418
1588209963284,2020-04-30T01:26:25.831864,32.874,8.075457572937012,2.4466464519500732,11.48628044128418
1588209963324,2020-04-30T01:26:25.854359,32.914,1.8140244483947754,2.839176893234253,11.352896690368652
1588209963365,2020-04-30T01:26:25.891953,32.955,-0.3048780560493469,4.081554889678955,9.65320110321045
1588209963404,2020-04-30T01:26:25.914555,32.994,-2.0274391174316406,8.132621765136719,7.541921138763428
1588209963445,2020-04-30T01:26:25.952087,33.035,-4.5541157722473145,10.08003044128418,7.358994007110596
1588209963485,2020-04-30T01:26:25.981974,33.075,-3.75,8.391768455505371,8.20121955871582
1588209963526,2020-04-30T01:26:26.004490,33.116,-3.2850611209869385,8.376524925231934,8.98628044128418
1588209963565,2020-04-30T01:26:26.019624,33.155,-5.815548896789551,0.9946646690368652,6.551067352294922
1588209963606,2020-04-30T01:26:26.049491,33.196,-1.9969512224197388,-8.467988014221191,3.528963565826416
1588209963647,2020-04-30T01:26:26.064536,33.237,-0.8574695587158203,-11.333841323852539,3.4603660106658936
1588209963687,2020-04-30T01:26:26.094540,33.277,-1.6234756708145142,-17.9001522064209,0.43064025044441223
1588209963728,2020-04-30T01:26:26.109468,33.318,1.9321646690368652,-16.737804412841797,-3.6814024448394775
1588209963767,2020-04-30T01:26:26.139459,33.357,1.0823171138763428,-6.737804889678955,0.9832317233085632
1588209963809,2020-04-30T01:26:26.161944,33.399,-4.64939022064209,2.93064022064209,1.589176893234253
1588209963848,2020-04-30T01:26:26.176959,33.438,-7.256097793579102,8.67378044128418,-0.4878048896789551
1588209963889,2020-04-30T01:26:26.214466,33.479,-7.1722564697265625,10.90320110321045,-2.5800304412841797
1588209963929,2020-04-30T01:26:26.229638,33.519,-4.88185977935791,6.6120429039001465,-3.7385671138763428
1588209963970,2020-04-30T01:26:26.252085,33.56,-6.009908676147461,3.8757622241973877,-1.2385671138763428
1588209964009,2020-04-30T01:26:26.274699,33.599,-5.834603786468506,3.159298896789551,0.948932945728302
1588209964050,2020-04-30T01:26:26.304997,33.64,-5.087652683258057,3.022103786468506,1.722561001777649
1588209964090,2020-04-30T01:26:26.327136,33.68,-4.45121955871582,1.737804889678955,2.629573345184326
1588209964131,2020-04-30T01:26:26.342112,33.721,-4.02439022064209,1.3490854501724243,3.16310977935791
1588209964170,2020-04-30T01:26:26.372100,33.76,-3.7728660106658936,1.9664634466171265,3.022103786468506
1588209964211,2020-04-30T01:26:26.387088,33.801,-4.0853657722473145,3.060213565826416,2.5800304412841797
1588209964252,2020-04-30T01:26:26.417427,33.842,-2.69435977935791,2.637195110321045,1.8064024448394775
1588209964292,2020-04-30T01:26:26.439489,33.882,-2.4390244483947754,1.4634146690368652,1.3719512224197388
1588209964333,2020-04-30T01:26:26.461954,33.923,-2.5990853309631348,-0.09527438879013062,1.295731782913208
1588209964372,2020-04-30T01:26:26.484470,33.962,-2.271341562271118,-0.7469512224197388,1.5472561120986938
1588209964413,2020-04-30T01:26:26.499478,34.003,-2.0007622241973877,-0.9717987775802612,1.291920781135559
1588209964453,2020-04-30T01:26:26.521971,34.043,-1.7682926654815674,-0.41158536076545715,0.5411585569381714
1588209964494,2020-04-30T01:26:26.544478,34.084,-2.1189024448394775,0.21341463923454285,0.2934451401233673
1588209964534,2020-04-30T01:26:26.566983,34.124,-1.471036672592163,-0.10289634019136429,0.0419207327067852
1588209964575,2020-04-30T01:26:26.604509,34.165,-2.1303353309631348,-1.6615854501724243,0.8803353905677795
1588209964614,2020-04-30T01:26:26.626981,34.204,-1.2118902206420898,-1.6349085569381714,2.564786672592163
1588209964655,2020-04-30T01:26:26.641992,34.245,-0.14862805604934692,-2.2827744483947754,2.637195110321045
1588209964696,2020-04-30T01:26:26.671973,34.286,-1.3605183362960815,-3.418445110321045,2.93064022064209
1588209964736,2020-04-30T01:26:26.701981,34.326,-1.4634146690368652,-2.317073106765747,3.464176893234253
1588209964777,2020-04-30T01:26:26.724466,34.367,-1.3757622241973877,0.3734756112098694,3.7157013416290283
1588209964816,2020-04-30T01:26:26.762008,34.406,-5.057164669036865,0.3048780560493469,4.001524448394775
1588209964857,2020-04-30T01:26:26.776987,34.447,-4.523628234863281,0.30868902802467346,3.456554889678955
1588209964897,2020-04-30T01:26:26.806971,34.487,2.534298896789551,1.5129573345184326,-0.28582316637039185
1588209964938,2020-04-30T01:26:26.829491,34.528,1.7949695587158203,3.8185975551605225,-1.2804877758026123
1588209964977,2020-04-30T01:26:26.851984,34.567,-1.3224085569381714,3.022103786468506,0.3429878056049347
1588209965018,2020-04-30T01:26:26.874477,34.608,-0.7621951103210449,0.1981707364320755,0.17149390280246735
1588209965058,2020-04-30T01:26:26.889476,34.648,0.038109757006168365,0.5602134466171265,-0.7545731663703918
1588209965099,2020-04-30T01:26:26.919483,34.689,0.43064025044441223,1.9702744483947754,0.14862805604934692
1588209965140,2020-04-30T01:26:26.934473,34.73,0.6669207215309143,2.0007622241973877,0.1448170691728592
1588209965180,2020-04-30T01:26:26.986991,34.77,-0.45350611209869385,1.0137195587158203,-0.09527438879013062
1588209965221,2020-04-30T01:26:27.001972,34.811,-0.33917683362960815,3.189786672592163,0.2591463327407837
1588209965260,2020-04-30T01:26:27.009473,34.85,-0.8231707215309143,2.903963565826416,0.14862805604934692
