epoch  (ms),time  (-07:00),elapsed  (s),X-Axis  (T),Y-Axis  (T),Z-Axis  (T)
1588210243973,2020-04-30T01:31:45.049561,0.0,-219.125,96.0,91.375
1588210244073,2020-04-30T01:31:45.087303,0.1,-219.4375,95.625,91.75
1588210244174,2020-04-30T01:31:45.117448,0.201,-219.8125,89.5,90.9375
1588210244273,2020-04-30T01:31:45.170849,0.3,-219.8125,96.0,90.1875
1588210244373,2020-04-30T01:31:45.238620,0.4,-219.8125,94.1875,89.3125
1588210244474,2020-04-30T01:31:45.298904,0.501,-220.5625,90.1875,88.5625
1588210244574,2020-04-30T01:31:45.366029,0.601,-219.8125,94.5625,88.5625
1588210244675,2020-04-30T01:31:45.439618,0.702,-220.1875,97.4375,88.9375
1588210244774,2020-04-30T01:31:45.484619,0.801,-220.9375,96.0,90.5625
1588210244874,2020-04-30T01:31:45.544656,0.901,-220.1875,97.0625,91.4375
1588210244975,2020-04-30T01:31:45.589628,1.002,-220.5625,94.875,95.875
1588210245075,2020-04-30T01:31:45.649663,1.102,-221.625,97.4375,104.5
1588210245174,2020-04-30T01:31:45.702127,1.201,-222.75,95.625,114.625
1588210245275,2020-04-30T01:31:45.762529,1.302,-222.0,91.3125,126.5
1588210245375,2020-04-30T01:31:45.814634,1.402,-223.4375,87.6875,135.4375
1588210245475,2020-04-30T01:31:45.874665,1.502,-223.4375,88.375,140.0
1588210245576,2020-04-30T01:31:45.927157,1.603,-223.4375,86.9375,140.0
1588210245675,2020-04-30T01:31:46.009633,1.702,-223.8125,88.375,134.6875
1588210245775,2020-04-30T01:31:46.054593,1.802,-222.75,90.9375,131.0
1588210245876,2020-04-30T01:31:46.114630,1.903,-222.75,89.5,122.4375
1588210245976,2020-04-30T01:31:46.167198,2.003,-222.375,93.8125,113.875
1588210246075,2020-04-30T01:31:46.212851,2.102,-222.75,96.6875,103.625
1588210246176,2020-04-30T01:31:46.272745,2.203,-222.0,89.8125,98.3125
1588210246276,2020-04-30T01:31:46.339669,2.303,-219.8125,95.625,103.25
1588210246377,2020-04-30T01:31:46.407140,2.404,-219.5,94.9375,113.0625
1588210246476,2020-04-30T01:31:46.452174,2.503,-218.0,85.5,126.5
1588210246576,2020-04-30T01:31:46.520521,2.603,-216.9375,90.5625,131.8125
1588210246677,2020-04-30T01:31:46.564699,2.704,-215.875,88.75,132.25
1588210246777,2020-04-30T01:31:46.632340,2.804,-215.125,85.875,134.6875
1588210246876,2020-04-30T01:31:46.677410,2.903,-215.875,85.5,144.0625
1588210246977,2020-04-30T01:31:46.745125,3.004,-220.5625,84.0625,146.125
1588210247077,2020-04-30T01:31:46.789695,3.104,-223.4375,88.0,144.0625
1588210247177,2020-04-30T01:31:46.849662,3.204,-224.9375,87.3125,144.9375
1588210247278,2020-04-30T01:31:46.895559,3.305,-226.375,85.125,146.125
1588210247377,2020-04-30T01:31:46.992853,3.404,-225.25,85.125,147.375
1588210247477,2020-04-30T01:31:47.037159,3.504,-225.625,85.125,149.375
1588210247578,2020-04-30T01:31:47.099045,3.605,-225.625,84.375,150.1875
1588210247678,2020-04-30T01:31:47.158383,3.705,-224.9375,85.5,149.375
1588210247777,2020-04-30T01:31:47.227191,3.804,-223.8125,86.1875,147.75
1588210247878,2020-04-30T01:31:47.271602,3.905,-223.4375,82.25,146.5
1588210247978,2020-04-30T01:31:47.331520,4.005,-220.9375,84.75,149.375
1588210248078,2020-04-30T01:31:47.374720,4.105,-219.875,84.0625,150.625
1588210248179,2020-04-30T01:31:47.442173,4.206,-221.6875,77.5,149.8125
1588210248278,2020-04-30T01:31:47.494666,4.305,-220.9375,82.625,152.25
1588210248378,2020-04-30T01:31:47.586309,4.405,-222.75,82.9375,153.0625
1588210248479,2020-04-30T01:31:47.645369,4.506,-222.75,77.875,153.4375
1588210248579,2020-04-30T01:31:47.731531,4.606,-223.5,82.9375,152.75
1588210248678,2020-04-30T01:31:47.800166,4.705,-223.8125,84.75,153.875
1588210248779,2020-04-30T01:31:47.871422,4.806,-225.25,79.3125,150.25
1588210248879,2020-04-30T01:31:47.922435,4.906,-224.9375,87.3125,146.5625
1588210248980,2020-04-30T01:31:47.991675,5.007,-226.0,87.3125,142.8125
1588210249080,2020-04-30T01:31:48.057757,5.107,-225.25,85.5,142.0
1588210249179,2020-04-30T01:31:48.110935,5.206,-223.4375,87.6875,142.0
1588210249280,2020-04-30T01:31:48.200123,5.307,-223.8125,86.9375,142.5
1588210249380,2020-04-30T01:31:48.247509,5.407,-225.25,87.6875,143.6875
1588210249479,2020-04-30T01:31:48.334739,5.506,-226.0,88.375,142.875
1588210249580,2020-04-30T01:31:48.398527,5.607,-226.375,85.875,142.8125
1588210249680,2020-04-30T01:31:48.462201,5.707,-226.375,88.0,142.4375
1588210249780,2020-04-30T01:31:48.514714,5.807,-226.0,88.0,141.625
1588210249881,2020-04-30T01:31:48.574743,5.908,-227.0625,87.3125,141.625
1588210249980,2020-04-30T01:31:48.620066,6.007,-227.0625,88.75,140.0
1588210250080,2020-04-30T01:31:48.680008,6.107,-228.875,90.1875,135.5
1588210250181,2020-04-30T01:31:48.726677,6.208,-226.75,90.5625,133.875
1588210250281,2020-04-30T01:31:48.792183,6.308,-226.75,90.9375,134.75
1588210250380,2020-04-30T01:31:48.837192,6.407,-227.8125,90.9375,135.5
1588210250481,2020-04-30T01:31:48.898443,6.508,-226.75,88.375,135.5
1588210250581,2020-04-30T01:31:48.950783,6.608,-227.0625,90.5625,136.75
1588210250681,2020-04-30T01:31:49.024722,6.708,-229.25,91.625,136.75
1588210250782,2020-04-30T01:31:49.071435,6.809,-228.5625,83.3125,137.5625
1588210250881,2020-04-30T01:31:49.153280,6.908,-227.8125,88.375,138.0
1588210250981,2020-04-30T01:31:49.183340,7.008,-227.8125,89.8125,137.5625
1588210251082,2020-04-30T01:31:49.243867,7.109,-228.5,83.6875,137.9375
1588210251182,2020-04-30T01:31:49.295876,7.209,-228.5625,88.375,138.0
1588210251281,2020-04-30T01:31:49.363046,7.308,-228.875,89.125,137.5625
1588210251382,2020-04-30T01:31:49.414874,7.409,-229.625,84.75,136.75
1588210251482,2020-04-30T01:31:49.474703,7.509,-229.25,88.75,136.75
1588210251581,2020-04-30T01:31:49.527239,7.608,-229.25,88.375,137.125
1588210251683,2020-04-30T01:31:49.580036,7.71,-228.875,89.8125,136.75
1588210251782,2020-04-30T01:31:49.641576,7.809,-229.25,90.5625,137.125
1588210251882,2020-04-30T01:31:49.685142,7.909,-229.625,89.125,137.125
1588210251983,2020-04-30T01:31:49.745615,8.01,-228.5625,90.9375,138.375
1588210252082,2020-04-30T01:31:49.820241,8.109,-229.625,89.5,137.5625
1588210252182,2020-04-30T01:31:49.881695,8.209,-229.25,89.8125,138.375
1588210252283,2020-04-30T01:31:49.932016,8.31,-229.25,88.75,139.1875
1588210252383,2020-04-30T01:31:50.005001,8.41,-229.25,89.8125,137.9375
1588210252482,2020-04-30T01:31:50.046078,8.509,-228.875,87.6875,139.1875
1588210252583,2020-04-30T01:31:50.106920,8.61,-228.1875,89.5,139.5625
1588210252683,2020-04-30T01:31:50.165536,8.71,-228.875,88.375,139.1875
1588210252784,2020-04-30T01:31:50.256554,8.811,-228.1875,86.25,140.0
1588210252884,2020-04-30T01:31:50.315451,8.911,-228.5625,86.5625,140.0625
1588210252983,2020-04-30T01:31:50.405092,9.01,-229.25,87.6875,139.1875
1588210253083,2020-04-30T01:31:50.450118,9.11,-228.875,80.4375,139.1875
1588210253184,2020-04-30T01:31:50.519921,9.211,-228.9375,85.875,140.875
1588210253284,2020-04-30T01:31:50.562238,9.311,-228.1875,89.8125,139.5625
1588210253383,2020-04-30T01:31:50.622221,9.41,-229.25,81.875,139.5625
1588210253484,2020-04-30T01:31:50.675585,9.511,-229.25,89.8125,139.625
1588210253584,2020-04-30T01:31:50.751794,9.611,-229.25,89.5,139.25
1588210253684,2020-04-30T01:31:50.795484,9.711,-228.5625,83.6875,140.0
1588210253785,2020-04-30T01:31:50.854749,9.812,-228.875,87.6875,139.1875
1588210253884,2020-04-30T01:31:50.899694,9.911,-229.25,82.9375,140.0
1588210253985,2020-04-30T01:31:50.967720,10.012,-229.625,88.75,139.1875
1588210254085,2020-04-30T01:31:51.019720,10.112,-229.625,90.9375,139.1875
1588210254184,2020-04-30T01:31:51.087192,10.211,-229.25,87.3125,139.25
1588210254286,2020-04-30T01:31:51.132196,10.313,-228.875,87.6875,140.0
1588210254385,2020-04-30T01:31:51.184710,10.412,-228.875,88.375,140.0
1588210254485,2020-04-30T01:31:51.245270,10.512,-228.5625,87.3125,139.5625
1588210254586,2020-04-30T01:31:51.297123,10.613,-229.625,87.6875,140.8125
1588210254685,2020-04-30T01:31:51.373571,10.712,-228.875,87.6875,140.0
1588210254785,2020-04-30T01:31:51.432488,10.812,-229.25,89.5,139.5625
1588210254886,2020-04-30T01:31:51.537231,10.913,-229.25,88.0,139.625
1588210254986,2020-04-30T01:31:51.588828,11.013,-228.875,87.3125,139.625
1588210255085,2020-04-30T01:31:51.649721,11.112,-230.0,86.25,140.0
1588210255186,2020-04-30T01:31:51.687469,11.213,-229.25,87.6875,139.1875
1588210255286,2020-04-30T01:31:51.754820,11.313,-229.625,85.125,140.0
1588210255386,2020-04-30T01:31:51.800208,11.413,-228.875,81.5,139.5625
1588210255487,2020-04-30T01:31:51.863630,11.514,-229.25,86.5625,140.0625
1588210255586,2020-04-30T01:31:51.905772,11.613,-228.9375,86.9375,138.8125
1588210255686,2020-04-30T01:31:51.973430,11.713,-229.25,80.8125,140.0
1588210255787,2020-04-30T01:31:52.047297,11.814,-229.625,88.75,139.625
1588210255887,2020-04-30T01:31:52.144620,11.914,-228.5625,88.75,139.5625
1588210255986,2020-04-30T01:31:52.197133,12.013,-228.875,85.875,139.5625
1588210256087,2020-04-30T01:31:52.272150,12.114,-228.875,88.375,139.625
1588210256187,2020-04-30T01:31:52.316991,12.214,-229.625,86.9375,139.5625
1588210256287,2020-04-30T01:31:52.377009,12.314,-229.25,88.375,140.4375
1588210256388,2020-04-30T01:31:52.422013,12.415,-229.25,86.9375,139.25
1588210256487,2020-04-30T01:31:52.489517,12.514,-229.25,88.375,139.25
1588210256587,2020-04-30T01:31:52.572211,12.614,-228.5625,83.6875,139.625
1588210256688,2020-04-30T01:31:52.631989,12.715,-228.5625,87.6875,140.0625
1588210256788,2020-04-30T01:31:52.677008,12.815,-228.5625,88.0625,140.875
1588210256887,2020-04-30T01:31:52.737350,12.914,-230.375,88.375,140.0625
1588210256988,2020-04-30T01:31:52.782325,13.015,-229.625,88.0,140.0
1588210257088,2020-04-30T01:31:52.827019,13.115,-229.25,87.6875,140.0
1588210257187,2020-04-30T01:31:52.894830,13.214,-230.0,89.125,139.625
1588210257288,2020-04-30T01:31:52.939767,13.315,-229.625,89.125,138.8125
1588210257388,2020-04-30T01:31:52.999970,13.415,-229.25,86.25,138.8125
1588210257489,2020-04-30T01:31:53.047166,13.516,-229.25,88.0625,139.625
1588210257589,2020-04-30T01:31:53.105252,13.616,-228.5625,88.375,140.0
1588210257688,2020-04-30T01:31:53.172363,13.715,-229.625,84.75,141.25
1588210257788,2020-04-30T01:31:53.232201,13.815,-227.0625,88.0,142.4375
1588210257889,2020-04-30T01:31:53.300360,13.916,-227.4375,88.0,142.0
1588210257989,2020-04-30T01:31:53.360454,14.016,-226.375,78.25,141.25
1588210258088,2020-04-30T01:31:53.405280,14.115,-227.4375,87.6875,142.5
1588210258189,2020-04-30T01:31:53.466724,14.216,-228.1875,88.0,142.0625
1588210258289,2020-04-30T01:31:53.510032,14.316,-227.8125,81.125,142.875
1588210258389,2020-04-30T01:31:53.569938,14.416,-227.125,87.3125,142.0625
1588210258490,2020-04-30T01:31:53.614787,14.517,-226.75,87.6875,142.0625
1588210258589,2020-04-30T01:31:53.682934,14.616,-227.125,85.5,142.0625
1588210258689,2020-04-30T01:31:53.727344,14.716,-227.0625,88.0,142.875
1588210258790,2020-04-30T01:31:53.788815,14.817,-226.75,86.5625,142.0625
1588210258890,2020-04-30T01:31:53.843231,14.917,-226.75,88.0,142.4375
1588210258989,2020-04-30T01:31:53.892896,15.016,-227.8125,88.75,142.4375
1588210259090,2020-04-30T01:31:53.945489,15.117,-226.75,86.9375,142.5
1588210259190,2020-04-30T01:31:54.015681,15.217,-226.0,88.0,141.625
1588210259289,2020-04-30T01:31:54.067560,15.316,-226.75,89.125,140.875
1588210259391,2020-04-30T01:31:54.135421,15.418,-227.4375,87.3125,140.8125
1588210259490,2020-04-30T01:31:54.177623,15.517,-227.125,89.8125,140.875
1588210259590,2020-04-30T01:31:54.252208,15.617,-227.4375,88.0625,140.4375
1588210259691,2020-04-30T01:31:54.304736,15.718,-227.4375,88.375,140.4375
1588210259790,2020-04-30T01:31:54.364697,15.817,-227.4375,89.5,140.0
1588210259890,2020-04-30T01:31:54.409661,15.917,-226.75,89.5,138.375
1588210259991,2020-04-30T01:31:54.454669,16.018,-227.4375,86.9375,139.1875
1588210260091,2020-04-30T01:31:54.522178,16.118,-227.4375,89.125,140.0
1588210260190,2020-04-30T01:31:54.597231,16.217,-227.125,89.5,139.625
1588210260291,2020-04-30T01:31:54.657162,16.318,-227.4375,82.625,138.8125
1588210260391,2020-04-30T01:31:54.702907,16.418,-227.125,86.9375,138.8125
1588210260491,2020-04-30T01:31:54.762884,16.518,-227.4375,88.75,139.25
1588210260592,2020-04-30T01:31:54.807280,16.619,-227.0625,82.9375,139.625
1588210260691,2020-04-30T01:31:54.867724,16.718,-227.4375,85.875,139.6875
1588210260791,2020-04-30T01:31:54.912888,16.818,-227.125,88.375,138.4375
1588210260892,2020-04-30T01:31:54.974310,16.919,-226.75,82.9375,139.25
1588210260992,2020-04-30T01:31:55.018269,17.019,-227.4375,88.375,139.25
1588210261091,2020-04-30T01:31:55.079016,17.118,-226.75,88.0,138.8125
1588210261192,2020-04-30T01:31:55.122153,17.219,-227.125,89.5,139.25
1588210261292,2020-04-30T01:31:55.182008,17.319,-227.0625,87.3125,139.1875
1588210261392,2020-04-30T01:31:55.243423,17.419,-226.75,88.375,138.375
1588210261493,2020-04-30T01:31:55.303377,17.52,-227.125,89.125,139.625
1588210261592,2020-04-30T01:31:55.347292,17.619,-228.5625,89.5,139.625
1588210261692,2020-04-30T01:31:55.407247,17.719,-226.375,87.3125,138.8125
1588210261793,2020-04-30T01:31:55.452232,17.82,-227.125,88.75,139.625
1588210261892,2020-04-30T01:31:55.512207,17.919,-227.8125,89.125,138.8125
1588210261992,2020-04-30T01:31:55.557525,18.019,-227.8125,86.9375,139.6875
1588210262093,2020-04-30T01:31:55.617918,18.12,-227.125,90.1875,139.625
1588210262193,2020-04-30T01:31:55.671814,18.22,-226.75,88.0625,139.25
1588210262292,2020-04-30T01:31:55.737815,18.319,-227.4375,89.5,139.625
1588210262393,2020-04-30T01:31:55.787650,18.42,-227.4375,87.6875,139.25
1588210262493,2020-04-30T01:31:55.851593,18.52,-226.75,89.5,139.25
1588210262594,2020-04-30T01:31:55.894998,18.621,-227.0625,83.3125,140.0
1588210262694,2020-04-30T01:31:55.947189,18.721,-226.375,88.375,140.875
1588210262793,2020-04-30T01:31:56.024496,18.82,-227.4375,89.125,139.625
1588210262894,2020-04-30T01:31:56.069438,18.921,-227.4375,81.5,139.625
1588210262994,2020-04-30T01:31:56.129363,19.021,-228.1875,89.5,139.625
1588210263094,2020-04-30T01:31:56.180016,19.121,-227.4375,88.75,140.4375
1588210263195,2020-04-30T01:31:56.243651,19.222,-228.1875,85.5,138.8125
1588210263294,2020-04-30T01:31:56.284683,19.321,-227.8125,89.5,137.625
1588210263394,2020-04-30T01:31:56.352178,19.421,-227.8125,88.75,138.4375
1588210263495,2020-04-30T01:31:56.397192,19.522,-228.1875,86.5625,139.25
1588210263595,2020-04-30T01:31:56.457202,19.622,-227.125,88.75,138.8125
1588210263694,2020-04-30T01:31:56.502190,19.721,-228.5625,89.8125,140.4375
1588210263795,2020-04-30T01:31:56.563450,19.822,-228.1875,88.0625,138.875
1588210263895,2020-04-30T01:31:56.638088,19.922,-228.5625,89.8125,138.0
1588210263995,2020-04-30T01:31:56.697189,20.022,-227.4375,89.125,138.8125
1588210264096,2020-04-30T01:31:56.742223,20.123,-227.8125,88.0,138.375
1588210264195,2020-04-30T01:31:56.802875,20.222,-227.4375,89.125,138.8125
1588210264295,2020-04-30T01:31:56.848287,20.322,-227.4375,89.5,138.75
1588210264396,2020-04-30T01:31:56.909119,20.423,-226.75,90.1875,139.25
1588210264496,2020-04-30T01:31:56.968811,20.523,-227.8125,89.125,138.375
1588210264595,2020-04-30T01:31:57.019733,20.622,-227.0625,86.25,138.375
1588210264696,2020-04-30T01:31:57.072250,20.723,-227.4375,87.3125,138.375
1588210264796,2020-04-30T01:31:57.134529,20.823,-227.125,89.5,138.4375
1588210264895,2020-04-30T01:31:57.188171,20.922,-227.0625,80.4375,138.8125
1588210264996,2020-04-30T01:31:57.257275,21.023,-227.4375,88.375,139.25
1588210265096,2020-04-30T01:31:57.298943,21.123,-227.4375,88.375,139.625
1588210265196,2020-04-30T01:31:57.375158,21.223,-226.75,82.625,140.0625
1588210265297,2020-04-30T01:31:57.417625,21.324,-227.125,88.0625,138.8125
1588210265396,2020-04-30T01:31:57.476431,21.423,-227.125,89.875,139.25
1588210265496,2020-04-30T01:31:57.529702,21.523,-226.75,84.0625,139.625
1588210265597,2020-04-30T01:31:57.582177,21.624,-226.75,89.125,139.25
1588210265697,2020-04-30T01:31:57.642188,21.724,-227.4375,89.8125,139.25
1588210265796,2020-04-30T01:31:57.695411,21.823,-226.75,87.3125,139.625
1588210265897,2020-04-30T01:31:57.753095,21.924,-227.0625,90.1875,139.1875
1588210265997,2020-04-30T01:31:57.792034,22.024,-227.0625,86.5625,139.5625
1588210266097,2020-04-30T01:31:57.852038,22.124,-227.4375,88.75,139.625
1588210266198,2020-04-30T01:31:57.897214,22.225,-226.75,90.1875,139.625
1588210266297,2020-04-30T01:31:57.967695,22.324,-227.0625,86.5625,138.375
1588210266397,2020-04-30T01:31:58.009544,22.424,-227.4375,89.5,139.25
1588210266498,2020-04-30T01:31:58.069574,22.525,-226.375,88.375,140.0
1588210266598,2020-04-30T01:31:58.114623,22.625,-227.8125,88.375,139.625
1588210266697,2020-04-30T01:31:58.182440,22.724,-227.4375,88.75,140.0625
1588210266798,2020-04-30T01:31:58.228036,22.825,-227.0625,89.8125,139.625
1588210266898,2020-04-30T01:31:58.287178,22.925,-228.1875,86.1875,139.5625
1588210266997,2020-04-30T01:31:58.332146,23.024,-227.8125,88.75,140.0625
1588210267099,2020-04-30T01:31:58.392044,23.126,-227.125,90.5625,139.25
1588210267198,2020-04-30T01:31:58.437173,23.225,-226.75,82.9375,140.0
1588210267298,2020-04-30T01:31:58.497050,23.325,-227.125,86.25,139.625
1588210267399,2020-04-30T01:31:58.542048,23.426,-227.4375,88.375,140.0625
1588210267498,2020-04-30T01:31:58.624746,23.525,-227.0625,80.4375,140.4375
1588210267598,2020-04-30T01:31:58.684796,23.625,-227.8125,88.375,140.0625
1588210267699,2020-04-30T01:31:58.744794,23.726,-226.75,88.375,139.1875
1588210267799,2020-04-30T01:31:58.797283,23.826,-227.8125,82.9375,139.1875
1588210267898,2020-04-30T01:31:58.857321,23.925,-227.4375,88.75,140.0625
1588210267999,2020-04-30T01:31:58.902516,24.026,-227.0625,87.6875,139.1875
1588210268099,2020-04-30T01:31:58.947313,24.126,-226.375,86.25,139.625
1588210268199,2020-04-30T01:31:59.007424,24.226,-226.75,89.125,139.625
1588210268300,2020-04-30T01:31:59.060304,24.327,-227.4375,89.125,140.0
1588210268399,2020-04-30T01:31:59.128528,24.426,-226.0,88.75,139.25
1588210268499,2020-04-30T01:31:59.181752,24.526,-227.4375,89.5,139.625
1588210268600,2020-04-30T01:31:59.243934,24.627,-227.0625,89.5,139.625
1588210268700,2020-04-30T01:31:59.285122,24.727,-227.8125,87.6875,140.0
1588210268799,2020-04-30T01:31:59.347104,24.826,-227.0625,89.8125,140.0
1588210268900,2020-04-30T01:31:59.390352,24.927,-227.8125,88.75,140.0
1588210269000,2020-04-30T01:31:59.449764,25.027,-226.75,87.6875,140.4375
1588210269100,2020-04-30T01:31:59.494764,25.127,-226.75,89.8125,139.625
1588210269201,2020-04-30T01:31:59.562727,25.228,-227.8125,88.0625,139.625
1588210269300,2020-04-30T01:31:59.622681,25.327,-227.4375,86.9375,139.625
1588210269400,2020-04-30T01:31:59.682360,25.427,-227.125,88.375,139.625
1588210269501,2020-04-30T01:31:59.727215,25.528,-227.8125,84.75,140.4375
1588210269601,2020-04-30T01:31:59.787604,25.628,-227.125,87.3125,140.0625
1588210269700,2020-04-30T01:31:59.832450,25.727,-228.1875,89.875,139.25
1588210269801,2020-04-30T01:31:59.899824,25.828,-227.8125,82.25,139.625
1588210269901,2020-04-30T01:31:59.944724,25.928,-227.8125,88.0625,139.6875
1588210270000,2020-04-30T01:32:00.005985,26.027,-227.8125,89.8125,139.25
1588210270101,2020-04-30T01:32:00.050962,26.128,-228.5625,82.25,140.0625
1588210270201,2020-04-30T01:32:00.110619,26.228,-226.375,88.0625,139.25
1588210270301,2020-04-30T01:32:00.155423,26.328,-227.125,88.75,139.25
1588210270402,2020-04-30T01:32:00.222719,26.429,-226.75,84.4375,139.625
1588210270501,2020-04-30T01:32:00.267306,26.528,-227.8125,86.9375,139.6875
1588210270601,2020-04-30T01:32:00.327211,26.628,-227.8125,87.6875,138.8125
1588210270702,2020-04-30T01:32:00.372211,26.729,-226.75,88.375,138.8125
1588210270802,2020-04-30T01:32:00.432191,26.829,-227.4375,85.5,139.625
1588210270901,2020-04-30T01:32:00.484707,26.928,-226.375,88.75,139.625
1588210271002,2020-04-30T01:32:00.537206,27.029,-227.8125,88.75,140.875
1588210271102,2020-04-30T01:32:00.619702,27.129,-228.1875,89.8125,140.4375
1588210271202,2020-04-30T01:32:00.664715,27.229,-227.8125,85.5,140.0625
1588210271303,2020-04-30T01:32:00.724894,27.33,-227.125,87.3125,140.875
1588210271402,2020-04-30T01:32:00.771205,27.429,-227.125,88.375,140.4375
1588210271502,2020-04-30T01:32:00.829553,27.529,-227.8125,87.3125,140.4375
1588210271603,2020-04-30T01:32:00.874710,27.63,-227.0625,88.0,140.8125
1588210271703,2020-04-30T01:32:00.934684,27.73,-227.8125,85.875,140.0625
1588210271802,2020-04-30T01:32:00.979680,27.829,-227.4375,86.9375,140.4375
1588210271903,2020-04-30T01:32:01.054708,27.93,-227.4375,88.75,140.4375
1588210272003,2020-04-30T01:32:01.107637,28.03,-227.4375,87.6875,140.875
1588210272102,2020-04-30T01:32:01.176418,28.129,-227.4375,83.3125,141.25
1588210272204,2020-04-30T01:32:01.220436,28.231,-227.4375,88.75,140.875
1588210272303,2020-04-30T01:32:01.279724,28.33,-228.1875,89.125,141.25
1588210272403,2020-04-30T01:32:01.324729,28.43,-227.8125,81.875,140.875
1588210272504,2020-04-30T01:32:01.392249,28.531,-227.8125,88.375,141.25
1588210272603,2020-04-30T01:32:01.437254,28.63,-228.1875,88.0625,140.875
1588210272703,2020-04-30T01:32:01.504744,28.73,-226.75,81.125,141.25
1588210272804,2020-04-30T01:32:01.557544,28.831,-227.8125,88.0625,140.875
1588210272904,2020-04-30T01:32:01.624895,28.931,-226.75,88.375,140.4375
1588210273003,2020-04-30T01:32:01.677405,29.03,-227.4375,83.3125,141.625
1588210273104,2020-04-30T01:32:01.739900,29.131,-227.8125,86.9375,139.25
1588210273204,2020-04-30T01:32:01.789736,29.231,-228.5625,88.375,140.4375
1588210273304,2020-04-30T01:32:01.857244,29.331,-227.125,88.0625,139.625
1588210273405,2020-04-30T01:32:01.902213,29.432,-228.1875,89.125,140.0625
1588210273504,2020-04-30T01:32:01.963357,29.531,-227.8125,87.3125,139.625
1588210273604,2020-04-30T01:32:02.007450,29.631,-227.125,88.0625,141.25
1588210273704,2020-04-30T01:32:02.052365,29.731,-228.5625,86.9375,139.625
1588210273805,2020-04-30T01:32:02.112736,29.832,-227.8125,88.75,139.625
1588210273904,2020-04-30T01:32:02.158108,29.931,-227.8125,89.5,140.875
1588210274005,2020-04-30T01:32:02.225870,30.032,-228.5625,89.125,140.0625
1588210274105,2020-04-30T01:32:02.277993,30.132,-227.4375,88.75,140.4375
1588210274205,2020-04-30T01:32:02.338034,30.232,-227.8125,88.0625,140.4375
1588210274306,2020-04-30T01:32:02.382503,30.333,-228.1875,88.0625,140.4375
1588210274405,2020-04-30T01:32:02.442237,30.432,-226.75,88.0625,140.0625
1588210274505,2020-04-30T01:32:02.494830,30.532,-226.375,88.375,140.4375
1588210274606,2020-04-30T01:32:02.569965,30.633,-226.75,88.0625,140.0625
1588210274705,2020-04-30T01:32:02.622216,30.732,-226.75,83.6875,140.4375
1588210274805,2020-04-30T01:32:02.697233,30.832,-227.4375,88.0625,140.0625
1588210274906,2020-04-30T01:32:02.742213,30.933,-227.4375,90.1875,140.0625
1588210275006,2020-04-30T01:32:02.802500,31.033,-227.125,80.4375,139.625
1588210275105,2020-04-30T01:32:02.848553,31.132,-227.8125,86.9375,140.0625
1588210275206,2020-04-30T01:32:02.914912,31.233,-227.8125,89.125,140.875
1588210275306,2020-04-30T01:32:02.959917,31.333,-226.75,84.4375,140.4375
1588210275406,2020-04-30T01:32:03.027370,31.433,-228.5625,88.375,139.25
1588210275507,2020-04-30T01:32:03.074410,31.534,-227.125,87.3125,139.625
1588210275606,2020-04-30T01:32:03.141266,31.633,-227.4375,87.6875,140.0625
1588210275706,2020-04-30T01:32:03.184863,31.733,-227.8125,87.6875,140.0625
1588210275807,2020-04-30T01:32:03.245302,31.834,-227.8125,87.6875,139.625
1588210275907,2020-04-30T01:32:03.289717,31.934,-227.125,85.5,140.4375
1588210276006,2020-04-30T01:32:03.349769,32.033,-226.75,88.0625,139.6875
1588210276107,2020-04-30T01:32:03.394937,32.134,-227.8125,88.375,139.25
1588210276207,2020-04-30T01:32:03.455424,32.234,-228.1875,89.125,140.125
1588210276308,2020-04-30T01:32:03.500106,32.335,-227.8125,89.125,140.5
1588210276408,2020-04-30T01:32:03.545023,32.435,-227.4375,86.9375,139.625
1588210276507,2020-04-30T01:32:03.604665,32.534,-227.4375,88.375,139.6875
1588210276608,2020-04-30T01:32:03.649573,32.635,-227.4375,88.0625,140.4375
1588210276708,2020-04-30T01:32:03.709605,32.735,-227.8125,88.0625,140.0625
1588210276808,2020-04-30T01:32:03.762092,32.835,-227.125,89.125,140.4375
1588210276909,2020-04-30T01:32:03.830159,32.936,-228.1875,88.375,139.25
1588210277008,2020-04-30T01:32:03.874898,33.035,-228.1875,82.25,141.25
1588210277108,2020-04-30T01:32:03.937701,33.135,-228.1875,88.0625,140.5
1588210277209,2020-04-30T01:32:03.980399,33.236,-227.8125,87.3125,140.4375
1588210277309,2020-04-30T01:32:04.047234,33.336,-228.1875,79.6875,140.4375
1588210277408,2020-04-30T01:32:04.092519,33.435,-227.125,88.0625,140.0625
1588210277509,2020-04-30T01:32:04.153065,33.536,-227.8125,88.75,140.5
1588210277609,2020-04-30T01:32:04.197248,33.636,-227.125,86.25,140.5
1588210277708,2020-04-30T01:32:04.257229,33.735,-227.4375,86.25,139.6875
1588210277809,2020-04-30T01:32:04.317397,33.836,-227.4375,89.125,140.4375
1588210277909,2020-04-30T01:32:04.377350,33.936,-227.5,89.5,140.5
1588210278009,2020-04-30T01:32:04.422244,34.036,-228.1875,89.5,139.625
1588210278110,2020-04-30T01:32:04.482241,34.137,-227.125,86.25,139.25
1588210278209,2020-04-30T01:32:04.534745,34.236,-227.4375,88.375,139.625
1588210278309,2020-04-30T01:32:04.594742,34.336,-227.8125,85.125,139.25
1588210278410,2020-04-30T01:32:04.654749,34.437,-227.4375,88.0625,140.875
1588210278510,2020-04-30T01:32:04.714740,34.537,-227.4375,88.375,140.4375
1588210278609,2020-04-30T01:32:04.759743,34.636,-228.5625,88.0,140.0
1588210278710,2020-04-30T01:32:04.827288,34.737,-227.125,86.25,139.25
1588210278810,2020-04-30T01:32:04.873336,34.837,-227.8125,88.0625,140.875
1588210278911,2020-04-30T01:32:04.947596,34.938,-227.0625,88.375,139.1875
1588210279011,2020-04-30T01:32:04.993289,35.038,-228.1875,79.3125,139.625
1588210279110,2020-04-30T01:32:05.053104,35.137,-227.4375,87.6875,140.0625
1588210279211,2020-04-30T01:32:05.097428,35.238,-227.8125,88.375,140.0625
1588210279311,2020-04-30T01:32:05.142681,35.338,-227.4375,81.5,140.0625
1588210279411,2020-04-30T01:32:05.203364,35.438,-227.8125,88.0625,140.5
1588210279512,2020-04-30T01:32:05.247275,35.539,-226.75,88.75,139.625
1588210279611,2020-04-30T01:32:05.315509,35.638,-227.8125,85.5,139.625
1588210279711,2020-04-30T01:32:05.367561,35.738,-227.4375,84.0625,140.4375
1588210279812,2020-04-30T01:32:05.434106,35.839,-228.1875,87.3125,140.4375
1588210279912,2020-04-30T01:32:05.472259,35.939,-227.8125,87.6875,140.875
1588210280011,2020-04-30T01:32:05.532245,36.038,-227.4375,84.4375,140.4375
1588210280112,2020-04-30T01:32:05.584909,36.139,-227.8125,86.9375,139.625
1588210280212,2020-04-30T01:32:05.644822,36.239,-227.4375,90.5625,140.875
1588210280311,2020-04-30T01:32:05.697244,36.338,-227.4375,88.375,140.0
1588210280413,2020-04-30T01:32:05.757250,36.44,-227.4375,82.625,140.4375
1588210280512,2020-04-30T01:32:05.802555,36.539,-227.4375,89.8125,140.4375
1588210280612,2020-04-30T01:32:05.863481,36.639,-227.125,89.8125,141.25
1588210280713,2020-04-30T01:32:05.907237,36.74,-227.125,89.125,140.0625
1588210280812,2020-04-30T01:32:05.967313,36.839,-227.0625,89.5,140.8125
1588210280912,2020-04-30T01:32:06.012547,36.939,-228.1875,88.0625,140.0625
1588210281013,2020-04-30T01:32:06.072548,37.04,-227.4375,87.6875,140.875
1588210281113,2020-04-30T01:32:06.117298,37.14,-226.375,85.5,140.4375
1588210281212,2020-04-30T01:32:06.184805,37.239,-227.4375,88.75,140.0
1588210281313,2020-04-30T01:32:06.229607,37.34,-227.4375,83.3125,140.8125
1588210281413,2020-04-30T01:32:06.289641,37.44,-228.1875,88.75,140.875
1588210281513,2020-04-30T01:32:06.336424,37.54,-227.125,88.75,140.4375
1588210281614,2020-04-30T01:32:06.402328,37.641,-227.125,81.5,140.875
1588210281713,2020-04-30T01:32:06.447236,37.74,-227.4375,88.0625,140.875
1588210281814,2020-04-30T01:32:06.507124,37.841,-226.375,90.5625,140.4375
1588210281914,2020-04-30T01:32:06.552104,37.941,-227.4375,86.9375,141.25
1588210282014,2020-04-30T01:32:06.612122,38.041,-226.75,87.6875,140.0625
1588210282115,2020-04-30T01:32:06.679829,38.142,-227.4375,88.0625,140.4375
1588210282214,2020-04-30T01:32:06.724715,38.241,-227.0625,88.375,140.4375
1588210282314,2020-04-30T01:32:06.792160,38.341,-227.8125,88.375,140.875
1588210282415,2020-04-30T01:32:06.837165,38.442,-227.125,86.9375,140.4375
1588210282515,2020-04-30T01:32:06.897218,38.542,-227.8125,89.875,141.3125
1588210282614,2020-04-30T01:32:06.942220,38.641,-227.8125,88.75,140.4375
1588210282715,2020-04-30T01:32:07.017212,38.742,-227.8125,88.0625,140.875
1588210282815,2020-04-30T01:32:07.062208,38.842,-227.8125,89.875,140.4375
1588210282914,2020-04-30T01:32:07.122481,38.941,-227.125,87.3125,140.0625
1588210283016,2020-04-30T01:32:07.167347,39.043,-227.125,87.3125,140.875
1588210283115,2020-04-30T01:32:07.227211,39.142,-228.1875,89.125,140.4375
1588210283215,2020-04-30T01:32:07.287276,39.242,-228.1875,89.8125,140.0
1588210283316,2020-04-30T01:32:07.347336,39.343,-226.75,84.0625,140.9375
1588210283415,2020-04-30T01:32:07.392357,39.442,-227.8125,88.75,140.0625
1588210283515,2020-04-30T01:32:07.452344,39.542,-227.8125,88.0,140.4375
1588210283616,2020-04-30T01:32:07.497347,39.643,-227.8125,80.0625,140.4375
1588210283716,2020-04-30T01:32:07.564651,39.743,-227.4375,88.75,141.25
1588210283817,2020-04-30T01:32:07.617335,39.844,-227.8125,88.0625,140.875
1588210283916,2020-04-30T01:32:07.677269,39.943,-227.4375,82.25,140.4375
1588210284016,2020-04-30T01:32:07.722324,40.043,-228.1875,88.75,140.0625
1588210284117,2020-04-30T01:32:07.782347,40.144,-227.8125,89.5,140.875
1588210284217,2020-04-30T01:32:07.827264,40.244,-227.4375,82.9375,141.25
1588210284316,2020-04-30T01:32:07.887284,40.343,-227.8125,85.875,140.875
1588210284417,2020-04-30T01:32:07.932534,40.444,-227.8125,86.25,140.4375
1588210284517,2020-04-30T01:32:07.992514,40.544,-228.1875,87.3125,140.4375
1588210284617,2020-04-30T01:32:08.037424,40.644,-227.0625,86.9375,140.8125
1588210284718,2020-04-30T01:32:08.083107,40.745,-228.5625,86.5625,140.4375
1588210284817,2020-04-30T01:32:08.149879,40.844,-227.4375,88.375,140.0
1588210284917,2020-04-30T01:32:08.194936,40.944,-227.8125,88.0625,140.875
1588210285018,2020-04-30T01:32:08.254950,41.045,-227.4375,86.9375,140.4375
1588210285118,2020-04-30T01:32:08.307451,41.145,-227.4375,87.6875,140.875
1588210285217,2020-04-30T01:32:08.367592,41.244,-227.8125,87.6875,140.4375
1588210285318,2020-04-30T01:32:08.412552,41.345,-227.8125,86.5625,140.0
1588210285418,2020-04-30T01:32:08.472625,41.445,-227.8125,89.125,140.875
1588210285517,2020-04-30T01:32:08.517548,41.544,-228.1875,87.3125,141.25
1588210285619,2020-04-30T01:32:08.577409,41.646,-227.0625,83.3125,139.5625
1588210285718,2020-04-30T01:32:08.637284,41.745,-227.8125,87.3125,140.875
1588210285818,2020-04-30T01:32:08.719852,41.845,-227.8125,88.375,139.625
1588210285919,2020-04-30T01:32:08.764807,41.946,-227.125,81.5,140.875
1588210286018,2020-04-30T01:32:08.824774,42.045,-228.1875,89.5,140.5
1588210286118,2020-04-30T01:32:08.869786,42.145,-227.8125,86.9375,140.875
1588210286219,2020-04-30T01:32:08.937285,42.246,-227.8125,81.875,140.8125
1588210286319,2020-04-30T01:32:08.982373,42.346,-227.8125,88.375,140.875
1588210286420,2020-04-30T01:32:09.057295,42.447,-228.5625,88.0625,140.4375
1588210286519,2020-04-30T01:32:09.102377,42.546,-228.1875,84.75,141.25
1588210286619,2020-04-30T01:32:09.162380,42.646,-228.5625,87.6875,141.25
1588210286720,2020-04-30T01:32:09.207307,42.747,-227.4375,86.25,140.4375
1588210286820,2020-04-30T01:32:09.274834,42.847,-227.4375,88.75,139.625
1588210286919,2020-04-30T01:32:09.319792,42.946,-228.5625,88.75,141.3125
1588210287020,2020-04-30T01:32:09.387380,43.047,-228.1875,88.75,141.3125
1588210287120,2020-04-30T01:32:09.432903,43.147,-227.4375,90.5625,140.875
1588210287220,2020-04-30T01:32:09.500063,43.247,-227.8125,89.125,141.3125
1588210287321,2020-04-30T01:32:09.544784,43.348,-227.4375,87.6875,140.875
1588210287420,2020-04-30T01:32:09.604795,43.447,-227.4375,87.6875,141.25
1588210287520,2020-04-30T01:32:09.665133,43.547,-227.8125,88.375,140.0625
1588210287621,2020-04-30T01:32:09.709774,43.648,-227.4375,87.3125,140.4375
1588210287721,2020-04-30T01:32:09.777236,43.748,-227.125,87.3125,140.875
1588210287820,2020-04-30T01:32:09.822523,43.847,-228.1875,89.5,140.4375
1588210287921,2020-04-30T01:32:09.889793,43.948,-227.125,85.875,140.875
1588210288021,2020-04-30T01:32:09.949797,44.048,-227.4375,87.3125,140.4375
1588210288121,2020-04-30T01:32:10.009644,44.148,-227.125,88.75,140.4375
1588210288222,2020-04-30T01:32:10.055388,44.249,-227.8125,83.3125,140.4375
1588210288321,2020-04-30T01:32:10.116644,44.348,-227.8125,86.25,140.5
1588210288421,2020-04-30T01:32:10.161485,44.448,-228.1875,88.0625,140.875
1588210288522,2020-04-30T01:32:10.228210,44.549,-227.8125,81.125,141.25
1588210288621,2020-04-30T01:32:10.287330,44.648,-228.1875,86.5625,140.9375
1588210288721,2020-04-30T01:32:10.355061,44.748,-228.9375,90.5625,140.4375
1588210288822,2020-04-30T01:32:10.399944,44.849,-227.8125,81.875,140.875
1588210288922,2020-04-30T01:32:10.459963,44.949,-227.8125,86.5625,140.4375
1588210289023,2020-04-30T01:32:10.504960,45.05,-228.1875,86.9375,140.4375
1588210289122,2020-04-30T01:32:10.572891,45.149,-228.5625,88.375,140.875
1588210289222,2020-04-30T01:32:10.619005,45.249,-227.8125,88.375,140.5
1588210289323,2020-04-30T01:32:10.699792,45.35,-228.1875,87.6875,140.4375
1588210289423,2020-04-30T01:32:10.744798,45.45,-227.8125,88.75,140.4375
1588210289522,2020-04-30T01:32:10.804822,45.549,-227.4375,88.75,139.625
1588210289623,2020-04-30T01:32:10.850079,45.65,-227.8125,84.75,140.0625
1588210289723,2020-04-30T01:32:10.917601,45.75,-227.8125,89.125,140.5
1588210289823,2020-04-30T01:32:10.962397,45.85,-229.25,88.0625,140.0625
1588210289924,2020-04-30T01:32:11.022362,45.951,-228.5625,89.125,140.0625
1588210290023,2020-04-30T01:32:11.074810,46.05,-227.8125,87.6875,140.0625
1588210290123,2020-04-30T01:32:11.134790,46.15,-228.1875,89.125,140.0625
1588210290224,2020-04-30T01:32:11.179806,46.251,-228.1875,89.125,140.4375
1588210290324,2020-04-30T01:32:11.224800,46.351,-227.8125,89.5,140.0625
1588210290423,2020-04-30T01:32:11.292384,46.45,-228.1875,87.3125,139.6875
1588210290524,2020-04-30T01:32:11.337294,46.551,-228.1875,85.125,140.4375
1588210290624,2020-04-30T01:32:11.397844,46.651,-227.8125,87.3125,140.0625
1588210290724,2020-04-30T01:32:11.449917,46.751,-227.8125,88.0625,140.4375
1588210290825,2020-04-30T01:32:11.510070,46.852,-228.1875,80.4375,140.4375
1588210290924,2020-04-30T01:32:11.554811,46.951,-227.8125,88.75,139.6875
1588210291024,2020-04-30T01:32:11.614798,47.051,-227.0625,87.3125,139.625
1588210291125,2020-04-30T01:32:11.667305,47.152,-226.75,81.875,139.25
1588210291225,2020-04-30T01:32:11.750038,47.252,-227.8125,88.75,138.4375
1588210291324,2020-04-30T01:32:11.795109,47.351,-227.8125,87.6875,138.375
1588210291425,2020-04-30T01:32:11.857224,47.452,-227.125,86.9375,137.5625
1588210291525,2020-04-30T01:32:11.901330,47.552,-227.8125,89.125,137.5625
1588210291624,2020-04-30T01:32:11.959799,47.651,-227.8125,88.375,137.1875
1588210291726,2020-04-30T01:32:12.012398,47.753,-227.4375,90.5625,137.1875
1588210291825,2020-04-30T01:32:12.072164,47.852,-227.8125,89.125,137.1875
1588210291926,2020-04-30T01:32:12.124760,47.953,-227.4375,88.0625,136.375
1588210292026,2020-04-30T01:32:12.184763,48.053,-228.1875,89.8125,136.75
1588210292125,2020-04-30T01:32:12.252422,48.152,-227.8125,88.375,135.125
1588210292226,2020-04-30T01:32:12.327295,48.253,-227.8125,88.75,135.125
1588210292326,2020-04-30T01:32:12.372468,48.353,-227.8125,90.1875,135.9375
1588210292426,2020-04-30T01:32:12.437514,48.453,-227.4375,90.5625,135.125
1588210292527,2020-04-30T01:32:12.477313,48.554,-227.125,86.9375,135.9375
1588210292626,2020-04-30T01:32:12.537313,48.653,-227.8125,89.125,135.1875
1588210292726,2020-04-30T01:32:12.597033,48.753,-227.125,89.8125,134.3125
1588210292827,2020-04-30T01:32:12.650589,48.854,-227.4375,82.25,133.5
1588210292927,2020-04-30T01:32:12.717324,48.954,-226.75,92.375,133.5625
1588210293026,2020-04-30T01:32:12.762791,49.053,-227.125,91.625,133.9375
1588210293127,2020-04-30T01:32:12.830085,49.154,-226.75,84.0625,134.3125
1588210293227,2020-04-30T01:32:12.882479,49.254,-227.5,89.875,133.125
1588210293327,2020-04-30T01:32:12.950255,49.354,-227.4375,90.9375,133.0625
1588210293428,2020-04-30T01:32:12.994839,49.455,-227.4375,86.9375,133.9375
1588210293527,2020-04-30T01:32:13.063428,49.554,-226.375,90.1875,133.5
1588210293627,2020-04-30T01:32:13.107571,49.654,-227.4375,91.3125,133.125
1588210293728,2020-04-30T01:32:13.189988,49.755,-226.75,89.8125,133.5
1588210293828,2020-04-30T01:32:13.249856,49.855,-227.4375,90.9375,133.5
1588210293927,2020-04-30T01:32:13.309877,49.954,-227.4375,87.3125,133.9375
1588210294028,2020-04-30T01:32:13.355272,50.055,-227.4375,90.5625,133.9375
1588210294128,2020-04-30T01:32:13.417360,50.155,-228.1875,90.9375,134.375
1588210294227,2020-04-30T01:32:13.467717,50.254,-227.8125,90.5625,133.125
1588210294329,2020-04-30T01:32:13.535123,50.356,-227.8125,90.1875,134.75
1588210294428,2020-04-30T01:32:13.580343,50.455,-226.75,92.0,134.3125
1588210294528,2020-04-30T01:32:13.640203,50.555,-227.8125,88.75,134.3125
1588210294629,2020-04-30T01:32:13.684973,50.656,-228.5625,93.4375,134.3125
1588210294728,2020-04-30T01:32:13.744961,50.755,-227.4375,92.375,133.125
1588210294828,2020-04-30T01:32:13.789958,50.855,-227.8125,89.875,133.9375
1588210294929,2020-04-30T01:32:13.850983,50.956,-227.8125,90.5625,134.3125
1588210295029,2020-04-30T01:32:13.895142,51.056,-227.4375,89.5,133.5
1588210295128,2020-04-30T01:32:13.955136,51.155,-227.125,88.375,134.3125
1588210295229,2020-04-30T01:32:14.015203,51.256,-228.1875,87.3125,133.9375
1588210295329,2020-04-30T01:32:14.082406,51.356,-227.4375,91.625,134.3125
1588210295429,2020-04-30T01:32:14.127728,51.456,-227.8125,85.875,133.9375
1588210295530,2020-04-30T01:32:14.187327,51.557,-227.125,91.3125,134.375
1588210295629,2020-04-30T01:32:14.239905,51.656,-227.4375,90.9375,133.9375
1588210295729,2020-04-30T01:32:14.284831,51.756,-227.4375,85.875,134.6875
1588210295830,2020-04-30T01:32:14.359780,51.857,-227.5,92.0,134.8125
1588210295930,2020-04-30T01:32:14.404791,51.957,-227.4375,90.9375,133.9375
1588210296029,2020-04-30T01:32:14.466236,52.056,-227.4375,84.4375,134.375
1588210296130,2020-04-30T01:32:14.517236,52.157,-227.8125,90.1875,135.5625
1588210296230,2020-04-30T01:32:14.577250,52.257,-227.4375,90.5625,135.9375
1588210296330,2020-04-30T01:32:14.630716,52.357,-227.8125,88.375,136.375
1588210296431,2020-04-30T01:32:14.704878,52.458,-227.4375,90.1875,135.9375
1588210296530,2020-04-30T01:32:14.749724,52.557,-226.375,89.125,138.0
1588210296630,2020-04-30T01:32:14.832345,52.657,-227.125,86.5625,139.625
1588210296731,2020-04-30T01:32:14.877288,52.758,-227.125,88.375,138.8125
1588210296830,2020-04-30T01:32:14.937403,52.857,-227.125,88.375,138.875
1588210296930,2020-04-30T01:32:14.989728,52.957,-227.4375,89.875,139.625
1588210297031,2020-04-30T01:32:15.057516,53.058,-227.4375,89.875,137.5625
1588210297131,2020-04-30T01:32:15.102583,53.158,-227.125,88.375,138.0
1588210297230,2020-04-30T01:32:15.162342,53.257,-227.8125,89.5,138.4375
1588210297331,2020-04-30T01:32:15.207180,53.358,-226.75,91.3125,137.5625
1588210297431,2020-04-30T01:32:15.274688,53.458,-227.125,89.125,137.5625
1588210297531,2020-04-30T01:32:15.319683,53.558,-227.125,89.5,135.9375
1588210297632,2020-04-30T01:32:15.379706,53.659,-227.4375,88.375,135.125
1588210297731,2020-04-30T01:32:15.432201,53.758,-229.3125,86.9375,135.1875
1588210297832,2020-04-30T01:32:15.499684,53.859,-228.5625,90.5625,134.75
1588210297932,2020-04-30T01:32:15.544688,53.959,-228.1875,89.5,135.125
1588210298032,2020-04-30T01:32:15.612182,54.059,-228.1875,83.3125,135.125
1588210298133,2020-04-30T01:32:15.657392,54.16,-226.375,91.3125,134.8125
1588210298232,2020-04-30T01:32:15.717180,54.259,-227.125,89.125,135.625
1588210298332,2020-04-30T01:32:15.762427,54.359,-227.125,83.3125,135.5625
1588210298433,2020-04-30T01:32:15.807227,54.46,-226.75,89.5,136.4375
1588210298533,2020-04-30T01:32:15.874882,54.56,-227.8125,89.125,139.625
1588210298632,2020-04-30T01:32:15.934783,54.659,-227.8125,82.625,141.25
1588210298733,2020-04-30T01:32:15.994786,54.76,-226.75,84.75,142.5
1588210298833,2020-04-30T01:32:16.039794,54.86,-227.4375,86.25,145.8125
1588210298933,2020-04-30T01:32:16.099789,54.96,-227.125,81.875,148.1875
1588210299034,2020-04-30T01:32:16.144806,55.061,-226.375,86.25,149.8125
1588210299133,2020-04-30T01:32:16.212345,55.16,-224.5625,82.9375,150.6875
1588210299233,2020-04-30T01:32:16.257279,55.26,-222.375,85.875,149.0
1588210299334,2020-04-30T01:32:16.317289,55.361,-220.25,84.75,144.125
1588210299434,2020-04-30T01:32:16.362344,55.461,-222.0,82.9375,154.75
1588210299533,2020-04-30T01:32:16.422339,55.56,-224.9375,80.8125,158.4375
1588210299634,2020-04-30T01:32:16.467333,55.661,-228.9375,79.0,155.1875
1588210299734,2020-04-30T01:32:16.527297,55.761,-228.5625,82.25,150.25
1588210299833,2020-04-30T01:32:16.572367,55.86,-226.0,86.25,146.1875
1588210299934,2020-04-30T01:32:16.639804,55.961,-223.875,85.875,145.375
1588210300034,2020-04-30T01:32:16.693453,56.061,-221.3125,85.875,145.4375
1588210300134,2020-04-30T01:32:16.759859,56.161,-220.25,83.3125,144.125
1588210300235,2020-04-30T01:32:16.827203,56.262,-219.5,84.75,145.375
1588210300334,2020-04-30T01:32:16.887216,56.361,-216.9375,80.0625,146.1875
1588210300434,2020-04-30T01:32:16.932229,56.461,-216.25,82.9375,147.8125
1588210300535,2020-04-30T01:32:16.992224,56.562,-215.125,83.3125,147.4375
1588210300635,2020-04-30T01:32:17.044702,56.662,-215.125,73.1875,149.4375
1588210300734,2020-04-30T01:32:17.104697,56.761,-213.6875,81.125,149.8125
1588210300835,2020-04-30T01:32:17.157352,56.862,-215.5,80.0625,149.4375
1588210300935,2020-04-30T01:32:17.217264,56.962,-216.25,74.625,152.3125
1588210301035,2020-04-30T01:32:17.269798,57.062,-217.3125,79.0,153.625
1588210301136,2020-04-30T01:32:17.329779,57.163,-218.0625,79.6875,155.625
1588210301235,2020-04-30T01:32:17.397302,57.262,-220.25,75.0,155.5625
1588210301335,2020-04-30T01:32:17.442201,57.362,-220.5625,82.625,151.875
1588210301436,2020-04-30T01:32:17.503020,57.463,-220.1875,82.625,149.8125
1588210301536,2020-04-30T01:32:17.547291,57.563,-220.5625,80.0625,148.1875
1588210301635,2020-04-30T01:32:17.607311,57.662,-219.125,84.75,144.125
1588210301736,2020-04-30T01:32:17.659794,57.763,-215.125,81.875,147.0
1588210301836,2020-04-30T01:32:17.719886,57.863,-217.0,82.9375,147.875
1588210301935,2020-04-30T01:32:17.764762,57.962,-218.0625,84.4375,147.0
1588210302037,2020-04-30T01:32:17.824763,58.064,-220.5625,80.8125,142.5
1588210302136,2020-04-30T01:32:17.869810,58.163,-222.75,88.375,134.375
1588210302236,2020-04-30T01:32:17.937309,58.263,-226.375,92.0,123.3125
1588210302337,2020-04-30T01:32:17.982372,58.364,-228.9375,94.1875,113.0625
1588210302436,2020-04-30T01:32:18.042454,58.463,-229.625,95.625,105.75
1588210302536,2020-04-30T01:32:18.087589,58.563,-227.125,96.75,102.875
1588210302637,2020-04-30T01:32:18.154763,58.664,-226.0,96.0,98.8125
1588210302737,2020-04-30T01:32:18.199749,58.764,-224.5625,97.0625,97.625
1588210302836,2020-04-30T01:32:18.267477,58.863,-224.5625,97.8125,95.125
1588210302937,2020-04-30T01:32:18.313356,58.964,-223.875,94.9375,95.5625
1588210303037,2020-04-30T01:32:18.372247,59.064,-222.75,96.75,94.75
1588210303137,2020-04-30T01:32:18.424767,59.164,-223.875,98.1875,95.5625
1588210303238,2020-04-30T01:32:18.484813,59.265,-223.125,91.6875,93.9375
1588210303337,2020-04-30T01:32:18.529830,59.364,-223.125,94.1875,93.125
1588210303437,2020-04-30T01:32:18.597306,59.464,-222.75,98.5625,93.0625
1588210303538,2020-04-30T01:32:18.642414,59.565,-223.125,90.9375,91.875
1588210303638,2020-04-30T01:32:18.702389,59.665,-223.125,96.75,91.875
1588210303737,2020-04-30T01:32:18.747370,59.764,-222.0,96.0,91.4375
1588210303838,2020-04-30T01:32:18.814806,59.865,-222.0,89.125,92.25
1588210303938,2020-04-30T01:32:18.874915,59.965,-222.0625,96.75,91.875
1588210304038,2020-04-30T01:32:18.919915,60.065,-221.6875,97.4375,91.875
1588210304139,2020-04-30T01:32:18.979718,60.166,-222.0625,93.125,92.6875
1588210304238,2020-04-30T01:32:19.024721,60.265,-222.0625,97.0625,93.125
1588210304338,2020-04-30T01:32:19.092202,60.365,-222.0625,94.1875,92.6875
1588210304439,2020-04-30T01:32:19.137205,60.466,-221.6875,97.0625,93.5
1588210304538,2020-04-30T01:32:19.197206,60.565,-221.3125,96.375,93.9375
1588210304638,2020-04-30T01:32:19.242219,60.665,-221.3125,95.3125,93.5
1588210304739,2020-04-30T01:32:19.309826,60.766,-222.375,95.625,93.125
1588210304839,2020-04-30T01:32:19.354727,60.866,-221.6875,97.4375,92.6875
1588210304938,2020-04-30T01:32:19.422364,60.965,-222.0625,97.0625,92.6875
