epoch  (ms),time  (-07:00),elapsed  (s),Pressure  (Pa)
1588210073485,2020-04-30T01:28:43.025072,0.0,97961.7578125
1588210073531,2020-04-30T01:28:43.025409,0.046,97961.625
1588210073578,2020-04-30T01:28:43.063142,0.093,97961.390625
1588210073625,2020-04-30T01:28:43.071307,0.14,97961.3984375
1588210073672,2020-04-30T01:28:43.077241,0.187,97962.140625
1588210073719,2020-04-30T01:28:43.082642,0.234,97962.9375
1588210073766,2020-04-30T01:28:43.097286,0.281,97962.578125
1588210073811,2020-04-30T01:28:43.109827,0.326,97962.4296875
1588210073858,2020-04-30T01:28:43.139074,0.373,97962.484375
1588210073905,2020-04-30T01:28:43.169499,0.42,97962.2890625
1588210073952,2020-04-30T01:28:43.204281,0.467,97962.59375
1588210073999,2020-04-30T01:28:43.207150,0.514,97962.828125
1588210074046,2020-04-30T01:28:43.219937,0.561,97962.921875
1588210074093,2020-04-30T01:28:43.241991,0.608,97961.9375
1588210074139,2020-04-30T01:28:43.249171,0.654,97961.6328125
1588210074186,2020-04-30T01:28:43.271956,0.701,97961.421875
1588210074233,2020-04-30T01:28:43.279831,0.748,97961.4375
1588210074279,2020-04-30T01:28:43.296117,0.794,97961.5390625
1588210074325,2020-04-30T01:28:43.303241,0.84,97961.25
1588210074372,2020-04-30T01:28:43.361676,0.887,97961.890625
1588210074419,2020-04-30T01:28:43.364112,0.934,97961.7265625
1588210074466,2020-04-30T01:28:43.376674,0.981,97961.546875
1588210074513,2020-04-30T01:28:43.378817,1.028,97961.125
1588210074560,2020-04-30T01:28:43.393691,1.075,97961.03125
1588210074607,2020-04-30T01:28:43.400214,1.122,97960.9140625
1588210074652,2020-04-30T01:28:43.422416,1.167,97961.359375
1588210074699,2020-04-30T01:28:43.429448,1.214,97961.1875
1588210074746,2020-04-30T01:28:43.453227,1.261,97961.03125
1588210074793,2020-04-30T01:28:43.475263,1.308,97961.03125
1588210074840,2020-04-30T01:28:43.490666,1.355,97960.859375
1588210074886,2020-04-30T01:28:43.504492,1.401,97962.7578125
1588210074933,2020-04-30T01:28:43.519832,1.448,97963.421875
1588210074980,2020-04-30T01:28:43.526967,1.495,97963.828125
1588210075026,2020-04-30T01:28:43.534165,1.541,97964.15625
1588210075072,2020-04-30T01:28:43.549460,1.587,97965.1875
1588210075119,2020-04-30T01:28:43.556673,1.634,97965.359375
1588210075166,2020-04-30T01:28:43.573566,1.681,97966.921875
1588210075213,2020-04-30T01:28:43.580804,1.728,97967.625
1588210075260,2020-04-30T01:28:43.626123,1.775,97967.2578125
1588210075307,2020-04-30T01:28:43.633201,1.822,97966.96875
1588210075354,2020-04-30T01:28:43.646926,1.869,97966.96875
1588210075399,2020-04-30T01:28:43.654172,1.914,97966.96875
1588210075446,2020-04-30T01:28:43.670150,1.961,97966.796875
1588210075493,2020-04-30T01:28:43.677345,2.008,97966.640625
1588210075540,2020-04-30T01:28:43.685172,2.055,97966.796875
1588210075587,2020-04-30T01:28:43.699895,2.102,97967.203125
1588210075634,2020-04-30T01:28:43.707623,2.149,97967.0390625
1588210075680,2020-04-30T01:28:43.731062,2.195,97967.375
1588210075727,2020-04-30T01:28:43.754142,2.242,97967.8125
1588210075773,2020-04-30T01:28:43.774860,2.288,97967.109375
1588210075820,2020-04-30T01:28:43.781953,2.335,97967.3203125
1588210075866,2020-04-30T01:28:43.797356,2.381,97967.71875
1588210075913,2020-04-30T01:28:43.804444,2.428,97967.890625
1588210075960,2020-04-30T01:28:43.828474,2.475,97967.3203125
1588210076007,2020-04-30T01:28:43.835147,2.522,97967.71875
1588210076054,2020-04-30T01:28:43.851040,2.569,97967.71875
1588210076101,2020-04-30T01:28:43.857690,2.616,97967.5625
1588210076148,2020-04-30T01:28:43.880800,2.663,97967.0625
1588210076193,2020-04-30T01:28:43.901935,2.708,97967.2265625
1588210076240,2020-04-30T01:28:43.932420,2.755,97967.0625
1588210076287,2020-04-30T01:28:43.946953,2.802,97967.5625
1588210076334,2020-04-30T01:28:43.954841,2.849,97967.390625
1588210076381,2020-04-30T01:28:43.961958,2.896,97968.09375
1588210076427,2020-04-30T01:28:43.970649,2.942,97968.3359375
1588210076474,2020-04-30T01:28:43.984508,2.989,97968.765625
1588210076521,2020-04-30T01:28:44.006671,3.036,97970.25
1588210076567,2020-04-30T01:28:44.022847,3.082,97970.484375
1588210076614,2020-04-30T01:28:44.030802,3.129,97970.65625
1588210076660,2020-04-30T01:28:44.054710,3.175,97970.421875
1588210076707,2020-04-30T01:28:44.074487,3.222,97971.71875
1588210076754,2020-04-30T01:28:44.083967,3.269,97972.3828125
1588210076801,2020-04-30T01:28:44.105812,3.316,97973.25
1588210076848,2020-04-30T01:28:44.113391,3.363,97973.5859375
1588210076895,2020-04-30T01:28:44.128302,3.41,97973.9921875
1588210076942,2020-04-30T01:28:44.149468,3.457,97973.046875
1588210076989,2020-04-30T01:28:44.156680,3.504,97972.703125
1588210077034,2020-04-30T01:28:44.179514,3.549,97972.2109375
1588210077081,2020-04-30T01:28:44.202496,3.596,97971.171875
1588210077128,2020-04-30T01:28:44.225113,3.643,97971.34375
1588210077175,2020-04-30T01:28:44.232417,3.69,97971.5
1588210077221,2020-04-30T01:28:44.240387,3.736,97971.71875
1588210077268,2020-04-30T01:28:44.269882,3.783,97972.046875
1588210077315,2020-04-30T01:28:44.277654,3.83,97971.671875
1588210077362,2020-04-30T01:28:44.329864,3.877,97971.265625
1588210077407,2020-04-30T01:28:44.351964,3.922,97971.59375
1588210077454,2020-04-30T01:28:44.404266,3.969,97972.3359375
1588210077501,2020-04-30T01:28:44.406183,4.016,97971.9296875
1588210077548,2020-04-30T01:28:44.479189,4.063,97972.171875
1588210077595,2020-04-30T01:28:44.481168,4.11,97972.0
1588210077642,2020-04-30T01:28:44.546674,4.157,97971.671875
1588210077689,2020-04-30T01:28:44.554485,4.204,97972.703125
1588210077736,2020-04-30T01:28:44.607476,4.251,97973.5390625
1588210077781,2020-04-30T01:28:44.629471,4.296,97974.203125
1588210077828,2020-04-30T01:28:44.704187,4.343,97974.859375
1588210077875,2020-04-30T01:28:44.735147,4.39,97975.359375
1588210077922,2020-04-30T01:28:44.758332,4.437,97975.4375
1588210077968,2020-04-30T01:28:44.780272,4.483,97975.265625
1588210078015,2020-04-30T01:28:44.886328,4.53,97975.59375
1588210078062,2020-04-30T01:28:44.951703,4.577,97975.9296875
1588210078109,2020-04-30T01:28:44.961134,4.624,97976.828125
1588210078156,2020-04-30T01:28:45.012445,4.671,97977.09375
1588210078201,2020-04-30T01:28:45.034478,4.716,97976.921875
1588210078248,2020-04-30T01:28:45.057464,4.763,97977.75
1588210078295,2020-04-30T01:28:45.079497,4.81,97978.484375
1588210078342,2020-04-30T01:28:45.111044,4.857,97977.65625
1588210078389,2020-04-30T01:28:45.162709,4.904,97977.15625
1588210078436,2020-04-30T01:28:45.187640,4.951,97977.15625
1588210078483,2020-04-30T01:28:45.207930,4.998,97977.8671875
1588210078530,2020-04-30T01:28:45.291046,5.045,97978.15625
1588210078576,2020-04-30T01:28:45.320278,5.091,97978.0859375
1588210078623,2020-04-30T01:28:45.339243,5.138,97977.5859375
1588210078669,2020-04-30T01:28:45.358986,5.184,97978.15625
1588210078716,2020-04-30T01:28:45.372886,5.231,97978.484375
1588210078762,2020-04-30T01:28:45.385377,5.277,97978.984375
1588210078809,2020-04-30T01:28:45.394842,5.324,97978.65625
1588210078856,2020-04-30T01:28:45.440126,5.371,97978.8203125
1588210078903,2020-04-30T01:28:45.462233,5.418,97978.8203125
1588210078950,2020-04-30T01:28:45.476657,5.465,97977.75
1588210078997,2020-04-30T01:28:45.484045,5.512,97978.25
1588210079044,2020-04-30T01:28:45.499473,5.559,97978.578125
1588210079089,2020-04-30T01:28:45.514974,5.604,97978.25
1588210079136,2020-04-30T01:28:45.531262,5.651,97977.9921875
1588210079183,2020-04-30T01:28:45.553293,5.698,97977.421875
1588210079230,2020-04-30T01:28:45.589453,5.745,97978.328125
1588210079277,2020-04-30T01:28:45.598218,5.792,97978.65625
1588210079323,2020-04-30T01:28:45.606244,5.838,97979.03125
1588210079370,2020-04-30T01:28:45.634192,5.885,97979.359375
1588210079417,2020-04-30T01:28:45.641961,5.932,97980.09375
1588210079463,2020-04-30T01:28:45.649191,5.978,97980.2578125
1588210079510,2020-04-30T01:28:45.667339,6.025,97980.09375
1588210079556,2020-04-30T01:28:45.680948,6.071,97979.921875
1588210079603,2020-04-30T01:28:45.716963,6.118,97979.765625
1588210079650,2020-04-30T01:28:45.739538,6.165,97980.09375
1588210079697,2020-04-30T01:28:45.762157,6.212,97980.09375
1588210079744,2020-04-30T01:28:45.794422,6.259,97979.1015625
1588210079791,2020-04-30T01:28:45.810534,6.306,97979.1015625
1588210079838,2020-04-30T01:28:45.847061,6.353,97979.265625
1588210079883,2020-04-30T01:28:45.859042,6.398,97979.4296875
1588210079930,2020-04-30T01:28:45.892820,6.445,97979.640625
1588210079977,2020-04-30T01:28:45.914822,6.492,97980.140625
1588210080024,2020-04-30T01:28:45.924875,6.539,97979.765625
1588210080071,2020-04-30T01:28:45.936140,6.586,97979.921875
1588210080117,2020-04-30T01:28:45.996845,6.632,97979.8046875
1588210080164,2020-04-30T01:28:46.016978,6.679,97979.8046875
1588210080211,2020-04-30T01:28:46.039872,6.726,97979.8046875
1588210080257,2020-04-30T01:28:46.069509,6.772,97979.46875
1588210080303,2020-04-30T01:28:46.121708,6.818,97979.96875
1588210080350,2020-04-30T01:28:46.123415,6.865,97979.265625
1588210080397,2020-04-30T01:28:46.166709,6.912,97979.265625
1588210080444,2020-04-30T01:28:46.191192,6.959,97979.4296875
1588210080491,2020-04-30T01:28:46.242498,7.006,97979.4296875
1588210080538,2020-04-30T01:28:46.250981,7.053,97979.765625
1588210080585,2020-04-30T01:28:46.279190,7.1,97980.140625
1588210080632,2020-04-30T01:28:46.354691,7.147,97979.59375
1588210080677,2020-04-30T01:28:46.391698,7.192,97980.140625
1588210080724,2020-04-30T01:28:46.431041,7.239,97980.296875
1588210080771,2020-04-30T01:28:46.453576,7.286,97979.96875
1588210080818,2020-04-30T01:28:46.483333,7.333,97980.46875
1588210080864,2020-04-30T01:28:46.505601,7.379,97980.140625
1588210080911,2020-04-30T01:28:46.526976,7.426,97980.5390625
1588210080958,2020-04-30T01:28:46.558326,7.473,97980.703125
1588210081005,2020-04-30T01:28:46.577217,7.52,97980.5390625
1588210081052,2020-04-30T01:28:46.588843,7.567,97980.875
1588210081097,2020-04-30T01:28:46.606095,7.612,97980.875
1588210081144,2020-04-30T01:28:46.635080,7.659,97980.78125
1588210081191,2020-04-30T01:28:46.657780,7.706,97980.28125
1588210081238,2020-04-30T01:28:46.710632,7.753,97979.546875
1588210081285,2020-04-30T01:28:46.717988,7.8,97979.71875
1588210081332,2020-04-30T01:28:46.725044,7.847,97979.71875
1588210081379,2020-04-30T01:28:46.751625,7.894,97979.875
1588210081426,2020-04-30T01:28:46.762754,7.941,97980.046875
1588210081471,2020-04-30T01:28:46.777046,7.986,97980.046875
1588210081518,2020-04-30T01:28:46.826891,8.033,97979.953125
1588210081565,2020-04-30T01:28:46.849356,8.08,97979.625
1588210081612,2020-04-30T01:28:46.859153,8.127,97979.625
1588210081658,2020-04-30T01:28:46.904308,8.173,97979.046875
1588210081705,2020-04-30T01:28:46.920487,8.22,97979.046875
1588210081752,2020-04-30T01:28:46.947532,8.267,97978.625
1588210081799,2020-04-30T01:28:46.954581,8.314,97979.046875
1588210081846,2020-04-30T01:28:46.957242,8.361,97979.546875
1588210081891,2020-04-30T01:28:46.977726,8.406,97979.78125
1588210081938,2020-04-30T01:28:46.999216,8.453,97979.125
1588210081985,2020-04-30T01:28:47.006975,8.5,97978.7890625
1588210082032,2020-04-30T01:28:47.036706,8.547,97978.625
1588210082079,2020-04-30T01:28:47.058328,8.594,97978.7890625
1588210082126,2020-04-30T01:28:47.061745,8.641,97978.296875
1588210082173,2020-04-30T01:28:47.077419,8.688,97978.625
1588210082219,2020-04-30T01:28:47.083789,8.734,97978.625
1588210082266,2020-04-30T01:28:47.106532,8.781,97979.2890625
1588210082312,2020-04-30T01:28:47.125933,8.827,97979.78125
1588210082359,2020-04-30T01:28:47.137845,8.874,97979.953125
1588210082406,2020-04-30T01:28:47.160655,8.921,97980.8203125
1588210082452,2020-04-30T01:28:47.196836,8.967,97981.15625
1588210082499,2020-04-30T01:28:47.210596,9.014,97981.3125
1588210082546,2020-04-30T01:28:47.247721,9.061,97980.65625
1588210082593,2020-04-30T01:28:47.284432,9.108,97980.15625
1588210082638,2020-04-30T01:28:47.301034,9.153,97979.828125
1588210082685,2020-04-30T01:28:47.321888,9.2,97980.15625
1588210082732,2020-04-30T01:28:47.325945,9.247,97980.15625
1588210082779,2020-04-30T01:28:47.338820,9.294,97980.15625
1588210082826,2020-04-30T01:28:47.383575,9.341,97978.4609375
1588210082873,2020-04-30T01:28:47.404366,9.388,97978.4609375
1588210082920,2020-04-30T01:28:47.408475,9.435,97978.4609375
1588210082967,2020-04-30T01:28:47.472544,9.482,97979.0
1588210083013,2020-04-30T01:28:47.479477,9.528,97978.296875
1588210083060,2020-04-30T01:28:47.517631,9.575,97978.21875
1588210083107,2020-04-30T01:28:47.547001,9.622,97978.8828125
1588210083153,2020-04-30T01:28:47.554200,9.668,97979.78125
1588210083199,2020-04-30T01:28:47.569497,9.714,97980.1171875
1588210083246,2020-04-30T01:28:47.576695,9.761,97978.953125
1588210083293,2020-04-30T01:28:47.584471,9.808,97978.953125
1588210083340,2020-04-30T01:28:47.608033,9.855,97978.7890625
1588210083387,2020-04-30T01:28:47.623466,9.902,97979.5
1588210083434,2020-04-30T01:28:47.644376,9.949,97979.328125
1588210083481,2020-04-30T01:28:47.653042,9.996,97979.0
1588210083528,2020-04-30T01:28:47.704931,10.043,97978.3359375
1588210083573,2020-04-30T01:28:47.714421,10.088,97978.8359375
1588210083620,2020-04-30T01:28:47.741709,10.135,97979.0
1588210083667,2020-04-30T01:28:47.750125,10.182,97979.0
1588210083714,2020-04-30T01:28:47.765415,10.229,97979.1640625
1588210083760,2020-04-30T01:28:47.773023,10.275,97979.5703125
1588210083807,2020-04-30T01:28:47.794078,10.322,97979.234375
1588210083854,2020-04-30T01:28:47.818031,10.369,97978.578125
1588210083901,2020-04-30T01:28:47.839071,10.416,97978.5
1588210083947,2020-04-30T01:28:47.846688,10.462,97978.0
1588210083993,2020-04-30T01:28:47.854741,10.508,97977.671875
1588210084040,2020-04-30T01:28:47.861726,10.555,97978.078125
1588210084087,2020-04-30T01:28:47.893114,10.602,97977.34375
1588210084134,2020-04-30T01:28:47.906893,10.649,97977.25
1588210084181,2020-04-30T01:28:47.915597,10.696,97977.25
1588210084228,2020-04-30T01:28:47.922637,10.743,97977.90625
1588210084275,2020-04-30T01:28:47.936802,10.79,97978.40625
1588210084320,2020-04-30T01:28:47.938173,10.835,97978.078125
1588210084367,2020-04-30T01:28:47.952414,10.882,97978.25
1588210084414,2020-04-30T01:28:47.968424,10.929,97977.5078125
1588210084461,2020-04-30T01:28:47.980044,10.976,97978.25
1588210084508,2020-04-30T01:28:47.983237,11.023,97978.25
1588210084554,2020-04-30T01:28:47.996849,11.069,97977.90625
1588210084601,2020-04-30T01:28:48.004751,11.116,97977.578125
1588210084648,2020-04-30T01:28:48.020509,11.163,97977.4140625
1588210084694,2020-04-30T01:28:48.034994,11.209,97977.25
1588210084740,2020-04-30T01:28:48.049844,11.255,97977.0859375
1588210084787,2020-04-30T01:28:48.085718,11.302,97976.75
1588210084834,2020-04-30T01:28:48.093006,11.349,97976.46875
1588210084881,2020-04-30T01:28:48.098362,11.396,97976.296875
1588210084928,2020-04-30T01:28:48.111365,11.443,97976.625
1588210084975,2020-04-30T01:28:48.121065,11.49,97976.53125
1588210085022,2020-04-30T01:28:48.130864,11.537,97975.8046875
1588210085069,2020-04-30T01:28:48.149880,11.584,97976.0390625
1588210085114,2020-04-30T01:28:48.164235,11.629,97975.875
1588210085161,2020-04-30T01:28:48.201334,11.676,97975.875
1588210085208,2020-04-30T01:28:48.215182,11.723,97975.640625
1588210085255,2020-04-30T01:28:48.229209,11.77,97975.96875
1588210085301,2020-04-30T01:28:48.231110,11.816,97975.96875
1588210085348,2020-04-30T01:28:48.244486,11.863,97976.296875
1588210085395,2020-04-30T01:28:48.259494,11.91,97976.59375
1588210085442,2020-04-30T01:28:48.268143,11.957,97977.4609375
1588210085488,2020-04-30T01:28:48.289495,12.003,97976.796875
1588210085534,2020-04-30T01:28:48.296713,12.049,97977.4609375
1588210085581,2020-04-30T01:28:48.305180,12.096,97977.625
1588210085628,2020-04-30T01:28:48.319246,12.143,97978.125
1588210085675,2020-04-30T01:28:48.336176,12.19,97978.28125
1588210085722,2020-04-30T01:28:48.358433,12.237,97978.5234375
1588210085769,2020-04-30T01:28:48.366814,12.284,97978.5234375
1588210085816,2020-04-30T01:28:48.379212,12.331,97978.125
1588210085863,2020-04-30T01:28:48.386964,12.378,97978.59375
1588210085908,2020-04-30T01:28:48.402517,12.423,97978.1953125
1588210085955,2020-04-30T01:28:48.410293,12.47,97978.9296875
1588210086002,2020-04-30T01:28:48.431761,12.517,97978.859375
1588210086049,2020-04-30T01:28:48.439468,12.564,97978.9296875
1588210086095,2020-04-30T01:28:48.454230,12.61,97978.5234375
1588210086142,2020-04-30T01:28:48.471157,12.657,97978.1953125
1588210086189,2020-04-30T01:28:48.477668,12.704,97978.03125
1588210086236,2020-04-30T01:28:48.492259,12.751,97977.703125
1588210086281,2020-04-30T01:28:48.499354,12.796,97977.53125
1588210086328,2020-04-30T01:28:48.505361,12.843,97978.03125
1588210086375,2020-04-30T01:28:48.522063,12.89,97978.1015625
1588210086422,2020-04-30T01:28:48.529841,12.937,97978.265625
1588210086469,2020-04-30T01:28:48.552050,12.984,97978.4375
1588210086516,2020-04-30T01:28:48.577776,13.031,97978.765625
1588210086563,2020-04-30T01:28:48.604225,13.078,97979.140625
1588210086610,2020-04-30T01:28:48.606018,13.125,97979.296875
1588210086655,2020-04-30T01:28:48.626717,13.17,97979.96875
1588210086702,2020-04-30T01:28:48.636082,13.217,97979.140625
1588210086749,2020-04-30T01:28:48.649210,13.264,97978.96875
1588210086796,2020-04-30T01:28:48.658328,13.311,97978.640625
1588210086843,2020-04-30T01:28:48.679218,13.358,97978.640625
1588210086889,2020-04-30T01:28:48.687711,13.404,97977.1484375
1588210086936,2020-04-30T01:28:48.702479,13.451,97976.328125
1588210086983,2020-04-30T01:28:48.709528,13.498,97976.328125
1588210087030,2020-04-30T01:28:48.724900,13.545,97975.984375
1588210087075,2020-04-30T01:28:48.732003,13.59,97974.953125
1588210087122,2020-04-30T01:28:48.754927,13.637,97974.7890625
1588210087169,2020-04-30T01:28:48.762923,13.684,97974.7890625
1588210087216,2020-04-30T01:28:48.769901,13.731,97975.1171875
1588210087263,2020-04-30T01:28:48.778704,13.778,97976.328125
1588210087310,2020-04-30T01:28:48.806759,13.825,97976.65625
1588210087357,2020-04-30T01:28:48.815299,13.872,97977.3125
1588210087404,2020-04-30T01:28:48.829239,13.919,97976.65625
1588210087450,2020-04-30T01:28:48.851987,13.965,97975.953125
1588210087497,2020-04-30T01:28:48.859221,14.012,97975.78125
1588210087544,2020-04-30T01:28:48.890182,14.059,97975.453125
1588210087591,2020-04-30T01:28:48.904278,14.106,97975.4921875
1588210087636,2020-04-30T01:28:48.920584,14.151,97975.4921875
1588210087683,2020-04-30T01:28:48.935588,14.198,97975.0
1588210087730,2020-04-30T01:28:48.957738,14.245,97975.0
1588210087777,2020-04-30T01:28:48.964954,14.292,97974.5
1588210087824,2020-04-30T01:28:48.981713,14.339,97974.828125
1588210087871,2020-04-30T01:28:48.988315,14.386,97975.3984375
1588210087918,2020-04-30T01:28:48.995196,14.433,97975.5625
1588210087965,2020-04-30T01:28:49.016733,14.48,97975.1640625
1588210088010,2020-04-30T01:28:49.019228,14.525,97975.328125
1588210088057,2020-04-30T01:28:49.033268,14.572,97975.328125
1588210088104,2020-04-30T01:28:49.048790,14.619,97975.890625
1588210088151,2020-04-30T01:28:49.061739,14.666,97975.5625
1588210088197,2020-04-30T01:28:49.078776,14.712,97975.3984375
1588210088244,2020-04-30T01:28:49.093347,14.759,97975.734375
1588210088291,2020-04-30T01:28:49.107074,14.806,97975.3984375
1588210088338,2020-04-30T01:28:49.160927,14.853,97976.0625
1588210088384,2020-04-30T01:28:49.167705,14.899,97976.390625
1588210088430,2020-04-30T01:28:49.204240,14.945,97976.5625
1588210088477,2020-04-30T01:28:49.212010,14.992,97976.5625
1588210088524,2020-04-30T01:28:49.241745,15.039,97976.7265625
1588210088571,2020-04-30T01:28:49.243651,15.086,97977.21875
1588210088618,2020-04-30T01:28:49.264910,15.133,97977.890625
1588210088665,2020-04-30T01:28:49.279514,15.18,97977.71875
1588210088712,2020-04-30T01:28:49.286737,15.227,97978.21875
1588210088759,2020-04-30T01:28:49.309904,15.274,97978.71875
1588210088804,2020-04-30T01:28:49.316989,15.319,97978.21875
1588210088851,2020-04-30T01:28:49.331711,15.366,97978.71875
1588210088898,2020-04-30T01:28:49.354640,15.413,97978.21875
1588210088945,2020-04-30T01:28:49.369293,15.46,97977.71875
1588210088991,2020-04-30T01:28:49.371114,15.506,97977.21875
1588210089038,2020-04-30T01:28:49.406716,15.553,97977.0625
1588210089085,2020-04-30T01:28:49.415227,15.6,97977.71875
1588210089132,2020-04-30T01:28:49.444223,15.647,97977.71875
1588210089177,2020-04-30T01:28:49.459547,15.692,97977.921875
1588210089224,2020-04-30T01:28:49.483710,15.739,97977.71875
1588210089271,2020-04-30T01:28:49.504506,15.786,97977.1484375
1588210089318,2020-04-30T01:28:49.513510,15.833,97977.5546875
1588210089365,2020-04-30T01:28:49.521095,15.88,97977.71875
1588210089412,2020-04-30T01:28:49.573267,15.927,97978.09375
1588210089459,2020-04-30T01:28:49.582150,15.974,97977.0625
1588210089506,2020-04-30T01:28:49.597488,16.021,97976.390625
1588210089552,2020-04-30T01:28:49.634845,16.067,97976.390625
1588210089599,2020-04-30T01:28:49.641058,16.114,97976.0625
1588210089645,2020-04-30T01:28:49.656246,16.16,97976.234375
1588210089692,2020-04-30T01:28:49.691738,16.207,97976.765625
1588210089739,2020-04-30T01:28:49.715335,16.254,97976.890625
1588210089785,2020-04-30T01:28:49.722593,16.3,97976.7265625
1588210089832,2020-04-30T01:28:49.737012,16.347,97977.1015625
1588210089879,2020-04-30T01:28:49.760831,16.394,97976.890625
1588210089926,2020-04-30T01:28:49.790337,16.441,97978.09375
1588210089973,2020-04-30T01:28:49.811757,16.488,97978.2578125
1588210090018,2020-04-30T01:28:49.819527,16.533,97978.328125
1588210090065,2020-04-30T01:28:49.835904,16.58,97978.6640625
1588210090112,2020-04-30T01:28:49.859754,16.627,97978.5
1588210090159,2020-04-30T01:28:49.866219,16.674,97977.921875
1588210090206,2020-04-30T01:28:49.887230,16.721,97977.8359375
1588210090253,2020-04-30T01:28:49.909343,16.768,97978.0
1588210090300,2020-04-30T01:28:49.918117,16.815,97977.25
1588210090346,2020-04-30T01:28:49.934003,16.861,97977.40625
1588210090393,2020-04-30T01:28:49.947760,16.908,97977.7421875
1588210090440,2020-04-30T01:28:50.000159,16.955,97977.7421875
1588210090487,2020-04-30T01:28:50.005286,17.002,97977.625
1588210090532,2020-04-30T01:28:50.022479,17.047,97977.40625
1588210090579,2020-04-30T01:28:50.024665,17.094,97977.5
1588210090626,2020-04-30T01:28:50.047556,17.141,97977.34375
1588210090673,2020-04-30T01:28:50.069861,17.188,97977.171875
1588210090720,2020-04-30T01:28:50.094430,17.235,97977.0078125
1588210090767,2020-04-30T01:28:50.123612,17.282,97977.0078125
1588210090814,2020-04-30T01:28:50.136321,17.329,97977.078125
1588210090861,2020-04-30T01:28:50.137718,17.376,97976.5078125
1588210090907,2020-04-30T01:28:50.151269,17.422,97976.015625
1588210090953,2020-04-30T01:28:50.152934,17.468,97976.34375
1588210091000,2020-04-30T01:28:50.158929,17.515,97977.078125
1588210091047,2020-04-30T01:28:50.173068,17.562,97977.25
1588210091093,2020-04-30T01:28:50.187493,17.608,97976.34375
1588210091140,2020-04-30T01:28:50.201320,17.655,97977.25
1588210091187,2020-04-30T01:28:50.211052,17.702,97976.015625
1588210091234,2020-04-30T01:28:50.247193,17.749,97975.515625
1588210091281,2020-04-30T01:28:50.269186,17.796,97975.3515625
1588210091326,2020-04-30T01:28:50.277052,17.841,97976.015625
1588210091373,2020-04-30T01:28:50.284174,17.888,97976.015625
1588210091420,2020-04-30T01:28:50.306892,17.935,97976.34375
1588210091467,2020-04-30T01:28:50.314829,17.982,97976.25
1588210091514,2020-04-30T01:28:50.337956,18.029,97976.0859375
1588210091561,2020-04-30T01:28:50.344887,18.076,97976.9140625
1588210091608,2020-04-30T01:28:50.359504,18.123,97977.078125
1588210091655,2020-04-30T01:28:50.368804,18.17,97976.9140625
1588210091701,2020-04-30T01:28:50.385376,18.216,97976.9140625
1588210091747,2020-04-30T01:28:50.392731,18.262,97977.078125
1588210091794,2020-04-30T01:28:50.405360,18.309,97977.453125
1588210091841,2020-04-30T01:28:50.412579,18.356,97977.078125
1588210091887,2020-04-30T01:28:50.420347,18.402,97976.9140625
1588210091934,2020-04-30T01:28:50.428328,18.449,97976.75
1588210091981,2020-04-30T01:28:50.435714,18.496,97977.125
1588210092028,2020-04-30T01:28:50.456947,18.543,97977.453125
1588210092073,2020-04-30T01:28:50.460457,18.588,97977.953125
1588210092120,2020-04-30T01:28:50.488018,18.635,97977.953125
1588210092167,2020-04-30T01:28:50.505173,18.682,97978.515625
1588210092214,2020-04-30T01:28:50.531971,18.729,97978.1171875
1588210092261,2020-04-30T01:28:50.547023,18.776,97979.3515625
1588210092308,2020-04-30T01:28:50.569155,18.823,97979.4453125
1588210092355,2020-04-30T01:28:50.593582,18.87,97980.109375
1588210092402,2020-04-30T01:28:50.614539,18.917,97979.7734375
1588210092447,2020-04-30T01:28:50.621732,18.962,97979.609375
1588210092494,2020-04-30T01:28:50.637397,19.009,97978.90625
1588210092541,2020-04-30T01:28:50.647827,19.056,97978.828125
1588210092588,2020-04-30T01:28:50.667274,19.103,97979.234375
1588210092635,2020-04-30T01:28:50.691430,19.15,97978.90625
1588210092681,2020-04-30T01:28:50.704535,19.196,97978.734375
1588210092728,2020-04-30T01:28:50.714789,19.243,97979.109375
1588210092775,2020-04-30T01:28:50.718647,19.29,97979.515625
1588210092821,2020-04-30T01:28:50.738467,19.336,97979.2734375
1588210092867,2020-04-30T01:28:50.767326,19.382,97979.4453125
1588210092914,2020-04-30T01:28:50.782960,19.429,97978.9453125
1588210092961,2020-04-30T01:28:50.797250,19.476,97979.1875
1588210093008,2020-04-30T01:28:50.826331,19.523,97978.8515625
1588210093055,2020-04-30T01:28:50.849325,19.57,97978.515625
1588210093102,2020-04-30T01:28:50.889480,19.617,97978.515625
1588210093149,2020-04-30T01:28:50.894821,19.664,97978.0234375
1588210093196,2020-04-30T01:28:50.914247,19.711,97977.859375
1588210093241,2020-04-30T01:28:50.922902,19.756,97978.5625
1588210093288,2020-04-30T01:28:50.937408,19.803,97978.734375
1588210093335,2020-04-30T01:28:50.944518,19.85,97978.515625
1588210093382,2020-04-30T01:28:50.989243,19.897,97978.890625
1588210093428,2020-04-30T01:28:50.991458,19.943,97979.0625
1588210093475,2020-04-30T01:28:51.004554,19.99,97979.2265625
1588210093522,2020-04-30T01:28:51.012983,20.037,97979.5546875
1588210093569,2020-04-30T01:28:51.020922,20.084,97979.890625
1588210093614,2020-04-30T01:28:51.079550,20.129,97979.015625
1588210093661,2020-04-30T01:28:51.102711,20.176,97979.015625
1588210093708,2020-04-30T01:28:51.112707,20.223,97979.390625
1588210093755,2020-04-30T01:28:51.131831,20.27,97979.5546875
1588210093802,2020-04-30T01:28:51.162557,20.317,97979.5546875
1588210093849,2020-04-30T01:28:51.200190,20.364,97979.390625
1588210093896,2020-04-30T01:28:51.229665,20.411,97979.2265625
1588210093943,2020-04-30T01:28:51.252814,20.458,97979.0625
1588210093989,2020-04-30T01:28:51.267017,20.504,97978.890625
1588210094035,2020-04-30T01:28:51.274257,20.55,97979.2265625
1588210094082,2020-04-30T01:28:51.290315,20.597,97979.390625
1588210094129,2020-04-30T01:28:51.304250,20.644,97979.5546875
1588210094176,2020-04-30T01:28:51.357010,20.691,97978.6875
1588210094222,2020-04-30T01:28:51.379248,20.737,97978.8515625
1588210094269,2020-04-30T01:28:51.394514,20.784,97979.390625
1588210094316,2020-04-30T01:28:51.418608,20.831,97979.2265625
1588210094363,2020-04-30T01:28:51.425257,20.878,97977.8984375
1588210094410,2020-04-30T01:28:51.469241,20.925,97977.96875
1588210094455,2020-04-30T01:28:51.477759,20.97,97977.5703125
1588210094502,2020-04-30T01:28:51.492464,21.017,97977.734375
1588210094549,2020-04-30T01:28:51.499511,21.064,97977.8984375
1588210094596,2020-04-30T01:28:51.529290,21.111,97977.5703125
1588210094643,2020-04-30T01:28:51.544542,21.158,97977.734375
1588210094690,2020-04-30T01:28:51.559252,21.205,97977.40625
1588210094737,2020-04-30T01:28:51.567771,21.252,97977.234375
1588210094783,2020-04-30T01:28:51.619244,21.298,97977.203125
1588210094830,2020-04-30T01:28:51.634534,21.345,97977.734375
1588210094876,2020-04-30T01:28:51.657417,21.391,97977.734375
1588210094923,2020-04-30T01:28:51.679525,21.438,97977.234375
1588210094969,2020-04-30T01:28:51.731748,21.484,97977.078125
1588210095016,2020-04-30T01:28:51.734321,21.531,97977.078125
1588210095063,2020-04-30T01:28:51.757628,21.578,97977.234375
1588210095110,2020-04-30T01:28:51.769552,21.625,97977.8984375
1588210095157,2020-04-30T01:28:51.776736,21.672,97977.5703125
1588210095204,2020-04-30T01:28:51.814572,21.719,97977.8984375
1588210095251,2020-04-30T01:28:51.829265,21.766,97977.734375
1588210095296,2020-04-30T01:28:51.845402,21.811,97977.359375
1588210095343,2020-04-30T01:28:51.881776,21.858,97977.8984375
1588210095390,2020-04-30T01:28:51.912036,21.905,97979.0625
1588210095437,2020-04-30T01:28:51.934288,21.952,97978.890625
1588210095484,2020-04-30T01:28:51.965657,21.999,97978.734375
1588210095531,2020-04-30T01:28:51.988223,22.046,97978.5625
1588210095577,2020-04-30T01:28:52.011449,22.092,97978.890625
1588210095624,2020-04-30T01:28:52.034943,22.139,97978.0625
1588210095670,2020-04-30T01:28:52.042855,22.185,97978.234375
1588210095717,2020-04-30T01:28:52.084350,22.232,97978.5625
1588210095763,2020-04-30T01:28:52.107241,22.278,97978.3984375
1588210095810,2020-04-30T01:28:52.137582,22.325,97977.8984375
1588210095857,2020-04-30T01:28:52.212568,22.372,97977.40625
1588210095904,2020-04-30T01:28:52.235653,22.419,97976.859375
1588210095951,2020-04-30T01:28:52.316739,22.466,97976.3671875
1588210095998,2020-04-30T01:28:52.354515,22.513,97976.203125
1588210096045,2020-04-30T01:28:52.363109,22.56,97975.703125
1588210096090,2020-04-30T01:28:52.430861,22.605,97976.53125
1588210096137,2020-04-30T01:28:52.459239,22.652,97976.53125
1588210096184,2020-04-30T01:28:52.467020,22.699,97976.703125
1588210096231,2020-04-30T01:28:52.489231,22.746,97976.7421875
1588210096278,2020-04-30T01:28:52.519521,22.793,97976.03125
1588210096324,2020-04-30T01:28:52.534241,22.839,97975.875
1588210096371,2020-04-30T01:28:52.572439,22.886,97976.078125
1588210096418,2020-04-30T01:28:52.588202,22.933,97976.03125
1588210096464,2020-04-30T01:28:52.602389,22.979,97976.40625
1588210096510,2020-04-30T01:28:52.663400,23.025,97976.578125
1588210096557,2020-04-30T01:28:52.700326,23.072,97976.078125
1588210096604,2020-04-30T01:28:52.721763,23.119,97975.578125
1588210096651,2020-04-30T01:28:52.752008,23.166,97976.078125
1588210096698,2020-04-30T01:28:52.781653,23.213,97976.2421875
1588210096745,2020-04-30T01:28:52.789968,23.26,97976.6484375
1588210096792,2020-04-30T01:28:52.811655,23.307,97976.984375
1588210096839,2020-04-30T01:28:52.813151,23.354,97976.578125
1588210096884,2020-04-30T01:28:52.849863,23.399,97976.2421875
1588210096931,2020-04-30T01:28:52.856950,23.446,97976.3203125
1588210096978,2020-04-30T01:28:52.872424,23.493,97976.484375
1588210097025,2020-04-30T01:28:52.879435,23.54,97977.140625
1588210097072,2020-04-30T01:28:52.910546,23.587,97977.140625
1588210097118,2020-04-30T01:28:52.918263,23.633,97976.40625
1588210097165,2020-04-30T01:28:52.939320,23.68,97976.078125
1588210097212,2020-04-30T01:28:52.940912,23.727,97976.40625
1588210097259,2020-04-30T01:28:52.955625,23.774,97976.40625
1588210097304,2020-04-30T01:28:52.969643,23.819,97976.40625
1588210097351,2020-04-30T01:28:52.984370,23.866,97977.140625
1588210097398,2020-04-30T01:28:52.986161,23.913,97977.3125
1588210097445,2020-04-30T01:28:53.007586,23.96,97977.546875
1588210097492,2020-04-30T01:28:53.014754,24.007,97976.984375
1588210097539,2020-04-30T01:28:53.029529,24.054,97976.484375
1588210097586,2020-04-30T01:28:53.044509,24.101,97976.1484375
1588210097633,2020-04-30T01:28:53.053048,24.148,97976.390625
1588210097679,2020-04-30T01:28:53.060844,24.194,97975.65625
1588210097726,2020-04-30T01:28:53.075609,24.241,97975.984375
1588210097772,2020-04-30T01:28:53.083157,24.287,97976.484375
1588210097819,2020-04-30T01:28:53.104110,24.334,97976.6484375
1588210097865,2020-04-30T01:28:53.141719,24.38,97976.578125
1588210097912,2020-04-30T01:28:53.149098,24.427,97977.140625
1588210097959,2020-04-30T01:28:53.158067,24.474,97977.140625
1588210098006,2020-04-30T01:28:53.165463,24.521,97977.546875
1588210098053,2020-04-30T01:28:53.180562,24.568,97977.71875
1588210098100,2020-04-30T01:28:53.202362,24.615,97977.3828125
1588210098145,2020-04-30T01:28:53.209879,24.66,97977.3125
1588210098192,2020-04-30T01:28:53.217296,24.707,97977.3828125
1588210098239,2020-04-30T01:28:53.224870,24.754,97977.71875
1588210098286,2020-04-30T01:28:53.232341,24.801,97977.21875
1588210098333,2020-04-30T01:28:53.240122,24.848,97977.0546875
1588210098380,2020-04-30T01:28:53.261602,24.895,97976.6484375
1588210098426,2020-04-30T01:28:53.263077,24.941,97977.140625
1588210098473,2020-04-30T01:28:53.291600,24.988,97977.140625
1588210098520,2020-04-30T01:28:53.306715,25.035,97977.3828125
1588210098566,2020-04-30T01:28:53.329793,25.081,97977.21875
1588210098613,2020-04-30T01:28:53.337606,25.128,97977.21875
1588210098659,2020-04-30T01:28:53.360006,25.174,97977.7578125
1588210098706,2020-04-30T01:28:53.366988,25.221,97977.921875
1588210098753,2020-04-30T01:28:53.375465,25.268,97977.4296875
1588210098800,2020-04-30T01:28:53.389216,25.315,97977.265625
1588210098847,2020-04-30T01:28:53.419094,25.362,97976.765625
1588210098894,2020-04-30T01:28:53.427434,25.409,97976.59375
1588210098941,2020-04-30T01:28:53.449261,25.456,97976.2265625
1588210098986,2020-04-30T01:28:53.464224,25.501,97976.1484375
1588210099033,2020-04-30T01:28:53.479775,25.548,97976.390625
1588210099080,2020-04-30T01:28:53.486772,25.595,97976.4375
1588210099127,2020-04-30T01:28:53.494777,25.642,97976.4375
1588210099174,2020-04-30T01:28:53.509893,25.689,97977.0546875
1588210099220,2020-04-30T01:28:53.517336,25.735,97977.546875
1588210099267,2020-04-30T01:28:53.540588,25.782,97977.921875
1588210099314,2020-04-30T01:28:53.561614,25.829,97977.59375
1588210099361,2020-04-30T01:28:53.569229,25.876,97977.265625
1588210099408,2020-04-30T01:28:53.584778,25.923,97976.9296875
1588210099453,2020-04-30T01:28:53.614526,25.968,97977.09375
1588210099500,2020-04-30T01:28:53.636707,26.015,97976.765625
1588210099547,2020-04-30T01:28:53.682486,26.062,97976.59375
1588210099594,2020-04-30T01:28:53.689234,26.109,97976.0625
1588210099641,2020-04-30T01:28:53.704926,26.156,97975.484375
1588210099688,2020-04-30T01:28:53.713372,26.203,97975.484375
1588210099735,2020-04-30T01:28:53.756876,26.25,97975.5625
1588210099781,2020-04-30T01:28:53.765373,26.296,97975.765625
1588210099827,2020-04-30T01:28:53.802121,26.342,97975.765625
1588210099874,2020-04-30T01:28:53.826072,26.389,97976.4375
1588210099921,2020-04-30T01:28:53.877218,26.436,97975.9375
1588210099968,2020-04-30T01:28:53.901310,26.483,97975.765625
1588210100014,2020-04-30T01:28:53.930358,26.529,97975.9375
1588210100061,2020-04-30T01:28:54.065584,26.576,97975.609375
1588210100108,2020-04-30T01:28:54.117327,26.623,97975.265625
1588210100155,2020-04-30T01:28:54.214569,26.67,97975.609375
1588210100202,2020-04-30T01:28:54.341987,26.717,97975.609375
1588210100247,2020-04-30T01:28:54.447558,26.762,97975.609375
1588210100294,2020-04-30T01:28:54.492751,26.809,97975.9375
1588210100341,2020-04-30T01:28:54.582337,26.856,97976.59375
1588210100388,2020-04-30T01:28:54.656789,26.903,97977.0
1588210100435,2020-04-30T01:28:54.709540,26.95,97976.4375
1588210100482,2020-04-30T01:28:54.746768,26.997,97976.671875
1588210100529,2020-04-30T01:28:54.784551,27.044,97977.0
1588210100575,2020-04-30T01:28:54.822748,27.09,97977.5390625
1588210100622,2020-04-30T01:28:54.859526,27.137,97977.375
1588210100668,2020-04-30T01:28:54.889278,27.183,97977.046875
1588210100715,2020-04-30T01:28:54.927046,27.23,97976.5
1588210100761,2020-04-30T01:28:54.964295,27.276,97976.5
1588210100808,2020-04-30T01:28:54.986488,27.323,97976.671875
1588210100855,2020-04-30T01:28:55.016894,27.37,97977.3359375
1588210100902,2020-04-30T01:28:55.032462,27.417,97977.3359375
1588210100949,2020-04-30T01:28:55.084579,27.464,97976.84375
1588210100996,2020-04-30T01:28:55.129601,27.511,97976.59375
1588210101041,2020-04-30T01:28:55.159274,27.556,97976.59375
1588210101088,2020-04-30T01:28:55.182072,27.603,97976.671875
1588210101135,2020-04-30T01:28:55.227134,27.65,97976.671875
1588210101182,2020-04-30T01:28:55.242629,27.697,97976.875
1588210101229,2020-04-30T01:28:55.280230,27.744,97977.046875
1588210101276,2020-04-30T01:28:55.310445,27.791,97976.671875
1588210101322,2020-04-30T01:28:55.354421,27.837,97976.5
1588210101369,2020-04-30T01:28:55.379120,27.884,97975.84375
1588210101415,2020-04-30T01:28:55.415321,27.93,97975.4375
1588210101462,2020-04-30T01:28:55.437389,27.977,97974.8984375
1588210101509,2020-04-30T01:28:55.489384,28.024,97975.4375
1588210101555,2020-04-30T01:28:55.527721,28.07,97975.609375
1588210101602,2020-04-30T01:28:55.564934,28.117,97975.4375
1588210101649,2020-04-30T01:28:55.585010,28.164,97976.34375
1588210101696,2020-04-30T01:28:55.691814,28.211,97976.34375
1588210101743,2020-04-30T01:28:55.744566,28.258,97976.875
1588210101788,2020-04-30T01:28:55.796807,28.303,97976.71875
1588210101835,2020-04-30T01:28:55.834654,28.35,97976.546875
1588210101882,2020-04-30T01:28:55.864288,28.397,97976.21875
1588210101929,2020-04-30T01:28:55.894616,28.444,97976.21875
1588210101976,2020-04-30T01:28:55.924304,28.491,97976.21875
1588210102023,2020-04-30T01:28:55.947096,28.538,97975.8828125
1588210102070,2020-04-30T01:28:55.991689,28.585,97975.84375
1588210102116,2020-04-30T01:28:56.021811,28.631,97975.6796875
1588210102162,2020-04-30T01:28:56.051693,28.677,97976.0078125
1588210102209,2020-04-30T01:28:56.074268,28.724,97976.546875
1588210102256,2020-04-30T01:28:56.104629,28.771,97976.5
1588210102302,2020-04-30T01:28:56.134459,28.817,97976.671875
1588210102349,2020-04-30T01:28:56.171831,28.864,97976.671875
1588210102396,2020-04-30T01:28:56.209568,28.911,97976.671875
1588210102443,2020-04-30T01:28:56.231814,28.958,97977.375
1588210102490,2020-04-30T01:28:56.262080,29.005,97976.84375
1588210102535,2020-04-30T01:28:56.344328,29.05,97976.84375
1588210102582,2020-04-30T01:28:56.397509,29.097,97976.5
1588210102629,2020-04-30T01:28:56.465225,29.144,97976.671875
1588210102676,2020-04-30T01:28:56.494908,29.191,97976.671875
1588210102723,2020-04-30T01:28:56.531792,29.238,97976.4375
1588210102770,2020-04-30T01:28:56.547080,29.285,97976.4375
1588210102817,2020-04-30T01:28:56.576807,29.332,97976.84375
1588210102864,2020-04-30T01:28:56.644625,29.379,97977.0
1588210102909,2020-04-30T01:28:56.681793,29.424,97977.2109375
1588210102956,2020-04-30T01:28:56.690903,29.471,97977.2109375
1588210103003,2020-04-30T01:28:56.726790,29.518,97977.609375
1588210103050,2020-04-30T01:28:56.757323,29.565,97977.953125
1588210103096,2020-04-30T01:28:56.794704,29.611,97977.1171875
1588210103143,2020-04-30T01:28:56.884317,29.658,97976.953125
1588210103190,2020-04-30T01:28:56.907101,29.705,97977.1171875
1588210103237,2020-04-30T01:28:56.936800,29.752,97977.2109375
1588210103284,2020-04-30T01:28:56.967148,29.799,97977.28125
1588210103329,2020-04-30T01:28:57.012608,29.844,97976.875
1588210103376,2020-04-30T01:28:57.034622,29.891,97976.546875
1588210103423,2020-04-30T01:28:57.071795,29.938,97976.3828125
1588210103470,2020-04-30T01:28:57.087068,29.985,97976.453125
1588210103517,2020-04-30T01:28:57.118702,30.032,97976.0546875
1588210103564,2020-04-30T01:28:57.162400,30.079,97975.8828125
1588210103611,2020-04-30T01:28:57.199624,30.126,97976.2890625
1588210103657,2020-04-30T01:28:57.245540,30.172,97976.453125
1588210103703,2020-04-30T01:28:57.289564,30.218,97975.9609375
1588210103750,2020-04-30T01:28:57.305287,30.265,97975.796875
1588210103797,2020-04-30T01:28:57.337867,30.312,97975.625
1588210103843,2020-04-30T01:28:57.349684,30.358,97975.4609375
1588210103890,2020-04-30T01:28:57.395123,30.405,97975.4609375
1588210103937,2020-04-30T01:28:57.425559,30.452,97975.625
1588210103984,2020-04-30T01:28:57.461905,30.499,97976.2890625
1588210104031,2020-04-30T01:28:57.477640,30.546,97976.453125
1588210104078,2020-04-30T01:28:57.506775,30.593,97976.78125
1588210104123,2020-04-30T01:28:57.552082,30.638,97976.125
1588210104170,2020-04-30T01:28:57.596788,30.685,97975.9609375
1588210104217,2020-04-30T01:28:57.619564,30.732,97975.4609375
1588210104264,2020-04-30T01:28:57.649283,30.779,97975.796875
1588210104311,2020-04-30T01:28:57.679569,30.826,97975.390625
1588210104358,2020-04-30T01:28:57.716788,30.873,97975.796875
1588210104405,2020-04-30T01:28:57.739542,30.92,97975.796875
1588210104451,2020-04-30T01:28:57.814250,30.966,97975.625
1588210104497,2020-04-30T01:28:57.852180,31.012,97975.125
1588210104544,2020-04-30T01:28:57.889318,31.059,97975.625
1588210104591,2020-04-30T01:28:57.927085,31.106,97975.4609375
1588210104637,2020-04-30T01:28:57.979359,31.152,97975.4609375
1588210104684,2020-04-30T01:28:58.032256,31.199,97975.125
1588210104731,2020-04-30T01:28:58.054251,31.246,97975.296875
1588210104778,2020-04-30T01:28:58.091804,31.293,97975.625
1588210104825,2020-04-30T01:28:58.121800,31.34,97975.296875
1588210104870,2020-04-30T01:28:58.138693,31.385,97975.125
1588210104917,2020-04-30T01:28:58.181927,31.432,97975.625
1588210104964,2020-04-30T01:28:58.228918,31.479,97975.9609375
1588210105011,2020-04-30T01:28:58.264482,31.526,97975.390625
1588210105058,2020-04-30T01:28:58.279586,31.573,97975.390625
1588210105105,2020-04-30T01:28:58.316892,31.62,97975.390625
1588210105152,2020-04-30T01:28:58.339785,31.667,97976.125
1588210105198,2020-04-30T01:28:58.384811,31.713,97975.625
1588210105244,2020-04-30T01:28:58.444596,31.759,97975.796875
1588210105291,2020-04-30T01:28:58.482394,31.806,97975.4609375
1588210105338,2020-04-30T01:28:58.504592,31.853,97975.9609375
1588210105385,2020-04-30T01:28:58.556810,31.9,97976.125
1588210105431,2020-04-30T01:28:58.572085,31.946,97976.53125
1588210105478,2020-04-30T01:28:58.631792,31.993,97975.8671875
1588210105525,2020-04-30T01:28:58.647069,32.04,97976.078125
1588210105572,2020-04-30T01:28:58.714292,32.087,97976.078125
1588210105619,2020-04-30T01:28:58.737179,32.134,97975.703125
1588210105664,2020-04-30T01:28:58.759310,32.179,97975.703125
1588210105711,2020-04-30T01:28:58.782196,32.226,97976.03125
1588210105758,2020-04-30T01:28:58.841805,32.273,97975.3671875
1588210105805,2020-04-30T01:28:58.864599,32.32,97975.296875
1588210105852,2020-04-30T01:28:58.894408,32.367,97975.53125
1588210105899,2020-04-30T01:28:58.933605,32.414,97975.3671875
1588210105946,2020-04-30T01:28:58.977179,32.461,97976.203125
1588210105992,2020-04-30T01:28:59.022038,32.507,97976.203125
1588210106038,2020-04-30T01:28:59.089294,32.553,97976.203125
1588210106085,2020-04-30T01:28:59.112087,32.6,97975.8671875
1588210106132,2020-04-30T01:28:59.141799,32.647,97974.96875
1588210106178,2020-04-30T01:28:59.172050,32.693,97975.3671875
1588210106225,2020-04-30T01:28:59.209306,32.74,97975.8671875
1588210106272,2020-04-30T01:28:59.284824,32.787,97976.203125
1588210106319,2020-04-30T01:28:59.337463,32.834,97975.796875
1588210106366,2020-04-30T01:28:59.367120,32.881,97975.796875
1588210106411,2020-04-30T01:28:59.381816,32.926,97975.796875
1588210106458,2020-04-30T01:28:59.397205,32.973,97976.203125
1588210106505,2020-04-30T01:28:59.426820,33.02,97975.796875
1588210106552,2020-04-30T01:28:59.472876,33.067,97975.4609375
1588210106599,2020-04-30T01:28:59.501830,33.114,97975.296875
1588210106646,2020-04-30T01:28:59.517120,33.161,97974.796875
1588210106693,2020-04-30T01:28:59.592118,33.208,97974.3046875
1588210106739,2020-04-30T01:28:59.629498,33.254,97974.6328125
1588210106786,2020-04-30T01:28:59.659875,33.301,97975.125
1588210106832,2020-04-30T01:28:59.704565,33.347,97975.625
1588210106879,2020-04-30T01:28:59.757145,33.394,97975.9609375
1588210106926,2020-04-30T01:28:59.786825,33.441,97975.796875
1588210106972,2020-04-30T01:28:59.832200,33.487,97975.8671875
1588210107019,2020-04-30T01:28:59.854400,33.534,97975.296875
1588210107066,2020-04-30T01:28:59.907163,33.581,97975.296875
1588210107113,2020-04-30T01:28:59.951815,33.628,97975.296875
1588210107160,2020-04-30T01:28:59.960949,33.675,97975.7421875
1588210107207,2020-04-30T01:28:59.974389,33.722,97975.25
1588210107252,2020-04-30T01:29:00.005430,33.767,97975.7421875
1588210107299,2020-04-30T01:29:00.041950,33.814,97975.90625
1588210107346,2020-04-30T01:29:00.087825,33.861,97975.703125
1588210107393,2020-04-30T01:29:00.124399,33.908,97976.203125
1588210107440,2020-04-30T01:29:00.154900,33.955,97976.6953125
1588210107487,2020-04-30T01:29:00.199362,34.002,97976.359375
1588210107533,2020-04-30T01:29:00.215196,34.048,97976.859375
1588210107580,2020-04-30T01:29:00.251824,34.095,97976.453125
1588210107627,2020-04-30T01:29:00.313122,34.142,97976.453125
1588210107673,2020-04-30T01:29:00.349313,34.188,97976.6953125
1588210107719,2020-04-30T01:29:00.364501,34.234,97977.0234375
1588210107766,2020-04-30T01:29:00.439250,34.281,97976.734375
1588210107813,2020-04-30T01:29:00.454312,34.328,97976.203125
1588210107860,2020-04-30T01:29:00.529323,34.375,97976.359375
1588210107907,2020-04-30T01:29:00.559839,34.422,97975.8671875
1588210107954,2020-04-30T01:29:00.596955,34.469,97976.203125
1588210108001,2020-04-30T01:29:00.627327,34.516,97976.40625
1588210108048,2020-04-30T01:29:00.672105,34.563,97976.40625
1588210108093,2020-04-30T01:29:00.687746,34.608,97976.03125
1588210108140,2020-04-30T01:29:00.769320,34.655,97976.03125
1588210108187,2020-04-30T01:29:00.799593,34.702,97976.078125
1588210108234,2020-04-30T01:29:00.836813,34.749,97975.8671875
1588210108281,2020-04-30T01:29:00.874606,34.796,97976.03125
1588210108327,2020-04-30T01:29:00.919312,34.842,97976.234375
1588210108374,2020-04-30T01:29:00.957086,34.889,97976.234375
1588210108421,2020-04-30T01:29:01.016848,34.936,97976.078125
1588210108468,2020-04-30T01:29:01.055758,34.983,97976.5703125
1588210108513,2020-04-30T01:29:01.084460,35.028,97976.40625
1588210108560,2020-04-30T01:29:01.129829,35.075,97976.234375
1588210108607,2020-04-30T01:29:01.159555,35.122,97976.40625
1588210108654,2020-04-30T01:29:01.242454,35.169,97976.234375
1588210108701,2020-04-30T01:29:01.279312,35.216,97976.078125
1588210108748,2020-04-30T01:29:01.309588,35.263,97975.90625
1588210108795,2020-04-30T01:29:01.339324,35.31,97976.484375
1588210108842,2020-04-30T01:29:01.369849,35.357,97976.3125
1588210108888,2020-04-30T01:29:01.422208,35.403,97975.90625
1588210108934,2020-04-30T01:29:01.467186,35.449,97976.078125
1588210108981,2020-04-30T01:29:01.504333,35.496,97976.359375
1588210109028,2020-04-30T01:29:01.519627,35.543,97976.90625
1588210109074,2020-04-30T01:29:01.586840,35.589,97976.359375
1588210109121,2020-04-30T01:29:01.609639,35.636,97976.03125
1588210109168,2020-04-30T01:29:01.646829,35.683,97976.40625
1588210109215,2020-04-30T01:29:01.699606,35.73,97976.5703125
1588210109262,2020-04-30T01:29:01.736839,35.777,97976.234375
1588210109307,2020-04-30T01:29:01.752099,35.822,97976.40625
1588210109354,2020-04-30T01:29:01.789324,35.869,97976.640625
1588210109401,2020-04-30T01:29:01.804607,35.916,97976.078125
1588210109448,2020-04-30T01:29:01.849348,35.963,97976.078125
1588210109495,2020-04-30T01:29:01.879599,36.01,97976.234375
1588210109542,2020-04-30T01:29:01.916831,36.057,97976.40625
1588210109589,2020-04-30T01:29:01.947101,36.104,97975.7421875
1588210109635,2020-04-30T01:29:01.991821,36.15,97976.734375
1588210109682,2020-04-30T01:29:02.007142,36.197,97976.40625
1588210109728,2020-04-30T01:29:02.044464,36.243,97976.078125
1588210109775,2020-04-30T01:29:02.075727,36.29,97975.7421875
1588210109822,2020-04-30T01:29:02.096913,36.337,97975.578125
1588210109868,2020-04-30T01:29:02.112426,36.383,97975.578125
1588210109915,2020-04-30T01:29:02.149487,36.43,97975.7421875
1588210109962,2020-04-30T01:29:02.187969,36.477,97976.078125
1588210110009,2020-04-30T01:29:02.224825,36.524,97975.203125
1588210110056,2020-04-30T01:29:02.277490,36.571,97975.578125
1588210110103,2020-04-30T01:29:02.329441,36.618,97975.40625
1588210110148,2020-04-30T01:29:02.338634,36.663,97975.578125
1588210110195,2020-04-30T01:29:02.360053,36.71,97975.3671875
1588210110242,2020-04-30T01:29:02.406386,36.757,97975.578125
1588210110289,2020-04-30T01:29:02.465059,36.804,97975.578125
1588210110336,2020-04-30T01:29:02.502440,36.851,97975.40625
1588210110383,2020-04-30T01:29:02.539613,36.898,97975.40625
1588210110429,2020-04-30T01:29:02.606688,36.944,97975.484375
1588210110476,2020-04-30T01:29:02.621848,36.991,97975.3203125
1588210110522,2020-04-30T01:29:02.696842,37.037,97975.3203125
1588210110569,2020-04-30T01:29:02.734865,37.084,97975.3203125
1588210110615,2020-04-30T01:29:02.764982,37.13,97974.984375
1588210110662,2020-04-30T01:29:02.787771,37.177,97974.828125
1588210110709,2020-04-30T01:29:02.832012,37.224,97974.921875
1588210110756,2020-04-30T01:29:02.884644,37.271,97975.078125
1588210110803,2020-04-30T01:29:02.906838,37.318,97975.484375
1588210110850,2020-04-30T01:29:02.944914,37.365,97975.484375
1588210110897,2020-04-30T01:29:02.974419,37.412,97975.15625
1588210110944,2020-04-30T01:29:02.997679,37.459,97975.3203125
1588210110989,2020-04-30T01:29:03.045376,37.504,97974.75
1588210111036,2020-04-30T01:29:03.080354,37.551,97975.15625
1588210111083,2020-04-30T01:29:03.094754,37.598,97975.3203125
1588210111130,2020-04-30T01:29:03.125148,37.645,97975.6484375
1588210111176,2020-04-30T01:29:03.178247,37.691,97975.484375
1588210111223,2020-04-30T01:29:03.244871,37.738,97975.8125
1588210111270,2020-04-30T01:29:03.417221,37.785,97975.6484375
1588210111317,2020-04-30T01:29:03.523186,37.832,97975.6484375
1588210111363,2020-04-30T01:29:03.596868,37.878,97975.3203125
1588210111409,2020-04-30T01:29:03.612134,37.924,97975.984375
1588210111456,2020-04-30T01:29:03.671887,37.971,97975.984375
1588210111503,2020-04-30T01:29:03.702152,38.018,97975.8125
1588210111550,2020-04-30T01:29:03.793536,38.065,97975.8125
1588210111597,2020-04-30T01:29:03.807689,38.112,97976.1875
1588210111644,2020-04-30T01:29:03.844344,38.159,97975.484375
1588210111691,2020-04-30T01:29:03.852105,38.206,97975.484375
1588210111738,2020-04-30T01:29:03.881823,38.253,97975.8125
1588210111783,2020-04-30T01:29:03.890933,38.298,97975.6484375
1588210111830,2020-04-30T01:29:03.941853,38.345,97975.3203125
1588210111877,2020-04-30T01:29:03.950946,38.392,97975.859375
1588210111924,2020-04-30T01:29:03.986834,38.439,97975.359375
1588210111970,2020-04-30T01:29:04.002111,38.485,97975.15625
1588210112017,2020-04-30T01:29:04.039334,38.532,97976.0234375
1588210112064,2020-04-30T01:29:04.054608,38.579,97976.515625
1588210112111,2020-04-30T01:29:04.092512,38.626,97976.6875
1588210112156,2020-04-30T01:29:04.114900,38.671,97976.1875
1588210112203,2020-04-30T01:29:04.137166,38.718,97976.0234375
1588210112250,2020-04-30T01:29:04.147108,38.765,97976.09375
1588210112297,2020-04-30T01:29:04.160873,38.812,97975.359375
1588210112344,2020-04-30T01:29:04.184508,38.859,97975.1953125
1588210112391,2020-04-30T01:29:04.205455,38.906,97975.1953125
1588210112438,2020-04-30T01:29:04.215367,38.953,97975.359375
1588210112485,2020-04-30T01:29:04.226964,39.0,97975.5234375
1588210112530,2020-04-30T01:29:04.242734,39.045,97975.859375
1588210112577,2020-04-30T01:29:04.264957,39.092,97976.359375
1588210112624,2020-04-30T01:29:04.302213,39.139,97976.921875
1588210112671,2020-04-30T01:29:04.317891,39.186,97977.25
1588210112718,2020-04-30T01:29:04.332107,39.233,97977.09375
1588210112764,2020-04-30T01:29:04.340682,39.279,97976.515625
1588210112811,2020-04-30T01:29:04.362098,39.326,97976.515625
1588210112858,2020-04-30T01:29:04.370677,39.373,97976.921875
1588210112904,2020-04-30T01:29:04.385381,39.419,97977.09375
1588210112950,2020-04-30T01:29:04.399401,39.465,97976.4296875
1588210112997,2020-04-30T01:29:04.407120,39.512,97976.265625
1588210113044,2020-04-30T01:29:04.421853,39.559,97976.0234375
1588210113091,2020-04-30T01:29:04.429614,39.606,97976.515625
1588210113138,2020-04-30T01:29:04.459343,39.653,97976.921875
1588210113185,2020-04-30T01:29:04.467144,39.7,97977.25
1588210113232,2020-04-30T01:29:04.481836,39.747,97977.9921875
1588210113279,2020-04-30T01:29:04.489639,39.794,97977.9921875
1588210113324,2020-04-30T01:29:04.508231,39.839,97977.828125
1588210113371,2020-04-30T01:29:04.512672,39.886,97977.59375
1588210113418,2020-04-30T01:29:04.534451,39.933,97978.328125
1588210113465,2020-04-30T01:29:04.542442,39.98,97977.25
1588210113511,2020-04-30T01:29:04.564476,40.026,97976.359375
1588210113558,2020-04-30T01:29:04.572496,40.073,97976.1875
1588210113605,2020-04-30T01:29:04.610884,40.12,97976.359375
1588210113652,2020-04-30T01:29:04.624914,40.167,97976.921875
1588210113699,2020-04-30T01:29:04.656448,40.214,97976.7578125
1588210113746,2020-04-30T01:29:04.662864,40.261,97976.921875
1588210113793,2020-04-30T01:29:04.670792,40.308,97976.921875
1588210113838,2020-04-30T01:29:04.692486,40.353,97976.7578125
1588210113885,2020-04-30T01:29:04.737430,40.4,97976.828125
1588210113932,2020-04-30T01:29:04.759981,40.447,97976.4296875
1588210113979,2020-04-30T01:29:04.774859,40.494,97977.0
1588210114026,2020-04-30T01:29:04.790811,40.541,97977.1640625
1588210114072,2020-04-30T01:29:04.798679,40.587,97976.6640625
1588210114119,2020-04-30T01:29:04.829168,40.634,97976.5
1588210114166,2020-04-30T01:29:04.837487,40.681,97976.5
1588210114212,2020-04-30T01:29:04.879544,40.727,97976.828125
1588210114259,2020-04-30T01:29:04.894755,40.774,97976.09375
1588210114305,2020-04-30T01:29:04.924357,40.82,97976.4296875
1588210114352,2020-04-30T01:29:04.947164,40.867,97976.921875
1588210114399,2020-04-30T01:29:04.961845,40.914,97976.4296875
1588210114446,2020-04-30T01:29:04.969636,40.961,97976.4296875
1588210114493,2020-04-30T01:29:04.999470,41.008,97976.7578125
1588210114540,2020-04-30T01:29:05.007338,41.055,97977.09375
1588210114585,2020-04-30T01:29:05.023342,41.1,97977.328125
1588210114632,2020-04-30T01:29:05.059950,41.147,97977.328125
1588210114679,2020-04-30T01:29:05.075838,41.194,97976.265625
1588210114726,2020-04-30T01:29:05.128166,41.241,97976.09375
1588210114773,2020-04-30T01:29:05.149201,41.288,97976.09375
1588210114820,2020-04-30T01:29:05.158153,41.335,97975.9375
1588210114866,2020-04-30T01:29:05.179216,41.381,97976.265625
1588210114913,2020-04-30T01:29:05.188152,41.428,97976.5
1588210114959,2020-04-30T01:29:05.224226,41.474,97976.3359375
1588210115006,2020-04-30T01:29:05.248151,41.521,97976.3359375
1588210115052,2020-04-30T01:29:05.270542,41.567,97976.265625
1588210115099,2020-04-30T01:29:05.284333,41.614,97976.6640625
1588210115146,2020-04-30T01:29:05.293059,41.661,97976.5
1588210115193,2020-04-30T01:29:05.306849,41.708,97976.875
1588210115240,2020-04-30T01:29:05.315553,41.755,97976.3359375
1588210115287,2020-04-30T01:29:05.336929,41.802,97977.0
1588210115332,2020-04-30T01:29:05.351749,41.847,97977.09375
1588210115379,2020-04-30T01:29:05.359431,41.894,97977.59375
1588210115426,2020-04-30T01:29:05.374266,41.941,97976.921875
1588210115473,2020-04-30T01:29:05.382246,41.988,97976.5
1588210115520,2020-04-30T01:29:05.420714,42.035,97975.765625
1588210115567,2020-04-30T01:29:05.443535,42.082,97975.84375
1588210115614,2020-04-30T01:29:05.486764,42.129,97975.671875
1588210115660,2020-04-30T01:29:05.509436,42.175,97975.171875
1588210115707,2020-04-30T01:29:05.554310,42.222,97974.34375
1588210115753,2020-04-30T01:29:05.562232,42.268,97974.015625
1588210115800,2020-04-30T01:29:05.599311,42.315,97974.515625
1588210115846,2020-04-30T01:29:05.607013,42.361,97974.84375
1588210115893,2020-04-30T01:29:05.629333,42.408,97975.0546875
1588210115940,2020-04-30T01:29:05.652263,42.455,97975.0546875
1588210115987,2020-04-30T01:29:05.674385,42.502,97975.3828125
1588210116034,2020-04-30T01:29:05.697259,42.549,97975.0078125
1588210116081,2020-04-30T01:29:05.711930,42.596,97975.34375
1588210116128,2020-04-30T01:29:05.719767,42.643,97974.84375
1588210116175,2020-04-30T01:29:05.749781,42.69,97974.6796875
1588210116220,2020-04-30T01:29:05.773223,42.735,97974.6796875
1588210116267,2020-04-30T01:29:05.801712,42.782,97974.890625
1588210116314,2020-04-30T01:29:05.840672,42.829,97974.34375
1588210116361,2020-04-30T01:29:05.854226,42.876,97974.84375
1588210116407,2020-04-30T01:29:05.869338,42.922,97975.0078125
1588210116454,2020-04-30T01:29:05.878063,42.969,97975.21875
1588210116501,2020-04-30T01:29:05.891827,43.016,97975.5078125
1588210116548,2020-04-30T01:29:05.900563,43.063,97975.671875
1588210116593,2020-04-30T01:29:05.923342,43.108,97975.671875
1588210116640,2020-04-30T01:29:05.936829,43.155,97975.671875
1588210116687,2020-04-30T01:29:05.946027,43.202,97975.671875
1588210116734,2020-04-30T01:29:05.975567,43.249,97975.546875
1588210116781,2020-04-30T01:29:06.012114,43.296,97974.6796875
1588210116828,2020-04-30T01:29:06.034372,43.343,97974.6796875
1588210116875,2020-04-30T01:29:06.043502,43.39,97974.515625
1588210116922,2020-04-30T01:29:06.056841,43.437,97974.890625
1588210116967,2020-04-30T01:29:06.064648,43.482,97974.515625
1588210117014,2020-04-30T01:29:06.079381,43.529,97973.609375
1588210117061,2020-04-30T01:29:06.087175,43.576,97973.609375
1588210117108,2020-04-30T01:29:06.139374,43.623,97974.1875
1588210117155,2020-04-30T01:29:06.155637,43.67,97973.78125
1588210117201,2020-04-30T01:29:06.169371,43.716,97973.78125
1588210117248,2020-04-30T01:29:06.184644,43.763,97974.1875
1588210117295,2020-04-30T01:29:06.203730,43.81,97974.1875
1588210117341,2020-04-30T01:29:06.208943,43.856,97972.953125
1588210117387,2020-04-30T01:29:06.260843,43.902,97973.1875
1588210117434,2020-04-30T01:29:06.290017,43.949,97973.390625
1588210117481,2020-04-30T01:29:06.323869,43.996,97972.5625
1588210117528,2020-04-30T01:29:06.364215,44.043,97971.90625
1588210117575,2020-04-30T01:29:06.366346,44.09,97972.0703125
1588210117622,2020-04-30T01:29:06.380926,44.137,97972.3125
1588210117669,2020-04-30T01:29:06.417597,44.184,97972.0703125
1588210117714,2020-04-30T01:29:06.435516,44.229,97971.734375
1588210117761,2020-04-30T01:29:06.458033,44.276,97971.90625
1588210117808,2020-04-30T01:29:06.477572,44.323,97971.859375
1588210117855,2020-04-30T01:29:06.487396,44.37,97972.0703125
1588210117902,2020-04-30T01:29:06.515937,44.417,97971.90625
1588210117948,2020-04-30T01:29:06.531280,44.463,97970.375
1588210117995,2020-04-30T01:29:06.568286,44.51,97970.0390625
1588210118042,2020-04-30T01:29:06.576918,44.557,97970.203125
1588210118088,2020-04-30T01:29:06.598560,44.603,97970.375
1588210118135,2020-04-30T01:29:06.628765,44.65,97970.5390625
1588210118181,2020-04-30T01:29:06.664563,44.696,97971.078125
1588210118228,2020-04-30T01:29:06.680260,44.743,97971.578125
1588210118275,2020-04-30T01:29:06.703310,44.79,97972.140625
1588210118322,2020-04-30T01:29:06.711348,44.837,97972.140625
1588210118369,2020-04-30T01:29:06.740701,44.884,97972.46875
1588210118416,2020-04-30T01:29:06.763517,44.931,97972.640625
1588210118461,2020-04-30T01:29:06.778208,44.976,97972.96875
1588210118508,2020-04-30T01:29:06.808483,45.023,97972.640625
1588210118555,2020-04-30T01:29:06.830734,45.07,97972.46875
1588210118602,2020-04-30T01:29:06.882158,45.117,97971.90625
1588210118649,2020-04-30T01:29:06.890714,45.164,97971.90625
1588210118696,2020-04-30T01:29:06.927170,45.211,97971.734375
1588210118742,2020-04-30T01:29:06.935707,45.257,97971.6484375
1588210118789,2020-04-30T01:29:06.957155,45.304,97970.90625
1588210118836,2020-04-30T01:29:06.980708,45.351,97971.484375
1588210118883,2020-04-30T01:29:07.009621,45.398,97971.3125
1588210118928,2020-04-30T01:29:07.033226,45.443,97971.484375
1588210118975,2020-04-30T01:29:07.084686,45.49,97971.15625
1588210119022,2020-04-30T01:29:07.093248,45.537,97970.984375
1588210119069,2020-04-30T01:29:07.137131,45.584,97970.484375
1588210119116,2020-04-30T01:29:07.168211,45.631,97969.5859375
1588210119163,2020-04-30T01:29:07.189833,45.678,97970.484375
1588210119210,2020-04-30T01:29:07.219384,45.725,97970.8125
1588210119257,2020-04-30T01:29:07.287142,45.772,97971.15625
1588210119303,2020-04-30T01:29:07.317817,45.818,97971.484375
1588210119349,2020-04-30T01:29:07.333739,45.864,97971.8828125
1588210119396,2020-04-30T01:29:07.362169,45.911,97971.5546875
1588210119443,2020-04-30T01:29:07.369939,45.958,97971.21875
1588210119489,2020-04-30T01:29:07.461081,46.004,97970.890625
1588210119536,2020-04-30T01:29:07.484952,46.051,97970.71875
1588210119583,2020-04-30T01:29:07.517866,46.098,97971.0625
1588210119630,2020-04-30T01:29:07.536234,46.145,97971.21875
1588210119677,2020-04-30T01:29:07.596519,46.192,97971.390625
1588210119722,2020-04-30T01:29:07.639726,46.237,97971.21875
1588210119769,2020-04-30T01:29:07.722549,46.284,97971.0625
1588210119816,2020-04-30T01:29:07.737514,46.331,97970.5625
1588210119863,2020-04-30T01:29:07.759562,46.378,97970.71875
1588210119910,2020-04-30T01:29:07.767465,46.425,97970.890625
1588210119957,2020-04-30T01:29:07.813387,46.472,97970.765625
1588210120004,2020-04-30T01:29:07.852907,46.519,97969.7734375
1588210120051,2020-04-30T01:29:07.879390,46.566,97969.28125
1588210120096,2020-04-30T01:29:07.887161,46.611,97967.90625
1588210120143,2020-04-30T01:29:07.909375,46.658,97966.75
1588210120190,2020-04-30T01:29:07.917172,46.705,97965.7578125
1588210120237,2020-04-30T01:29:07.925721,46.752,97965.2578125
1588210120283,2020-04-30T01:29:07.955341,46.798,97965.2578125
1588210120330,2020-04-30T01:29:07.970787,46.845,97964.921875
1588210120377,2020-04-30T01:29:08.000133,46.892,97964.4296875
1588210120424,2020-04-30T01:29:08.008825,46.939,97964.1015625
1588210120469,2020-04-30T01:29:08.037807,46.984,97963.6015625
1588210120516,2020-04-30T01:29:08.052859,47.031,97962.7734375
1588210120563,2020-04-30T01:29:08.083924,47.078,97962.109375
1588210120610,2020-04-30T01:29:08.091693,47.125,97962.15625
1588210120657,2020-04-30T01:29:08.098388,47.172,97962.3125
1588210120704,2020-04-30T01:29:08.105843,47.219,97962.484375
1588210120751,2020-04-30T01:29:08.129894,47.266,97962.3125
1588210120798,2020-04-30T01:29:08.158152,47.313,97962.984375
1588210120844,2020-04-30T01:29:08.166396,47.359,97963.3125
1588210120890,2020-04-30T01:29:08.195400,47.405,97962.4375
1588210120937,2020-04-30T01:29:08.209697,47.452,97962.28125
1588210120984,2020-04-30T01:29:08.224392,47.499,97962.3125
1588210121031,2020-04-30T01:29:08.232171,47.546,97962.3125
1588210121077,2020-04-30T01:29:08.277159,47.592,97962.109375
1588210121124,2020-04-30T01:29:08.284389,47.639,97962.8125
1588210121171,2020-04-30T01:29:08.293519,47.686,97963.640625
1588210121218,2020-04-30T01:29:08.306872,47.733,97964.375
1588210121265,2020-04-30T01:29:08.315980,47.78,97964.375
1588210121312,2020-04-30T01:29:08.351866,47.827,97964.546875
1588210121357,2020-04-30T01:29:08.361018,47.872,97963.71875
1588210121404,2020-04-30T01:29:08.374983,47.919,97964.046875
1588210121451,2020-04-30T01:29:08.397376,47.966,97963.71875
1588210121498,2020-04-30T01:29:08.406019,48.013,97963.1484375
1588210121545,2020-04-30T01:29:08.421282,48.06,97963.484375
1588210121592,2020-04-30T01:29:08.444213,48.107,97963.546875
1588210121638,2020-04-30T01:29:08.457640,48.153,97963.390625
1588210121685,2020-04-30T01:29:08.473207,48.2,97962.8125
1588210121732,2020-04-30T01:29:08.501856,48.247,97962.8125
1588210121778,2020-04-30T01:29:08.524254,48.293,97963.1484375
1588210121824,2020-04-30T01:29:08.539348,48.339,97962.8125
1588210121871,2020-04-30T01:29:08.576733,48.386,97962.484375
1588210121918,2020-04-30T01:29:08.584347,48.433,97962.8125
1588210121965,2020-04-30T01:29:08.599236,48.48,97963.1484375
1588210122012,2020-04-30T01:29:08.606853,48.527,97962.484375
1588210122059,2020-04-30T01:29:08.621776,48.574,97962.3125
1588210122104,2020-04-30T01:29:08.644343,48.619,97961.984375
1588210122151,2020-04-30T01:29:08.659223,48.666,97961.984375
1588210122198,2020-04-30T01:29:08.696918,48.713,97961.65625
1588210122245,2020-04-30T01:29:08.713085,48.76,97962.71875
1588210122292,2020-04-30T01:29:08.720691,48.807,97963.0546875
1588210122339,2020-04-30T01:29:08.735585,48.854,97962.8125
1588210122385,2020-04-30T01:29:08.750700,48.9,97962.984375
1588210122432,2020-04-30T01:29:08.765625,48.947,97963.8828125
1588210122478,2020-04-30T01:29:08.773229,48.993,97963.546875
1588210122525,2020-04-30T01:29:08.824232,49.04,97963.71875
1588210122572,2020-04-30T01:29:08.831848,49.087,97964.09375
1588210122618,2020-04-30T01:29:08.840608,49.133,97963.71875
1588210122665,2020-04-30T01:29:08.869786,49.18,97963.546875
1588210122712,2020-04-30T01:29:08.886433,49.227,97963.8828125
1588210122759,2020-04-30T01:29:08.914981,49.274,97963.8828125
1588210122806,2020-04-30T01:29:08.923497,49.321,97964.2109375
1588210122853,2020-04-30T01:29:08.952392,49.368,97963.640625
1588210122898,2020-04-30T01:29:08.983111,49.413,97963.9765625
1588210122945,2020-04-30T01:29:09.004357,49.46,97963.8125
