epoch  (ms),time  (-07:00),elapsed  (s),Pressure  (Pa)
1588210243985,2020-04-30T01:31:45.032143,0.0,97947.265625
1588210244032,2020-04-30T01:31:45.032564,0.047,97946.9375
1588210244079,2020-04-30T01:31:45.048746,0.094,97946.015625
1588210244125,2020-04-30T01:31:45.061908,0.14,97945.4609375
1588210244172,2020-04-30T01:31:45.076890,0.187,97945.125
1588210244219,2020-04-30T01:31:45.082193,0.234,97945.609375
1588210244265,2020-04-30T01:31:45.093587,0.28,97945.90625
1588210244311,2020-04-30T01:31:45.107435,0.326,97946.3125
1588210244358,2020-04-30T01:31:45.121093,0.373,97946.578125
1588210244405,2020-04-30T01:31:45.122751,0.42,97946.96875
1588210244452,2020-04-30T01:31:45.130694,0.467,97946.609375
1588210244499,2020-04-30T01:31:45.137236,0.514,97946.84375
1588210244546,2020-04-30T01:31:45.173308,0.561,97947.3515625
1588210244593,2020-04-30T01:31:45.181271,0.608,97947.6875
1588210244638,2020-04-30T01:31:45.187120,0.653,97947.671875
1588210244685,2020-04-30T01:31:45.194403,0.7,97947.546875
1588210244732,2020-04-30T01:31:45.202219,0.747,97947.890625
1588210244779,2020-04-30T01:31:45.207288,0.794,97948.265625
1588210244826,2020-04-30T01:31:45.215255,0.841,97948.5859375
1588210244873,2020-04-30T01:31:45.231675,0.888,97948.515625
1588210244919,2020-04-30T01:31:45.237643,0.934,97948.5
1588210244966,2020-04-30T01:31:45.259906,0.981,97948.8125
1588210245012,2020-04-30T01:31:45.269955,1.027,97948.8125
1588210245059,2020-04-30T01:31:45.276170,1.074,97948.90625
1588210245105,2020-04-30T01:31:45.286739,1.12,97948.734375
1588210245152,2020-04-30T01:31:45.297373,1.167,97948.71875
1588210245199,2020-04-30T01:31:45.304163,1.214,97948.390625
1588210245246,2020-04-30T01:31:45.312483,1.261,97948.4375
1588210245293,2020-04-30T01:31:45.326440,1.308,97948.28125
1588210245340,2020-04-30T01:31:45.339657,1.355,97949.3671875
1588210245385,2020-04-30T01:31:45.355608,1.4,97949.203125
1588210245432,2020-04-30T01:31:45.371315,1.447,97949.03125
1588210245479,2020-04-30T01:31:45.384138,1.494,97949.265625
1588210245526,2020-04-30T01:31:45.386599,1.541,97949.515625
1588210245573,2020-04-30T01:31:45.400906,1.588,97948.421875
1588210245620,2020-04-30T01:31:45.408769,1.635,97948.1875
1588210245666,2020-04-30T01:31:45.429141,1.681,97948.40625
1588210245713,2020-04-30T01:31:45.431581,1.728,97948.578125
1588210245760,2020-04-30T01:31:45.444155,1.775,97948.921875
1588210245807,2020-04-30T01:31:45.460366,1.822,97949.421875
1588210245854,2020-04-30T01:31:45.468440,1.869,97949.65625
1588210245901,2020-04-30T01:31:45.476526,1.916,97950.078125
1588210245948,2020-04-30T01:31:45.483864,1.963,97949.8125
1588210245995,2020-04-30T01:31:45.489967,2.01,97950.2421875
1588210246041,2020-04-30T01:31:45.511627,2.056,97950.65625
1588210246087,2020-04-30T01:31:45.520043,2.102,97951.578125
1588210246134,2020-04-30T01:31:45.534124,2.149,97951.3203125
1588210246181,2020-04-30T01:31:45.542033,2.196,97951.65625
1588210246227,2020-04-30T01:31:45.550225,2.242,97952.65625
1588210246274,2020-04-30T01:31:45.558805,2.289,97953.25
1588210246321,2020-04-30T01:31:45.577225,2.336,97955.078125
1588210246368,2020-04-30T01:31:45.587013,2.383,97955.8125
1588210246415,2020-04-30T01:31:45.601632,2.43,97955.3125
1588210246460,2020-04-30T01:31:45.609438,2.475,97955.734375
1588210246507,2020-04-30T01:31:45.616642,2.522,97955.890625
1588210246554,2020-04-30T01:31:45.633682,2.569,97956.0625
1588210246601,2020-04-30T01:31:45.646633,2.616,97955.390625
1588210246648,2020-04-30T01:31:45.655008,2.663,97955.296875
1588210246695,2020-04-30T01:31:45.662197,2.71,97954.5625
1588210246742,2020-04-30T01:31:45.669961,2.757,97954.2890625
1588210246789,2020-04-30T01:31:45.677193,2.804,97953.890625
1588210246835,2020-04-30T01:31:45.686628,2.85,97954.234375
1588210246881,2020-04-30T01:31:45.707197,2.896,97954.0625
1588210246928,2020-04-30T01:31:45.714417,2.943,97954.125
1588210246975,2020-04-30T01:31:45.722666,2.99,97953.2265625
1588210247021,2020-04-30T01:31:45.736924,3.036,97953.453125
1588210247068,2020-04-30T01:31:45.766665,3.083,97953.2890625
1588210247115,2020-04-30T01:31:45.769451,3.13,97954.375
1588210247162,2020-04-30T01:31:45.789131,3.177,97953.7890625
1588210247209,2020-04-30T01:31:45.791850,3.224,97953.7890625
1588210247254,2020-04-30T01:31:45.811641,3.269,97954.125
1588210247301,2020-04-30T01:31:45.820121,3.316,97954.0625
1588210247348,2020-04-30T01:31:45.834134,3.363,97955.0625
1588210247395,2020-04-30T01:31:45.841914,3.41,97955.125
1588210247442,2020-04-30T01:31:45.851337,3.457,97955.546875
1588210247489,2020-04-30T01:31:45.857471,3.504,97955.375
1588210247536,2020-04-30T01:31:45.866343,3.551,97955.046875
1588210247582,2020-04-30T01:31:45.887644,3.597,97954.453125
1588210247629,2020-04-30T01:31:45.895176,3.644,97954.625
1588210247675,2020-04-30T01:31:45.909972,3.69,97954.875
1588210247722,2020-04-30T01:31:45.917206,3.737,97954.546875
1588210247769,2020-04-30T01:31:45.926584,3.784,97954.546875
1588210247815,2020-04-30T01:31:45.941323,3.83,97954.375
1588210247862,2020-04-30T01:31:45.956723,3.877,97954.71875
1588210247909,2020-04-30T01:31:45.963877,3.924,97954.375
1588210247956,2020-04-30T01:31:45.984509,3.971,97954.546875
1588210248003,2020-04-30T01:31:45.991629,4.018,97954.765625
1588210248050,2020-04-30T01:31:46.001573,4.065,97954.609375
1588210248097,2020-04-30T01:31:46.021628,4.112,97953.2890625
1588210248142,2020-04-30T01:31:46.029394,4.157,97952.875
1588210248189,2020-04-30T01:31:46.036633,4.204,97952.546875
1588210248236,2020-04-30T01:31:46.039073,4.251,97952.6171875
1588210248283,2020-04-30T01:31:46.059132,4.298,97953.2109375
1588210248330,2020-04-30T01:31:46.067559,4.345,97953.4375
1588210248376,2020-04-30T01:31:46.089146,4.391,97952.875
1588210248423,2020-04-30T01:31:46.091567,4.438,97953.1015625
1588210248470,2020-04-30T01:31:46.105178,4.485,97953.046875
1588210248517,2020-04-30T01:31:46.111920,4.532,97953.6015625
1588210248562,2020-04-30T01:31:46.128778,4.577,97952.9375
1588210248611,2020-04-30T01:31:46.135422,4.626,97953.359375
1588210248656,2020-04-30T01:31:46.157629,4.671,97953.75
1588210248703,2020-04-30T01:31:46.164413,4.718,97953.53125
1588210248750,2020-04-30T01:31:46.172228,4.765,97954.25
1588210248797,2020-04-30T01:31:46.189077,4.812,97954.25
1588210248844,2020-04-30T01:31:46.202746,4.859,97954.1953125
1588210248891,2020-04-30T01:31:46.209506,4.906,97954.421875
1588210248937,2020-04-30T01:31:46.218791,4.952,97954.84375
1588210248984,2020-04-30T01:31:46.240249,4.999,97955.1796875
1588210249031,2020-04-30T01:31:46.243259,5.046,97955.75
1588210249077,2020-04-30T01:31:46.269158,5.092,97967.453125
1588210249123,2020-04-30T01:31:46.271332,5.138,97974.8125
1588210249170,2020-04-30T01:31:46.291645,5.185,97974.3125
1588210249217,2020-04-30T01:31:46.294155,5.232,97972.296875
1588210249264,2020-04-30T01:31:46.307576,5.279,97970.796875
1588210249311,2020-04-30T01:31:46.321936,5.326,97969.4609375
1588210249358,2020-04-30T01:31:46.337623,5.373,97969.21875
1588210249405,2020-04-30T01:31:46.345440,5.42,97969.546875
1588210249450,2020-04-30T01:31:46.353781,5.465,97969.390625
1588210249497,2020-04-30T01:31:46.367511,5.512,97971.4609375
1588210249544,2020-04-30T01:31:46.383918,5.559,97974.8125
1588210249591,2020-04-30T01:31:46.390409,5.606,97977.796875
1588210249638,2020-04-30T01:31:46.405162,5.653,97980.28125
1588210249685,2020-04-30T01:31:46.411923,5.7,97982.6796875
1588210249731,2020-04-30T01:31:46.420066,5.746,97983.7734375
1588210249778,2020-04-30T01:31:46.435348,5.793,97984.609375
1588210249824,2020-04-30T01:31:46.449140,5.839,97985.5
1588210249871,2020-04-30T01:31:46.464525,5.886,97985.765625
1588210249917,2020-04-30T01:31:46.471679,5.932,97983.09375
1588210249964,2020-04-30T01:31:46.480329,5.979,97980.0
1588210250011,2020-04-30T01:31:46.487570,6.026,97977.1015625
1588210250058,2020-04-30T01:31:46.504386,6.073,97974.9375
1588210250105,2020-04-30T01:31:46.511354,6.12,97970.03125
1588210250152,2020-04-30T01:31:46.520007,6.167,97969.03125
1588210250197,2020-04-30T01:31:46.539159,6.212,97968.703125
1588210250244,2020-04-30T01:31:46.547055,6.259,97967.8828125
1588210250291,2020-04-30T01:31:46.554153,6.306,97968.3125
1588210250338,2020-04-30T01:31:46.578688,6.353,97968.8125
1588210250385,2020-04-30T01:31:46.586343,6.4,97969.9765625
1588210250432,2020-04-30T01:31:46.599999,6.447,97971.140625
1588210250478,2020-04-30T01:31:46.616328,6.493,97973.125
1588210250525,2020-04-30T01:31:46.630695,6.54,97974.515625
1588210250571,2020-04-30T01:31:46.659163,6.586,97975.1328125
1588210250618,2020-04-30T01:31:46.661582,6.633,97975.859375
1588210250664,2020-04-30T01:31:46.674718,6.679,97976.953125
1588210250711,2020-04-30T01:31:46.683020,6.726,97976.953125
1588210250758,2020-04-30T01:31:46.711670,6.773,97977.34375
1588210250805,2020-04-30T01:31:46.720333,6.82,97976.34375
1588210250852,2020-04-30T01:31:46.729929,6.867,97975.0
1588210250899,2020-04-30T01:31:46.742577,6.914,97974.78125
1588210250946,2020-04-30T01:31:46.756656,6.961,97974.453125
1588210250993,2020-04-30T01:31:46.759126,7.008,97973.78125
1588210251038,2020-04-30T01:31:46.779155,7.053,97973.5
1588210251085,2020-04-30T01:31:46.787867,7.1,97971.609375
1588210251132,2020-04-30T01:31:46.816665,7.147,97970.6875
1588210251179,2020-04-30T01:31:46.819157,7.194,97969.53125
1588210251226,2020-04-30T01:31:46.826449,7.241,97969.3671875
1588210251272,2020-04-30T01:31:46.833743,7.287,97969.8671875
1588210251319,2020-04-30T01:31:46.862344,7.334,97970.3671875
1588210251366,2020-04-30T01:31:46.870590,7.381,97971.3515625
1588210251412,2020-04-30T01:31:46.878582,7.427,97971.3515625
1588210251458,2020-04-30T01:31:46.894604,7.473,97971.125
1588210251505,2020-04-30T01:31:46.900939,7.52,97971.4609375
1588210251552,2020-04-30T01:31:46.923773,7.567,97971.296875
1588210251599,2020-04-30T01:31:46.936695,7.614,97971.625
1588210251646,2020-04-30T01:31:46.944443,7.661,97971.5234375
1588210251693,2020-04-30T01:31:46.953108,7.708,97970.625
1588210251740,2020-04-30T01:31:46.961224,7.755,97971.3515625
1588210251785,2020-04-30T01:31:46.975945,7.8,97971.1875
1588210251832,2020-04-30T01:31:47.005088,7.847,97971.3515625
1588210251879,2020-04-30T01:31:47.019778,7.894,97972.28125
1588210251926,2020-04-30T01:31:47.026941,7.941,97972.3515625
1588210251973,2020-04-30T01:31:47.036103,7.988,97972.1875
1588210252019,2020-04-30T01:31:47.042568,8.034,97972.3515625
1588210252066,2020-04-30T01:31:47.072936,8.081,97972.78125
1588210252113,2020-04-30T01:31:47.083873,8.128,97972.78125
1588210252160,2020-04-30T01:31:47.095167,8.175,97972.78125
1588210252206,2020-04-30T01:31:47.104271,8.221,97972.9453125
1588210252252,2020-04-30T01:31:47.111030,8.267,97973.34375
1588210252299,2020-04-30T01:31:47.124895,8.314,97973.0
1588210252346,2020-04-30T01:31:47.140079,8.361,97973.171875
1588210252393,2020-04-30T01:31:47.153889,8.408,97973.59375
1588210252440,2020-04-30T01:31:47.160269,8.455,97972.8359375
1588210252487,2020-04-30T01:31:47.172084,8.502,97972.3359375
1588210252532,2020-04-30T01:31:47.182112,8.547,97972.5
1588210252579,2020-04-30T01:31:47.215022,8.594,97972.8359375
1588210252626,2020-04-30T01:31:47.219387,8.641,97972.5
1588210252673,2020-04-30T01:31:47.237872,8.688,97971.8359375
1588210252720,2020-04-30T01:31:47.245662,8.735,97971.3359375
1588210252767,2020-04-30T01:31:47.268563,8.782,97971.3359375
1588210252813,2020-04-30T01:31:47.276058,8.828,97971.5
1588210252860,2020-04-30T01:31:47.291091,8.875,97971.59375
1588210252906,2020-04-30T01:31:47.299174,8.921,97971.3359375
1588210252953,2020-04-30T01:31:47.332881,8.968,97971.7578125
1588210252999,2020-04-30T01:31:47.334338,9.014,97971.171875
1588210253046,2020-04-30T01:31:47.379645,9.061,97971.0
1588210253093,2020-04-30T01:31:47.409456,9.108,97970.78125
1588210253140,2020-04-30T01:31:47.418443,9.155,97971.171875
1588210253187,2020-04-30T01:31:47.425492,9.202,97971.0
1588210253234,2020-04-30T01:31:47.447672,9.249,97971.0
1588210253281,2020-04-30T01:31:47.463282,9.296,97970.671875
1588210253326,2020-04-30T01:31:47.499189,9.341,97971.0
1588210253373,2020-04-30T01:31:47.521952,9.388,97970.609375
1588210253420,2020-04-30T01:31:47.545104,9.435,97970.8359375
1588210253467,2020-04-30T01:31:47.597386,9.482,97970.5
1588210253514,2020-04-30T01:31:47.614576,9.529,97970.921875
1588210253560,2020-04-30T01:31:47.657244,9.575,97971.8203125
1588210253607,2020-04-30T01:31:47.665266,9.622,97971.4296875
1588210253654,2020-04-30T01:31:47.688947,9.669,97971.59375
1588210253701,2020-04-30T01:31:47.696632,9.716,97971.09375
1588210253747,2020-04-30T01:31:47.718304,9.762,97971.09375
1588210253793,2020-04-30T01:31:47.726185,9.808,97970.5
1588210253840,2020-04-30T01:31:47.736309,9.855,97970.421875
1588210253887,2020-04-30T01:31:47.755696,9.902,97970.421875
1588210253934,2020-04-30T01:31:47.763884,9.949,97970.421875
1588210253981,2020-04-30T01:31:47.775166,9.996,97970.3359375
1588210254028,2020-04-30T01:31:47.784147,10.043,97970.3359375
1588210254075,2020-04-30T01:31:47.811386,10.09,97969.78125
1588210254122,2020-04-30T01:31:47.828244,10.137,97969.671875
1588210254168,2020-04-30T01:31:47.836047,10.183,97969.015625
1588210254215,2020-04-30T01:31:47.838604,10.23,97969.4375
1588210254261,2020-04-30T01:31:47.852507,10.276,97969.609375
1588210254308,2020-04-30T01:31:47.887156,10.323,97970.3359375
1588210254354,2020-04-30T01:31:47.907122,10.369,97970.3359375
1588210254401,2020-04-30T01:31:47.910690,10.416,97970.3359375
1588210254448,2020-04-30T01:31:47.943124,10.463,97970.3359375
1588210254495,2020-04-30T01:31:47.957494,10.51,97970.765625
1588210254542,2020-04-30T01:31:47.977038,10.557,97970.921875
1588210254589,2020-04-30T01:31:48.001375,10.604,97970.765625
1588210254636,2020-04-30T01:31:48.014756,10.651,97971.9140625
1588210254681,2020-04-30T01:31:48.017463,10.696,97971.65625
1588210254728,2020-04-30T01:31:48.033798,10.743,97971.8203125
1588210254775,2020-04-30T01:31:48.048088,10.79,97971.484375
1588210254822,2020-04-30T01:31:48.063869,10.837,97971.2578125
1588210254869,2020-04-30T01:31:48.071756,10.884,97971.7578125
1588210254915,2020-04-30T01:31:48.080361,10.93,97971.9296875
1588210254962,2020-04-30T01:31:48.108929,10.977,97971.7578125
1588210255009,2020-04-30T01:31:48.147131,11.024,97971.59375
1588210255055,2020-04-30T01:31:48.160152,11.07,97970.5
1588210255102,2020-04-30T01:31:48.220118,11.117,97970.671875
1588210255148,2020-04-30T01:31:48.243841,11.163,97970.3359375
1588210255195,2020-04-30T01:31:48.253373,11.21,97970.3359375
1588210255242,2020-04-30T01:31:48.264877,11.257,97970.765625
1588210255289,2020-04-30T01:31:48.280168,11.304,97970.59375
1588210255336,2020-04-30T01:31:48.320018,11.351,97970.671875
1588210255383,2020-04-30T01:31:48.327829,11.398,97970.171875
1588210255430,2020-04-30T01:31:48.364775,11.445,97970.265625
1588210255477,2020-04-30T01:31:48.376857,11.492,97970.8203125
1588210255523,2020-04-30T01:31:48.393900,11.538,97970.8203125
1588210255569,2020-04-30T01:31:48.429201,11.584,97969.5
1588210255616,2020-04-30T01:31:48.444647,11.631,97970.265625
1588210255663,2020-04-30T01:31:48.498539,11.678,97971.8203125
1588210255709,2020-04-30T01:31:48.520483,11.724,97972.4140625
1588210255756,2020-04-30T01:31:48.534653,11.771,97972.4140625
1588210255803,2020-04-30T01:31:48.557096,11.818,97971.984375
1588210255850,2020-04-30T01:31:48.588526,11.865,97970.921875
1588210255897,2020-04-30T01:31:48.595522,11.912,97971.15625
1588210255944,2020-04-30T01:31:48.609324,11.959,97970.3125
1588210255989,2020-04-30T01:31:48.630655,12.004,97969.65625
1588210256036,2020-04-30T01:31:48.645505,12.051,97970.484375
1588210256083,2020-04-30T01:31:48.656785,12.098,97970.09375
1588210256130,2020-04-30T01:31:48.724114,12.145,97970.265625
1588210256177,2020-04-30T01:31:48.735891,12.192,97970.3359375
1588210256224,2020-04-30T01:31:48.774748,12.239,97971.484375
1588210256270,2020-04-30T01:31:48.796703,12.285,97971.484375
1588210256317,2020-04-30T01:31:48.834732,12.332,97971.3203125
1588210256364,2020-04-30T01:31:48.873622,12.379,97971.578125
1588210256410,2020-04-30T01:31:48.885390,12.425,97971.9140625
1588210256456,2020-04-30T01:31:48.902200,12.471,97972.2421875
1588210256503,2020-04-30T01:31:48.906899,12.518,97972.578125
1588210256550,2020-04-30T01:31:48.933254,12.565,97972.2421875
1588210256597,2020-04-30T01:31:48.949116,12.612,97972.3359375
1588210256644,2020-04-30T01:31:48.996193,12.659,97972.078125
1588210256691,2020-04-30T01:31:49.021243,12.706,97972.078125
1588210256738,2020-04-30T01:31:49.062667,12.753,97972.2421875
1588210256783,2020-04-30T01:31:49.076920,12.798,97972.078125
1588210256830,2020-04-30T01:31:49.120137,12.845,97973.0
1588210256877,2020-04-30T01:31:49.154893,12.892,97973.0
1588210256924,2020-04-30T01:31:49.166031,12.939,97972.671875
1588210256971,2020-04-30T01:31:49.175980,12.986,97971.8359375
1588210257018,2020-04-30T01:31:49.211575,13.033,97971.671875
1588210257064,2020-04-30T01:31:49.255263,13.079,97970.90625
1588210257111,2020-04-30T01:31:49.272363,13.126,97971.2421875
1588210257158,2020-04-30T01:31:49.290196,13.173,97971.8359375
1588210257205,2020-04-30T01:31:49.329346,13.22,97971.578125
1588210257250,2020-04-30T01:31:49.360751,13.265,97971.7421875
1588210257297,2020-04-30T01:31:49.371790,13.312,97971.578125
1588210257344,2020-04-30T01:31:49.402091,13.359,97971.578125
1588210257391,2020-04-30T01:31:49.426711,13.406,97971.578125
1588210257438,2020-04-30T01:31:49.435556,13.453,97972.3359375
1588210257485,2020-04-30T01:31:49.442593,13.5,97972.3359375
1588210257532,2020-04-30T01:31:49.472224,13.547,97972.5625
1588210257579,2020-04-30T01:31:49.488902,13.594,97971.8359375
1588210257624,2020-04-30T01:31:49.505555,13.639,97972.171875
1588210257671,2020-04-30T01:31:49.539226,13.686,97972.5
1588210257718,2020-04-30T01:31:49.563622,13.733,97972.171875
1588210257765,2020-04-30T01:31:49.601773,13.78,97972.171875
1588210257811,2020-04-30T01:31:49.632954,13.826,97972.5
1588210257858,2020-04-30T01:31:49.668916,13.873,97972.5
1588210257905,2020-04-30T01:31:49.674195,13.92,97972.3359375
1588210257952,2020-04-30T01:31:49.683083,13.967,97972.0
1588210257998,2020-04-30T01:31:49.707102,14.013,97972.0625
1588210258044,2020-04-30T01:31:49.724069,14.059,97971.8359375
1588210258091,2020-04-30T01:31:49.748284,14.106,97971.671875
1588210258138,2020-04-30T01:31:49.776501,14.153,97971.671875
1588210258185,2020-04-30T01:31:49.779342,14.2,97971.8359375
1588210258232,2020-04-30T01:31:49.822599,14.247,97972.5625
1588210258279,2020-04-30T01:31:49.835315,14.294,97972.890625
1588210258326,2020-04-30T01:31:49.881899,14.341,97973.2265625
1588210258371,2020-04-30T01:31:49.884866,14.386,97973.2265625
1588210258418,2020-04-30T01:31:49.914077,14.433,97974.15625
1588210258465,2020-04-30T01:31:49.916087,14.48,97973.984375
1588210258512,2020-04-30T01:31:49.929099,14.527,97973.7109375
1588210258559,2020-04-30T01:31:49.944225,14.574,97972.984375
1588210258605,2020-04-30T01:31:49.959230,14.62,97972.3203125
1588210258652,2020-04-30T01:31:49.983066,14.667,97971.890625
1588210258699,2020-04-30T01:31:49.991676,14.714,97971.890625
1588210258745,2020-04-30T01:31:50.021977,14.76,97972.984375
1588210258791,2020-04-30T01:31:50.041679,14.806,97974.484375
1588210258838,2020-04-30T01:31:50.100553,14.853,97974.828125
1588210258885,2020-04-30T01:31:50.119066,14.9,97974.484375
1588210258932,2020-04-30T01:31:50.128453,14.947,97974.15625
1588210258979,2020-04-30T01:31:50.138201,14.994,97973.734375
1588210259026,2020-04-30T01:31:50.149484,15.041,97973.0625
1588210259073,2020-04-30T01:31:50.160067,15.088,97972.890625
1588210259118,2020-04-30T01:31:50.172632,15.133,97973.8203125
1588210259165,2020-04-30T01:31:50.191141,15.18,97973.734375
1588210259212,2020-04-30T01:31:50.210101,15.227,97974.390625
1588210259259,2020-04-30T01:31:50.240449,15.274,97974.984375
1588210259306,2020-04-30T01:31:50.249943,15.321,97975.375
1588210259352,2020-04-30T01:31:50.270022,15.367,97975.375
1588210259399,2020-04-30T01:31:50.275503,15.414,97975.375
1588210259446,2020-04-30T01:31:50.297690,15.461,97975.375
1588210259493,2020-04-30T01:31:50.305134,15.508,97975.140625
1588210259539,2020-04-30T01:31:50.319864,15.554,97973.7109375
1588210259585,2020-04-30T01:31:50.365422,15.6,97973.3046875
1588210259632,2020-04-30T01:31:50.379240,15.647,97973.3046875
1588210259679,2020-04-30T01:31:50.381283,15.694,97972.96875
1588210259726,2020-04-30T01:31:50.403788,15.741,97973.3046875
1588210259773,2020-04-30T01:31:50.433948,15.788,97972.875
1588210259820,2020-04-30T01:31:50.462650,15.835,97972.7109375
1588210259867,2020-04-30T01:31:50.471689,15.882,97972.546875
1588210259912,2020-04-30T01:31:50.484583,15.927,97972.7109375
1588210259959,2020-04-30T01:31:50.499431,15.974,97972.7109375
1588210260006,2020-04-30T01:31:50.502049,16.021,97970.984375
1588210260053,2020-04-30T01:31:50.529808,16.068,97970.8125
1588210260100,2020-04-30T01:31:50.544658,16.115,97971.15625
1588210260146,2020-04-30T01:31:50.552399,16.161,97971.3125
1588210260193,2020-04-30T01:31:50.560089,16.208,97971.15625
1588210260240,2020-04-30T01:31:50.574345,16.255,97970.8125
1588210260287,2020-04-30T01:31:50.582081,16.302,97971.375
1588210260334,2020-04-30T01:31:50.604281,16.349,97971.375
1588210260381,2020-04-30T01:31:50.606753,16.396,97972.1328125
1588210260426,2020-04-30T01:31:50.642996,16.441,97971.96875
1588210260473,2020-04-30T01:31:50.657421,16.488,97971.96875
1588210260520,2020-04-30T01:31:50.663034,16.535,97971.796875
1588210260567,2020-04-30T01:31:50.710143,16.582,97971.046875
1588210260614,2020-04-30T01:31:50.722903,16.629,97971.296875
1588210260661,2020-04-30T01:31:50.740527,16.676,97971.375
1588210260707,2020-04-30T01:31:50.753931,16.722,97972.1328125
1588210260753,2020-04-30T01:31:50.768869,16.768,97972.296875
1588210260800,2020-04-30T01:31:50.784566,16.815,97971.796875
1588210260847,2020-04-30T01:31:50.793002,16.862,97971.46875
1588210260894,2020-04-30T01:31:50.807304,16.909,97971.375
1588210260940,2020-04-30T01:31:50.815233,16.955,97971.546875
1588210260987,2020-04-30T01:31:50.823638,17.002,97971.796875
1588210261034,2020-04-30T01:31:50.852037,17.049,97972.296875
1588210261081,2020-04-30T01:31:50.874291,17.096,97972.96875
1588210261126,2020-04-30T01:31:50.882676,17.141,97973.1953125
1588210261173,2020-04-30T01:31:50.889930,17.188,97973.03125
1588210261220,2020-04-30T01:31:50.912657,17.235,97973.1953125
1588210261267,2020-04-30T01:31:50.941751,17.282,97973.03125
1588210261314,2020-04-30T01:31:50.987584,17.329,97973.03125
1588210261361,2020-04-30T01:31:51.009803,17.376,97973.1171875
1588210261408,2020-04-30T01:31:51.017592,17.423,97973.7890625
1588210261455,2020-04-30T01:31:51.026052,17.47,97973.859375
1588210261501,2020-04-30T01:31:51.055098,17.516,97974.453125
1588210261547,2020-04-30T01:31:51.069261,17.562,97974.7890625
1588210261594,2020-04-30T01:31:51.099538,17.609,97973.6171875
1588210261641,2020-04-30T01:31:51.107713,17.656,97972.859375
1588210261687,2020-04-30T01:31:51.130535,17.702,97973.359375
1588210261734,2020-04-30T01:31:51.197323,17.749,97972.859375
1588210261781,2020-04-30T01:31:51.205235,17.796,97971.96875
1588210261828,2020-04-30T01:31:51.271752,17.843,97971.6328125
1588210261875,2020-04-30T01:31:51.273819,17.89,97971.46875
1588210261920,2020-04-30T01:31:51.346929,17.935,97971.796875
1588210261967,2020-04-30T01:31:51.369790,17.982,97972.46875
1588210262014,2020-04-30T01:31:51.380563,18.029,97972.96875
1588210262061,2020-04-30T01:31:51.402433,18.076,97973.03125
1588210262108,2020-04-30T01:31:51.481753,18.123,97972.859375
1588210262155,2020-04-30T01:31:51.497074,18.17,97972.953125
1588210262202,2020-04-30T01:31:51.550316,18.217,97972.78125
1588210262248,2020-04-30T01:31:51.581233,18.263,97972.1953125
1588210262294,2020-04-30T01:31:51.624610,18.309,97972.03125
1588210262341,2020-04-30T01:31:51.767288,18.356,97972.28125
1588210262388,2020-04-30T01:31:51.774969,18.403,97972.6171875
1588210262435,2020-04-30T01:31:51.831732,18.45,97973.34375
1588210262481,2020-04-30T01:31:51.858932,18.496,97973.6796875
1588210262528,2020-04-30T01:31:51.902430,18.543,97974.265625
1588210262575,2020-04-30T01:31:51.932734,18.59,97973.84375
1588210262622,2020-04-30T01:31:51.955433,18.637,97974.34375
1588210262669,2020-04-30T01:31:51.962633,18.684,97974.34375
1588210262716,2020-04-30T01:31:52.037318,18.731,97974.34375
1588210262763,2020-04-30T01:31:52.105249,18.778,97973.953125
1588210262808,2020-04-30T01:31:52.135563,18.823,97972.859375
1588210262855,2020-04-30T01:31:52.164294,18.87,97972.53125
1588210262902,2020-04-30T01:31:52.172567,18.917,97972.359375
1588210262949,2020-04-30T01:31:52.202245,18.964,97973.1171875
1588210262996,2020-04-30T01:31:52.232329,19.011,97972.78125
1588210263042,2020-04-30T01:31:52.247389,19.057,97972.859375
1588210263089,2020-04-30T01:31:52.314357,19.104,97973.1171875
1588210263136,2020-04-30T01:31:52.323619,19.151,97972.953125
1588210263183,2020-04-30T01:31:52.374794,19.198,97973.6796875
1588210263230,2020-04-30T01:31:52.411619,19.245,97973.1796875
1588210263277,2020-04-30T01:31:52.442263,19.292,97973.6015625
1588210263322,2020-04-30T01:31:52.486731,19.337,97973.1015625
1588210263369,2020-04-30T01:31:52.509123,19.384,97973.828125
1588210263416,2020-04-30T01:31:52.516726,19.431,97973.4921875
1588210263463,2020-04-30T01:31:52.539679,19.478,97972.9921875
1588210263510,2020-04-30T01:31:52.659239,19.525,97972.828125
1588210263557,2020-04-30T01:31:52.689245,19.572,97973.15625
1588210263603,2020-04-30T01:31:52.734959,19.618,97973.4921875
1588210263650,2020-04-30T01:31:52.757272,19.665,97973.6640625
1588210263696,2020-04-30T01:31:52.794818,19.711,97973.6640625
1588210263743,2020-04-30T01:31:52.938934,19.758,97974.0859375
1588210263789,2020-04-30T01:31:52.972846,19.804,97973.4921875
1588210263836,2020-04-30T01:31:53.011913,19.851,97973.328125
1588210263883,2020-04-30T01:31:53.035167,19.898,97973.4921875
1588210263930,2020-04-30T01:31:53.044002,19.945,97972.765625
1588210263977,2020-04-30T01:31:53.073472,19.992,97972.9375
1588210264024,2020-04-30T01:31:53.100033,20.039,97972.9375
1588210264071,2020-04-30T01:31:53.216769,20.086,97973.1015625
1588210264116,2020-04-30T01:31:53.259413,20.131,97973.1015625
1588210264163,2020-04-30T01:31:53.274934,20.178,97972.34375
1588210264210,2020-04-30T01:31:53.289411,20.225,97972.9375
1588210264257,2020-04-30T01:31:53.312815,20.272,97973.4375
1588210264304,2020-04-30T01:31:53.327974,20.319,97973.4375
1588210264351,2020-04-30T01:31:53.375641,20.366,97973.328125
1588210264397,2020-04-30T01:31:53.492144,20.412,97973.15625
1588210264444,2020-04-30T01:31:53.537876,20.459,97972.765625
1588210264491,2020-04-30T01:31:53.552858,20.506,97972.9921875
1588210264538,2020-04-30T01:31:53.589599,20.553,97972.25
1588210264585,2020-04-30T01:31:53.619898,20.6,97971.25
1588210264630,2020-04-30T01:31:53.627635,20.645,97971.078125
1588210264677,2020-04-30T01:31:53.701820,20.692,97971.75
1588210264724,2020-04-30T01:31:53.769805,20.739,97971.828125
1588210264771,2020-04-30T01:31:53.805612,20.786,97971.9921875
1588210264818,2020-04-30T01:31:53.867507,20.833,97971.9921875
1588210264865,2020-04-30T01:31:53.897375,20.88,97971.15625
1588210264912,2020-04-30T01:31:53.905103,20.927,97971.578125
1588210264958,2020-04-30T01:31:53.926974,20.973,97970.75
1588210265005,2020-04-30T01:31:53.983145,21.02,97970.75
1588210265052,2020-04-30T01:31:54.076974,21.067,97970.921875
1588210265098,2020-04-30T01:31:54.115024,21.113,97971.25
1588210265144,2020-04-30T01:31:54.122733,21.159,97972.078125
1588210265191,2020-04-30T01:31:54.147479,21.206,97972.078125
1588210265238,2020-04-30T01:31:54.182819,21.253,97971.9921875
1588210265285,2020-04-30T01:31:54.205335,21.3,97973.0859375
1588210265332,2020-04-30T01:31:54.354967,21.347,97972.921875
1588210265379,2020-04-30T01:31:54.370177,21.394,97973.0078125
1588210265426,2020-04-30T01:31:54.399901,21.441,97973.40625
1588210265471,2020-04-30T01:31:54.422773,21.486,97973.0625
1588210265518,2020-04-30T01:31:54.438147,21.533,97972.25
1588210265565,2020-04-30T01:31:54.452811,21.58,97972.34375
1588210265612,2020-04-30T01:31:54.602480,21.627,97972.5078125
1588210265659,2020-04-30T01:31:54.632873,21.674,97972.34375
1588210265706,2020-04-30T01:31:54.669350,21.721,97972.0078125
1588210265752,2020-04-30T01:31:54.677224,21.767,97971.84375
1588210265799,2020-04-30T01:31:54.706819,21.814,97972.171875
1588210265845,2020-04-30T01:31:54.760178,21.86,97971.921875
1588210265893,2020-04-30T01:31:54.879342,21.908,97971.921875
1588210265938,2020-04-30T01:31:54.910563,21.953,97972.421875
1588210265985,2020-04-30T01:31:54.925833,22.0,97973.171875
1588210266032,2020-04-30T01:31:54.947162,22.047,97973.34375
1588210266079,2020-04-30T01:31:54.978631,22.094,97972.078125
1588210266126,2020-04-30T01:31:54.986765,22.141,97971.921875
1588210266173,2020-04-30T01:31:55.008713,22.188,97972.25
1588210266220,2020-04-30T01:31:55.095540,22.235,97972.34375
1588210266267,2020-04-30T01:31:55.158447,22.282,97972.34375
1588210266313,2020-04-30T01:31:55.202551,22.328,97973.5703125
1588210266359,2020-04-30T01:31:55.225109,22.374,97973.5703125
1588210266406,2020-04-30T01:31:55.256343,22.421,97973.40625
1588210266453,2020-04-30T01:31:55.284875,22.468,97973.0078125
1588210266499,2020-04-30T01:31:55.294344,22.514,97972.671875
1588210266546,2020-04-30T01:31:55.367349,22.561,97973.734375
1588210266593,2020-04-30T01:31:55.464744,22.608,97973.5703125
1588210266640,2020-04-30T01:31:55.494933,22.655,97973.171875
1588210266687,2020-04-30T01:31:55.502782,22.702,97973.40625
1588210266732,2020-04-30T01:31:55.532788,22.747,97973.234375
1588210266779,2020-04-30T01:31:55.540841,22.794,97973.40625
1588210266826,2020-04-30T01:31:55.744010,22.841,97973.0625
1588210266873,2020-04-30T01:31:55.780944,22.888,97973.234375
1588210266920,2020-04-30T01:31:55.800018,22.935,97972.0625
1588210266967,2020-04-30T01:31:55.839445,22.982,97972.9921875
1588210267014,2020-04-30T01:31:55.848503,23.029,97973.4921875
1588210267060,2020-04-30T01:31:55.921954,23.075,97973.65625
1588210267107,2020-04-30T01:31:56.020457,23.122,97973.65625
1588210267153,2020-04-30T01:31:56.035136,23.168,97973.65625
1588210267200,2020-04-30T01:31:56.057819,23.215,97974.21875
1588210267247,2020-04-30T01:31:56.064653,23.262,97973.828125
1588210267293,2020-04-30T01:31:56.089069,23.308,97974.0546875
1588210267340,2020-04-30T01:31:56.199606,23.355,97974.328125
1588210267387,2020-04-30T01:31:56.267267,23.402,97974.15625
1588210267434,2020-04-30T01:31:56.326888,23.449,97973.9921875
1588210267481,2020-04-30T01:31:56.334681,23.496,97973.65625
1588210267528,2020-04-30T01:31:56.342509,23.543,97973.328125
1588210267573,2020-04-30T01:31:56.372791,23.588,97973.3828125
1588210267620,2020-04-30T01:31:56.424375,23.635,97973.3828125
1588210267667,2020-04-30T01:31:56.477177,23.682,97973.546875
1588210267714,2020-04-30T01:31:56.576676,23.729,97973.15625
1588210267761,2020-04-30T01:31:56.586006,23.776,97973.328125
1588210267808,2020-04-30T01:31:56.612006,23.823,97973.5703125
1588210267854,2020-04-30T01:31:56.645359,23.869,97974.234375
1588210267900,2020-04-30T01:31:56.651518,23.915,97975.328125
1588210267947,2020-04-30T01:31:56.672826,23.962,97975.5
1588210267994,2020-04-30T01:31:56.701896,24.009,97975.1640625
1588210268040,2020-04-30T01:31:56.754978,24.055,97974.9921875
1588210268087,2020-04-30T01:31:56.920692,24.102,97974.5546875
1588210268134,2020-04-30T01:31:56.950165,24.149,97974.5546875
1588210268181,2020-04-30T01:31:56.961265,24.196,97975.4765625
1588210268228,2020-04-30T01:31:57.032171,24.243,97975.4765625
1588210268273,2020-04-30T01:31:57.101732,24.288,97974.9765625
1588210268320,2020-04-30T01:31:57.167466,24.335,97973.546875
1588210268367,2020-04-30T01:31:57.175235,24.382,97973.546875
1588210268414,2020-04-30T01:31:57.205641,24.429,97973.8828125
1588210268461,2020-04-30T01:31:57.241257,24.476,97974.140625
1588210268508,2020-04-30T01:31:57.379367,24.523,97973.9765625
1588210268555,2020-04-30T01:31:57.407575,24.57,97974.4765625
1588210268602,2020-04-30T01:31:57.447941,24.617,97974.640625
1588210268647,2020-04-30T01:31:57.475258,24.662,97974.3125
1588210268694,2020-04-30T01:31:57.487172,24.709,97973.71875
1588210268741,2020-04-30T01:31:57.509863,24.756,97973.21875
1588210268788,2020-04-30T01:31:57.513265,24.803,97973.21875
1588210268834,2020-04-30T01:31:57.655561,24.849,97973.21875
1588210268881,2020-04-30T01:31:57.686537,24.896,97974.21875
1588210268928,2020-04-30T01:31:57.722675,24.943,97973.71875
1588210268975,2020-04-30T01:31:57.730119,24.99,97973.3828125
1588210269022,2020-04-30T01:31:57.764372,25.037,97973.8125
1588210269067,2020-04-30T01:31:57.770126,25.082,97973.703125
1588210269114,2020-04-30T01:31:57.932492,25.129,97974.3125
1588210269161,2020-04-30T01:31:57.962627,25.176,97973.9765625
1588210269208,2020-04-30T01:31:57.992331,25.223,97973.8671875
1588210269255,2020-04-30T01:31:58.007407,25.27,97974.203125
1588210269302,2020-04-30T01:31:58.067326,25.317,97974.3671875
1588210269349,2020-04-30T01:31:58.141973,25.364,97973.8671875
1588210269395,2020-04-30T01:31:58.151308,25.41,97973.8671875
1588210269441,2020-04-30T01:31:58.210438,25.456,97973.140625
1588210269488,2020-04-30T01:31:58.241568,25.503,97973.703125
1588210269535,2020-04-30T01:31:58.256139,25.55,97973.8671875
1588210269581,2020-04-30T01:31:58.284867,25.596,97973.8671875
1588210269628,2020-04-30T01:31:58.314965,25.643,97974.125
1588210269675,2020-04-30T01:31:58.344368,25.69,97974.03125
1588210269722,2020-04-30T01:31:58.367488,25.737,97974.03125
1588210269769,2020-04-30T01:31:58.426866,25.784,97974.203125
1588210269814,2020-04-30T01:31:58.487421,25.829,97974.3671875
1588210269861,2020-04-30T01:31:58.554814,25.876,97974.03125
1588210269908,2020-04-30T01:31:58.584383,25.923,97973.8671875
1588210269955,2020-04-30T01:31:58.592388,25.97,97973.8125
1588210270002,2020-04-30T01:31:58.615077,26.017,97973.9765625
1588210270049,2020-04-30T01:31:58.622438,26.064,97973.8125
1588210270096,2020-04-30T01:31:58.697770,26.111,97974.203125
1588210270143,2020-04-30T01:31:58.794455,26.158,97974.03125
1588210270189,2020-04-30T01:31:58.809711,26.204,97973.703125
1588210270236,2020-04-30T01:31:58.824994,26.251,97973.3671875
1588210270283,2020-04-30T01:31:58.832862,26.298,97973.9609375
1588210270329,2020-04-30T01:31:58.871211,26.344,97973.703125
1588210270375,2020-04-30T01:31:58.892896,26.39,97974.625
1588210270422,2020-04-30T01:31:59.043707,26.437,97974.296875
1588210270469,2020-04-30T01:31:59.074315,26.484,97973.796875
1588210270516,2020-04-30T01:31:59.109951,26.531,97973.453125
1588210270563,2020-04-30T01:31:59.117591,26.578,97972.953125
1588210270610,2020-04-30T01:31:59.154686,26.625,97972.625
1588210270657,2020-04-30T01:31:59.174982,26.672,97972.125
1588210270704,2020-04-30T01:31:59.205446,26.719,97972.296875
1588210270749,2020-04-30T01:31:59.319756,26.764,97971.625
1588210270796,2020-04-30T01:31:59.351757,26.811,97972.1875
1588210270843,2020-04-30T01:31:59.388792,26.858,97971.625
1588210270890,2020-04-30T01:31:59.417349,26.905,97972.84375
1588210270936,2020-04-30T01:31:59.425198,26.951,97972.6875
1588210270983,2020-04-30T01:31:59.448084,26.998,97972.515625
1588210271030,2020-04-30T01:31:59.477936,27.045,97973.109375
1588210271077,2020-04-30T01:31:59.627478,27.092,97972.2734375
1588210271124,2020-04-30T01:31:59.658454,27.139,97972.2734375
1588210271169,2020-04-30T01:31:59.673859,27.184,97972.4375
1588210271216,2020-04-30T01:31:59.702697,27.231,97972.609375
1588210271263,2020-04-30T01:31:59.725700,27.278,97972.78125
1588210271310,2020-04-30T01:31:59.876235,27.325,97973.109375
1588210271357,2020-04-30T01:31:59.919800,27.372,97972.34375
1588210271404,2020-04-30T01:31:59.943987,27.419,97972.609375
1588210271451,2020-04-30T01:31:59.950279,27.466,97972.1875
1588210271498,2020-04-30T01:31:59.980177,27.513,97972.34375
1588210271543,2020-04-30T01:32:00.002625,27.558,97971.515625
1588210271590,2020-04-30T01:32:00.105578,27.605,97971.34375
1588210271637,2020-04-30T01:32:00.153403,27.652,97971.515625
1588210271684,2020-04-30T01:32:00.212807,27.699,97972.78125
1588210271730,2020-04-30T01:32:00.220187,27.745,97972.015625
1588210271777,2020-04-30T01:32:00.227763,27.792,97971.9375
1588210271824,2020-04-30T01:32:00.279899,27.839,97971.9375
1588210271871,2020-04-30T01:32:00.347530,27.886,97971.7734375
1588210271918,2020-04-30T01:32:00.459906,27.933,97971.7734375
1588210271963,2020-04-30T01:32:00.489471,27.978,97972.109375
1588210272010,2020-04-30T01:32:00.497817,28.025,97971.609375
1588210272057,2020-04-30T01:32:00.505026,28.072,97972.53125
1588210272104,2020-04-30T01:32:00.564855,28.119,97972.359375
1588210272151,2020-04-30T01:32:00.639473,28.166,97971.859375
1588210272198,2020-04-30T01:32:00.694192,28.213,97971.359375
1588210272245,2020-04-30T01:32:00.708845,28.26,97971.03125
1588210272291,2020-04-30T01:32:00.739617,28.306,97970.6953125
1588210272338,2020-04-30T01:32:00.784070,28.353,97970.53125
1588210272384,2020-04-30T01:32:00.836239,28.399,97970.53125
1588210272431,2020-04-30T01:32:00.984419,28.446,97971.25
1588210272477,2020-04-30T01:32:00.986393,28.492,97971.59375
1588210272524,2020-04-30T01:32:01.044492,28.539,97971.359375
1588210272571,2020-04-30T01:32:01.052259,28.586,97971.421875
1588210272618,2020-04-30T01:32:01.144180,28.633,97971.359375
1588210272665,2020-04-30T01:32:01.251467,28.68,97971.359375
1588210272712,2020-04-30T01:32:01.539831,28.727,97970.9375
1588210272757,2020-04-30T01:32:01.542161,28.772,97970.9375
1588210272804,2020-04-30T01:32:01.615236,28.819,97970.7734375
1588210272851,2020-04-30T01:32:01.668681,28.866,97970.4375
1588210272898,2020-04-30T01:32:01.698827,28.913,97970.6953125
1588210272945,2020-04-30T01:32:01.817285,28.96,97970.359375
1588210272992,2020-04-30T01:32:01.847544,29.007,97970.359375
1588210273039,2020-04-30T01:32:01.892344,29.054,97970.1953125
1588210273085,2020-04-30T01:32:01.952129,29.1,97971.03125
1588210273132,2020-04-30T01:32:01.954830,29.147,97971.25
1588210273178,2020-04-30T01:32:02.170120,29.193,97971.84375
1588210273225,2020-04-30T01:32:02.172798,29.24,97971.84375
1588210273271,2020-04-30T01:32:02.223824,29.286,97971.515625
1588210273318,2020-04-30T01:32:02.231736,29.333,97971.421875
1588210273365,2020-04-30T01:32:02.432676,29.38,97971.84375
1588210273412,2020-04-30T01:32:02.449067,29.427,97971.90625
1588210273459,2020-04-30T01:32:02.505212,29.474,97971.734375
1588210273506,2020-04-30T01:32:02.509279,29.521,97971.6796875
1588210273551,2020-04-30T01:32:02.531859,29.566,97972.015625
1588210273598,2020-04-30T01:32:02.682165,29.613,97972.734375
1588210273645,2020-04-30T01:32:02.718977,29.66,97973.234375
1588210273692,2020-04-30T01:32:02.788658,29.707,97973.234375
1588210273739,2020-04-30T01:32:02.989273,29.754,97973.40625
1588210273786,2020-04-30T01:32:03.265892,29.801,97973.90625
1588210273832,2020-04-30T01:32:03.423126,29.847,97973.34375
1588210273879,2020-04-30T01:32:03.467831,29.894,97973.1875
1588210273926,2020-04-30T01:32:03.484292,29.941,97972.75
1588210273972,2020-04-30T01:32:03.513581,29.987,97973.34375
1588210274019,2020-04-30T01:32:03.559445,30.034,97973.578125
1588210274065,2020-04-30T01:32:03.793551,30.08,97973.671875
1588210274112,2020-04-30T01:32:03.822069,30.127,97973.5
1588210274159,2020-04-30T01:32:03.896774,30.174,97973.0
1588210274206,2020-04-30T01:32:03.922784,30.221,97973.5625
1588210274253,2020-04-30T01:32:04.112388,30.268,97973.8125
1588210274300,2020-04-30T01:32:04.166868,30.315,97973.8125
1588210274347,2020-04-30T01:32:04.195099,30.362,97973.484375
1588210274392,2020-04-30T01:32:04.300605,30.407,97973.984375
1588210274439,2020-04-30T01:32:04.347515,30.454,97973.71875
1588210274486,2020-04-30T01:32:04.376783,30.501,97973.1640625
1588210274533,2020-04-30T01:32:04.384759,30.548,97973.671875
1588210274580,2020-04-30T01:32:04.420437,30.595,97973.671875
1588210274626,2020-04-30T01:32:04.442749,30.641,97973.328125
1588210274673,2020-04-30T01:32:04.472560,30.688,97973.71875
1588210274720,2020-04-30T01:32:04.592674,30.735,97973.1640625
1588210274767,2020-04-30T01:32:04.667483,30.782,97973.890625
1588210274814,2020-04-30T01:32:04.690110,30.829,97973.71875
1588210274859,2020-04-30T01:32:04.699233,30.874,97972.71875
1588210274906,2020-04-30T01:32:04.749555,30.921,97971.890625
1588210274953,2020-04-30T01:32:04.751770,30.968,97972.3125
1588210275000,2020-04-30T01:32:04.869588,31.015,97972.484375
1588210275047,2020-04-30T01:32:04.872231,31.062,97972.6484375
1588210275094,2020-04-30T01:32:05.007460,31.109,97973.375
1588210275141,2020-04-30T01:32:05.028245,31.156,97973.203125
1588210275187,2020-04-30T01:32:05.148870,31.202,97973.546875
1588210275233,2020-04-30T01:32:05.209721,31.248,97974.546875
1588210275280,2020-04-30T01:32:05.254010,31.295,97974.046875
1588210275327,2020-04-30T01:32:05.305381,31.342,97973.484375
1588210275373,2020-04-30T01:32:05.484654,31.388,97972.984375
1588210275420,2020-04-30T01:32:05.487087,31.435,97973.203125
1588210275467,2020-04-30T01:32:05.531501,31.482,97973.0390625
1588210275514,2020-04-30T01:32:05.561761,31.529,97972.484375
1588210275561,2020-04-30T01:32:05.621712,31.576,97972.1484375
1588210275606,2020-04-30T01:32:05.747932,31.621,97972.0390625
1588210275653,2020-04-30T01:32:05.762654,31.668,97971.875
1588210275700,2020-04-30T01:32:05.838436,31.715,97972.625
1588210275747,2020-04-30T01:32:05.897973,31.762,97972.96875
1588210275794,2020-04-30T01:32:05.980785,31.809,97973.5546875
1588210275841,2020-04-30T01:32:06.054964,31.856,97973.0546875
1588210275888,2020-04-30T01:32:06.077585,31.903,97972.890625
1588210275935,2020-04-30T01:32:06.084599,31.95,97972.4609375
1588210275980,2020-04-30T01:32:06.114892,31.995,97972.625
1588210276027,2020-04-30T01:32:06.139069,32.042,97972.796875
1588210276074,2020-04-30T01:32:06.288797,32.089,97972.4609375
1588210276121,2020-04-30T01:32:06.392686,32.136,97972.375
1588210276167,2020-04-30T01:32:06.504653,32.182,97973.0390625
1588210276214,2020-04-30T01:32:06.564998,32.229,97973.625
1588210276261,2020-04-30T01:32:06.579545,32.276,97974.0625
1588210276308,2020-04-30T01:32:06.609991,32.323,97973.796875
1588210276353,2020-04-30T01:32:06.672800,32.368,97973.625
1588210276400,2020-04-30T01:32:06.872093,32.415,97974.21875
1588210276447,2020-04-30T01:32:06.874164,32.462,97973.46875
1588210276494,2020-04-30T01:32:06.969557,32.509,97973.296875
1588210276541,2020-04-30T01:32:06.971672,32.556,97973.5546875
1588210276588,2020-04-30T01:32:07.166626,32.603,97973.21875
1588210276635,2020-04-30T01:32:07.188058,32.65,97973.0546875
1588210276682,2020-04-30T01:32:07.196581,32.697,97972.390625
1588210276727,2020-04-30T01:32:07.217848,32.742,97972.390625
1588210276774,2020-04-30T01:32:07.256266,32.789,97972.78125
1588210276821,2020-04-30T01:32:07.339040,32.836,97972.78125
1588210276868,2020-04-30T01:32:07.427126,32.883,97972.78125
1588210276914,2020-04-30T01:32:07.435305,32.929,97972.4453125
1588210276961,2020-04-30T01:32:07.442120,32.976,97972.609375
1588210277008,2020-04-30T01:32:07.464809,33.023,97972.609375
1588210277055,2020-04-30T01:32:07.472122,33.07,97972.78125
1588210277101,2020-04-30T01:32:07.524586,33.116,97972.703125
1588210277147,2020-04-30T01:32:07.614624,33.162,97971.28125
1588210277194,2020-04-30T01:32:07.644905,33.209,97971.109375
1588210277241,2020-04-30T01:32:07.659638,33.256,97970.9453125
1588210277288,2020-04-30T01:32:07.704908,33.303,97971.28125
1588210277335,2020-04-30T01:32:07.719616,33.35,97971.609375
1588210277382,2020-04-30T01:32:07.924446,33.397,97971.5546875
1588210277429,2020-04-30T01:32:07.970884,33.444,97971.046875
1588210277474,2020-04-30T01:32:08.030628,33.489,97971.5546875
1588210277521,2020-04-30T01:32:08.051536,33.536,97971.3828125
1588210277568,2020-04-30T01:32:08.229831,33.583,97971.5546875
1588210277615,2020-04-30T01:32:08.246110,33.63,97972.4453125
1588210277662,2020-04-30T01:32:08.260366,33.677,97972.28125
1588210277708,2020-04-30T01:32:08.268259,33.723,97971.8828125
1588210277755,2020-04-30T01:32:08.275386,33.77,97971.78125
1588210277802,2020-04-30T01:32:08.328462,33.817,97971.109375
1588210277848,2020-04-30T01:32:08.357312,33.863,97971.28125
1588210277894,2020-04-30T01:32:08.417842,33.909,97972.203125
1588210277941,2020-04-30T01:32:08.448322,33.956,97973.09375
1588210277988,2020-04-30T01:32:08.477752,34.003,97973.375
1588210278035,2020-04-30T01:32:08.522661,34.05,97973.0390625
1588210278082,2020-04-30T01:32:08.537880,34.097,97972.8671875
1588210278129,2020-04-30T01:32:08.546868,34.144,97972.3671875
1588210278176,2020-04-30T01:32:08.555971,34.191,97972.203125
1588210278223,2020-04-30T01:32:08.576782,34.238,97972.3671875
1588210278268,2020-04-30T01:32:08.584309,34.283,97972.0390625
1588210278315,2020-04-30T01:32:08.643919,34.33,97972.5390625
1588210278362,2020-04-30T01:32:08.755009,34.377,97973.203125
1588210278409,2020-04-30T01:32:08.785341,34.424,97972.5390625
1588210278456,2020-04-30T01:32:08.800024,34.471,97972.3671875
1588210278502,2020-04-30T01:32:08.822756,34.517,97972.3671875
1588210278549,2020-04-30T01:32:08.829955,34.564,97972.4296875
1588210278596,2020-04-30T01:32:08.859654,34.611,97972.0390625
1588210278643,2020-04-30T01:32:08.861802,34.658,97972.4296875
1588210278688,2020-04-30T01:32:08.897144,34.703,97972.2578125
1588210278735,2020-04-30T01:32:08.912622,34.75,97972.3515625
1588210278782,2020-04-30T01:32:08.920202,34.797,97971.9296875
1588210278829,2020-04-30T01:32:08.980032,34.844,97972.09375
1588210278876,2020-04-30T01:32:09.033192,34.891,97972.6875
1588210278923,2020-04-30T01:32:09.047511,34.938,97972.6875
1588210278970,2020-04-30T01:32:09.062762,34.985,97972.8515625
1588210279015,2020-04-30T01:32:09.077521,35.03,97972.9140625
1588210279062,2020-04-30T01:32:09.092143,35.077,97972.9140625
1588210279109,2020-04-30T01:32:09.101813,35.124,97972.1875
1588210279156,2020-04-30T01:32:09.108914,35.171,97972.1875
1588210279203,2020-04-30T01:32:09.131795,35.218,97972.6875
1588210279249,2020-04-30T01:32:09.138988,35.264,97972.8515625
1588210279296,2020-04-30T01:32:09.161695,35.311,97973.015625
1588210279343,2020-04-30T01:32:09.189647,35.358,97973.078125
1588210279389,2020-04-30T01:32:09.197511,35.404,97971.1875
1588210279435,2020-04-30T01:32:09.279737,35.45,97971.1875
1588210279482,2020-04-30T01:32:09.310011,35.497,97971.90625
1588210279529,2020-04-30T01:32:09.339656,35.544,97972.078125
1588210279576,2020-04-30T01:32:09.354964,35.591,97972.9140625
1588210279623,2020-04-30T01:32:09.371546,35.638,97972.9140625
1588210279670,2020-04-30T01:32:09.379289,35.685,97972.078125
1588210279717,2020-04-30T01:32:09.386432,35.732,97971.90625
1588210279764,2020-04-30T01:32:09.409554,35.779,97971.90625
1588210279809,2020-04-30T01:32:09.416815,35.824,97971.2421875
1588210279856,2020-04-30T01:32:09.439388,35.871,97971.5
1588210279903,2020-04-30T01:32:09.467347,35.918,97971.328125
1588210279950,2020-04-30T01:32:09.470632,35.965,97971.7265625
1588210279997,2020-04-30T01:32:09.587163,36.012,97971.890625
1588210280043,2020-04-30T01:32:09.589208,36.058,97972.5625
1588210280090,2020-04-30T01:32:09.617185,36.105,97973.2265625
1588210280137,2020-04-30T01:32:09.647987,36.152,97973.890625
1588210280183,2020-04-30T01:32:09.656660,36.198,97972.4140625
1588210280229,2020-04-30T01:32:09.664107,36.244,97971.90625
1588210280276,2020-04-30T01:32:09.686642,36.291,97971.40625
1588210280323,2020-04-30T01:32:09.693017,36.338,97971.5
1588210280370,2020-04-30T01:32:09.722801,36.385,97971.5
1588210280417,2020-04-30T01:32:09.744844,36.432,97971.171875
1588210280464,2020-04-30T01:32:09.813596,36.479,97971.171875
1588210280511,2020-04-30T01:32:09.827650,36.526,97971.671875
1588210280556,2020-04-30T01:32:09.864746,36.571,97971.890625
1588210280603,2020-04-30T01:32:09.883562,36.618,97971.890625
1588210280650,2020-04-30T01:32:09.896598,36.665,97971.8125
1588210280697,2020-04-30T01:32:09.912166,36.712,97971.8125
1588210280744,2020-04-30T01:32:09.926491,36.759,97971.3125
1588210280790,2020-04-30T01:32:09.964328,36.805,97970.8125
1588210280837,2020-04-30T01:32:09.971628,36.852,97970.984375
1588210280884,2020-04-30T01:32:09.993173,36.899,97971.375
1588210280931,2020-04-30T01:32:10.000072,36.946,97971.203125
1588210280977,2020-04-30T01:32:10.023168,36.992,97971.375
1588210281023,2020-04-30T01:32:10.030441,37.038,97971.546875
1588210281070,2020-04-30T01:32:10.082872,37.085,97972.046875
1588210281117,2020-04-30T01:32:10.173421,37.132,97970.3125
1588210281164,2020-04-30T01:32:10.189377,37.179,97970.3125
1588210281211,2020-04-30T01:32:10.203668,37.226,97969.5625
1588210281258,2020-04-30T01:32:10.211653,37.273,97969.390625
1588210281305,2020-04-30T01:32:10.218479,37.32,97969.5625
1588210281350,2020-04-30T01:32:10.240173,37.365,97969.0
1588210281397,2020-04-30T01:32:10.256052,37.412,97968.828125
1588210281444,2020-04-30T01:32:10.266863,37.459,97969.5625
1588210281491,2020-04-30T01:32:10.271783,37.506,97969.21875
1588210281538,2020-04-30T01:32:10.277749,37.553,97969.21875
1588210281584,2020-04-30T01:32:10.300499,37.599,97969.21875
1588210281631,2020-04-30T01:32:10.344819,37.646,97969.390625
1588210281678,2020-04-30T01:32:10.391104,37.693,97969.0546875
1588210281725,2020-04-30T01:32:10.421234,37.74,97969.1484375
1588210281770,2020-04-30T01:32:10.435747,37.785,97969.3125
1588210281817,2020-04-30T01:32:10.464841,37.832,97968.8125
1588210281864,2020-04-30T01:32:10.491068,37.879,97969.375
1588210281911,2020-04-30T01:32:10.496572,37.926,97969.375
1588210281958,2020-04-30T01:32:10.512705,37.973,97970.203125
1588210282005,2020-04-30T01:32:10.519137,38.02,97970.546875
1588210282052,2020-04-30T01:32:10.528063,38.067,97970.203125
1588210282099,2020-04-30T01:32:10.541991,38.114,97969.875
1588210282145,2020-04-30T01:32:10.549190,38.16,97970.046875
1588210282191,2020-04-30T01:32:10.566996,38.206,97970.546875
1588210282238,2020-04-30T01:32:10.579699,38.253,97970.96875
1588210282285,2020-04-30T01:32:10.586568,38.3,97971.046875
1588210282331,2020-04-30T01:32:10.637604,38.346,97971.546875
1588210282378,2020-04-30T01:32:10.697738,38.393,97971.875
1588210282425,2020-04-30T01:32:10.699251,38.44,97972.46875
1588210282472,2020-04-30T01:32:10.727183,38.487,97972.5625
1588210282519,2020-04-30T01:32:10.729369,38.534,97972.6328125
1588210282566,2020-04-30T01:32:10.764696,38.581,97973.5625
1588210282613,2020-04-30T01:32:10.773637,38.628,97973.0625
1588210282658,2020-04-30T01:32:10.788948,38.673,97972.7265625
1588210282705,2020-04-30T01:32:10.795526,38.72,97972.46875
1588210282752,2020-04-30T01:32:10.803144,38.767,97973.7265625
1588210282799,2020-04-30T01:32:10.810949,38.814,97974.625
1588210282846,2020-04-30T01:32:10.825941,38.861,97974.1171875
1588210282893,2020-04-30T01:32:10.833052,38.908,97973.953125
1588210282939,2020-04-30T01:32:10.840366,38.954,97974.1171875
1588210282986,2020-04-30T01:32:10.856087,39.001,97975.125
1588210283032,2020-04-30T01:32:10.945597,39.047,97974.625
1588210283079,2020-04-30T01:32:10.976527,39.094,97974.2890625
1588210283125,2020-04-30T01:32:11.004692,39.14,97973.953125
1588210283172,2020-04-30T01:32:11.020002,39.187,97972.453125
1588210283219,2020-04-30T01:32:11.034714,39.234,97972.28125
1588210283266,2020-04-30T01:32:11.042655,39.281,97971.953125
1588210283313,2020-04-30T01:32:11.049690,39.328,97972.1171875
1588210283360,2020-04-30T01:32:11.074438,39.375,97972.546875
1588210283407,2020-04-30T01:32:11.081542,39.422,97972.203125
1588210283452,2020-04-30T01:32:11.096844,39.467,97972.703125
1588210283499,2020-04-30T01:32:11.103968,39.514,97973.2109375
1588210283546,2020-04-30T01:32:11.110909,39.561,97972.546875
1588210283593,2020-04-30T01:32:11.132830,39.608,97972.546875
1588210283640,2020-04-30T01:32:11.192748,39.655,97972.875
1588210283686,2020-04-30T01:32:11.222832,39.701,97973.046875
1588210283733,2020-04-30T01:32:11.253099,39.748,97972.78125
1588210283780,2020-04-30T01:32:11.268249,39.795,97973.28125
1588210283826,2020-04-30T01:32:11.283097,39.841,97972.78125
1588210283873,2020-04-30T01:32:11.312212,39.888,97973.046875
1588210283919,2020-04-30T01:32:11.314346,39.934,97973.375
1588210283966,2020-04-30T01:32:11.342859,39.981,97972.875
1588210284013,2020-04-30T01:32:11.344254,40.028,97973.2109375
1588210284060,2020-04-30T01:32:11.357963,40.075,97973.7109375
1588210284107,2020-04-30T01:32:11.380181,40.122,97973.546875
1588210284154,2020-04-30T01:32:11.388097,40.169,97973.546875
1588210284199,2020-04-30T01:32:11.410638,40.214,97973.546875
1588210284246,2020-04-30T01:32:11.417982,40.261,97972.953125
1588210284293,2020-04-30T01:32:11.455313,40.308,97972.453125
1588210284340,2020-04-30T01:32:11.470601,40.355,97971.203125
1588210284387,2020-04-30T01:32:11.503153,40.402,97970.609375
1588210284434,2020-04-30T01:32:11.531579,40.449,97971.703125
1588210284480,2020-04-30T01:32:11.546980,40.495,97972.046875
1588210284527,2020-04-30T01:32:11.561593,40.542,97972.375
1588210284573,2020-04-30T01:32:11.576967,40.588,97972.046875
1588210284620,2020-04-30T01:32:11.598178,40.635,97972.09375
1588210284666,2020-04-30T01:32:11.605952,40.681,97972.265625
1588210284713,2020-04-30T01:32:11.636024,40.728,97972.265625
1588210284760,2020-04-30T01:32:11.657799,40.775,97972.1875
1588210284807,2020-04-30T01:32:11.659252,40.822,97972.359375
1588210284854,2020-04-30T01:32:11.674259,40.869,97973.078125
1588210284901,2020-04-30T01:32:11.696007,40.916,97972.265625
1588210284946,2020-04-30T01:32:11.732749,40.961,97972.03125
1588210284993,2020-04-30T01:32:11.778362,41.008,97971.265625
1588210285040,2020-04-30T01:32:11.807597,41.055,97971.09375
1588210285087,2020-04-30T01:32:11.823016,41.102,97971.5234375
1588210285134,2020-04-30T01:32:11.841780,41.149,97971.359375
1588210285181,2020-04-30T01:32:11.856799,41.196,97971.09375
1588210285227,2020-04-30T01:32:11.871532,41.242,97971.09375
1588210285274,2020-04-30T01:32:11.880939,41.289,97971.265625
1588210285321,2020-04-30T01:32:11.897465,41.336,97970.9375
1588210285367,2020-04-30T01:32:11.909829,41.382,97970.765625
1588210285414,2020-04-30T01:32:11.918316,41.429,97971.1875
1588210285460,2020-04-30T01:32:11.927617,41.475,97971.75
1588210285507,2020-04-30T01:32:11.934796,41.522,97971.1875
1588210285554,2020-04-30T01:32:11.942692,41.569,97971.578125
1588210285601,2020-04-30T01:32:11.949775,41.616,97972.578125
1588210285648,2020-04-30T01:32:11.980073,41.663,97973.34375
1588210285695,2020-04-30T01:32:12.011129,41.71,97973.34375
1588210285740,2020-04-30T01:32:12.047220,41.755,97974.0078125
1588210285787,2020-04-30T01:32:12.069556,41.802,97973.75
1588210285834,2020-04-30T01:32:12.071438,41.849,97973.5859375
1588210285881,2020-04-30T01:32:12.101317,41.896,97974.0859375
1588210285928,2020-04-30T01:32:12.115502,41.943,97974.0078125
1588210285975,2020-04-30T01:32:12.131410,41.99,97974.34375
1588210286021,2020-04-30T01:32:12.145815,42.036,97974.5078125
1588210286068,2020-04-30T01:32:12.154046,42.083,97974.5078125
1588210286115,2020-04-30T01:32:12.175015,42.13,97973.078125
1588210286162,2020-04-30T01:32:12.182967,42.177,97973.078125
1588210286207,2020-04-30T01:32:12.190234,42.222,97973.5859375
1588210286254,2020-04-30T01:32:12.204807,42.269,97973.75
1588210286301,2020-04-30T01:32:12.206880,42.316,97973.5234375
1588210286348,2020-04-30T01:32:12.219775,42.363,97973.75
1588210286395,2020-04-30T01:32:12.228061,42.41,97973.078125
1588210286442,2020-04-30T01:32:12.243576,42.457,97972.75
1588210286489,2020-04-30T01:32:12.250761,42.504,97972.34375
1588210286536,2020-04-30T01:32:12.258540,42.551,97972.171875
1588210286581,2020-04-30T01:32:12.303078,42.596,97971.921875
1588210286628,2020-04-30T01:32:12.348057,42.643,97971.75
1588210286675,2020-04-30T01:32:12.363877,42.69,97972.171875
1588210286722,2020-04-30T01:32:12.378117,42.737,97971.84375
1588210286769,2020-04-30T01:32:12.392954,42.784,97971.34375
1588210286815,2020-04-30T01:32:12.422680,42.83,97971.8984375
1588210286862,2020-04-30T01:32:12.440410,42.877,97971.8984375
1588210286909,2020-04-30T01:32:12.444678,42.924,97972.5
1588210286955,2020-04-30T01:32:12.455939,42.97,97972.90625
1588210287001,2020-04-30T01:32:12.461594,43.016,97973.0625
1588210287048,2020-04-30T01:32:12.469534,43.063,97973.65625
1588210287095,2020-04-30T01:32:12.483541,43.11,97973.828125
1588210287142,2020-04-30T01:32:12.506081,43.157,97973.484375
1588210287189,2020-04-30T01:32:12.521935,43.204,97973.0625
1588210287236,2020-04-30T01:32:12.535174,43.251,97973.0625
1588210287283,2020-04-30T01:32:12.585536,43.298,97973.328125
1588210287328,2020-04-30T01:32:12.601857,43.343,97972.65625
1588210287375,2020-04-30T01:32:12.613360,43.39,97972.0625
1588210287422,2020-04-30T01:32:12.627657,43.437,97971.8984375
1588210287469,2020-04-30T01:32:12.641791,43.484,97972.328125
1588210287516,2020-04-30T01:32:12.659393,43.531,97972.328125
1588210287562,2020-04-30T01:32:12.676091,43.577,97971.65625
1588210287609,2020-04-30T01:32:12.700334,43.624,97971.484375
1588210287656,2020-04-30T01:32:12.715872,43.671,97971.75
1588210287702,2020-04-30T01:32:12.730181,43.717,97971.75
1588210287748,2020-04-30T01:32:12.738602,43.763,97972.078125
1588210287795,2020-04-30T01:32:12.745198,43.81,97971.9140625
1588210287842,2020-04-30T01:32:12.759786,43.857,97971.9140625
1588210287889,2020-04-30T01:32:12.769471,43.904,97971.9140625
1588210287936,2020-04-30T01:32:12.776949,43.951,97973.140625
1588210287983,2020-04-30T01:32:12.786052,43.998,97972.75
1588210288030,2020-04-30T01:32:12.801236,44.045,97972.8125
1588210288075,2020-04-30T01:32:12.817585,44.09,97972.25
1588210288122,2020-04-30T01:32:12.860034,44.137,97971.9140625
1588210288169,2020-04-30T01:32:12.873223,44.184,97972.25
1588210288216,2020-04-30T01:32:12.887314,44.231,97972.4140625
1588210288263,2020-04-30T01:32:12.932377,44.278,97972.4140625
1588210288310,2020-04-30T01:32:12.934628,44.325,97972.8125
1588210288356,2020-04-30T01:32:12.962360,44.371,97972.96875
1588210288403,2020-04-30T01:32:12.978655,44.418,97973.140625
1588210288449,2020-04-30T01:32:12.986802,44.464,97973.140625
1588210288496,2020-04-30T01:32:12.993556,44.511,97972.75
1588210288542,2020-04-30T01:32:13.009010,44.557,97972.8125
1588210288589,2020-04-30T01:32:13.023439,44.604,97972.578125
1588210288636,2020-04-30T01:32:13.044963,44.651,97972.4140625
1588210288683,2020-04-30T01:32:13.053278,44.698,97972.8125
1588210288730,2020-04-30T01:32:13.061063,44.745,97972.8125
1588210288777,2020-04-30T01:32:13.075673,44.792,97972.4140625
1588210288824,2020-04-30T01:32:13.083427,44.839,97972.8125
1588210288869,2020-04-30T01:32:13.120512,44.884,97972.96875
1588210288916,2020-04-30T01:32:13.138912,44.931,97973.46875
1588210288963,2020-04-30T01:32:13.151990,44.978,97972.96875
1588210289010,2020-04-30T01:32:13.166658,45.025,97972.640625
1588210289057,2020-04-30T01:32:13.183877,45.072,97973.5625
1588210289103,2020-04-30T01:32:13.196490,45.118,97972.3046875
1588210289150,2020-04-30T01:32:13.225777,45.165,97972.3046875
1588210289197,2020-04-30T01:32:13.241363,45.212,97971.8046875
1588210289244,2020-04-30T01:32:13.255645,45.259,97972.234375
1588210289289,2020-04-30T01:32:13.262364,45.304,97972.0625
1588210289336,2020-04-30T01:32:13.265544,45.351,97971.7265625
1588210289383,2020-04-30T01:32:13.286514,45.398,97971.7265625
1588210289430,2020-04-30T01:32:13.293775,45.445,97971.5625
1588210289477,2020-04-30T01:32:13.303537,45.492,97972.125
1588210289524,2020-04-30T01:32:13.315152,45.539,97972.625
1588210289571,2020-04-30T01:32:13.323466,45.586,97972.546875
1588210289618,2020-04-30T01:32:13.331924,45.633,97972.546875
1588210289664,2020-04-30T01:32:13.352896,45.679,97973.375
1588210289710,2020-04-30T01:32:13.354825,45.725,97973.296875
1588210289757,2020-04-30T01:32:13.399341,45.772,97973.546875
1588210289804,2020-04-30T01:32:13.415517,45.819,97973.546875
1588210289851,2020-04-30T01:32:13.432489,45.866,97973.375
1588210289897,2020-04-30T01:32:13.458108,45.912,97972.953125
1588210289944,2020-04-30T01:32:13.474131,45.959,97973.375
1588210289991,2020-04-30T01:32:13.488514,46.006,97972.875
1588210290038,2020-04-30T01:32:13.506312,46.053,97972.453125
1588210290085,2020-04-30T01:32:13.519195,46.1,97972.453125
1588210290130,2020-04-30T01:32:13.536270,46.145,97972.875
1588210290177,2020-04-30T01:32:13.544954,46.192,97972.953125
1588210290224,2020-04-30T01:32:13.549405,46.239,97973.125
1588210290271,2020-04-30T01:32:13.565779,46.286,97973.125
1588210290318,2020-04-30T01:32:13.576531,46.333,97973.296875
1588210290365,2020-04-30T01:32:13.586584,46.38,97973.546875
1588210290412,2020-04-30T01:32:13.597670,46.427,97973.21875
1588210290458,2020-04-30T01:32:13.605267,46.473,97973.046875
1588210290505,2020-04-30T01:32:13.610869,46.52,97973.21875
1588210290551,2020-04-30T01:32:13.632611,46.566,97973.265625
1588210290598,2020-04-30T01:32:13.674915,46.613,97972.7734375
1588210290644,2020-04-30T01:32:13.694238,46.659,97972.609375
1588210290691,2020-04-30T01:32:13.721764,46.706,97972.609375
1588210290738,2020-04-30T01:32:13.739068,46.753,97972.9375
1588210290785,2020-04-30T01:32:13.751518,46.8,97972.7734375
1588210290832,2020-04-30T01:32:13.766587,46.847,97972.609375
1588210290879,2020-04-30T01:32:13.794913,46.894,97973.359375
1588210290926,2020-04-30T01:32:13.797024,46.941,97973.359375
1588210290971,2020-04-30T01:32:13.817616,46.986,97973.359375
1588210291018,2020-04-30T01:32:13.819603,47.033,97973.53125
1588210291065,2020-04-30T01:32:13.840582,47.08,97973.109375
1588210291112,2020-04-30T01:32:13.841998,47.127,97973.265625
1588210291159,2020-04-30T01:32:13.858435,47.174,97973.4375
1588210291206,2020-04-30T01:32:13.864357,47.221,97973.109375
1588210291252,2020-04-30T01:32:13.877942,47.267,97972.859375
1588210291299,2020-04-30T01:32:13.883438,47.314,97972.4375
1588210291345,2020-04-30T01:32:13.893212,47.36,97973.359375
1588210291392,2020-04-30T01:32:13.908661,47.407,97973.703125
1588210291438,2020-04-30T01:32:13.952400,47.453,97973.859375
1588210291485,2020-04-30T01:32:13.954461,47.5,97973.59375
1588210291532,2020-04-30T01:32:13.969137,47.547,97973.25
1588210291579,2020-04-30T01:32:13.999296,47.594,97973.25
1588210291626,2020-04-30T01:32:14.027330,47.641,97973.09375
1588210291673,2020-04-30T01:32:14.042745,47.688,97972.921875
1588210291720,2020-04-30T01:32:14.057351,47.735,97973.09375
1588210291767,2020-04-30T01:32:14.072776,47.782,97972.75
1588210291813,2020-04-30T01:32:14.087335,47.828,97972.75
1588210291859,2020-04-30T01:32:14.118705,47.874,97972.5859375
1588210291906,2020-04-30T01:32:14.132682,47.921,97972.75
1588210291953,2020-04-30T01:32:14.148292,47.968,97973.1796875
1588210291999,2020-04-30T01:32:14.155313,48.014,97973.34375
1588210292046,2020-04-30T01:32:14.163420,48.061,97972.5859375
1588210292093,2020-04-30T01:32:14.170219,48.108,97973.09375
1588210292140,2020-04-30T01:32:14.193357,48.155,97973.25
1588210292187,2020-04-30T01:32:14.201141,48.202,97973.09375
1588210292232,2020-04-30T01:32:14.274878,48.247,97972.921875
1588210292279,2020-04-30T01:32:14.276948,48.294,97972.921875
1588210292326,2020-04-30T01:32:14.291785,48.341,97972.75
1588210292373,2020-04-30T01:32:14.321052,48.388,97972.359375
1588210292420,2020-04-30T01:32:14.335750,48.435,97972.53125
1588210292467,2020-04-30T01:32:14.351103,48.482,97972.6953125
1588210292514,2020-04-30T01:32:14.365817,48.529,97973.421875
1588210292560,2020-04-30T01:32:14.373196,48.575,97973.84375
1588210292607,2020-04-30T01:32:14.380545,48.622,97972.84375
1588210292653,2020-04-30T01:32:14.402627,48.668,97972.25
1588210292700,2020-04-30T01:32:14.425501,48.715,97972.6796875
1588210292747,2020-04-30T01:32:14.433307,48.762,97972.84375
1588210292793,2020-04-30T01:32:14.440425,48.808,97972.84375
1588210292840,2020-04-30T01:32:14.464254,48.855,97972.1796875
1588210292887,2020-04-30T01:32:14.537526,48.902,97972.515625
1588210292934,2020-04-30T01:32:14.552876,48.949,97972.34375
1588210292981,2020-04-30T01:32:14.567194,48.996,97972.34375
1588210293028,2020-04-30T01:32:14.569112,49.043,97972.1796875
1588210293073,2020-04-30T01:32:14.597198,49.088,97972.734375
1588210293120,2020-04-30T01:32:14.613612,49.135,97973.1640625
1588210293167,2020-04-30T01:32:14.629202,49.182,97972.9921875
1588210293214,2020-04-30T01:32:14.643923,49.229,97973.5
1588210293261,2020-04-30T01:32:14.661438,49.276,97973.40625
1588210293308,2020-04-30T01:32:14.676894,49.323,97974.0
1588210293354,2020-04-30T01:32:14.681534,49.369,97974.0
1588210293401,2020-04-30T01:32:14.695427,49.416,97974.421875
1588210293448,2020-04-30T01:32:14.706134,49.463,97974.671875
1588210293494,2020-04-30T01:32:14.710706,49.509,97974.328125
1588210293540,2020-04-30T01:32:14.718931,49.555,97974.5
1588210293587,2020-04-30T01:32:14.740484,49.602,97974.1640625
1588210293634,2020-04-30T01:32:14.777799,49.649,97973.828125
1588210293681,2020-04-30T01:32:14.800410,49.696,97973.6640625
1588210293728,2020-04-30T01:32:14.816600,49.743,97974.421875
1588210293775,2020-04-30T01:32:14.830952,49.79,97972.90625
1588210293820,2020-04-30T01:32:14.845474,49.835,97972.5703125
1588210293867,2020-04-30T01:32:14.875069,49.882,97972.0703125
1588210293914,2020-04-30T01:32:14.890634,49.929,97972.828125
1588210293961,2020-04-30T01:32:14.905523,49.976,97972.9921875
1588210294008,2020-04-30T01:32:14.920390,50.023,97973.1640625
1588210294055,2020-04-30T01:32:14.927870,50.07,97972.4921875
1588210294102,2020-04-30T01:32:14.934944,50.117,97972.6640625
1588210294148,2020-04-30T01:32:14.965160,50.163,97972.828125
1588210294195,2020-04-30T01:32:14.972216,50.21,97972.828125
1588210294241,2020-04-30T01:32:14.981494,50.256,97973.25
1588210294288,2020-04-30T01:32:14.987982,50.303,97973.8125
1588210294334,2020-04-30T01:32:14.995384,50.349,97972.9765625
1588210294381,2020-04-30T01:32:15.017821,50.396,97972.640625
1588210294428,2020-04-30T01:32:15.078032,50.443,97971.9765625
1588210294475,2020-04-30T01:32:15.093057,50.49,97971.640625
1588210294522,2020-04-30T01:32:15.096340,50.537,97972.0625
1588210294569,2020-04-30T01:32:15.122670,50.584,97972.0625
1588210294616,2020-04-30T01:32:15.124289,50.631,97971.140625
1588210294661,2020-04-30T01:32:15.153884,50.676,97971.078125
1588210294708,2020-04-30T01:32:15.168133,50.723,97971.25
1588210294755,2020-04-30T01:32:15.184074,50.77,97971.578125
1588210294802,2020-04-30T01:32:15.198292,50.817,97970.9921875
1588210294849,2020-04-30T01:32:15.206392,50.864,97971.578125
1588210294895,2020-04-30T01:32:15.227465,50.91,97971.921875
1588210294942,2020-04-30T01:32:15.236788,50.957,97971.921875
1588210294989,2020-04-30T01:32:15.242806,51.004,97971.921875
1588210295035,2020-04-30T01:32:15.257155,51.05,97972.421875
1588210295081,2020-04-30T01:32:15.259001,51.096,97972.9765625
1588210295128,2020-04-30T01:32:15.281378,51.143,97972.8125
1588210295175,2020-04-30T01:32:15.295304,51.19,97972.0859375
1588210295222,2020-04-30T01:32:15.309660,51.237,97972.640625
1588210295269,2020-04-30T01:32:15.356505,51.284,97973.140625
1588210295316,2020-04-30T01:32:15.386434,51.331,97973.3125
1588210295363,2020-04-30T01:32:15.401519,51.378,97973.0703125
1588210295408,2020-04-30T01:32:15.459827,51.423,97972.4765625
1588210295455,2020-04-30T01:32:15.482695,51.47,97971.9765625
1588210295502,2020-04-30T01:32:15.489778,51.517,97972.734375
1588210295549,2020-04-30T01:32:15.505190,51.564,97972.5703125
1588210295596,2020-04-30T01:32:15.519747,51.611,97972.234375
1588210295643,2020-04-30T01:32:15.535209,51.658,97972.296875
1588210295689,2020-04-30T01:32:15.542476,51.704,97972.296875
1588210295736,2020-04-30T01:32:15.550186,51.751,97972.796875
1588210295783,2020-04-30T01:32:15.557287,51.798,97972.796875
1588210295830,2020-04-30T01:32:15.617156,51.845,97973.3828125
1588210295875,2020-04-30T01:32:15.633129,51.89,97973.0546875
1588210295922,2020-04-30T01:32:15.663897,51.937,97972.71875
1588210295969,2020-04-30T01:32:15.692840,51.984,97972.296875
1588210296016,2020-04-30T01:32:15.707691,52.031,97972.0625
1588210296063,2020-04-30T01:32:15.723277,52.078,97971.734375
1588210296110,2020-04-30T01:32:15.753061,52.125,97971.734375
1588210296157,2020-04-30T01:32:15.782565,52.172,97971.40625
1588210296204,2020-04-30T01:32:15.789649,52.219,97972.296875
1588210296250,2020-04-30T01:32:15.797300,52.265,97970.90625
1588210296296,2020-04-30T01:32:15.819840,52.311,97971.0625
1588210296343,2020-04-30T01:32:15.827562,52.358,97971.296875
1588210296390,2020-04-30T01:32:15.836548,52.405,97971.453125
1588210296436,2020-04-30T01:32:15.851749,52.451,97972.3828125
1588210296483,2020-04-30T01:32:15.910559,52.498,97972.71875
1588210296530,2020-04-30T01:32:15.925818,52.545,97973.0546875
1588210296577,2020-04-30T01:32:15.940499,52.592,97972.8828125
1588210296624,2020-04-30T01:32:15.970091,52.639,97973.4453125
1588210296671,2020-04-30T01:32:15.999796,52.686,97973.28125
1588210296716,2020-04-30T01:32:16.001764,52.731,97972.78125
1588210296763,2020-04-30T01:32:16.029789,52.778,97972.8671875
1588210296810,2020-04-30T01:32:16.031819,52.825,97973.03125
1588210296857,2020-04-30T01:32:16.044801,52.872,97973.53125
1588210296904,2020-04-30T01:32:16.060911,52.919,97973.3671875
1588210296951,2020-04-30T01:32:16.069019,52.966,97973.03125
1588210296998,2020-04-30T01:32:16.075575,53.013,97973.203125
1588210297044,2020-04-30T01:32:16.091521,53.059,97972.8671875
1588210297090,2020-04-30T01:32:16.098269,53.105,97973.03125
1588210297137,2020-04-30T01:32:16.127296,53.152,97973.03125
1588210297184,2020-04-30T01:32:16.129302,53.199,97973.203125
1588210297230,2020-04-30T01:32:16.217303,53.245,97973.3671875
1588210297277,2020-04-30T01:32:16.219245,53.292,97973.03125
1588210297324,2020-04-30T01:32:16.247261,53.339,97972.203125
1588210297371,2020-04-30T01:32:16.249226,53.386,97971.78125
1588210297418,2020-04-30T01:32:16.278116,53.433,97972.203125
1588210297463,2020-04-30T01:32:16.309377,53.478,97972.53125
1588210297510,2020-04-30T01:32:16.315601,53.525,97972.921875
1588210297557,2020-04-30T01:32:16.337515,53.572,97974.1875
1588210297604,2020-04-30T01:32:16.344787,53.619,97974.09375
1588210297651,2020-04-30T01:32:16.354243,53.666,97974.09375
1588210297698,2020-04-30T01:32:16.369107,53.713,97973.2578125
1588210297745,2020-04-30T01:32:16.376762,53.76,97973.8515625
1588210297791,2020-04-30T01:32:16.384033,53.806,97973.515625
1588210297837,2020-04-30T01:32:16.406968,53.852,97974.1875
1588210297884,2020-04-30T01:32:16.480642,53.899,97974.3515625
1588210297931,2020-04-30T01:32:16.511322,53.946,97974.015625
1588210297977,2020-04-30T01:32:16.525640,53.992,97973.7578125
1588210298024,2020-04-30T01:32:16.540691,54.039,97974.6875
1588210298071,2020-04-30T01:32:16.555773,54.086,97975.1875
1588210298118,2020-04-30T01:32:16.570795,54.133,97975.3515625
1588210298165,2020-04-30T01:32:16.592387,54.18,97975.9453125
1588210298212,2020-04-30T01:32:16.594253,54.227,97975.859375
1588210298257,2020-04-30T01:32:16.614801,54.272,97975.3515625
1588210298304,2020-04-30T01:32:16.616759,54.319,97974.2578125
1588210298351,2020-04-30T01:32:16.629762,54.366,97973.59375
1588210298398,2020-04-30T01:32:16.645850,54.413,97973.59375
1588210298445,2020-04-30T01:32:16.654152,54.46,97974.1875
1588210298492,2020-04-30T01:32:16.660810,54.507,97975.4453125
1588210298539,2020-04-30T01:32:16.685170,54.554,97976.28125
1588210298585,2020-04-30T01:32:16.742868,54.6,97975.859375
1588210298632,2020-04-30T01:32:16.772382,54.647,97976.28125
1588210298679,2020-04-30T01:32:16.774177,54.694,97976.171875
1588210298725,2020-04-30T01:32:16.817496,54.74,97974.8359375
1588210298771,2020-04-30T01:32:16.819034,54.786,97974.7734375
1588210298818,2020-04-30T01:32:16.847391,54.833,97974.171875
1588210298865,2020-04-30T01:32:16.849042,54.88,97972.609375
1588210298912,2020-04-30T01:32:16.870219,54.927,97971.6640625
1588210298959,2020-04-30T01:32:16.877830,54.974,97970.4375
1588210299006,2020-04-30T01:32:16.908270,55.021,97966.921875
1588210299053,2020-04-30T01:32:16.922793,55.068,97965.5234375
1588210299098,2020-04-30T01:32:16.924315,55.113,97963.9296875
1588210299145,2020-04-30T01:32:16.938926,55.16,97962.765625
1588210299192,2020-04-30T01:32:16.945335,55.207,97960.8671875
1588210299239,2020-04-30T01:32:16.961424,55.254,97960.3671875
1588210299286,2020-04-30T01:32:17.020338,55.301,97959.8671875
1588210299332,2020-04-30T01:32:17.036427,55.347,97958.7734375
1588210299379,2020-04-30T01:32:17.051545,55.394,97957.4375
1588210299426,2020-04-30T01:32:17.079741,55.441,97957.859375
1588210299472,2020-04-30T01:32:17.081550,55.487,97957.53125
1588210299519,2020-04-30T01:32:17.109692,55.534,97956.9375
1588210299565,2020-04-30T01:32:17.111548,55.58,97956.609375
1588210299612,2020-04-30T01:32:17.126431,55.627,97957.109375
1588210299659,2020-04-30T01:32:17.148330,55.674,97956.9375
1588210299706,2020-04-30T01:32:17.155525,55.721,97956.875
1588210299753,2020-04-30T01:32:17.171250,55.768,97957.046875
1588210299800,2020-04-30T01:32:17.185475,55.815,97957.609375
1588210299847,2020-04-30T01:32:17.200422,55.862,97956.453125
1588210299892,2020-04-30T01:32:17.214930,55.907,97956.875
1588210299939,2020-04-30T01:32:17.222359,55.954,97956.046875
1588210299986,2020-04-30T01:32:17.237930,56.001,97956.265625
1588210300033,2020-04-30T01:32:17.252655,56.048,97956.265625
1588210300080,2020-04-30T01:32:17.282395,56.095,97956.1015625
1588210300126,2020-04-30T01:32:17.299326,56.141,97956.1015625
1588210300173,2020-04-30T01:32:17.329416,56.188,97956.265625
1588210300220,2020-04-30T01:32:17.344202,56.235,97955.546875
1588210300266,2020-04-30T01:32:17.358996,56.281,97955.046875
1588210300312,2020-04-30T01:32:17.374287,56.327,97955.046875
1588210300359,2020-04-30T01:32:17.388940,56.374,97955.9375
1588210300406,2020-04-30T01:32:17.425826,56.421,97956.859375
1588210300453,2020-04-30T01:32:17.432874,56.468,97956.859375
1588210300500,2020-04-30T01:32:17.448198,56.515,97957.03125
1588210300547,2020-04-30T01:32:17.455426,56.562,97957.25
1588210300594,2020-04-30T01:32:17.462645,56.609,97957.09375
1588210300641,2020-04-30T01:32:17.477937,56.656,97956.5859375
1588210300687,2020-04-30T01:32:17.485126,56.702,97955.75
1588210300734,2020-04-30T01:32:17.493257,56.749,97955.421875
1588210300780,2020-04-30T01:32:17.500098,56.795,97955.5859375
1588210300827,2020-04-30T01:32:17.522382,56.842,97955.84375
1588210300873,2020-04-30T01:32:17.531216,56.888,97955.75
1588210300920,2020-04-30T01:32:17.575444,56.935,97956.25
1588210300967,2020-04-30T01:32:17.576783,56.982,97956.25
1588210301014,2020-04-30T01:32:17.604842,57.029,97956.75
1588210301061,2020-04-30T01:32:17.606794,57.076,97956.5859375
1588210301108,2020-04-30T01:32:17.636569,57.123,97956.25
1588210301153,2020-04-30T01:32:17.668047,57.168,97956.5078125
1588210301200,2020-04-30T01:32:17.681581,57.215,97955.84375
1588210301247,2020-04-30T01:32:17.695817,57.262,97955.421875
1588210301294,2020-04-30T01:32:17.703390,57.309,97955.6796875
1588210301341,2020-04-30T01:32:17.711220,57.356,97954.84375
1588210301388,2020-04-30T01:32:17.740231,57.403,97954.3984375
1588210301435,2020-04-30T01:32:17.748229,57.45,97954.5625
1588210301481,2020-04-30T01:32:17.756506,57.496,97954.734375
1588210301527,2020-04-30T01:32:17.764156,57.542,97954.3984375
1588210301574,2020-04-30T01:32:17.771500,57.589,97953.5625
1588210301621,2020-04-30T01:32:17.779147,57.636,97953.3984375
1588210301667,2020-04-30T01:32:17.800298,57.682,97952.8984375
1588210301714,2020-04-30T01:32:17.807929,57.729,97953.328125
1588210301761,2020-04-30T01:32:17.852477,57.776,97952.65625
1588210301808,2020-04-30T01:32:17.854279,57.823,97952.15625
1588210301855,2020-04-30T01:32:17.869059,57.87,97951.0
1588210301902,2020-04-30T01:32:17.897508,57.917,97951.0
1588210301949,2020-04-30T01:32:17.913206,57.964,97950.3359375
1588210301994,2020-04-30T01:32:17.942732,58.009,97950.171875
1588210302041,2020-04-30T01:32:17.958028,58.056,97950.0
1588210302088,2020-04-30T01:32:17.973197,58.103,97950.0625
1588210302135,2020-04-30T01:32:17.987330,58.15,97949.890625
1588210302182,2020-04-30T01:32:17.989291,58.197,97950.390625
1588210302228,2020-04-30T01:32:18.009833,58.243,97951.15625
1588210302275,2020-04-30T01:32:18.011792,58.29,97951.3203125
1588210302322,2020-04-30T01:32:18.024822,58.337,97950.984375
1588210302369,2020-04-30T01:32:18.040596,58.384,97950.2265625
1588210302414,2020-04-30T01:32:18.070251,58.429,97951.15625
1588210302461,2020-04-30T01:32:18.074972,58.476,97951.65625
1588210302508,2020-04-30T01:32:18.145012,58.523,97952.4140625
1588210302555,2020-04-30T01:32:18.189783,58.57,97952.640625
1588210302602,2020-04-30T01:32:18.191694,58.617,97952.46875
1588210302649,2020-04-30T01:32:18.221520,58.664,97952.46875
1588210302696,2020-04-30T01:32:18.250580,58.711,97952.3046875
1588210302743,2020-04-30T01:32:18.259062,58.758,97953.140625
1588210302789,2020-04-30T01:32:18.266393,58.804,97952.96875
1588210302835,2020-04-30T01:32:18.281720,58.85,97952.640625
1588210302882,2020-04-30T01:32:18.295940,58.897,97952.46875
1588210302929,2020-04-30T01:32:18.311839,58.944,97952.4140625
1588210302976,2020-04-30T01:32:18.318011,58.991,97952.75
1588210303022,2020-04-30T01:32:18.326018,59.037,97952.578125
1588210303069,2020-04-30T01:32:18.332928,59.084,97952.15625
1588210303116,2020-04-30T01:32:18.355066,59.131,97952.4140625
1588210303163,2020-04-30T01:32:18.378014,59.178,97951.7421875
1588210303210,2020-04-30T01:32:18.392258,59.225,97952.078125
1588210303255,2020-04-30T01:32:18.394185,59.27,97951.40625
1588210303302,2020-04-30T01:32:18.409015,59.317,97950.7421875
1588210303349,2020-04-30T01:32:18.424173,59.364,97950.796875
1588210303396,2020-04-30T01:32:18.454083,59.411,97951.296875
1588210303443,2020-04-30T01:32:18.469314,59.458,97950.7421875
1588210303490,2020-04-30T01:32:18.484073,59.505,97950.7421875
1588210303537,2020-04-30T01:32:18.499346,59.552,97950.078125
1588210303583,2020-04-30T01:32:18.514075,59.598,97950.234375
1588210303630,2020-04-30T01:32:18.535742,59.645,97949.90625
1588210303677,2020-04-30T01:32:18.558012,59.692,97949.734375
1588210303723,2020-04-30T01:32:18.565975,59.738,97949.796875
1588210303769,2020-04-30T01:32:18.573317,59.784,97950.40625
1588210303816,2020-04-30T01:32:18.587530,59.831,97950.90625
1588210303863,2020-04-30T01:32:18.595173,59.878,97951.578125
1588210303910,2020-04-30T01:32:18.604437,59.925,97952.2421875
1588210303957,2020-04-30T01:32:18.611565,59.972,97952.3046875
1588210304004,2020-04-30T01:32:18.626782,60.019,97952.3046875
1588210304051,2020-04-30T01:32:18.655048,60.066,97952.1328125
1588210304098,2020-04-30T01:32:18.656801,60.113,97952.1328125
1588210304143,2020-04-30T01:32:18.671589,60.158,97952.8984375
1588210304190,2020-04-30T01:32:18.678294,60.205,97952.390625
1588210304237,2020-04-30T01:32:18.686575,60.252,97951.7265625
1588210304284,2020-04-30T01:32:18.693295,60.299,97951.890625
1588210304331,2020-04-30T01:32:18.701791,60.346,97951.46875
1588210304377,2020-04-30T01:32:18.708258,60.392,97951.140625
1588210304424,2020-04-30T01:32:18.730594,60.439,97951.296875
1588210304471,2020-04-30T01:32:18.760061,60.486,97951.7265625
1588210304517,2020-04-30T01:32:18.775502,60.532,97952.1171875
1588210304563,2020-04-30T01:32:18.790049,60.578,97951.390625
1588210304610,2020-04-30T01:32:18.805596,60.625,97951.0625
1588210304657,2020-04-30T01:32:18.814418,60.672,97951.2265625
1588210304704,2020-04-30T01:32:18.827318,60.719,97951.5625
1588210304751,2020-04-30T01:32:18.835721,60.766,97951.5625
1588210304798,2020-04-30T01:32:18.843032,60.813,97951.7265625
1588210304845,2020-04-30T01:32:18.858234,60.86,97952.5625
1588210304890,2020-04-30T01:32:18.873851,60.905,97952.0625
1588210304937,2020-04-30T01:32:18.881312,60.952,97951.46875
1588210304984,2020-04-30T01:32:18.888383,60.999,97952.2265625
