epoch  (ms),time  (-07:00),elapsed  (s),Pressure  (Pa)
1588209930370,2020-04-30T01:26:05.374809,0.0,98012.875
1588209930417,2020-04-30T01:26:05.382183,0.047,98012.953125
1588209930463,2020-04-30T01:26:05.404548,0.093,98013.0
1588209930509,2020-04-30T01:26:05.412169,0.139,98013.7265625
1588209930556,2020-04-30T01:26:05.434549,0.186,98014.359375
1588209930603,2020-04-30T01:26:05.449663,0.233,98014.296875
1588209930649,2020-04-30T01:26:05.494550,0.279,98014.75
1588209930696,2020-04-30T01:26:05.509661,0.326,98014.953125
1588209930743,2020-04-30T01:26:05.539556,0.373,98015.96875
1588209930790,2020-04-30T01:26:05.554670,0.42,98016.484375
1588209930837,2020-04-30T01:26:05.584557,0.467,98017.125
1588209930882,2020-04-30T01:26:05.599673,0.512,98016.6953125
1588209930929,2020-04-30T01:26:05.637054,0.559,98016.3828125
1588209930976,2020-04-30T01:26:05.667179,0.606,98017.8203125
1588209931023,2020-04-30T01:26:05.689559,0.653,98018.0078125
1588209931070,2020-04-30T01:26:05.712172,0.7,98017.625
1588209931117,2020-04-30T01:26:05.742060,0.747,98017.109375
1588209931164,2020-04-30T01:26:05.779661,0.794,98017.203125
1588209931210,2020-04-30T01:26:05.802072,0.84,98017.5625
1588209931257,2020-04-30T01:26:05.832170,0.887,98017.015625
1588209931303,2020-04-30T01:26:05.854563,0.933,98017.09375
1588209931350,2020-04-30T01:26:05.884693,0.98,98017.453125
1588209931396,2020-04-30T01:26:05.907058,1.026,98016.953125
1588209931443,2020-04-30T01:26:05.952170,1.073,98016.3828125
1588209931490,2020-04-30T01:26:05.974567,1.12,98016.21875
1588209931537,2020-04-30T01:26:05.997165,1.167,98017.0625
1588209931584,2020-04-30T01:26:06.019677,1.214,98017.578125
1588209931631,2020-04-30T01:26:06.034907,1.261,98017.734375
1588209931676,2020-04-30T01:26:06.064680,1.306,98017.5234375
1588209931723,2020-04-30T01:26:06.094934,1.353,98016.375
1588209931771,2020-04-30T01:26:06.124680,1.401,98016.296875
1588209931817,2020-04-30T01:26:06.139902,1.447,98016.1328125
1588209931864,2020-04-30T01:26:06.177180,1.494,98015.484375
1588209931911,2020-04-30T01:26:06.192478,1.541,98015.9140625
1588209931958,2020-04-30T01:26:06.237741,1.588,98014.9375
1588209932004,2020-04-30T01:26:06.267570,1.634,98015.265625
1588209932051,2020-04-30T01:26:06.297215,1.681,98016.484375
1588209932098,2020-04-30T01:26:06.319789,1.728,98016.484375
1588209932145,2020-04-30T01:26:06.349567,1.775,98017.375
1588209932190,2020-04-30T01:26:06.364681,1.82,98016.890625
1588209932237,2020-04-30T01:26:06.417071,1.867,98016.890625
1588209932284,2020-04-30T01:26:06.439705,1.914,98016.3984375
1588209932331,2020-04-30T01:26:06.462099,1.961,98017.15625
1588209932378,2020-04-30T01:26:06.484688,2.008,98017.078125
1588209932425,2020-04-30T01:26:06.514587,2.055,98016.34375
1588209932472,2020-04-30T01:26:06.537189,2.102,98016.265625
1588209932519,2020-04-30T01:26:06.582079,2.149,98016.09375
1588209932565,2020-04-30T01:26:06.604698,2.195,98016.421875
1588209932611,2020-04-30T01:26:06.634573,2.241,98016.53125
1588209932658,2020-04-30T01:26:06.664686,2.288,98016.28125
1588209932705,2020-04-30T01:26:06.687079,2.335,98016.5625
1588209932751,2020-04-30T01:26:06.717220,2.381,98016.96875
1588209932798,2020-04-30T01:26:06.754584,2.428,98016.96875
1588209932845,2020-04-30T01:26:06.799703,2.475,98017.453125
1588209932892,2020-04-30T01:26:06.822090,2.522,98016.5625
1588209932939,2020-04-30T01:26:06.852189,2.569,98016.640625
1588209932984,2020-04-30T01:26:06.874584,2.614,98016.8046875
1588209933031,2020-04-30T01:26:06.889700,2.661,98016.8046875
1588209933078,2020-04-30T01:26:06.942084,2.708,98017.2890625
1588209933125,2020-04-30T01:26:06.957207,2.755,98018.0546875
1588209933172,2020-04-30T01:26:06.994596,2.802,98018.953125
1588209933219,2020-04-30T01:26:07.009748,2.849,98018.78125
1588209933266,2020-04-30T01:26:07.054924,2.896,98019.0625
1588209933313,2020-04-30T01:26:07.092203,2.943,98018.296875
1588209933358,2020-04-30T01:26:07.137333,2.988,98019.2265625
1588209933405,2020-04-30T01:26:07.167156,3.035,98019.2265625
1588209933452,2020-04-30T01:26:07.189849,3.082,98018.578125
1588209933499,2020-04-30T01:26:07.219649,3.129,98018.40625
1588209933545,2020-04-30T01:26:07.242558,3.175,98018.6484375
1588209933592,2020-04-30T01:26:07.279865,3.222,98018.578125
1588209933639,2020-04-30T01:26:07.303122,3.269,98019.140625
1588209933686,2020-04-30T01:26:07.324760,3.316,98018.8984375
1588209933733,2020-04-30T01:26:07.340626,3.363,98019.625
1588209933780,2020-04-30T01:26:07.370133,3.41,98019.625
1588209933827,2020-04-30T01:26:07.384938,3.457,98019.578125
1588209933872,2020-04-30T01:26:07.437282,3.502,98019.578125
1588209933919,2020-04-30T01:26:07.459941,3.549,98019.578125
1588209933966,2020-04-30T01:26:07.497166,3.596,98019.578125
1588209934013,2020-04-30T01:26:07.512206,3.643,98019.984375
1588209934060,2020-04-30T01:26:07.549759,3.69,98019.8125
1588209934106,2020-04-30T01:26:07.565471,3.736,98020.390625
1588209934153,2020-04-30T01:26:07.643691,3.783,98019.2421875
1588209934200,2020-04-30T01:26:07.656023,3.83,98018.9140625
1588209934247,2020-04-30T01:26:07.698665,3.877,98018.859375
1588209934292,2020-04-30T01:26:07.723361,3.922,98017.765625
1588209934339,2020-04-30T01:26:07.760283,3.969,98017.4453125
1588209934386,2020-04-30T01:26:07.785248,4.016,98016.625
1588209934433,2020-04-30T01:26:07.835427,4.063,98016.7890625
1588209934480,2020-04-30T01:26:07.869329,4.11,98017.234375
1588209934527,2020-04-30T01:26:07.901218,4.157,98016.7890625
1588209934574,2020-04-30T01:26:07.927870,4.204,98017.4453125
1588209934621,2020-04-30T01:26:07.956647,4.251,98017.9375
1588209934667,2020-04-30T01:26:08.000632,4.297,98018.859375
1588209934713,2020-04-30T01:26:08.039609,4.343,98019.265625
1588209934760,2020-04-30T01:26:08.068294,4.39,98019.5390625
1588209934807,2020-04-30T01:26:08.096134,4.437,98018.78125
1588209934854,2020-04-30T01:26:08.120350,4.484,98018.78125
1588209934900,2020-04-30T01:26:08.143939,4.53,98018.890625
1588209934947,2020-04-30T01:26:08.223590,4.577,98017.796875
1588209934994,2020-04-30T01:26:08.236277,4.624,98017.6328125
1588209935040,2020-04-30T01:26:08.254639,4.67,98017.140625
1588209935086,2020-04-30T01:26:08.280398,4.716,98016.578125
1588209935133,2020-04-30T01:26:08.301058,4.763,98016.40625
1588209935180,2020-04-30T01:26:08.337352,4.81,98016.578125
1588209935227,2020-04-30T01:26:08.368630,4.857,98016.40625
1588209935274,2020-04-30T01:26:08.399527,4.904,98016.578125
1588209935321,2020-04-30T01:26:08.420980,4.951,98017.46875
1588209935368,2020-04-30T01:26:08.465318,4.998,98017.46875
1588209935413,2020-04-30T01:26:08.485085,5.043,98018.078125
1588209935460,2020-04-30T01:26:08.512176,5.09,98017.3125
1588209935507,2020-04-30T01:26:08.548309,5.137,98018.078125
1588209935554,2020-04-30T01:26:08.593147,5.184,98019.046875
1588209935601,2020-04-30T01:26:08.615718,5.231,98018.96875
1588209935647,2020-04-30T01:26:08.646433,5.277,98019.2421875
1588209935694,2020-04-30T01:26:08.667577,5.324,98018.3125
1588209935741,2020-04-30T01:26:08.704800,5.371,98017.3359375
1588209935787,2020-04-30T01:26:08.750065,5.417,98016.6875
1588209935834,2020-04-30T01:26:08.772359,5.464,98016.3515625
1588209935880,2020-04-30T01:26:08.795074,5.51,98016.3515625
1588209935927,2020-04-30T01:26:08.824792,5.557,98016.515625
1588209935974,2020-04-30T01:26:08.855059,5.604,98017.0078125
1588209936021,2020-04-30T01:26:08.899796,5.651,98017.609375
1588209936068,2020-04-30T01:26:08.922663,5.698,98018.28125
1588209936115,2020-04-30T01:26:08.952451,5.745,98018.9375
1588209936162,2020-04-30T01:26:08.975107,5.792,98019.5078125
1588209936207,2020-04-30T01:26:09.005180,5.837,98019.9375
1588209936254,2020-04-30T01:26:09.035054,5.884,98019.78125
1588209936301,2020-04-30T01:26:09.073068,5.931,98019.9375
1588209936348,2020-04-30T01:26:09.102662,5.978,98018.859375
1588209936395,2020-04-30T01:26:09.124913,6.025,98018.359375
1588209936441,2020-04-30T01:26:09.155050,6.071,98018.53125
1588209936488,2020-04-30T01:26:09.177307,6.118,98017.515625
1588209936535,2020-04-30T01:26:09.193484,6.165,98017.140625
1588209936582,2020-04-30T01:26:09.244911,6.212,98016.484375
1588209936627,2020-04-30T01:26:09.260328,6.257,98016.15625
1588209936674,2020-04-30T01:26:09.309391,6.304,98016.15625
1588209936721,2020-04-30T01:26:09.320561,6.351,98016.65625
1588209936768,2020-04-30T01:26:09.352031,6.398,98016.0546875
1588209936815,2020-04-30T01:26:09.374865,6.445,98016.8125
1588209936862,2020-04-30T01:26:09.459799,6.492,98016.984375
1588209936909,2020-04-30T01:26:09.477379,6.539,98016.65625
1588209936956,2020-04-30T01:26:09.508474,6.586,98016.078125
1588209937002,2020-04-30T01:26:09.530452,6.632,98016.078125
1588209937049,2020-04-30T01:26:09.553132,6.679,98015.75
1588209937096,2020-04-30T01:26:09.596622,6.726,98016.515625
1588209937142,2020-04-30T01:26:09.620895,6.772,98016.3515625
1588209937188,2020-04-30T01:26:09.650050,6.818,98016.6796875
1588209937235,2020-04-30T01:26:09.665288,6.865,98016.515625
1588209937282,2020-04-30T01:26:09.694824,6.912,98016.3515625
1588209937329,2020-04-30T01:26:09.710088,6.959,98017.078125
1588209937376,2020-04-30T01:26:09.755233,7.006,98017.25
1588209937423,2020-04-30T01:26:09.777611,7.053,98017.734375
1588209937470,2020-04-30T01:26:09.807976,7.1,98017.65625
1588209937517,2020-04-30T01:26:09.830104,7.147,98017.5
1588209937562,2020-04-30T01:26:09.867744,7.192,98017.484375
1588209937609,2020-04-30T01:26:09.883314,7.239,98017.15625
1588209937656,2020-04-30T01:26:09.928527,7.286,98017.328125
1588209937703,2020-04-30T01:26:09.944127,7.333,98017.0
1588209937750,2020-04-30T01:26:09.989739,7.38,98018.09375
1588209937796,2020-04-30T01:26:10.005338,7.426,98018.09375
1588209937843,2020-04-30T01:26:10.033926,7.473,98017.6484375
1588209937889,2020-04-30T01:26:10.049051,7.519,98017.484375
1588209937936,2020-04-30T01:26:10.086902,7.566,98017.328125
1588209937982,2020-04-30T01:26:10.125875,7.612,98017.0
1588209938029,2020-04-30T01:26:10.145804,7.659,98017.265625
1588209938076,2020-04-30T01:26:10.169171,7.706,98017.265625
1588209938123,2020-04-30T01:26:10.190665,7.753,98017.765625
1588209938170,2020-04-30T01:26:10.219839,7.8,98017.0
1588209938217,2020-04-30T01:26:10.272239,7.847,98017.109375
1588209938262,2020-04-30T01:26:10.295516,7.892,98016.1875
1588209938309,2020-04-30T01:26:10.327274,7.939,98016.9453125
1588209938356,2020-04-30T01:26:10.347938,7.986,98017.109375
1588209938403,2020-04-30T01:26:10.369955,8.033,98016.78125
1588209938450,2020-04-30T01:26:10.419907,8.08,98016.2890625
1588209938497,2020-04-30T01:26:10.438096,8.127,98015.6875
1588209938543,2020-04-30T01:26:10.461886,8.173,98016.2890625
1588209938590,2020-04-30T01:26:10.490993,8.22,98016.6171875
1588209938637,2020-04-30T01:26:10.507693,8.267,98016.9453125
1588209938683,2020-04-30T01:26:10.538231,8.313,98017.265625
1588209938729,2020-04-30T01:26:10.566366,8.359,98017.59375
1588209938776,2020-04-30T01:26:10.613706,8.406,98017.921875
1588209938823,2020-04-30T01:26:10.617968,8.453,98017.59375
1588209938870,2020-04-30T01:26:10.641870,8.5,98018.0
1588209938917,2020-04-30T01:26:10.666191,8.547,98017.515625
1588209938964,2020-04-30T01:26:10.701179,8.594,98017.515625
1588209939011,2020-04-30T01:26:10.730635,8.641,98017.84375
1588209939056,2020-04-30T01:26:10.760048,8.686,98018.1640625
1588209939103,2020-04-30T01:26:10.781849,8.733,98017.34375
1588209939150,2020-04-30T01:26:10.814671,8.78,98017.015625
1588209939197,2020-04-30T01:26:10.827682,8.827,98017.015625
1588209939244,2020-04-30T01:26:10.857701,8.874,98016.859375
1588209939291,2020-04-30T01:26:10.887965,8.921,98017.34375
1588209939337,2020-04-30T01:26:10.910287,8.967,98017.4375
1588209939384,2020-04-30T01:26:10.940957,9.014,98016.2890625
1588209939430,2020-04-30T01:26:10.977876,9.06,98016.3671875
1588209939477,2020-04-30T01:26:11.000988,9.107,98016.53125
1588209939523,2020-04-30T01:26:11.022926,9.153,98017.015625
1588209939570,2020-04-30T01:26:11.075129,9.2,98016.1875
1588209939617,2020-04-30T01:26:11.107005,9.247,98017.265625
1588209939664,2020-04-30T01:26:11.129152,9.294,98017.671875
1588209939711,2020-04-30T01:26:11.150431,9.341,98017.671875
1588209939758,2020-04-30T01:26:11.173221,9.388,98017.953125
1588209939803,2020-04-30T01:26:11.212589,9.433,98017.953125
1588209939850,2020-04-30T01:26:11.248729,9.48,98017.1328125
1588209939897,2020-04-30T01:26:11.270978,9.527,98017.015625
1588209939944,2020-04-30T01:26:11.293598,9.574,98016.8125
1588209939991,2020-04-30T01:26:11.323134,9.621,98017.2109375
1588209940038,2020-04-30T01:26:11.345280,9.668,98016.8828125
1588209940084,2020-04-30T01:26:11.389952,9.714,98016.5625
1588209940131,2020-04-30T01:26:11.405145,9.761,98016.0703125
1588209940178,2020-04-30T01:26:11.443008,9.808,98015.90625
1588209940224,2020-04-30T01:26:11.457640,9.854,98016.34375
1588209940271,2020-04-30T01:26:11.487384,9.901,98016.5625
1588209940317,2020-04-30T01:26:11.502708,9.947,98017.2109375
1588209940364,2020-04-30T01:26:11.547489,9.994,98017.703125
1588209940411,2020-04-30T01:26:11.565022,10.041,98017.2109375
1588209940458,2020-04-30T01:26:11.615328,10.088,98017.484375
1588209940505,2020-04-30T01:26:11.645328,10.135,98017.8125
1588209940552,2020-04-30T01:26:11.667659,10.182,98017.484375
1588209940597,2020-04-30T01:26:11.689877,10.227,98017.6484375
1588209940644,2020-04-30T01:26:11.720576,10.274,98017.8125
1588209940691,2020-04-30T01:26:11.750118,10.321,98017.703125
1588209940738,2020-04-30T01:26:11.765526,10.368,98018.296875
1588209940785,2020-04-30T01:26:11.810057,10.415,98018.7890625
1588209940832,2020-04-30T01:26:11.825158,10.462,98018.953125
1588209940878,2020-04-30T01:26:11.854864,10.508,98018.953125
1588209940925,2020-04-30T01:26:11.892732,10.555,98018.953125
1588209940972,2020-04-30T01:26:11.937427,10.602,98018.140625
1588209941019,2020-04-30T01:26:11.952722,10.649,98018.625
1588209941064,2020-04-30T01:26:11.982474,10.694,98018.703125
1588209941111,2020-04-30T01:26:11.997629,10.741,98018.375
1588209941158,2020-04-30T01:26:12.042702,10.788,98018.625
1588209941205,2020-04-30T01:26:12.058964,10.835,98018.7890625
1588209941252,2020-04-30T01:26:12.095634,10.882,98019.203125
1588209941299,2020-04-30T01:26:12.114353,10.929,98018.296875
1588209941346,2020-04-30T01:26:12.138049,10.976,98018.296875
1588209941391,2020-04-30T01:26:12.158106,11.021,98018.140625
1588209941438,2020-04-30T01:26:12.204763,11.068,98018.140625
1588209941485,2020-04-30T01:26:12.226365,11.115,98017.8125
1588209941532,2020-04-30T01:26:12.254980,11.162,98018.296875
1588209941579,2020-04-30T01:26:12.276759,11.209,98017.9765625
1588209941625,2020-04-30T01:26:12.290660,11.255,98018.703125
1588209941672,2020-04-30T01:26:12.359943,11.302,98019.203125
1588209941719,2020-04-30T01:26:12.374388,11.349,98019.203125
1588209941765,2020-04-30T01:26:12.381925,11.395,98019.359375
1588209941812,2020-04-30T01:26:12.402728,11.442,98019.3046875
1588209941858,2020-04-30T01:26:12.425674,11.488,98019.46875
1588209941905,2020-04-30T01:26:12.450833,11.535,98019.03125
1588209941952,2020-04-30T01:26:12.473127,11.582,98018.703125
1588209941999,2020-04-30T01:26:12.508796,11.629,98018.375
1588209942046,2020-04-30T01:26:12.524640,11.676,98018.375
1588209942093,2020-04-30T01:26:12.552650,11.723,98018.875
1588209942140,2020-04-30T01:26:12.577857,11.77,98018.703125
1588209942185,2020-04-30T01:26:12.597488,11.815,98018.21875
1588209942232,2020-04-30T01:26:12.628847,11.862,98017.5625
1588209942279,2020-04-30T01:26:12.657985,11.909,98017.5625
1588209942326,2020-04-30T01:26:12.677029,11.956,98017.3984375
1588209942373,2020-04-30T01:26:12.704493,12.003,98017.3984375
1588209942419,2020-04-30T01:26:12.718373,12.049,98017.7265625
1588209942466,2020-04-30T01:26:12.754956,12.096,98017.5625
1588209942513,2020-04-30T01:26:12.785335,12.143,98017.84375
1588209942560,2020-04-30T01:26:12.814910,12.19,98017.234375
1588209942605,2020-04-30T01:26:12.830179,12.235,98017.890625
1588209942652,2020-04-30T01:26:12.859941,12.282,98018.328125
1588209942699,2020-04-30T01:26:12.875193,12.329,98018.046875
1588209942746,2020-04-30T01:26:12.905535,12.376,98018.65625
1588209942793,2020-04-30T01:26:12.943138,12.423,98018.65625
1588209942840,2020-04-30T01:26:12.965036,12.47,98018.8203125
1588209942887,2020-04-30T01:26:12.995298,12.517,98018.65625
1588209942934,2020-04-30T01:26:13.015189,12.564,98018.375
1588209942979,2020-04-30T01:26:13.041998,12.609,98018.65625
1588209943026,2020-04-30T01:26:13.064944,12.656,98018.65625
1588209943073,2020-04-30T01:26:13.107478,12.703,98017.7265625
1588209943120,2020-04-30T01:26:13.129781,12.75,98017.5625
1588209943167,2020-04-30T01:26:13.154739,12.797,98016.90625
1588209943213,2020-04-30T01:26:13.182855,12.843,98017.84375
1588209943260,2020-04-30T01:26:13.206502,12.89,98017.84375
1588209943307,2020-04-30T01:26:13.228715,12.937,98018.1640625
1588209943354,2020-04-30T01:26:13.265528,12.984,98018.8203125
1588209943401,2020-04-30T01:26:13.287523,13.031,98018.5703125
1588209943446,2020-04-30T01:26:13.310181,13.076,98018.5703125
1588209943493,2020-04-30T01:26:13.339900,13.123,98018.0
1588209943540,2020-04-30T01:26:13.355192,13.17,98017.75
1588209943587,2020-04-30T01:26:13.407414,13.217,98016.9375
1588209943634,2020-04-30T01:26:13.422781,13.264,98016.609375
1588209943681,2020-04-30T01:26:13.460033,13.311,98016.4453125
1588209943728,2020-04-30T01:26:13.475336,13.358,98016.609375
1588209943774,2020-04-30T01:26:13.505328,13.404,98016.3671875
1588209943821,2020-04-30T01:26:13.520561,13.451,98016.765625
1588209943867,2020-04-30T01:26:13.572501,13.497,98017.2109375
1588209943914,2020-04-30T01:26:13.587709,13.544,98017.375
1588209943960,2020-04-30T01:26:13.617413,13.59,98017.375
1588209944007,2020-04-30T01:26:13.632783,13.637,98017.9375
1588209944054,2020-04-30T01:26:13.662554,13.684,98017.9375
1588209944101,2020-04-30T01:26:13.699911,13.731,98017.859375
1588209944148,2020-04-30T01:26:13.737698,13.778,98017.9375
1588209944195,2020-04-30T01:26:13.767464,13.825,98017.125
1588209944242,2020-04-30T01:26:13.782780,13.872,98016.9609375
1588209944289,2020-04-30T01:26:13.812497,13.919,98017.2109375
1588209944335,2020-04-30T01:26:13.827703,13.965,98017.53125
1588209944381,2020-04-30T01:26:13.865130,14.011,98017.859375
1588209944428,2020-04-30T01:26:13.895495,14.058,98018.0234375
1588209944475,2020-04-30T01:26:13.925086,14.105,98018.0234375
1588209944521,2020-04-30T01:26:13.940609,14.151,98018.7578125
1588209944568,2020-04-30T01:26:13.970730,14.198,98018.109375
1588209944615,2020-04-30T01:26:13.985272,14.245,98018.109375
1588209944662,2020-04-30T01:26:14.037425,14.292,98017.78125
1588209944709,2020-04-30T01:26:14.060223,14.339,98018.109375
1588209944756,2020-04-30T01:26:14.090027,14.386,98018.8359375
1588209944801,2020-04-30T01:26:14.105259,14.431,98018.34375
1588209944848,2020-04-30T01:26:14.127428,14.478,98018.4296875
1588209944895,2020-04-30T01:26:14.150228,14.525,98018.671875
1588209944942,2020-04-30T01:26:14.187595,14.572,98019.0859375
1588209944989,2020-04-30T01:26:14.210202,14.619,98018.7578125
1588209945036,2020-04-30T01:26:14.232517,14.666,98017.9375
1588209945083,2020-04-30T01:26:14.255200,14.713,98018.8359375
1588209945129,2020-04-30T01:26:14.277549,14.759,98019.0
1588209945175,2020-04-30T01:26:14.307969,14.805,98018.0234375
1588209945222,2020-04-30T01:26:14.345899,14.852,98018.515625
1588209945269,2020-04-30T01:26:14.367944,14.899,98019.0078125
1588209945315,2020-04-30T01:26:14.390680,14.945,98019.171875
1588209945362,2020-04-30T01:26:14.413030,14.992,98019.25
1588209945409,2020-04-30T01:26:14.452247,15.039,98019.578125
1588209945456,2020-04-30T01:26:14.461544,15.086,98019.578125
1588209945503,2020-04-30T01:26:14.495263,15.133,98019.40625
1588209945550,2020-04-30T01:26:14.511291,15.18,98019.484375
1588209945597,2020-04-30T01:26:14.540049,15.227,98019.6015625
1588209945644,2020-04-30T01:26:14.555544,15.274,98019.15625
1588209945690,2020-04-30T01:26:14.584946,15.32,98019.765625
1588209945737,2020-04-30T01:26:14.615520,15.367,98019.4375
1588209945783,2020-04-30T01:26:14.646260,15.413,98019.65625
1588209945830,2020-04-30T01:26:14.660207,15.46,98019.328125
1588209945876,2020-04-30T01:26:14.698001,15.506,98019.328125
1588209945923,2020-04-30T01:26:14.713473,15.553,98019.0
1588209945970,2020-04-30T01:26:14.743211,15.6,98019.328125
1588209946017,2020-04-30T01:26:14.773285,15.647,98019.765625
1588209946064,2020-04-30T01:26:14.810012,15.694,98019.6015625
1588209946111,2020-04-30T01:26:14.825200,15.741,98019.6015625
1588209946158,2020-04-30T01:26:14.854952,15.788,98019.6015625
1588209946205,2020-04-30T01:26:14.870203,15.835,98019.109375
1588209946250,2020-04-30T01:26:14.892505,15.88,98018.671875
1588209946297,2020-04-30T01:26:14.930491,15.927,98018.953125
1588209946344,2020-04-30T01:26:14.952727,15.974,98018.953125
1588209946391,2020-04-30T01:26:14.975614,16.021,98018.953125
1588209946438,2020-04-30T01:26:14.997771,16.068,98018.453125
1588209946484,2020-04-30T01:26:15.020683,16.114,98018.2890625
1588209946531,2020-04-30T01:26:15.043089,16.161,98018.1796875
1588209946578,2020-04-30T01:26:15.080424,16.208,98017.53125
1588209946624,2020-04-30T01:26:15.103628,16.254,98017.53125
1588209946670,2020-04-30T01:26:15.133423,16.3,98017.03125
1588209946717,2020-04-30T01:26:15.154948,16.347,98017.3125
1588209946764,2020-04-30T01:26:15.177701,16.394,98018.2890625
1588209946811,2020-04-30T01:26:15.199938,16.441,98018.953125
1588209946858,2020-04-30T01:26:15.238680,16.488,98018.953125
1588209946905,2020-04-30T01:26:15.260107,16.535,98018.2890625
1588209946952,2020-04-30T01:26:15.276571,16.582,98017.96875
1588209946999,2020-04-30T01:26:15.305198,16.629,98017.6875
1588209947045,2020-04-30T01:26:15.320969,16.675,98017.96875
1588209947091,2020-04-30T01:26:15.365041,16.721,98017.96875
1588209947138,2020-04-30T01:26:15.380476,16.768,98017.796875
1588209947185,2020-04-30T01:26:15.418782,16.815,98018.125
1588209947231,2020-04-30T01:26:15.433963,16.861,98017.96875
1588209947278,2020-04-30T01:26:15.462534,16.908,98017.96875
1588209947325,2020-04-30T01:26:15.477722,16.955,98018.125
1588209947372,2020-04-30T01:26:15.529959,17.002,98017.640625
1588209947419,2020-04-30T01:26:15.546036,17.049,98017.640625
1588209947464,2020-04-30T01:26:15.575264,17.094,98018.203125
1588209947511,2020-04-30T01:26:15.590394,17.141,98017.96875
1588209947558,2020-04-30T01:26:15.620132,17.188,98018.703125
1588209947605,2020-04-30T01:26:15.635220,17.235,98019.1875
1588209947652,2020-04-30T01:26:15.672386,17.282,98019.0234375
1588209947699,2020-04-30T01:26:15.717586,17.329,98018.703125
1588209947746,2020-04-30T01:26:15.733257,17.376,98018.703125
1588209947792,2020-04-30T01:26:15.762397,17.422,98018.703125
1588209947839,2020-04-30T01:26:15.777400,17.469,98018.53125
1588209947886,2020-04-30T01:26:15.814964,17.516,98018.203125
1588209947932,2020-04-30T01:26:15.845232,17.562,98018.375
1588209947979,2020-04-30T01:26:15.874954,17.609,98018.53125
1588209948025,2020-04-30T01:26:15.890237,17.655,98018.3203125
1588209948072,2020-04-30T01:26:15.919955,17.702,98018.484375
1588209948119,2020-04-30T01:26:15.935302,17.749,98018.3203125
1588209948166,2020-04-30T01:26:15.987458,17.796,98017.6640625
1588209948213,2020-04-30T01:26:16.002814,17.843,98017.5
1588209948260,2020-04-30T01:26:16.032524,17.89,98017.015625
1588209948307,2020-04-30T01:26:16.055229,17.937,98016.8984375
1588209948352,2020-04-30T01:26:16.077471,17.982,98017.5
1588209948399,2020-04-30T01:26:16.100233,18.029,98017.9921875
1588209948446,2020-04-30T01:26:16.137460,18.076,98017.9921875
1588209948493,2020-04-30T01:26:16.167825,18.123,98018.96875
1588209948540,2020-04-30T01:26:16.190160,18.17,98018.8046875
1588209948586,2020-04-30T01:26:16.212829,18.216,98018.640625
1588209948633,2020-04-30T01:26:16.250093,18.263,98018.8046875
1588209948680,2020-04-30T01:26:16.272859,18.31,98017.875
1588209948726,2020-04-30T01:26:16.309962,18.356,98018.203125
1588209948772,2020-04-30T01:26:16.340669,18.402,98017.875
1588209948819,2020-04-30T01:26:16.370114,18.449,98017.390625
1588209948866,2020-04-30T01:26:16.393059,18.496,98017.2265625
1588209948913,2020-04-30T01:26:16.415500,18.543,98017.71875
1588209948960,2020-04-30T01:26:16.438752,18.59,98017.9921875
1588209949007,2020-04-30T01:26:16.482764,18.637,98018.484375
1588209949054,2020-04-30T01:26:16.498107,18.684,98017.6640625
1588209949101,2020-04-30T01:26:16.535028,18.731,98017.5
1588209949147,2020-04-30T01:26:16.558261,18.777,98017.7421875
1588209949194,2020-04-30T01:26:16.587664,18.824,98017.828125
1588209949241,2020-04-30T01:26:16.603495,18.871,98018.15625
1588209949287,2020-04-30T01:26:16.647891,18.917,98018.484375
1588209949334,2020-04-30T01:26:16.671622,18.964,98018.96875
1588209949380,2020-04-30T01:26:16.700100,19.01,98018.640625
1588209949427,2020-04-30T01:26:16.715488,19.057,98018.484375
1588209949474,2020-04-30T01:26:16.745200,19.104,98018.3203125
1588209949521,2020-04-30T01:26:16.790710,19.151,98018.3203125
1588209949568,2020-04-30T01:26:16.820021,19.198,98018.15625
1588209949615,2020-04-30T01:26:16.835262,19.245,98018.640625
1588209949660,2020-04-30T01:26:16.872533,19.29,98018.484375
1588209949707,2020-04-30T01:26:16.887751,19.337,98018.71875
1588209949754,2020-04-30T01:26:16.917475,19.384,98018.484375
1588209949801,2020-04-30T01:26:16.955284,19.431,98018.5546875
1588209949848,2020-04-30T01:26:16.984995,19.478,98018.890625
1588209949895,2020-04-30T01:26:17.007747,19.525,98018.390625
1588209949941,2020-04-30T01:26:17.030036,19.571,98018.0703125
1588209949988,2020-04-30T01:26:17.053500,19.618,98017.4140625
1588209950034,2020-04-30T01:26:17.075065,19.664,98017.25
1588209950081,2020-04-30T01:26:17.120992,19.711,98017.578125
1588209950127,2020-04-30T01:26:17.143178,19.757,98016.765625
1588209950174,2020-04-30T01:26:17.167008,19.804,98016.921875
1588209950221,2020-04-30T01:26:17.187471,19.851,98016.4375
1588209950268,2020-04-30T01:26:17.210234,19.898,98016.921875
1588209950315,2020-04-30T01:26:17.232539,19.945,98016.1953125
1588209950362,2020-04-30T01:26:17.271043,19.992,98016.59375
1588209950409,2020-04-30T01:26:17.292618,20.039,98016.921875
1588209950456,2020-04-30T01:26:17.307784,20.086,98016.109375
1588209950501,2020-04-30T01:26:17.345178,20.131,98016.265625
1588209950548,2020-04-30T01:26:17.360613,20.178,98016.59375
1588209950595,2020-04-30T01:26:17.412664,20.225,98015.703125
1588209950642,2020-04-30T01:26:17.428067,20.272,98015.5390625
1588209950688,2020-04-30T01:26:17.457640,20.318,98016.03125
1588209950735,2020-04-30T01:26:17.473185,20.365,98016.03125
1588209950782,2020-04-30T01:26:17.502858,20.412,98016.1953125
1588209950829,2020-04-30T01:26:17.518315,20.459,98016.359375
1588209950876,2020-04-30T01:26:17.563687,20.506,98017.015625
1588209950921,2020-04-30T01:26:17.579528,20.551,98017.4140625
1588209950968,2020-04-30T01:26:17.607651,20.598,98018.234375
1588209951015,2020-04-30T01:26:17.631281,20.645,98019.328125
1588209951062,2020-04-30T01:26:17.669023,20.692,98019.484375
1588209951109,2020-04-30T01:26:17.683113,20.739,98018.71875
1588209951156,2020-04-30T01:26:17.720075,20.786,98018.5078125
1588209951203,2020-04-30T01:26:17.743412,20.833,98018.015625
1588209951250,2020-04-30T01:26:17.765400,20.88,98017.6875
1588209951295,2020-04-30T01:26:17.810162,20.925,98017.859375
1588209951342,2020-04-30T01:26:17.825602,20.972,98017.859375
1588209951389,2020-04-30T01:26:17.855104,21.019,98017.6875
1588209951436,2020-04-30T01:26:17.885330,21.066,98017.03125
1588209951482,2020-04-30T01:26:17.915024,21.112,98017.5234375
1588209951529,2020-04-30T01:26:17.930287,21.159,98017.359375
1588209951576,2020-04-30T01:26:17.967336,21.206,98018.015625
1588209951623,2020-04-30T01:26:17.982481,21.253,98018.5078125
1588209951670,2020-04-30T01:26:18.012394,21.3,98018.34375
1588209951715,2020-04-30T01:26:18.042495,21.345,98018.75
1588209951762,2020-04-30T01:26:18.072396,21.392,98018.421875
1588209951809,2020-04-30T01:26:18.087438,21.439,98018.5859375
1588209951856,2020-04-30T01:26:18.109839,21.486,98017.6875
1588209951903,2020-04-30T01:26:18.132519,21.533,98017.5234375
1588209951950,2020-04-30T01:26:18.177339,21.58,98017.859375
1588209951997,2020-04-30T01:26:18.199953,21.627,98017.09375
1588209952043,2020-04-30T01:26:18.229838,21.673,98017.203125
1588209952089,2020-04-30T01:26:18.260012,21.719,98017.6875
1588209952136,2020-04-30T01:26:18.282362,21.766,98017.859375
1588209952183,2020-04-30T01:26:18.305120,21.813,98018.015625
1588209952229,2020-04-30T01:26:18.342628,21.859,98017.6875
1588209952276,2020-04-30T01:26:18.365196,21.906,98017.359375
1588209952323,2020-04-30T01:26:18.387452,21.953,98017.03125
1588209952370,2020-04-30T01:26:18.409949,22.0,98016.3828125
1588209952417,2020-04-30T01:26:18.432427,22.047,98016.7109375
1588209952464,2020-04-30T01:26:18.462488,22.094,98016.546875
1588209952509,2020-04-30T01:26:18.500117,22.139,98016.7109375
1588209952558,2020-04-30T01:26:18.515128,22.188,98017.03125
1588209952603,2020-04-30T01:26:18.544839,22.233,98017.109375
1588209952650,2020-04-30T01:26:18.559956,22.28,98016.78125
1588209952697,2020-04-30T01:26:18.589851,22.327,98016.3828125
1588209952744,2020-04-30T01:26:18.605586,22.374,98016.546875
1588209952791,2020-04-30T01:26:18.650703,22.421,98016.21875
1588209952837,2020-04-30T01:26:18.665743,22.467,98016.0625
1588209952884,2020-04-30T01:26:18.695030,22.514,98016.0625
1588209952931,2020-04-30T01:26:18.710305,22.561,98015.78125
1588209952977,2020-04-30T01:26:18.747519,22.607,98016.21875
1588209953023,2020-04-30T01:26:18.785616,22.653,98016.21875
1588209953070,2020-04-30T01:26:18.815173,22.7,98016.546875
1588209953117,2020-04-30T01:26:18.830607,22.747,98015.890625
1588209953164,2020-04-30T01:26:18.860529,22.794,98016.21875
1588209953211,2020-04-30T01:26:18.876565,22.841,98017.109375
1588209953258,2020-04-30T01:26:18.897624,22.888,98017.109375
1588209953305,2020-04-30T01:26:18.935728,22.935,98017.609375
1588209953352,2020-04-30T01:26:18.957846,22.982,98017.765625
1588209953397,2020-04-30T01:26:18.982888,23.027,98017.109375
1588209953444,2020-04-30T01:26:19.010135,23.074,98017.28125
1588209953491,2020-04-30T01:26:19.033554,23.121,98017.765625
1588209953538,2020-04-30T01:26:19.063080,23.168,98018.203125
1588209953584,2020-04-30T01:26:19.108275,23.214,98017.4375
1588209953631,2020-04-30T01:26:19.130171,23.261,98017.71875
1588209953678,2020-04-30T01:26:19.153118,23.308,98017.546875
1588209953725,2020-04-30T01:26:19.175141,23.355,98017.140625
1588209953771,2020-04-30T01:26:19.205995,23.401,98016.8984375
1588209953817,2020-04-30T01:26:19.236947,23.447,98017.7890625
1588209953864,2020-04-30T01:26:19.273324,23.494,98017.546875
1588209953911,2020-04-30T01:26:19.295473,23.541,98017.390625
1588209953958,2020-04-30T01:26:19.310572,23.588,98017.390625
1588209954005,2020-04-30T01:26:19.340148,23.635,98017.0625
1588209954052,2020-04-30T01:26:19.355582,23.682,98017.625
1588209954099,2020-04-30T01:26:19.385093,23.729,98017.296875
1588209954146,2020-04-30T01:26:19.415357,23.776,98017.296875
1588209954191,2020-04-30T01:26:19.445034,23.821,98017.46875
1588209954238,2020-04-30T01:26:19.460303,23.868,98017.625
1588209954285,2020-04-30T01:26:19.490050,23.915,98016.8984375
1588209954332,2020-04-30T01:26:19.505335,23.962,98016.578125
1588209954378,2020-04-30T01:26:19.550032,24.008,98016.734375
1588209954425,2020-04-30T01:26:19.565439,24.055,98017.0625
1588209954472,2020-04-30T01:26:19.595326,24.102,98017.546875
1588209954519,2020-04-30T01:26:19.610579,24.149,98016.953125
1588209954564,2020-04-30T01:26:19.640455,24.194,98016.734375
1588209954611,2020-04-30T01:26:19.656170,24.241,98016.578125
1588209954658,2020-04-30T01:26:19.692813,24.288,98017.2265625
1588209954705,2020-04-30T01:26:19.715626,24.335,98017.71875
1588209954752,2020-04-30T01:26:19.737749,24.382,98018.453125
1588209954799,2020-04-30T01:26:19.760646,24.429,98017.7890625
1588209954846,2020-04-30T01:26:19.782987,24.476,98018.234375
1588209954893,2020-04-30T01:26:19.827550,24.523,98018.0703125
1588209954938,2020-04-30T01:26:19.857823,24.568,98017.953125
1588209954985,2020-04-30T01:26:19.887535,24.615,98016.40625
1588209955032,2020-04-30T01:26:19.903167,24.662,98016.8125
1588209955079,2020-04-30T01:26:19.932550,24.709,98016.8125
1588209955125,2020-04-30T01:26:19.948745,24.755,98015.921875
1588209955172,2020-04-30T01:26:19.977595,24.802,98016.0
1588209955219,2020-04-30T01:26:20.007826,24.849,98015.859375
1588209955266,2020-04-30T01:26:20.037539,24.896,98016.1875
1588209955313,2020-04-30T01:26:20.052912,24.943,98016.015625
1588209955358,2020-04-30T01:26:20.075090,24.988,98016.015625
1588209955405,2020-04-30T01:26:20.097821,25.035,98017.109375
1588209955452,2020-04-30T01:26:20.120046,25.082,98018.09375
1588209955499,2020-04-30T01:26:20.158078,25.129,98017.8203125
1588209955546,2020-04-30T01:26:20.180181,25.176,98017.25
1588209955593,2020-04-30T01:26:20.203556,25.223,98017.140625
1588209955640,2020-04-30T01:26:20.225272,25.27,98017.296875
1588209955687,2020-04-30T01:26:20.248326,25.317,98016.9765625
1588209955732,2020-04-30T01:26:20.285234,25.362,98017.7421875
1588209955779,2020-04-30T01:26:20.308508,25.409,98017.578125
1588209955826,2020-04-30T01:26:20.330286,25.456,98017.25
1588209955873,2020-04-30T01:26:20.353100,25.503,98017.40625
1588209955919,2020-04-30T01:26:20.375227,25.549,98016.8125
1588209955966,2020-04-30T01:26:20.398101,25.596,98017.40625
1588209956013,2020-04-30T01:26:20.435210,25.643,98016.84375
1588209956060,2020-04-30T01:26:20.450582,25.69,98016.109375
1588209956105,2020-04-30T01:26:20.480307,25.735,98015.5
1588209956152,2020-04-30T01:26:20.495671,25.782,98016.15625
1588209956199,2020-04-30T01:26:20.525965,25.829,98016.8125
1588209956246,2020-04-30T01:26:20.541103,25.876,98017.140625
1588209956293,2020-04-30T01:26:20.585062,25.923,98017.90625
1588209956340,2020-04-30T01:26:20.600391,25.97,98018.0703125
1588209956387,2020-04-30T01:26:20.630354,26.017,98017.90625
1588209956434,2020-04-30T01:26:20.645596,26.064,98018.234375
1588209956480,2020-04-30T01:26:20.675197,26.11,98018.0703125
1588209956526,2020-04-30T01:26:20.690916,26.156,98017.7421875
1588209956573,2020-04-30T01:26:20.735181,26.203,98017.40625
1588209956620,2020-04-30T01:26:20.758106,26.25,98017.65625
1588209956667,2020-04-30T01:26:20.787731,26.297,98017.328125
1588209956713,2020-04-30T01:26:20.803519,26.343,98016.4375
1588209956760,2020-04-30T01:26:20.825207,26.39,98017.328125
1588209956807,2020-04-30T01:26:20.871357,26.437,98017.328125
1588209956854,2020-04-30T01:26:20.892826,26.484,98017.4921875
1588209956899,2020-04-30T01:26:20.915636,26.529,98017.65625
1588209956946,2020-04-30T01:26:20.938055,26.576,98017.65625
1588209956993,2020-04-30T01:26:20.960777,26.623,98017.25
1588209957040,2020-04-30T01:26:20.982791,26.67,98016.15625
1588209957087,2020-04-30T01:26:21.020408,26.717,98016.265625
1588209957134,2020-04-30T01:26:21.042616,26.764,98015.6171875
1588209957181,2020-04-30T01:26:21.072524,26.811,98015.6953125
1588209957228,2020-04-30T01:26:21.094983,26.858,98016.015625
1588209957273,2020-04-30T01:26:21.117562,26.903,98015.859375
1588209957320,2020-04-30T01:26:21.139909,26.95,98016.34375
1588209957367,2020-04-30T01:26:21.177503,26.997,98015.3671875
1588209957414,2020-04-30T01:26:21.200035,27.044,98014.3125
1588209957460,2020-04-30T01:26:21.215441,27.09,98014.640625
1588209957507,2020-04-30T01:26:21.244988,27.137,98015.2890625
1588209957554,2020-04-30T01:26:21.260187,27.184,98015.6171875
1588209957601,2020-04-30T01:26:21.290078,27.231,98016.109375
1588209957648,2020-04-30T01:26:21.320367,27.278,98016.515625
1588209957693,2020-04-30T01:26:21.350106,27.323,98016.59375
1588209957740,2020-04-30T01:26:21.365577,27.37,98015.78125
1588209957787,2020-04-30T01:26:21.395087,27.417,98015.859375
1588209957834,2020-04-30T01:26:21.410444,27.464,98016.296875
1588209957881,2020-04-30T01:26:21.440123,27.511,98017.2734375
1588209957928,2020-04-30T01:26:21.470530,27.558,98017.765625
1588209957975,2020-04-30T01:26:21.500073,27.605,98017.765625
1588209958021,2020-04-30T01:26:21.515371,27.651,98017.921875
1588209958067,2020-04-30T01:26:21.547435,27.697,98018.25
1588209958114,2020-04-30T01:26:21.560967,27.744,98017.765625
1588209958161,2020-04-30T01:26:21.597707,27.791,98017.6015625
1588209958208,2020-04-30T01:26:21.620977,27.838,98018.421875
1588209958254,2020-04-30T01:26:21.642732,27.884,98018.421875
1588209958301,2020-04-30T01:26:21.665620,27.931,98017.65625
1588209958348,2020-04-30T01:26:21.687592,27.978,98018.421875
1588209958395,2020-04-30T01:26:21.710340,28.025,98017.921875
1588209958442,2020-04-30T01:26:21.747576,28.072,98017.984375
1588209958487,2020-04-30T01:26:21.792608,28.117,98017.984375
1588209958534,2020-04-30T01:26:21.807869,28.164,98018.578125
1588209958581,2020-04-30T01:26:21.837585,28.211,98018.75
1588209958628,2020-04-30T01:26:21.852917,28.258,98018.46875
1588209958675,2020-04-30T01:26:21.882742,28.305,98018.09375
1588209958722,2020-04-30T01:26:21.913194,28.352,98017.328125
1588209958769,2020-04-30T01:26:21.942900,28.399,98017.328125
1588209958815,2020-04-30T01:26:21.958321,28.445,98016.953125
1588209958862,2020-04-30T01:26:21.980173,28.492,98016.953125
1588209958908,2020-04-30T01:26:22.003072,28.538,98016.953125
1588209958955,2020-04-30T01:26:22.025099,28.585,98017.671875
1588209959001,2020-04-30T01:26:22.063203,28.631,98017.109375
1588209959048,2020-04-30T01:26:22.085259,28.678,98017.671875
1588209959095,2020-04-30T01:26:22.108161,28.725,98017.0234375
1588209959142,2020-04-30T01:26:22.130277,28.772,98016.859375
1588209959189,2020-04-30T01:26:22.153214,28.819,98015.640625
1588209959236,2020-04-30T01:26:22.175125,28.866,98015.96875
1588209959283,2020-04-30T01:26:22.212919,28.913,98016.1328125
1588209959330,2020-04-30T01:26:22.235178,28.96,98016.296875
1588209959375,2020-04-30T01:26:22.257885,29.005,98015.640625
1588209959422,2020-04-30T01:26:22.280095,29.052,98016.1328125
1588209959469,2020-04-30T01:26:22.302861,29.099,98016.4609375
1588209959516,2020-04-30T01:26:22.340230,29.146,98016.4609375
1588209959563,2020-04-30T01:26:22.355796,29.193,98016.953125
1588209959609,2020-04-30T01:26:22.385237,29.239,98017.3515625
1588209959656,2020-04-30T01:26:22.400931,29.286,98017.4375
1588209959703,2020-04-30T01:26:22.430093,29.333,98017.265625
1588209959749,2020-04-30T01:26:22.445399,29.379,98017.59375
1588209959795,2020-04-30T01:26:22.490105,29.425,98016.78125
1588209959842,2020-04-30T01:26:22.505628,29.472,98016.859375
1588209959889,2020-04-30T01:26:22.535124,29.519,98016.53125
1588209959936,2020-04-30T01:26:22.550365,29.566,98016.375
1588209959983,2020-04-30T01:26:22.580099,29.613,98016.703125
1588209960030,2020-04-30T01:26:22.595422,29.66,98016.125
1588209960077,2020-04-30T01:26:22.640264,29.707,98016.375
1588209960122,2020-04-30T01:26:22.655645,29.752,98017.0234375
1588209960169,2020-04-30T01:26:22.677757,29.799,98016.859375
1588209960216,2020-04-30T01:26:22.700650,29.846,98015.71875
1588209960263,2020-04-30T01:26:22.723159,29.893,98015.71875
1588209960310,2020-04-30T01:26:22.745700,29.94,98016.53125
1588209960356,2020-04-30T01:26:22.782631,29.986,98017.3515625
1588209960403,2020-04-30T01:26:22.805406,30.033,98016.1328125
1588209960450,2020-04-30T01:26:22.827613,30.08,98015.96875
1588209960496,2020-04-30T01:26:22.850787,30.126,98015.8125
1588209960542,2020-04-30T01:26:22.872785,30.172,98015.640625
1588209960589,2020-04-30T01:26:22.918222,30.219,98016.046875
1588209960636,2020-04-30T01:26:22.940557,30.266,98016.53125
1588209960683,2020-04-30T01:26:22.963322,30.313,98016.53125
1588209960730,2020-04-30T01:26:22.985112,30.36,98017.1875
1588209960777,2020-04-30T01:26:23.007871,30.407,98016.703125
1588209960824,2020-04-30T01:26:23.030106,30.454,98017.4375
1588209960871,2020-04-30T01:26:23.067954,30.501,98018.03125
1588209960916,2020-04-30T01:26:23.112618,30.546,98017.265625
1588209960963,2020-04-30T01:26:23.127890,30.593,98017.265625
1588209961010,2020-04-30T01:26:23.157611,30.64,98016.78125
1588209961057,2020-04-30T01:26:23.172940,30.687,98016.453125
1588209961104,2020-04-30T01:26:23.202629,30.734,98016.2109375
1588209961150,2020-04-30T01:26:23.240563,30.78,98016.53125
1588209961197,2020-04-30T01:26:23.270123,30.827,98017.0234375
1588209961244,2020-04-30T01:26:23.285484,30.874,98017.265625
1588209961290,2020-04-30T01:26:23.315119,30.92,98017.7578125
1588209961336,2020-04-30T01:26:23.330390,30.966,98017.0234375
1588209961383,2020-04-30T01:26:23.360117,31.013,98016.78125
1588209961430,2020-04-30T01:26:23.390393,31.06,98016.78125
1588209961477,2020-04-30T01:26:23.427442,31.107,98017.109375
1588209961524,2020-04-30T01:26:23.442656,31.154,98017.4375
1588209961571,2020-04-30T01:26:23.472453,31.201,98018.0859375
1588209961618,2020-04-30T01:26:23.495139,31.248,98018.25
1588209961663,2020-04-30T01:26:23.517471,31.293,98017.921875
1588209961710,2020-04-30T01:26:23.555296,31.34,98017.921875
1588209961757,2020-04-30T01:26:23.577813,31.387,98017.7578125
1588209961804,2020-04-30T01:26:23.600252,31.434,98017.671875
1588209961851,2020-04-30T01:26:23.622505,31.481,98017.515625
1588209961897,2020-04-30T01:26:23.645519,31.527,98017.1875
1588209961944,2020-04-30T01:26:23.682696,31.574,98017.1875
1588209961991,2020-04-30T01:26:23.705423,31.621,98018.3359375
1588209962038,2020-04-30T01:26:23.727626,31.668,98018.65625
1588209962084,2020-04-30T01:26:23.772645,31.714,98018.828125
1588209962130,2020-04-30T01:26:23.787924,31.76,98018.8984375
1588209962177,2020-04-30T01:26:23.817633,31.807,98019.2265625
1588209962224,2020-04-30T01:26:23.847956,31.854,98020.3125
1588209962271,2020-04-30T01:26:23.870146,31.901,98020.8125
1588209962318,2020-04-30T01:26:23.900431,31.948,98020.375
1588209962365,2020-04-30T01:26:23.922637,31.995,98020.2109375
1588209962412,2020-04-30T01:26:23.945843,32.042,98019.390625
1588209962457,2020-04-30T01:26:23.967750,32.087,98019.2265625
1588209962504,2020-04-30T01:26:24.005675,32.134,98018.734375
1588209962551,2020-04-30T01:26:24.028067,32.181,98018.578125
1588209962598,2020-04-30T01:26:24.064221,32.228,98018.6875
1588209962645,2020-04-30T01:26:24.072867,32.275,98018.0859375
1588209962691,2020-04-30T01:26:24.095681,32.321,98019.0625
1588209962738,2020-04-30T01:26:24.117782,32.368,98019.0625
1588209962785,2020-04-30T01:26:24.157245,32.415,98018.8984375
1588209962832,2020-04-30T01:26:24.177642,32.462,98018.8984375
1588209962879,2020-04-30T01:26:24.200419,32.509,98019.171875
1588209962924,2020-04-30T01:26:24.222750,32.554,98018.734375
1588209962971,2020-04-30T01:26:24.238430,32.601,98018.8984375
1588209963018,2020-04-30T01:26:24.267660,32.648,98019.015625
1588209963065,2020-04-30T01:26:24.297964,32.695,98019.171875
1588209963112,2020-04-30T01:26:24.335222,32.742,98019.171875
1588209963159,2020-04-30T01:26:24.350459,32.789,98018.40625
1588209963206,2020-04-30T01:26:24.380139,32.836,98018.0859375
1588209963252,2020-04-30T01:26:24.395550,32.882,98018.25
1588209963298,2020-04-30T01:26:24.440142,32.928,98018.0859375
1588209963345,2020-04-30T01:26:24.455441,32.975,98018.578125
1588209963392,2020-04-30T01:26:24.485143,33.022,98018.25
1588209963438,2020-04-30T01:26:24.507936,33.068,98018.8984375
1588209963485,2020-04-30T01:26:24.537635,33.115,98018.734375
1588209963532,2020-04-30T01:26:24.552952,33.162,98019.171875
1588209963579,2020-04-30T01:26:24.605152,33.209,98019.015625
1588209963626,2020-04-30T01:26:24.620437,33.256,98018.25
1588209963671,2020-04-30T01:26:24.642711,33.301,98018.1953125
1588209963718,2020-04-30T01:26:24.665530,33.348,98017.8671875
1588209963765,2020-04-30T01:26:24.687661,33.395,98018.03125
1588209963812,2020-04-30T01:26:24.710930,33.442,98018.359375
1588209963859,2020-04-30T01:26:24.747798,33.489,98018.1953125
1588209963906,2020-04-30T01:26:24.770958,33.536,98018.03125
1588209963953,2020-04-30T01:26:24.793018,33.583,98018.921875
1588209964000,2020-04-30T01:26:24.821762,33.63,98019.578125
1588209964046,2020-04-30T01:26:24.837761,33.676,98019.828125
1588209964093,2020-04-30T01:26:24.860912,33.723,98019.828125
1588209964139,2020-04-30T01:26:24.898069,33.769,98019.5
1588209964186,2020-04-30T01:26:24.928338,33.816,98018.84375
1588209964232,2020-04-30T01:26:24.950142,33.862,98018.03125
1588209964279,2020-04-30T01:26:24.980418,33.909,98018.1953125
1588209964326,2020-04-30T01:26:25.002738,33.956,98018.1953125
1588209964373,2020-04-30T01:26:25.032950,34.003,98017.703125
1588209964420,2020-04-30T01:26:25.070150,34.05,98018.2734375
1588209964467,2020-04-30T01:26:25.085436,34.097,98018.4375
1588209964512,2020-04-30T01:26:25.115190,34.142,98018.109375
1588209964559,2020-04-30T01:26:25.137937,34.189,98017.78125
1588209964606,2020-04-30T01:26:25.167691,34.236,98016.890625
1588209964653,2020-04-30T01:26:25.205441,34.283,98017.21875
1588209964700,2020-04-30T01:26:25.242840,34.33,98017.046875
1588209964747,2020-04-30T01:26:25.265692,34.377,98017.046875
1588209964793,2020-04-30T01:26:25.310293,34.423,98017.78125
1588209964840,2020-04-30T01:26:25.332969,34.47,98017.375
1588209964886,2020-04-30T01:26:25.362703,34.516,98017.8671875
1588209964933,2020-04-30T01:26:25.400672,34.563,98018.1953125
1588209964979,2020-04-30T01:26:25.437798,34.609,98018.359375
1588209965026,2020-04-30T01:26:25.453302,34.656,98019.25
1588209965073,2020-04-30T01:26:25.475247,34.703,98018.1953125
1588209965120,2020-04-30T01:26:25.497954,34.75,98018.6875
1588209965167,2020-04-30T01:26:25.520141,34.797,98019.4140625
1588209965214,2020-04-30T01:26:25.557979,34.844,98019.359375
1588209965261,2020-04-30T01:26:25.580200,34.891,98019.6875
