epoch  (ms),time  (-07:00),elapsed  (s),X-Axis  (T),Y-Axis  (T),Z-Axis  (T)
1588210593407,2020-04-30T01:37:58.340364,0.0,-63.5625,-12.0625,68.25
1588210593506,2020-04-30T01:37:58.362651,0.099,-64.25,-12.4375,67.4375
1588210593606,2020-04-30T01:37:58.437863,0.199,-64.25,-12.0625,67.0625
1588210593706,2020-04-30T01:37:58.490051,0.299,-63.1875,-11.0,66.6875
1588210593805,2020-04-30T01:37:58.550763,0.398,-62.4375,-8.0625,66.3125
1588210593905,2020-04-30T01:37:58.610277,0.498,-63.1875,-4.75,65.875
1588210594004,2020-04-30T01:37:58.670290,0.597,-64.3125,-1.8125,65.125
1588210594104,2020-04-30T01:37:58.737695,0.697,-64.3125,-0.3125,67.0625
1588210594204,2020-04-30T01:37:58.798171,0.797,-66.125,-1.8125,71.0625
1588210594303,2020-04-30T01:37:58.865810,0.896,-67.5625,-1.4375,73.8125
1588210594403,2020-04-30T01:37:58.910197,0.996,-68.6875,-4.75,75.4375
1588210594502,2020-04-30T01:37:58.978271,1.095,-69.8125,0.0,75.0625
1588210594602,2020-04-30T01:37:59.037797,1.195,-69.8125,3.3125,71.4375
1588210594700,2020-04-30T01:37:59.113217,1.293,-70.1875,3.6875,69.0625
1588210594800,2020-04-30T01:37:59.165273,1.393,-69.0625,0.375,66.6875
1588210594899,2020-04-30T01:37:59.225637,1.492,-69.4375,8.5,61.125
1588210594999,2020-04-30T01:37:59.277878,1.592,-67.5625,5.875,54.0
1588210595099,2020-04-30T01:37:59.360196,1.692,-65.75,8.8125,47.25
1588210595198,2020-04-30T01:37:59.413168,1.791,-64.625,9.5625,44.0625
1588210595298,2020-04-30T01:37:59.472698,1.891,-65.0,11.0625,40.875
1588210595397,2020-04-30T01:37:59.533174,1.99,-66.125,12.5,35.6875
1588210595497,2020-04-30T01:37:59.592708,2.09,-67.25,11.75,33.75
1588210595597,2020-04-30T01:37:59.637694,2.19,-65.375,12.125,39.6875
1588210595696,2020-04-30T01:37:59.705225,2.289,-63.9375,9.9375,40.875
1588210595796,2020-04-30T01:37:59.750173,2.389,-62.8125,7.75,43.6875
1588210595896,2020-04-30T01:37:59.817934,2.489,-61.375,1.5,48.0
1588210595995,2020-04-30T01:37:59.863263,2.588,-61.6875,4.4375,53.5625
1588210596095,2020-04-30T01:37:59.922864,2.688,-62.4375,2.625,56.75
1588210596193,2020-04-30T01:37:59.990227,2.786,-61.6875,2.25,63.125
1588210596293,2020-04-30T01:38:00.035184,2.886,-62.4375,-3.625,66.6875
1588210596392,2020-04-30T01:38:00.102672,2.985,-63.5625,0.0,69.875
1588210596492,2020-04-30T01:38:00.147734,3.085,-62.8125,-1.0625,72.25
1588210596591,2020-04-30T01:38:00.207713,3.184,-63.5625,-1.0625,73.8125
1588210596691,2020-04-30T01:38:00.253258,3.284,-65.375,-0.6875,77.0
1588210596791,2020-04-30T01:38:00.327942,3.384,-64.3125,-2.5625,77.0
1588210596890,2020-04-30T01:38:00.372903,3.483,-65.375,-0.6875,77.4375
1588210596990,2020-04-30T01:38:00.464202,3.583,-65.0,-3.25,78.1875
1588210597089,2020-04-30T01:38:00.508639,3.682,-65.0,-1.0625,77.4375
1588210597189,2020-04-30T01:38:00.620137,3.782,-65.0,-0.3125,76.1875
1588210597289,2020-04-30T01:38:00.665749,3.882,-64.625,-1.0625,73.8125
1588210597388,2020-04-30T01:38:00.785684,3.981,-63.5625,-8.4375,73.8125
1588210597488,2020-04-30T01:38:00.831718,4.081,-61.6875,-0.6875,70.25
1588210597587,2020-04-30T01:38:00.905440,4.18,-61.6875,0.375,67.875
1588210597686,2020-04-30T01:38:00.950386,4.279,-60.25,-0.3125,66.3125
1588210597785,2020-04-30T01:38:01.016300,4.378,-61.6875,-2.875,66.6875
1588210597885,2020-04-30T01:38:01.059039,4.478,-60.625,-0.3125,67.5
1588210597984,2020-04-30T01:38:01.125133,4.577,-61.0,-0.3125,67.125
1588210598084,2020-04-30T01:38:01.190279,4.677,-60.625,-0.3125,66.3125
1588210598184,2020-04-30T01:38:01.242987,4.777,-61.375,0.0,67.125
1588210598283,2020-04-30T01:38:01.295585,4.876,-61.0,-0.6875,65.5
1588210598383,2020-04-30T01:38:01.341552,4.976,-62.4375,3.3125,63.125
1588210598482,2020-04-30T01:38:01.416152,5.075,-61.6875,1.5,59.5625
1588210598582,2020-04-30T01:38:01.460190,5.175,-61.375,4.0625,56.0
1588210598682,2020-04-30T01:38:01.535178,5.275,-60.625,6.625,50.0
1588210598781,2020-04-30T01:38:01.580180,5.374,-62.0625,7.75,46.4375
1588210598881,2020-04-30T01:38:01.647905,5.474,-61.375,2.25,43.625
1588210598980,2020-04-30T01:38:01.715170,5.573,-61.375,8.5,40.5
1588210599080,2020-04-30T01:38:01.775294,5.673,-60.25,8.125,38.0625
1588210599180,2020-04-30T01:38:01.820173,5.773,-59.125,8.5,31.75
1588210599278,2020-04-30T01:38:01.881329,5.871,-60.625,8.125,18.625
1588210599377,2020-04-30T01:38:01.932847,5.97,-61.0,8.125,13.5
1588210599477,2020-04-30T01:38:01.993855,6.07,-62.0625,8.125,10.6875
1588210599577,2020-04-30T01:38:02.045187,6.17,-61.6875,9.5625,10.3125
1588210599676,2020-04-30T01:38:02.135210,6.269,-62.0625,9.5625,12.25
1588210599776,2020-04-30T01:38:02.180182,6.369,-61.6875,9.5625,13.5
1588210599876,2020-04-30T01:38:02.263580,6.469,-61.6875,9.9375,12.6875
1588210599975,2020-04-30T01:38:02.330891,6.568,-61.375,4.8125,13.0625
1588210600075,2020-04-30T01:38:02.397767,6.668,-62.0625,9.9375,13.0625
1588210600174,2020-04-30T01:38:02.466072,6.767,-61.6875,9.5625,13.0625
1588210600274,2020-04-30T01:38:02.510952,6.867,-62.0625,11.4375,13.875
1588210600374,2020-04-30T01:38:02.585894,6.967,-62.4375,4.8125,14.6875
1588210600473,2020-04-30T01:38:02.640294,7.066,-61.6875,10.3125,17.4375
1588210600571,2020-04-30T01:38:02.706516,7.164,-60.625,10.3125,12.6875
1588210600671,2020-04-30T01:38:02.758632,7.264,-62.4375,8.125,5.9375
1588210600771,2020-04-30T01:38:02.840308,7.364,-63.5625,11.0625,0.75
1588210600870,2020-04-30T01:38:02.915277,7.463,-62.4375,11.0625,5.9375
1588210600970,2020-04-30T01:38:03.035441,7.563,-63.9375,12.5,7.125
1588210601069,2020-04-30T01:38:03.125308,7.662,-63.1875,13.25,8.6875
1588210601169,2020-04-30T01:38:03.238017,7.762,-63.5625,14.0,8.3125
1588210601269,2020-04-30T01:38:03.290121,7.862,-62.4375,12.5,8.6875
1588210601368,2020-04-30T01:38:03.372558,7.961,-63.1875,11.4375,8.3125
1588210601468,2020-04-30T01:38:03.440350,8.061,-63.5625,7.75,7.9375
1588210601567,2020-04-30T01:38:03.515374,8.16,-63.5625,12.875,6.75
1588210601667,2020-04-30T01:38:03.567701,8.26,-63.5625,11.75,5.5
1588210601767,2020-04-30T01:38:03.627848,8.36,-63.5625,11.4375,5.125
1588210601866,2020-04-30T01:38:03.673378,8.459,-63.1875,6.625,6.75
1588210601966,2020-04-30T01:38:03.734699,8.559,-63.1875,10.6875,6.3125
1588210602065,2020-04-30T01:38:03.824288,8.658,-63.5625,12.125,7.125
1588210602165,2020-04-30T01:38:03.890745,8.758,-63.5625,13.25,6.3125
1588210602263,2020-04-30T01:38:03.973618,8.856,-63.5625,13.25,7.9375
1588210602363,2020-04-30T01:38:04.055796,8.956,-62.8125,12.875,7.5
1588210602462,2020-04-30T01:38:04.175299,9.055,-63.1875,11.75,8.3125
1588210602562,2020-04-30T01:38:04.220295,9.155,-62.8125,8.8125,8.3125
1588210602662,2020-04-30T01:38:04.287821,9.255,-63.1875,11.75,8.3125
1588210602761,2020-04-30T01:38:04.332717,9.354,-62.8125,11.75,7.9375
1588210602861,2020-04-30T01:38:04.400852,9.454,-63.1875,12.125,7.9375
1588210602960,2020-04-30T01:38:04.453663,9.553,-63.5625,4.8125,8.3125
1588210603060,2020-04-30T01:38:04.523026,9.653,-63.5625,12.5,7.9375
1588210603160,2020-04-30T01:38:04.618188,9.753,-63.9375,12.875,7.5
1588210603259,2020-04-30T01:38:04.700428,9.852,-63.1875,12.125,7.9375
1588210603359,2020-04-30T01:38:04.752931,9.952,-63.1875,7.375,7.9375
1588210603459,2020-04-30T01:38:04.827865,10.052,-63.9375,9.9375,8.3125
1588210603558,2020-04-30T01:38:04.880827,10.151,-63.1875,12.125,8.3125
1588210603658,2020-04-30T01:38:04.940210,10.251,-63.1875,11.4375,7.9375
1588210603756,2020-04-30T01:38:04.992824,10.349,-63.1875,12.125,8.6875
1588210603855,2020-04-30T01:38:05.052815,10.448,-63.1875,12.5,7.5
1588210603955,2020-04-30T01:38:05.105307,10.548,-62.8125,12.5,6.6875
1588210604055,2020-04-30T01:38:05.172722,10.648,-63.1875,9.9375,7.9375
1588210604154,2020-04-30T01:38:05.233702,10.747,-63.5625,13.25,8.3125
1588210604254,2020-04-30T01:38:05.293377,10.847,-63.5625,12.125,8.6875
1588210604354,2020-04-30T01:38:05.375768,10.947,-63.5625,11.4375,7.125
1588210604453,2020-04-30T01:38:05.420895,11.046,-63.9375,6.25,7.9375
1588210604553,2020-04-30T01:38:05.497926,11.146,-63.9375,12.125,7.9375
1588210604652,2020-04-30T01:38:05.550281,11.245,-63.1875,12.125,8.3125
1588210604752,2020-04-30T01:38:05.615195,11.345,-63.5625,11.0625,7.9375
1588210604852,2020-04-30T01:38:05.660121,11.445,-63.5625,8.8125,8.3125
1588210604951,2020-04-30T01:38:05.727809,11.544,-62.4375,11.75,8.3125
1588210605051,2020-04-30T01:38:05.772800,11.644,-62.8125,12.125,8.3125
1588210605150,2020-04-30T01:38:05.832779,11.743,-62.4375,12.125,7.9375
1588210605250,2020-04-30T01:38:05.888469,11.843,-62.4375,12.875,9.125
1588210605348,2020-04-30T01:38:05.945377,11.941,-63.1875,10.3125,9.125
1588210605448,2020-04-30T01:38:05.997931,12.041,-63.5625,12.125,9.125
1588210605547,2020-04-30T01:38:06.059320,12.14,-63.5625,9.5625,8.6875
1588210605647,2020-04-30T01:38:06.124833,12.24,-63.1875,13.25,8.3125
1588210605747,2020-04-30T01:38:06.178471,12.34,-63.9375,12.125,8.6875
1588210605846,2020-04-30T01:38:06.224997,12.439,-62.4375,11.4375,8.6875
1588210605946,2020-04-30T01:38:06.290365,12.539,-62.8125,4.8125,9.125
1588210606045,2020-04-30T01:38:06.350565,12.638,-62.8125,12.5,9.125
1588210606145,2020-04-30T01:38:06.395720,12.738,-62.0625,11.75,8.3125
1588210606245,2020-04-30T01:38:06.471232,12.838,-63.5625,11.0625,8.6875
1588210606344,2020-04-30T01:38:06.515637,12.937,-62.4375,11.4375,9.5
1588210606444,2020-04-30T01:38:06.582862,13.037,-63.5625,9.1875,8.6875
1588210606543,2020-04-30T01:38:06.627858,13.136,-62.8125,11.0625,8.3125
1588210606643,2020-04-30T01:38:06.698095,13.236,-62.0625,11.75,8.3125
1588210606743,2020-04-30T01:38:06.740734,13.336,-63.1875,12.125,9.125
1588210606842,2020-04-30T01:38:06.801187,13.435,-63.1875,11.75,9.125
1588210606942,2020-04-30T01:38:06.852852,13.535,-63.5625,12.125,9.5
1588210607040,2020-04-30T01:38:06.914249,13.633,-63.1875,7.75,10.3125
1588210607140,2020-04-30T01:38:06.959682,13.733,-62.8125,12.875,9.125
1588210607239,2020-04-30T01:38:07.041090,13.832,-62.4375,11.75,7.9375
1588210607339,2020-04-30T01:38:07.085457,13.932,-62.8125,12.125,8.6875
1588210607439,2020-04-30T01:38:07.160285,14.032,-62.8125,7.375,9.125
1588210607538,2020-04-30T01:38:07.205328,14.131,-63.1875,11.0625,9.5
1588210607638,2020-04-30T01:38:07.265387,14.231,-63.9375,12.5,8.6875
1588210607737,2020-04-30T01:38:07.317846,14.33,-63.5625,12.875,8.6875
1588210607837,2020-04-30T01:38:07.400258,14.43,-63.9375,12.875,8.6875
1588210607937,2020-04-30T01:38:07.460309,14.53,-63.1875,12.125,9.125
1588210608036,2020-04-30T01:38:07.520224,14.629,-63.9375,12.5,9.5
1588210608136,2020-04-30T01:38:07.581213,14.729,-62.8125,8.8125,8.6875
1588210608235,2020-04-30T01:38:07.626122,14.828,-63.1875,12.125,9.125
1588210608335,2020-04-30T01:38:07.714561,14.928,-63.5625,12.125,9.125
1588210608435,2020-04-30T01:38:07.746214,15.028,-63.9375,10.3125,9.5
1588210608534,2020-04-30T01:38:07.812816,15.127,-63.1875,5.875,8.6875
1588210608634,2020-04-30T01:38:07.857941,15.227,-62.8125,12.875,8.6875
1588210608733,2020-04-30T01:38:07.918551,15.326,-62.8125,11.4375,8.3125
1588210608832,2020-04-30T01:38:07.986575,15.425,-63.5625,12.125,9.125
1588210608931,2020-04-30T01:38:08.046238,15.524,-63.1875,9.1875,9.5
1588210609031,2020-04-30T01:38:08.090323,15.624,-63.5625,12.125,9.125
1588210609130,2020-04-30T01:38:08.151175,15.723,-63.1875,12.875,8.3125
1588210609230,2020-04-30T01:38:08.195416,15.823,-62.4375,11.4375,9.5
1588210609330,2020-04-30T01:38:08.264493,15.923,-63.1875,12.125,9.125
1588210609429,2020-04-30T01:38:08.308659,16.022,-63.1875,11.75,8.3125
1588210609529,2020-04-30T01:38:08.367900,16.122,-62.8125,11.4375,9.125
1588210609628,2020-04-30T01:38:08.419354,16.221,-62.8125,8.8125,8.6875
1588210609728,2020-04-30T01:38:08.472941,16.321,-63.5625,12.125,9.5
1588210609828,2020-04-30T01:38:08.528309,16.421,-62.4375,12.875,8.6875
1588210609927,2020-04-30T01:38:08.585246,16.52,-62.4375,11.0625,8.6875
1588210610027,2020-04-30T01:38:08.645249,16.62,-62.8125,7.0,9.5
1588210610126,2020-04-30T01:38:08.697754,16.719,-63.1875,12.125,9.5
1588210610226,2020-04-30T01:38:08.772713,16.819,-63.5625,13.25,9.125
1588210610324,2020-04-30T01:38:08.817604,16.917,-63.1875,12.125,9.875
1588210610424,2020-04-30T01:38:08.892614,17.017,-62.0625,11.0625,9.5
1588210610523,2020-04-30T01:38:08.937598,17.116,-62.0625,12.875,8.6875
1588210610623,2020-04-30T01:38:09.007684,17.216,-63.1875,13.625,8.6875
1588210610723,2020-04-30T01:38:09.057740,17.316,-63.1875,10.6875,9.875
1588210610822,2020-04-30T01:38:09.125250,17.415,-63.1875,13.625,9.125
1588210610922,2020-04-30T01:38:09.170244,17.515,-62.8125,11.75,9.5
1588210611022,2020-04-30T01:38:09.230478,17.615,-62.8125,12.125,8.6875
1588210611121,2020-04-30T01:38:09.275510,17.714,-62.8125,6.25,9.5
1588210611221,2020-04-30T01:38:09.345361,17.814,-62.4375,12.5,9.125
1588210611320,2020-04-30T01:38:09.395253,17.913,-62.4375,13.625,8.3125
1588210611420,2020-04-30T01:38:09.462764,18.013,-63.5625,10.3125,8.6875
1588210611520,2020-04-30T01:38:09.530235,18.113,-63.9375,10.3125,9.5
1588210611619,2020-04-30T01:38:09.597751,18.212,-63.1875,11.4375,9.5
1588210611719,2020-04-30T01:38:09.642762,18.312,-63.1875,12.125,9.125
1588210611818,2020-04-30T01:38:09.710890,18.411,-62.8125,12.875,8.6875
1588210611917,2020-04-30T01:38:09.757410,18.51,-62.8125,13.25,9.125
1588210612016,2020-04-30T01:38:09.815276,18.609,-63.5625,11.4375,9.125
1588210612116,2020-04-30T01:38:09.882928,18.709,-63.1875,11.75,8.3125
1588210612215,2020-04-30T01:38:09.930235,18.808,-62.8125,6.625,9.5
1588210612315,2020-04-30T01:38:09.995467,18.908,-63.1875,11.75,9.875
1588210612415,2020-04-30T01:38:10.048673,19.008,-63.1875,12.125,9.5
1588210612514,2020-04-30T01:38:10.108044,19.107,-62.8125,12.875,8.3125
1588210612614,2020-04-30T01:38:10.160276,19.207,-63.5625,9.1875,9.875
1588210612713,2020-04-30T01:38:10.220265,19.306,-63.5625,11.0625,9.125
1588210612813,2020-04-30T01:38:10.265412,19.406,-63.5625,13.25,9.125
1588210612913,2020-04-30T01:38:10.340834,19.506,-62.8125,11.4375,8.6875
1588210613012,2020-04-30T01:38:10.387138,19.605,-63.1875,13.25,9.5
1588210613112,2020-04-30T01:38:10.453421,19.705,-63.9375,12.125,8.3125
1588210613211,2020-04-30T01:38:10.497830,19.804,-63.1875,12.875,7.9375
1588210613311,2020-04-30T01:38:10.560284,19.904,-63.5625,6.25,10.3125
1588210613411,2020-04-30T01:38:10.610499,20.004,-63.1875,11.75,8.6875
1588210613509,2020-04-30T01:38:10.670725,20.102,-63.1875,12.5,8.3125
1588210613608,2020-04-30T01:38:10.722764,20.201,-63.5625,10.3125,9.125
1588210613708,2020-04-30T01:38:10.782761,20.301,-63.5625,7.375,9.125
1588210613808,2020-04-30T01:38:10.827959,20.401,-62.4375,12.875,9.5
1588210613907,2020-04-30T01:38:10.895552,20.5,-63.1875,12.875,8.6875
1588210614007,2020-04-30T01:38:10.955360,20.6,-63.5625,12.125,8.6875
1588210614106,2020-04-30T01:38:11.008211,20.699,-63.5625,13.25,9.125
1588210614206,2020-04-30T01:38:11.082841,20.799,-63.1875,12.125,8.6875
1588210614306,2020-04-30T01:38:11.127962,20.899,-62.8125,12.875,8.6875
1588210614405,2020-04-30T01:38:11.187895,20.998,-63.1875,11.0625,9.875
1588210614505,2020-04-30T01:38:11.232893,21.098,-62.4375,12.875,9.5
1588210614605,2020-04-30T01:38:11.301012,21.198,-63.1875,12.125,8.6875
1588210614704,2020-04-30T01:38:11.345139,21.297,-63.5625,12.5,7.9375
1588210614804,2020-04-30T01:38:11.405102,21.397,-63.5625,7.0,8.3125
1588210614903,2020-04-30T01:38:11.457622,21.496,-64.3125,12.875,8.3125
1588210615001,2020-04-30T01:38:11.525101,21.594,-63.5625,12.5,8.6875
1588210615101,2020-04-30T01:38:11.600100,21.694,-63.1875,10.6875,9.125
1588210615201,2020-04-30T01:38:11.660129,21.794,-63.5625,7.75,9.125
1588210615300,2020-04-30T01:38:11.705102,21.893,-63.5625,11.75,10.3125
1588210615400,2020-04-30T01:38:11.772724,21.993,-63.5625,12.5,8.3125
1588210615500,2020-04-30T01:38:11.825129,22.093,-63.1875,11.4375,8.6875
1588210615599,2020-04-30T01:38:11.885107,22.192,-63.5625,12.5,8.6875
1588210615699,2020-04-30T01:38:11.930113,22.292,-63.5625,12.875,8.6875
1588210615798,2020-04-30T01:38:11.990890,22.391,-62.4375,12.875,8.6875
1588210615898,2020-04-30T01:38:12.042643,22.491,-64.3125,11.0625,8.6875
1588210615998,2020-04-30T01:38:12.110188,22.591,-63.5625,13.25,8.3125
1588210616096,2020-04-30T01:38:12.170110,22.689,-63.5625,12.875,7.9375
1588210616195,2020-04-30T01:38:12.222618,22.788,-63.5625,10.3125,8.6875
1588210616295,2020-04-30T01:38:12.283648,22.888,-64.3125,7.75,8.3125
1588210616395,2020-04-30T01:38:12.327934,22.988,-62.4375,12.5,8.6875
1588210616494,2020-04-30T01:38:12.432749,23.087,-62.8125,13.625,8.3125
1588210616594,2020-04-30T01:38:12.503660,23.187,-63.1875,12.5,8.6875
1588210616693,2020-04-30T01:38:12.557110,23.286,-62.8125,9.5625,9.875
1588210616793,2020-04-30T01:38:12.598993,23.386,-62.0625,12.875,9.5
1588210616893,2020-04-30T01:38:12.673542,23.486,-64.3125,12.5,9.5
1588210616992,2020-04-30T01:38:12.717775,23.585,-63.5625,13.25,8.6875
1588210617092,2020-04-30T01:38:12.777778,23.685,-63.1875,12.5,8.6875
1588210617191,2020-04-30T01:38:12.822808,23.784,-63.1875,12.125,8.6875
1588210617291,2020-04-30T01:38:12.882807,23.884,-63.9375,11.0625,8.6875
1588210617391,2020-04-30T01:38:12.935282,23.984,-63.9375,7.375,9.125
1588210617490,2020-04-30T01:38:12.995360,24.083,-62.8125,11.4375,8.6875
1588210617588,2020-04-30T01:38:13.040391,24.181,-63.1875,13.25,8.3125
1588210617688,2020-04-30T01:38:13.108194,24.281,-63.9375,12.5,7.5
1588210617788,2020-04-30T01:38:13.152776,24.381,-62.8125,5.1875,8.6875
1588210617887,2020-04-30T01:38:13.220283,24.48,-63.9375,12.5,8.6875
1588210617987,2020-04-30T01:38:13.281850,24.58,-63.9375,13.625,9.5
1588210618086,2020-04-30T01:38:13.325748,24.679,-63.9375,12.5,9.125
1588210618186,2020-04-30T01:38:13.385875,24.779,-63.1875,12.5,8.6875
1588210618286,2020-04-30T01:38:13.430372,24.879,-63.5625,10.3125,8.3125
1588210618385,2020-04-30T01:38:13.498098,24.978,-63.9375,12.125,9.125
1588210618485,2020-04-30T01:38:13.543175,25.078,-63.9375,11.75,9.125
1588210618585,2020-04-30T01:38:13.604514,25.178,-63.5625,14.0,8.6875
1588210618684,2020-04-30T01:38:13.673095,25.277,-63.1875,12.125,8.6875
1588210618784,2020-04-30T01:38:13.731042,25.377,-62.4375,12.5,7.9375
1588210618883,2020-04-30T01:38:13.793146,25.476,-63.1875,7.0,7.9375
1588210618983,2020-04-30T01:38:13.850428,25.576,-63.5625,12.5,9.125
1588210619081,2020-04-30T01:38:13.897882,25.674,-63.5625,11.75,8.6875
1588210619181,2020-04-30T01:38:13.955669,25.774,-62.8125,11.4375,9.125
1588210619280,2020-04-30T01:38:14.000530,25.873,-63.5625,9.9375,9.5
1588210619380,2020-04-30T01:38:14.067947,25.973,-63.5625,11.75,9.125
1588210619480,2020-04-30T01:38:14.128203,26.073,-63.1875,12.875,8.3125
1588210619579,2020-04-30T01:38:14.187798,26.172,-62.8125,12.875,8.6875
1588210619679,2020-04-30T01:38:14.232821,26.272,-63.5625,14.375,9.5
1588210619778,2020-04-30T01:38:14.292841,26.371,-62.8125,12.125,9.5
1588210619878,2020-04-30T01:38:14.345285,26.471,-63.5625,13.25,9.125
1588210619978,2020-04-30T01:38:14.420280,26.571,-63.9375,7.75,9.125
1588210620077,2020-04-30T01:38:14.480267,26.67,-62.8125,14.0,9.125
1588210620177,2020-04-30T01:38:14.525296,26.77,-63.1875,12.875,8.6875
1588210620276,2020-04-30T01:38:14.597155,26.869,-63.5625,12.125,8.6875
1588210620376,2020-04-30T01:38:14.639856,26.969,-62.8125,7.0,8.6875
1588210620476,2020-04-30T01:38:14.705311,27.069,-62.8125,12.125,9.5
1588210620574,2020-04-30T01:38:14.750790,27.167,-63.1875,12.5,9.5
1588210620673,2020-04-30T01:38:14.810560,27.266,-63.9375,12.5,8.6875
1588210620773,2020-04-30T01:38:14.855146,27.366,-64.3125,12.875,9.125
1588210620873,2020-04-30T01:38:14.922654,27.466,-63.1875,12.125,7.9375
1588210620972,2020-04-30T01:38:14.967842,27.565,-63.1875,12.875,9.125
1588210621072,2020-04-30T01:38:15.035327,27.665,-63.1875,12.5,8.6875
1588210621171,2020-04-30T01:38:15.080151,27.764,-63.1875,12.875,8.6875
1588210621271,2020-04-30T01:38:15.147625,27.864,-63.5625,9.1875,9.125
1588210621371,2020-04-30T01:38:15.192657,27.964,-62.8125,12.125,9.125
1588210621470,2020-04-30T01:38:15.260423,28.063,-63.1875,7.375,9.5
1588210621570,2020-04-30T01:38:15.305172,28.163,-63.5625,12.5,8.6875
1588210621669,2020-04-30T01:38:15.372644,28.262,-63.5625,9.9375,8.3125
1588210621769,2020-04-30T01:38:15.425143,28.362,-62.4375,11.4375,8.6875
1588210621869,2020-04-30T01:38:15.492783,28.462,-62.8125,5.875,8.3125
1588210621967,2020-04-30T01:38:15.552665,28.56,-63.1875,11.4375,8.6875
1588210622066,2020-04-30T01:38:15.597812,28.659,-63.1875,13.25,7.9375
1588210622166,2020-04-30T01:38:15.665131,28.759,-63.1875,11.4375,8.6875
1588210622266,2020-04-30T01:38:15.740181,28.859,-62.8125,11.75,9.125
1588210622365,2020-04-30T01:38:15.800256,28.958,-63.5625,13.25,8.3125
1588210622465,2020-04-30T01:38:15.845274,29.058,-62.4375,11.75,8.6875
1588210622564,2020-04-30T01:38:15.905235,29.157,-62.8125,9.5625,7.9375
1588210622664,2020-04-30T01:38:15.950343,29.257,-63.5625,13.625,9.5
1588210622764,2020-04-30T01:38:16.017696,29.357,-62.4375,12.875,9.125
1588210622863,2020-04-30T01:38:16.062691,29.456,-62.8125,13.625,8.3125
1588210622963,2020-04-30T01:38:16.130412,29.556,-63.5625,7.75,8.6875
1588210623063,2020-04-30T01:38:16.175233,29.656,-63.1875,11.75,9.125
1588210623162,2020-04-30T01:38:16.243011,29.755,-62.8125,11.4375,8.3125
1588210623262,2020-04-30T01:38:16.288351,29.855,-63.1875,12.125,8.3125
1588210623361,2020-04-30T01:38:16.347858,29.954,-63.1875,10.3125,8.6875
1588210623461,2020-04-30T01:38:16.392861,30.054,-64.3125,11.75,8.6875
1588210623561,2020-04-30T01:38:16.452810,30.154,-63.1875,12.875,8.6875
1588210623660,2020-04-30T01:38:16.505326,30.253,-62.8125,11.75,8.3125
1588210623758,2020-04-30T01:38:16.572966,30.351,-63.1875,13.625,8.6875
1588210623859,2020-04-30T01:38:16.640493,30.452,-63.5625,12.5,8.3125
1588210623958,2020-04-30T01:38:16.686722,30.551,-63.5625,10.3125,8.3125
1588210624057,2020-04-30T01:38:16.753957,30.65,-63.1875,7.375,8.3125
1588210624157,2020-04-30T01:38:16.799376,30.75,-62.0625,11.75,8.6875
1588210624256,2020-04-30T01:38:16.857836,30.849,-62.8125,12.5,8.3125
1588210624356,2020-04-30T01:38:16.902831,30.949,-63.1875,10.3125,9.125
1588210624456,2020-04-30T01:38:16.962841,31.049,-63.5625,11.4375,9.125
1588210624555,2020-04-30T01:38:17.008104,31.148,-63.5625,13.625,8.6875
1588210624655,2020-04-30T01:38:17.084277,31.248,-63.9375,12.125,7.9375
1588210624754,2020-04-30T01:38:17.127855,31.347,-62.4375,12.5,8.6875
1588210624854,2020-04-30T01:38:17.187960,31.447,-62.8125,13.625,9.125
1588210624954,2020-04-30T01:38:17.234392,31.547,-63.1875,12.875,9.125
1588210625053,2020-04-30T01:38:17.292847,31.646,-64.3125,12.125,9.5
1588210625153,2020-04-30T01:38:17.345331,31.746,-63.1875,6.625,9.125
1588210625252,2020-04-30T01:38:17.412847,31.845,-63.1875,12.875,9.5
1588210625352,2020-04-30T01:38:17.465413,31.945,-63.5625,12.5,9.5
1588210625450,2020-04-30T01:38:17.525327,32.043,-62.8125,10.6875,8.6875
1588210625550,2020-04-30T01:38:17.570545,32.143,-63.1875,7.0,8.6875
1588210625649,2020-04-30T01:38:17.637974,32.242,-63.5625,11.4375,9.125
1588210625749,2020-04-30T01:38:17.691297,32.342,-62.8125,12.875,9.5
1588210625849,2020-04-30T01:38:17.766440,32.442,-63.1875,12.5,8.6875
1588210625948,2020-04-30T01:38:17.825839,32.541,-63.5625,12.875,9.5
1588210626048,2020-04-30T01:38:17.885294,32.641,-63.1875,12.125,9.125
1588210626147,2020-04-30T01:38:17.946700,32.74,-63.9375,12.5,9.125
1588210626247,2020-04-30T01:38:17.998071,32.84,-63.5625,6.25,8.6875
1588210626347,2020-04-30T01:38:18.070490,32.94,-63.5625,13.625,9.125
1588210626446,2020-04-30T01:38:18.110433,33.039,-63.1875,12.125,9.125
1588210626546,2020-04-30T01:38:18.177925,33.139,-63.5625,12.5,8.6875
1588210626646,2020-04-30T01:38:18.223460,33.239,-63.1875,6.625,9.5
1588210626745,2020-04-30T01:38:18.282976,33.338,-63.1875,12.875,9.5
1588210626843,2020-04-30T01:38:18.332012,33.436,-62.8125,11.75,8.3125
1588210626943,2020-04-30T01:38:18.395431,33.536,-62.8125,12.875,9.125
1588210627043,2020-04-30T01:38:18.448017,33.636,-63.5625,8.8125,9.875
1588210627142,2020-04-30T01:38:18.508057,33.735,-63.1875,11.0625,9.875
1588210627242,2020-04-30T01:38:18.553180,33.835,-63.1875,13.25,9.5
1588210627341,2020-04-30T01:38:18.613959,33.934,-62.4375,12.125,9.125
1588210627441,2020-04-30T01:38:18.657979,34.034,-63.5625,12.875,9.5
1588210627541,2020-04-30T01:38:18.726021,34.134,-63.9375,12.125,9.125
1588210627640,2020-04-30T01:38:18.777993,34.233,-63.1875,13.625,9.125
1588210627740,2020-04-30T01:38:18.837682,34.333,-63.1875,9.9375,9.125
1588210627839,2020-04-30T01:38:18.897674,34.432,-62.4375,12.125,9.125
1588210627939,2020-04-30T01:38:18.942723,34.532,-63.9375,12.5,9.875
1588210628039,2020-04-30T01:38:19.023021,34.632,-62.4375,10.3125,9.125
1588210628138,2020-04-30T01:38:19.062962,34.731,-62.8125,6.625,9.5
1588210628238,2020-04-30T01:38:19.132251,34.831,-63.5625,12.875,9.125
1588210628337,2020-04-30T01:38:19.175468,34.93,-62.8125,11.75,9.125
1588210628437,2020-04-30T01:38:19.235749,35.03,-63.1875,11.0625,9.125
1588210628537,2020-04-30T01:38:19.287849,35.13,-63.9375,9.5625,8.6875
1588210628635,2020-04-30T01:38:19.347817,35.228,-63.1875,13.25,8.6875
1588210628734,2020-04-30T01:38:19.400319,35.327,-63.5625,13.25,9.125
1588210628834,2020-04-30T01:38:19.475337,35.427,-63.9375,11.75,8.3125
1588210628934,2020-04-30T01:38:19.527825,35.527,-63.1875,12.875,8.6875
1588210629033,2020-04-30T01:38:19.587825,35.626,-62.4375,12.5,9.125
1588210629133,2020-04-30T01:38:19.641036,35.726,-63.1875,13.625,9.125
1588210629232,2020-04-30T01:38:19.700815,35.825,-62.8125,6.625,9.5
1588210629332,2020-04-30T01:38:19.752828,35.925,-63.1875,12.875,9.5
1588210629432,2020-04-30T01:38:19.835356,36.025,-62.8125,11.75,9.125
1588210629531,2020-04-30T01:38:19.880497,36.124,-62.0625,11.75,8.6875
1588210629631,2020-04-30T01:38:19.940471,36.224,-63.5625,12.125,9.875
1588210629730,2020-04-30T01:38:19.985480,36.323,-63.9375,12.5,8.6875
1588210629830,2020-04-30T01:38:20.052858,36.423,-63.1875,13.25,8.6875
1588210629930,2020-04-30T01:38:20.120331,36.523,-63.1875,11.4375,8.6875
1588210630029,2020-04-30T01:38:20.165550,36.622,-63.9375,13.625,8.6875
1588210630129,2020-04-30T01:38:20.226997,36.722,-63.1875,12.125,9.5
1588210630229,2020-04-30T01:38:20.270721,36.822,-62.8125,12.125,9.125
1588210630327,2020-04-30T01:38:20.337860,36.92,-63.9375,5.875,9.875
1588210630426,2020-04-30T01:38:20.382827,37.019,-63.5625,13.25,10.3125
1588210630526,2020-04-30T01:38:20.443021,37.119,-63.9375,12.5,8.3125
1588210630626,2020-04-30T01:38:20.488731,37.219,-63.5625,11.4375,9.125
1588210630725,2020-04-30T01:38:20.547868,37.318,-63.9375,7.75,9.125
1588210630825,2020-04-30T01:38:20.592863,37.418,-62.8125,11.4375,9.125
1588210630924,2020-04-30T01:38:20.660428,37.517,-62.8125,12.875,9.875
1588210631024,2020-04-30T01:38:20.705360,37.617,-63.9375,13.25,9.5
1588210631124,2020-04-30T01:38:20.765470,37.717,-63.1875,10.3125,9.125
1588210631223,2020-04-30T01:38:20.810793,37.816,-63.1875,11.75,9.5
1588210631323,2020-04-30T01:38:20.872638,37.916,-63.5625,13.625,9.125
1588210631422,2020-04-30T01:38:20.927049,38.015,-62.8125,11.0625,8.3125
1588210631522,2020-04-30T01:38:20.982982,38.115,-63.1875,13.625,8.3125
1588210631622,2020-04-30T01:38:21.027871,38.215,-63.5625,12.875,9.125
1588210631721,2020-04-30T01:38:21.087913,38.314,-62.8125,11.4375,9.5
1588210631821,2020-04-30T01:38:21.155204,38.414,-64.3125,7.375,10.3125
1588210631920,2020-04-30T01:38:21.200236,38.513,-63.5625,12.875,9.125
1588210632020,2020-04-30T01:38:21.260355,38.613,-63.9375,14.0,8.6875
1588210632120,2020-04-30T01:38:21.305299,38.713,-63.1875,9.9375,9.125
1588210632218,2020-04-30T01:38:21.365449,38.811,-62.8125,13.25,9.125
1588210632317,2020-04-30T01:38:21.410347,38.91,-63.5625,11.4375,9.5
1588210632417,2020-04-30T01:38:21.478048,39.01,-63.9375,12.5,9.125
1588210632517,2020-04-30T01:38:21.530750,39.11,-63.5625,10.6875,9.5
1588210632616,2020-04-30T01:38:21.590821,39.209,-63.1875,13.25,8.6875
1588210632716,2020-04-30T01:38:21.636119,39.309,-63.9375,12.875,8.6875
1588210632815,2020-04-30T01:38:21.710387,39.408,-62.4375,11.0625,9.875
1588210632915,2020-04-30T01:38:21.785395,39.508,-62.8125,8.5,9.125
1588210633015,2020-04-30T01:38:21.845393,39.608,-62.4375,10.6875,9.125
1588210633114,2020-04-30T01:38:21.897880,39.707,-63.1875,11.0625,9.125
1588210633214,2020-04-30T01:38:21.957866,39.807,-63.1875,12.125,8.3125
1588210633314,2020-04-30T01:38:22.011050,39.907,-62.8125,12.875,9.125
1588210633413,2020-04-30T01:38:22.081822,40.006,-63.5625,12.125,9.5
1588210633513,2020-04-30T01:38:22.125039,40.106,-63.1875,12.875,9.5
1588210633612,2020-04-30T01:38:22.190355,40.205,-63.1875,11.0625,9.5
1588210633712,2020-04-30T01:38:22.258169,40.305,-62.8125,12.875,9.5
1588210633812,2020-04-30T01:38:22.306754,40.405,-62.4375,12.5,9.125
1588210633911,2020-04-30T01:38:22.362858,40.504,-62.4375,12.125,9.5
1588210634011,2020-04-30T01:38:22.415352,40.604,-62.4375,5.875,10.3125
1588210634109,2020-04-30T01:38:22.475351,40.702,-62.8125,13.625,9.125
1588210634209,2020-04-30T01:38:22.520373,40.802,-63.1875,12.125,8.3125
1588210634308,2020-04-30T01:38:22.581176,40.901,-63.5625,12.125,9.125
1588210634408,2020-04-30T01:38:22.633658,41.001,-63.5625,9.5625,8.6875
1588210634507,2020-04-30T01:38:22.700342,41.1,-63.5625,12.5,9.125
1588210634607,2020-04-30T01:38:22.745378,41.2,-62.8125,13.25,9.125
1588210634707,2020-04-30T01:38:22.805392,41.3,-62.8125,12.5,9.125
1588210634806,2020-04-30T01:38:22.850502,41.399,-63.1875,12.875,9.875
1588210634906,2020-04-30T01:38:22.926275,41.499,-64.3125,13.25,8.3125
1588210635005,2020-04-30T01:38:22.977933,41.598,-63.5625,12.5,8.6875
1588210635105,2020-04-30T01:38:23.045610,41.698,-63.1875,9.9375,9.875
1588210635205,2020-04-30T01:38:23.106230,41.798,-63.5625,12.125,9.875
1588210635304,2020-04-30T01:38:23.198918,41.897,-63.1875,12.5,8.6875
1588210635404,2020-04-30T01:38:23.225937,41.997,-63.5625,11.75,8.3125
1588210635503,2020-04-30T01:38:23.278007,42.096,-62.8125,6.625,9.5
1588210635603,2020-04-30T01:38:23.334188,42.196,-63.5625,12.125,9.125
1588210635701,2020-04-30T01:38:23.390494,42.294,-62.8125,13.25,7.9375
1588210635801,2020-04-30T01:38:23.454738,42.394,-62.8125,12.5,9.125
1588210635900,2020-04-30T01:38:23.495775,42.493,-63.1875,13.625,8.6875
1588210636000,2020-04-30T01:38:23.555543,42.593,-63.1875,11.4375,8.6875
1588210636100,2020-04-30T01:38:23.618223,42.693,-63.5625,12.125,9.125
1588210636199,2020-04-30T01:38:23.662173,42.792,-63.1875,9.9375,9.125
1588210636299,2020-04-30T01:38:23.715541,42.892,-63.1875,12.5,9.125
1588210636398,2020-04-30T01:38:23.780601,42.991,-63.5625,13.25,9.125
1588210636498,2020-04-30T01:38:23.847808,43.091,-63.1875,12.875,9.125
1588210636598,2020-04-30T01:38:23.907732,43.191,-63.5625,6.625,9.875
1588210636697,2020-04-30T01:38:23.952720,43.29,-63.1875,13.25,9.125
1588210636797,2020-04-30T01:38:24.012975,43.39,-63.9375,12.875,8.3125
1588210636897,2020-04-30T01:38:24.058333,43.49,-63.5625,9.5625,9.5
1588210636996,2020-04-30T01:38:24.118116,43.589,-63.5625,9.9375,9.5
1588210637096,2020-04-30T01:38:24.162889,43.689,-63.5625,11.75,9.875
1588210637195,2020-04-30T01:38:24.230352,43.788,-63.5625,13.25,9.125
1588210637295,2020-04-30T01:38:24.275445,43.888,-62.8125,12.125,9.125
1588210637395,2020-04-30T01:38:24.335364,43.988,-63.5625,12.875,8.6875
1588210637493,2020-04-30T01:38:24.388053,44.086,-63.1875,12.875,9.5
1588210637592,2020-04-30T01:38:24.448089,44.185,-62.8125,12.125,8.6875
1588210637692,2020-04-30T01:38:24.507999,44.285,-62.4375,7.0,9.5
1588210637792,2020-04-30T01:38:24.553790,44.385,-62.8125,13.25,8.6875
1588210637891,2020-04-30T01:38:24.617291,44.484,-63.1875,13.25,8.6875
1588210637991,2020-04-30T01:38:24.657868,44.584,-63.5625,11.4375,9.5
1588210638090,2020-04-30T01:38:24.717896,44.683,-63.5625,8.125,9.125
1588210638190,2020-04-30T01:38:24.762892,44.783,-62.4375,12.875,9.5
1588210638290,2020-04-30T01:38:24.822895,44.883,-63.5625,12.5,9.125
1588210638389,2020-04-30T01:38:24.867946,44.982,-63.1875,12.5,9.5
1588210638489,2020-04-30T01:38:24.927879,45.082,-63.5625,13.25,9.5
1588210638588,2020-04-30T01:38:24.972891,45.181,-63.9375,12.125,8.3125
1588210638688,2020-04-30T01:38:25.032926,45.281,-63.9375,12.5,9.125
1588210638788,2020-04-30T01:38:25.078019,45.381,-63.5625,9.5625,9.5
1588210638887,2020-04-30T01:38:25.137876,45.48,-63.1875,12.5,8.6875
1588210638987,2020-04-30T01:38:25.205366,45.58,-62.8125,12.5,9.875
1588210639086,2020-04-30T01:38:25.266209,45.679,-63.1875,12.5,8.6875
1588210639185,2020-04-30T01:38:25.310533,45.778,-63.5625,6.25,8.6875
1588210639284,2020-04-30T01:38:25.376864,45.877,-62.8125,13.25,9.875
1588210639384,2020-04-30T01:38:25.418205,45.977,-63.5625,12.5,9.125
1588210639483,2020-04-30T01:38:25.485523,46.076,-63.1875,12.125,8.6875
1588210639583,2020-04-30T01:38:25.535385,46.176,-62.8125,13.25,9.5
1588210639683,2020-04-30T01:38:25.580388,46.276,-63.1875,12.875,8.3125
1588210639782,2020-04-30T01:38:25.641107,46.375,-63.1875,12.875,8.6875
1588210639882,2020-04-30T01:38:25.685524,46.475,-62.4375,11.0625,9.5
1588210639981,2020-04-30T01:38:25.769721,46.574,-62.8125,13.25,8.3125
1588210640081,2020-04-30T01:38:25.821257,46.674,-63.1875,11.75,9.875
1588210640181,2020-04-30T01:38:25.880568,46.774,-63.5625,12.875,8.6875
1588210640280,2020-04-30T01:38:25.925526,46.873,-64.3125,8.5,9.5
1588210640380,2020-04-30T01:38:25.985526,46.973,-63.5625,12.875,9.125
1588210640480,2020-04-30T01:38:26.030362,47.073,-63.9375,12.5,8.6875
1588210640579,2020-04-30T01:38:26.090384,47.172,-62.8125,11.4375,8.6875
1588210640679,2020-04-30T01:38:26.135374,47.272,-63.5625,13.25,9.5
1588210640778,2020-04-30T01:38:26.195385,47.371,-62.4375,12.125,8.3125
1588210640878,2020-04-30T01:38:26.242887,47.471,-62.8125,12.125,8.6875
1588210640978,2020-04-30T01:38:26.307827,47.571,-63.1875,12.125,8.6875
1588210641076,2020-04-30T01:38:26.352742,47.669,-63.1875,11.4375,9.125
1588210641175,2020-04-30T01:38:26.412735,47.768,-63.1875,12.875,9.125
1588210641275,2020-04-30T01:38:26.465496,47.868,-63.1875,12.125,8.3125
1588210641375,2020-04-30T01:38:26.540408,47.968,-62.8125,6.25,8.6875
1588210641474,2020-04-30T01:38:26.585500,48.067,-63.1875,9.9375,9.125
1588210641574,2020-04-30T01:38:26.653131,48.167,-62.4375,12.875,9.5
1588210641673,2020-04-30T01:38:26.735427,48.266,-63.5625,12.125,9.5
1588210641773,2020-04-30T01:38:26.787883,48.366,-63.9375,11.4375,8.3125
1588210641873,2020-04-30T01:38:26.862890,48.466,-63.1875,12.5,9.125
1588210641972,2020-04-30T01:38:26.907896,48.565,-62.8125,12.5,8.3125
1588210642072,2020-04-30T01:38:26.982928,48.665,-63.1875,13.25,8.6875
1588210642171,2020-04-30T01:38:27.035491,48.764,-63.5625,12.5,8.6875
1588210642271,2020-04-30T01:38:27.117870,48.864,-62.8125,13.25,8.6875
1588210642371,2020-04-30T01:38:27.185376,48.964,-63.1875,13.625,8.6875
1588210642470,2020-04-30T01:38:27.268031,49.063,-63.9375,7.0,9.5
1588210642570,2020-04-30T01:38:27.313567,49.163,-63.5625,12.875,8.6875
1588210642669,2020-04-30T01:38:27.380795,49.262,-63.1875,12.5,8.3125
1588210642768,2020-04-30T01:38:27.428207,49.361,-63.1875,12.5,7.9375
1588210642867,2020-04-30T01:38:27.492960,49.46,-62.8125,5.875,8.3125
1588210642967,2020-04-30T01:38:27.538097,49.56,-63.1875,13.625,8.6875
1588210643066,2020-04-30T01:38:27.598101,49.659,-63.1875,12.875,9.875
1588210643166,2020-04-30T01:38:27.650732,49.759,-63.5625,11.0625,8.3125
1588210643266,2020-04-30T01:38:27.710364,49.859,-62.8125,11.4375,9.125
1588210643365,2020-04-30T01:38:27.755393,49.958,-62.8125,13.25,9.125
1588210643465,2020-04-30T01:38:27.815725,50.058,-63.5625,13.625,8.6875
1588210643564,2020-04-30T01:38:27.875626,50.157,-63.5625,10.6875,8.6875
1588210643664,2020-04-30T01:38:27.950630,50.257,-63.5625,12.5,8.6875
1588210643764,2020-04-30T01:38:28.011002,50.357,-63.1875,9.9375,8.6875
1588210643863,2020-04-30T01:38:28.055590,50.456,-63.5625,11.4375,9.125
1588210643963,2020-04-30T01:38:28.115548,50.556,-63.9375,7.375,9.125
1588210644063,2020-04-30T01:38:28.160488,50.656,-63.5625,12.875,8.6875
1588210644162,2020-04-30T01:38:28.220383,50.755,-63.1875,14.0,8.3125
1588210644262,2020-04-30T01:38:28.265496,50.855,-63.5625,12.5,8.6875
1588210644361,2020-04-30T01:38:28.325646,50.954,-63.1875,12.125,8.3125
1588210644460,2020-04-30T01:38:28.370569,51.053,-62.8125,11.4375,9.125
1588210644559,2020-04-30T01:38:28.438146,51.152,-63.1875,12.5,8.6875
1588210644659,2020-04-30T01:38:28.483081,51.252,-63.1875,12.5,9.5
1588210644758,2020-04-30T01:38:28.557909,51.351,-63.9375,12.5,9.125
1588210644858,2020-04-30T01:38:28.602925,51.451,-63.1875,12.125,9.125
1588210644958,2020-04-30T01:38:28.662902,51.551,-63.9375,11.75,8.6875
1588210645057,2020-04-30T01:38:28.707903,51.65,-62.8125,7.375,7.9375
1588210645157,2020-04-30T01:38:28.775429,51.75,-62.4375,12.875,9.5
1588210645256,2020-04-30T01:38:28.820289,51.849,-63.9375,13.625,7.9375
1588210645356,2020-04-30T01:38:28.880512,51.949,-62.8125,12.125,8.6875
1588210645456,2020-04-30T01:38:28.925323,52.049,-63.5625,7.75,9.125
1588210645555,2020-04-30T01:38:28.985305,52.148,-63.1875,11.4375,9.125
1588210645655,2020-04-30T01:38:29.053043,52.248,-63.5625,12.875,8.3125
1588210645754,2020-04-30T01:38:29.097934,52.347,-62.8125,12.125,9.875
1588210645854,2020-04-30T01:38:29.157897,52.447,-63.1875,12.125,8.3125
1588210645954,2020-04-30T01:38:29.202793,52.547,-63.1875,11.0625,9.5
1588210646053,2020-04-30T01:38:29.262774,52.646,-63.5625,13.625,8.6875
1588210646153,2020-04-30T01:38:29.307759,52.746,-62.8125,10.3125,8.3125
1588210646251,2020-04-30T01:38:29.367776,52.844,-63.5625,12.875,8.3125
1588210646351,2020-04-30T01:38:29.412747,52.944,-62.8125,12.875,8.6875
1588210646450,2020-04-30T01:38:29.473126,53.043,-63.5625,12.125,9.125
1588210646550,2020-04-30T01:38:29.517958,53.143,-63.1875,7.75,9.5
1588210646649,2020-04-30T01:38:29.585297,53.242,-63.5625,12.5,8.6875
1588210646749,2020-04-30T01:38:29.630302,53.342,-63.9375,12.5,8.3125
1588210646849,2020-04-30T01:38:29.690311,53.442,-63.5625,12.5,7.9375
1588210646948,2020-04-30T01:38:29.735316,53.541,-63.1875,12.875,8.3125
1588210647048,2020-04-30T01:38:29.795325,53.641,-63.5625,11.4375,7.9375
1588210647147,2020-04-30T01:38:29.840377,53.74,-63.9375,12.5,7.5
1588210647247,2020-04-30T01:38:29.922968,53.84,-63.5625,11.0625,9.125
1588210647347,2020-04-30T01:38:29.967959,53.94,-63.9375,12.5,8.6875
1588210647446,2020-04-30T01:38:30.043081,54.039,-63.5625,12.875,7.9375
1588210647546,2020-04-30T01:38:30.103611,54.139,-63.5625,11.75,8.3125
1588210647646,2020-04-30T01:38:30.147916,54.239,-63.1875,8.125,8.3125
1588210647745,2020-04-30T01:38:30.207929,54.338,-63.1875,11.4375,7.9375
1588210647845,2020-04-30T01:38:30.253097,54.438,-63.1875,13.625,9.125
1588210647944,2020-04-30T01:38:30.320938,54.537,-63.5625,12.5,7.9375
1588210648044,2020-04-30T01:38:30.372921,54.637,-62.4375,11.75,8.3125
1588210648144,2020-04-30T01:38:30.447950,54.737,-63.1875,14.0,7.5
1588210648243,2020-04-30T01:38:30.492929,54.836,-63.9375,12.875,8.3125
1588210648341,2020-04-30T01:38:30.560426,54.934,-63.9375,12.125,9.125
1588210648441,2020-04-30T01:38:30.605460,55.034,-63.5625,12.875,8.6875
1588210648541,2020-04-30T01:38:30.665496,55.134,-63.9375,12.5,7.9375
1588210648640,2020-04-30T01:38:30.725451,55.233,-63.5625,13.25,8.6875
1588210648740,2020-04-30T01:38:30.785610,55.333,-63.5625,9.1875,8.3125
1588210648839,2020-04-30T01:38:30.838181,55.432,-63.1875,13.625,8.6875
1588210648939,2020-04-30T01:38:30.920754,55.532,-63.9375,12.875,7.5
1588210649039,2020-04-30T01:38:30.980570,55.632,-63.1875,12.5,7.9375
1588210649138,2020-04-30T01:38:31.040410,55.731,-62.0625,13.25,8.3125
1588210649238,2020-04-30T01:38:31.085431,55.831,-63.1875,11.75,9.5
1588210649337,2020-04-30T01:38:31.152915,55.93,-63.5625,13.25,7.9375
1588210649437,2020-04-30T01:38:31.212969,56.03,-63.1875,11.4375,8.3125
1588210649537,2020-04-30T01:38:31.265590,56.13,-63.5625,13.625,8.6875
1588210649636,2020-04-30T01:38:31.326035,56.229,-64.625,13.25,8.3125
1588210649736,2020-04-30T01:38:31.370468,56.329,-63.1875,11.75,7.9375
1588210649835,2020-04-30T01:38:31.437928,56.428,-63.1875,6.25,8.6875
1588210649935,2020-04-30T01:38:31.483070,56.528,-63.1875,11.75,8.6875
1588210650035,2020-04-30T01:38:31.565595,56.628,-63.5625,12.5,7.9375
1588210650134,2020-04-30T01:38:31.618123,56.727,-64.3125,12.125,8.6875
1588210650234,2020-04-30T01:38:31.685441,56.827,-63.5625,12.875,8.3125
1588210650334,2020-04-30T01:38:31.737890,56.927,-63.9375,11.75,8.3125
1588210650433,2020-04-30T01:38:31.812897,57.026,-63.1875,12.5,8.6875
1588210650533,2020-04-30T01:38:31.858027,57.126,-63.9375,11.0625,8.6875
1588210650632,2020-04-30T01:38:31.925857,57.225,-64.25,11.4375,7.5
1588210650732,2020-04-30T01:38:31.977970,57.325,-64.25,12.875,8.3125
1588210650830,2020-04-30T01:38:32.060432,57.423,-63.9375,11.75,8.6875
1588210650930,2020-04-30T01:38:32.112946,57.523,-63.9375,6.625,9.125
1588210651029,2020-04-30T01:38:32.172956,57.622,-62.8125,11.4375,8.6875
1588210651129,2020-04-30T01:38:32.225617,57.722,-63.9375,13.25,8.3125
1588210651229,2020-04-30T01:38:32.293105,57.822,-63.1875,11.75,8.3125
1588210651328,2020-04-30T01:38:32.360927,57.921,-63.5625,14.375,9.125
1588210651428,2020-04-30T01:38:32.406004,58.021,-63.1875,12.5,9.125
1588210651527,2020-04-30T01:38:32.465542,58.12,-63.5625,12.125,7.9375
1588210651627,2020-04-30T01:38:32.517994,58.22,-63.5625,7.0,9.125
1588210651727,2020-04-30T01:38:32.578093,58.32,-63.9375,13.25,8.3125
1588210651826,2020-04-30T01:38:32.630860,58.419,-63.9375,12.875,8.3125
1588210651926,2020-04-30T01:38:32.690429,58.519,-63.1875,12.125,8.3125
1588210652025,2020-04-30T01:38:32.735427,58.618,-64.25,9.9375,8.6875
1588210652125,2020-04-30T01:38:32.803417,58.718,-63.1875,10.6875,7.9375
1588210652225,2020-04-30T01:38:32.847939,58.818,-63.1875,14.0,8.3125
1588210652324,2020-04-30T01:38:32.923113,58.917,-63.9375,11.75,8.6875
1588210652424,2020-04-30T01:38:32.976170,59.017,-63.1875,12.875,9.5
1588210652523,2020-04-30T01:38:33.035614,59.116,-63.1875,11.4375,8.6875
1588210652623,2020-04-30T01:38:33.088108,59.216,-63.9375,12.125,9.125
1588210652723,2020-04-30T01:38:33.185839,59.316,-63.1875,9.1875,8.6875
1588210652822,2020-04-30T01:38:33.230753,59.415,-64.25,13.25,8.6875
1588210652922,2020-04-30T01:38:33.297952,59.515,-63.9375,12.875,7.9375
1588210653022,2020-04-30T01:38:33.365677,59.615,-63.5625,11.4375,8.6875
1588210653121,2020-04-30T01:38:33.440604,59.714,-63.1875,8.5,9.125
1588210653219,2020-04-30T01:38:33.545625,59.812,-63.1875,12.125,9.5
1588210653320,2020-04-30T01:38:33.590546,59.913,-63.9375,11.75,8.3125
1588210653418,2020-04-30T01:38:33.673047,60.011,-64.25,13.625,7.9375
1588210653518,2020-04-30T01:38:33.725437,60.111,-63.5625,11.75,8.6875
1588210653618,2020-04-30T01:38:33.793185,60.211,-63.1875,11.0625,7.9375
1588210653717,2020-04-30T01:38:33.838130,60.31,-63.5625,13.625,9.125
1588210653817,2020-04-30T01:38:33.913329,60.41,-64.3125,8.8125,8.3125
1588210653917,2020-04-30T01:38:33.965589,60.51,-63.1875,12.5,9.125
1588210654016,2020-04-30T01:38:34.048104,60.609,-63.5625,12.875,8.3125
1588210654116,2020-04-30T01:38:34.123236,60.709,-63.9375,11.75,8.6875
1588210654215,2020-04-30T01:38:34.213032,60.808,-63.9375,7.375,9.125
1588210654315,2020-04-30T01:38:34.265580,60.908,-64.25,12.125,8.6875
1588210654415,2020-04-30T01:38:34.355481,61.008,-63.5625,13.25,9.125
1588210654514,2020-04-30T01:38:34.415462,61.107,-63.5625,12.5,9.125
1588210654614,2020-04-30T01:38:34.490504,61.207,-65.0,13.25,8.3125
1588210654713,2020-04-30T01:38:34.550720,61.306,-62.8125,12.875,8.6875
1588210654813,2020-04-30T01:38:34.617810,61.406,-63.9375,13.25,8.3125
1588210654913,2020-04-30T01:38:34.662798,61.506,-64.3125,8.125,9.875
1588210655012,2020-04-30T01:38:34.767845,61.605,-63.9375,13.25,9.125
1588210655112,2020-04-30T01:38:34.827806,61.705,-63.9375,12.125,8.3125
1588210655211,2020-04-30T01:38:34.887790,61.804,-63.9375,11.75,8.6875
1588210655311,2020-04-30T01:38:34.962808,61.904,-62.8125,8.8125,9.125
1588210655411,2020-04-30T01:38:35.022818,62.004,-63.1875,11.75,8.6875
1588210655510,2020-04-30T01:38:35.112811,62.103,-63.5625,12.875,8.3125
1588210655610,2020-04-30T01:38:35.165314,62.203,-63.9375,12.875,8.6875
1588210655710,2020-04-30T01:38:35.232938,62.303,-62.8125,13.625,9.5
1588210655809,2020-04-30T01:38:35.293021,62.402,-63.5625,12.875,9.125
1588210655909,2020-04-30T01:38:35.352921,62.502,-64.3125,12.875,9.5
1588210656008,2020-04-30T01:38:35.397913,62.601,-63.5625,6.625,8.3125
1588210656108,2020-04-30T01:38:35.465438,62.701,-63.5625,14.0,8.6875
1588210656208,2020-04-30T01:38:35.510509,62.801,-64.25,12.5,8.6875
1588210656307,2020-04-30T01:38:35.600349,62.9,-63.5625,12.125,8.3125
1588210656407,2020-04-30T01:38:35.645666,63.0,-62.8125,9.5625,9.5
1588210656505,2020-04-30T01:38:35.727883,63.098,-63.5625,12.125,9.125
1588210656605,2020-04-30T01:38:35.780356,63.198,-63.1875,13.25,8.3125
1588210656704,2020-04-30T01:38:35.847930,63.297,-63.5625,12.5,9.125
1588210656804,2020-04-30T01:38:35.892936,63.397,-63.5625,12.875,8.3125
1588210656903,2020-04-30T01:38:35.968151,63.496,-62.4375,12.125,9.125
1588210657003,2020-04-30T01:38:36.043255,63.596,-62.4375,12.875,9.5
1588210657103,2020-04-30T01:38:36.110346,63.696,-63.9375,6.25,9.5
1588210657202,2020-04-30T01:38:36.177997,63.795,-63.1875,13.25,9.125
1588210657302,2020-04-30T01:38:36.222989,63.895,-63.1875,13.25,8.6875
1588210657401,2020-04-30T01:38:36.283005,63.994,-63.5625,9.1875,8.6875
1588210657501,2020-04-30T01:38:36.342884,64.094,-64.25,9.5625,8.6875
1588210657601,2020-04-30T01:38:36.403020,64.194,-63.9375,11.75,8.6875
1588210657700,2020-04-30T01:38:36.455750,64.293,-63.5625,12.875,7.9375
1588210657800,2020-04-30T01:38:36.515524,64.393,-63.9375,12.5,8.6875
1588210657899,2020-04-30T01:38:36.560493,64.492,-63.1875,12.875,8.3125
1588210657999,2020-04-30T01:38:36.642966,64.592,-63.1875,12.875,8.3125
1588210658099,2020-04-30T01:38:36.695492,64.692,-63.1875,12.875,7.9375
1588210658198,2020-04-30T01:38:36.755649,64.791,-63.1875,7.75,8.3125
1588210658298,2020-04-30T01:38:36.808148,64.891,-63.5625,13.25,9.125
1588210658397,2020-04-30T01:38:36.875534,64.99,-63.1875,13.25,7.9375
1588210658497,2020-04-30T01:38:36.920469,65.09,-63.1875,14.375,8.6875
1588210658597,2020-04-30T01:38:36.980479,65.19,-63.5625,10.3125,8.6875
1588210658696,2020-04-30T01:38:37.032983,65.289,-63.1875,11.75,9.125
1588210658796,2020-04-30T01:38:37.115489,65.389,-63.9375,12.875,8.6875
1588210658896,2020-04-30T01:38:37.168013,65.489,-63.1875,13.625,8.6875
1588210658994,2020-04-30T01:38:37.228254,65.587,-63.5625,13.25,8.3125
1588210659093,2020-04-30T01:38:37.288262,65.686,-63.9375,12.5,8.6875
1588210659193,2020-04-30T01:38:37.355693,65.786,-63.9375,12.875,8.3125
1588210659293,2020-04-30T01:38:37.422982,65.886,-63.1875,8.5,8.6875
1588210659392,2020-04-30T01:38:37.475573,65.985,-64.25,11.4375,8.6875
1588210659492,2020-04-30T01:38:37.535480,66.085,-64.3125,13.625,8.6875
1588210659591,2020-04-30T01:38:37.580477,66.184,-63.1875,12.5,7.9375
1588210659691,2020-04-30T01:38:37.678004,66.284,-63.9375,8.8125,8.6875
1588210659791,2020-04-30T01:38:37.737990,66.384,-63.1875,12.5,8.6875
1588210659890,2020-04-30T01:38:37.797999,66.483,-63.5625,12.875,7.9375
1588210659990,2020-04-30T01:38:37.850469,66.583,-63.5625,12.125,9.125
1588210660089,2020-04-30T01:38:37.933506,66.682,-62.8125,14.0,9.125
1588210660189,2020-04-30T01:38:37.986846,66.782,-63.1875,12.875,8.6875
1588210660289,2020-04-30T01:38:38.060630,66.882,-64.25,12.125,9.125
1588210660388,2020-04-30T01:38:38.128034,66.981,-63.9375,9.5625,8.3125
1588210660488,2020-04-30T01:38:38.218164,67.081,-63.1875,13.625,8.6875
1588210660587,2020-04-30T01:38:38.270733,67.18,-63.5625,13.625,8.6875
1588210660687,2020-04-30T01:38:38.345661,67.28,-63.5625,12.125,9.125
1588210660787,2020-04-30T01:38:38.405782,67.38,-64.3125,6.625,8.3125
1588210660886,2020-04-30T01:38:38.488030,67.479,-63.1875,13.25,8.6875
1588210660986,2020-04-30T01:38:38.570537,67.579,-63.9375,14.0,9.5
1588210661085,2020-04-30T01:38:38.615526,67.678,-63.9375,13.25,7.9375
1588210661184,2020-04-30T01:38:38.682867,67.777,-63.9375,12.5,7.9375
1588210661283,2020-04-30T01:38:38.735343,67.876,-64.3125,11.75,7.9375
1588210661383,2020-04-30T01:38:38.817852,67.976,-64.625,13.25,7.9375
1588210661482,2020-04-30T01:38:38.870409,68.075,-62.8125,12.125,7.9375
1588210661582,2020-04-30T01:38:38.960434,68.175,-63.5625,12.875,9.5
1588210661682,2020-04-30T01:38:39.012934,68.275,-63.5625,12.5,8.3125
1588210661781,2020-04-30T01:38:39.118165,68.374,-63.9375,12.5,8.3125
1588210661881,2020-04-30T01:38:39.162975,68.474,-64.25,6.25,8.6875
1588210661980,2020-04-30T01:38:39.230345,68.573,-63.5625,14.0,8.3125
1588210662080,2020-04-30T01:38:39.275352,68.673,-63.5625,13.25,9.125
1588210662180,2020-04-30T01:38:39.372896,68.773,-63.1875,10.3125,8.6875
1588210662279,2020-04-30T01:38:39.425369,68.872,-62.8125,11.75,8.6875
1588210662379,2020-04-30T01:38:39.485367,68.972,-62.8125,12.125,8.6875
1588210662479,2020-04-30T01:38:39.538239,69.072,-63.9375,12.875,7.9375
1588210662578,2020-04-30T01:38:39.635351,69.171,-63.1875,12.875,8.3125
1588210662678,2020-04-30T01:38:39.687861,69.271,-63.1875,14.0,8.6875
1588210662777,2020-04-30T01:38:39.747845,69.37,-63.9375,12.125,8.6875
1588210662877,2020-04-30T01:38:39.822857,69.47,-63.1875,11.75,9.125
1588210662975,2020-04-30T01:38:39.890634,69.568,-63.1875,6.625,8.6875
1588210663076,2020-04-30T01:38:39.965452,69.669,-63.9375,14.0,9.125
1588210663174,2020-04-30T01:38:40.010397,69.767,-63.5625,12.125,8.6875
1588210663274,2020-04-30T01:38:40.100561,69.867,-64.3125,11.75,8.6875
1588210663374,2020-04-30T01:38:40.168029,69.967,-63.5625,8.8125,8.6875
1588210663473,2020-04-30T01:38:40.258034,70.066,-63.1875,9.1875,8.3125
1588210663573,2020-04-30T01:38:40.318080,70.166,-63.9375,12.875,8.3125
1588210663672,2020-04-30T01:38:40.385353,70.265,-63.5625,13.25,8.3125
1588210663772,2020-04-30T01:38:40.460347,70.365,-62.8125,13.625,9.125
1588210663872,2020-04-30T01:38:40.542850,70.465,-64.25,12.5,8.3125
1588210663971,2020-04-30T01:38:40.587842,70.564,-63.9375,12.125,7.9375
1588210664071,2020-04-30T01:38:40.715352,70.664,-63.1875,10.6875,9.125
1588210664170,2020-04-30T01:38:40.782866,70.763,-63.5625,13.625,8.6875
1588210664270,2020-04-30T01:38:40.850359,70.863,-63.1875,12.875,8.3125
1588210664370,2020-04-30T01:38:40.902963,70.963,-63.1875,12.125,7.5
1588210664469,2020-04-30T01:38:40.992971,71.062,-63.5625,6.625,8.6875
1588210664567,2020-04-30T01:38:41.045440,71.16,-63.9375,13.25,8.3125
1588210664667,2020-04-30T01:38:41.112985,71.26,-63.9375,12.875,7.9375
1588210664767,2020-04-30T01:38:41.157987,71.36,-62.8125,12.875,8.3125
1588210664866,2020-04-30T01:38:41.264163,71.459,-63.1875,13.625,8.3125
1588210664966,2020-04-30T01:38:41.353111,71.559,-63.1875,12.875,8.6875
1588210665065,2020-04-30T01:38:41.420402,71.658,-64.3125,13.25,9.125
1588210665165,2020-04-30T01:38:41.488049,71.758,-63.1875,9.9375,8.6875
1588210665265,2020-04-30T01:38:41.547952,71.858,-63.9375,12.125,8.3125
1588210665364,2020-04-30T01:38:41.615466,71.957,-63.5625,13.625,7.9375
1588210665464,2020-04-30T01:38:41.660447,72.057,-63.1875,12.5,8.6875
1588210665564,2020-04-30T01:38:41.727970,72.157,-63.1875,8.8125,9.125
1588210665663,2020-04-30T01:38:41.772972,72.256,-63.5625,13.25,8.6875
1588210665763,2020-04-30T01:38:41.855474,72.356,-63.1875,11.0625,8.6875
1588210665862,2020-04-30T01:38:41.907970,72.455,-63.5625,12.5,9.125
1588210665962,2020-04-30T01:38:41.982959,72.555,-63.5625,12.875,8.6875
1588210666062,2020-04-30T01:38:42.035624,72.655,-63.9375,12.125,9.125
1588210666161,2020-04-30T01:38:42.147923,72.754,-63.9375,9.9375,7.9375
1588210666261,2020-04-30T01:38:42.200604,72.854,-63.5625,11.4375,9.5
1588210666360,2020-04-30T01:38:42.267990,72.953,-63.5625,13.25,8.3125
1588210666460,2020-04-30T01:38:42.380368,73.053,-63.1875,13.625,8.6875
1588210666558,2020-04-30T01:38:42.927875,73.151,-63.1875,12.875,9.125
1588210666658,2020-04-30T01:38:44.045676,73.251,-65.0,7.0,9.125
1588210666757,2020-04-30T01:38:45.433106,73.35,-63.1875,13.25,8.6875
1588210666857,2020-04-30T01:38:45.710528,73.45,-63.9375,12.875,8.6875
1588210666957,2020-04-30T01:38:48.605520,73.55,-63.1875,11.75,8.6875
1588210667056,2020-04-30T01:38:54.193233,73.649,-64.25,12.875,8.6875
1588210667156,2020-04-30T01:38:56.270822,73.749,-63.9375,11.4375,8.6875
1588210667255,2020-04-30T01:38:58.933151,73.848,-63.9375,12.875,7.5
1588210667355,2020-04-30T01:39:00.215678,73.948,-63.5625,12.5,8.6875
1588210667455,2020-04-30T01:39:02.998327,74.048,-63.5625,12.125,8.6875
1588210667554,2020-04-30T01:39:04.258399,74.147,-63.1875,12.875,8.6875
1588210667654,2020-04-30T01:39:06.275782,74.247,-63.5625,12.875,8.6875
1588210667753,2020-04-30T01:39:06.838255,74.346,-63.5625,6.625,9.875
1588210667853,2020-04-30T01:39:08.765801,74.446,-63.1875,12.875,8.3125
1588210667953,2020-04-30T01:39:09.275814,74.546,-63.9375,12.875,8.3125
1588210668052,2020-04-30T01:39:10.318253,74.645,-63.1875,11.4375,8.6875
1588210668152,2020-04-30T01:39:10.475753,74.745,-63.1875,10.3125,9.125
1588210668251,2020-04-30T01:39:10.535733,74.844,-64.25,12.875,9.125
1588210668351,2020-04-30T01:39:10.580744,74.944,-64.25,12.875,7.9375
1588210668449,2020-04-30T01:39:10.640737,75.042,-63.1875,13.25,8.6875
1588210668549,2020-04-30T01:39:10.685738,75.142,-63.5625,12.5,9.5
1588210668648,2020-04-30T01:39:10.768499,75.241,-63.5625,12.5,8.6875
1588210668748,2020-04-30T01:39:10.843302,75.341,-62.8125,12.5,7.9375
1588210668848,2020-04-30T01:39:10.888101,75.441,-64.25,7.375,9.125
1588210668947,2020-04-30T01:39:10.948108,75.54,-63.5625,13.25,8.6875
1588210669047,2020-04-30T01:39:10.993083,75.64,-63.1875,13.625,9.125
1588210669147,2020-04-30T01:39:11.053106,75.74,-63.5625,12.125,9.125
1588210669246,2020-04-30T01:39:11.098115,75.839,-63.5625,9.5625,9.125
1588210669346,2020-04-30T01:39:11.173092,75.939,-63.9375,13.25,8.3125
1588210669445,2020-04-30T01:39:11.218106,76.038,-62.8125,13.25,8.6875
1588210669545,2020-04-30T01:39:11.278127,76.138,-63.1875,13.25,7.9375
1588210669645,2020-04-30T01:39:11.323237,76.238,-62.4375,12.5,9.5
1588210669744,2020-04-30T01:39:11.383107,76.337,-63.9375,12.125,8.3125
1588210669844,2020-04-30T01:39:11.443241,76.437,-64.3125,13.25,8.6875
1588210669943,2020-04-30T01:39:11.503268,76.536,-63.9375,9.5625,8.6875
1588210670043,2020-04-30T01:39:11.548243,76.636,-63.1875,13.625,9.125
1588210670143,2020-04-30T01:39:11.615751,76.736,-62.8125,13.25,8.3125
1588210670241,2020-04-30T01:39:11.668288,76.834,-63.5625,12.125,9.125
1588210670340,2020-04-30T01:39:11.728248,76.933,-62.8125,5.875,8.3125
1588210670440,2020-04-30T01:39:11.780760,77.033,-62.8125,12.125,8.3125
1588210670540,2020-04-30T01:39:11.840736,77.133,-63.9375,13.25,8.6875
1588210670639,2020-04-30T01:39:11.886031,77.232,-63.5625,11.4375,8.6875
1588210670739,2020-04-30T01:39:11.946039,77.332,-62.8125,12.125,9.125
1588210670838,2020-04-30T01:39:12.005763,77.431,-64.25,12.875,8.3125
1588210670938,2020-04-30T01:39:12.050800,77.531,-63.5625,12.125,8.3125
1588210671038,2020-04-30T01:39:12.110814,77.631,-63.5625,11.4375,8.3125
1588210671137,2020-04-30T01:39:12.155780,77.73,-63.9375,11.75,9.5
1588210671237,2020-04-30T01:39:12.215757,77.83,-63.5625,11.0625,8.3125
1588210671336,2020-04-30T01:39:12.260750,77.929,-63.1875,12.5,9.5
1588210671436,2020-04-30T01:39:12.328335,78.029,-62.8125,5.875,8.6875
1588210671536,2020-04-30T01:39:12.388530,78.129,-63.9375,13.25,9.125
1588210671635,2020-04-30T01:39:12.456290,78.228,-63.9375,13.25,8.6875
1588210671735,2020-04-30T01:39:12.523284,78.328,-63.5625,14.0,9.125
1588210671835,2020-04-30T01:39:12.785792,78.428,-62.8125,6.25,8.6875
1588210671933,2020-04-30T01:39:12.845763,78.526,-63.9375,11.75,8.6875
1588210672032,2020-04-30T01:39:12.905759,78.625,-63.1875,10.6875,8.3125
1588210672132,2020-04-30T01:39:12.950739,78.725,-62.8125,11.75,8.6875
1588210672231,2020-04-30T01:39:13.025794,78.824,-63.1875,13.25,8.3125
1588210672331,2020-04-30T01:39:13.070795,78.924,-63.9375,13.25,8.6875
1588210672431,2020-04-30T01:39:13.138272,79.024,-63.1875,12.875,8.6875
1588210672530,2020-04-30T01:39:13.183268,79.123,-63.5625,8.5,8.3125
1588210672630,2020-04-30T01:39:13.243513,79.223,-63.1875,13.25,8.6875
1588210672730,2020-04-30T01:39:13.303330,79.323,-63.9375,13.625,7.5
1588210672829,2020-04-30T01:39:13.348253,79.422,-63.9375,11.4375,6.3125
1588210672929,2020-04-30T01:39:13.408277,79.522,-63.5625,7.0,7.9375
1588210673028,2020-04-30T01:39:13.453282,79.621,-64.625,11.75,7.125
1588210673128,2020-04-30T01:39:13.528264,79.721,-65.375,13.625,6.6875
1588210673228,2020-04-30T01:39:13.580777,79.821,-64.625,14.0,5.9375
1588210673327,2020-04-30T01:39:13.640878,79.92,-65.375,14.0,5.5
1588210673427,2020-04-30T01:39:13.685940,80.02,-65.0,15.0625,6.3125
1588210673526,2020-04-30T01:39:13.745618,80.119,-64.625,13.25,5.5
1588210673626,2020-04-30T01:39:13.798127,80.219,-65.375,10.3125,6.6875
1588210673726,2020-04-30T01:39:13.873139,80.319,-64.3125,12.125,8.3125
1588210673824,2020-04-30T01:39:13.918123,80.417,-63.1875,11.0625,6.6875
1588210673923,2020-04-30T01:39:13.985611,80.516,-61.0,7.0,19.4375
1588210674023,2020-04-30T01:39:14.031023,80.616,-59.125,0.375,35.6875
1588210674123,2020-04-30T01:39:14.098175,80.716,-59.5,2.25,53.5625
1588210674222,2020-04-30T01:39:14.143128,80.815,-62.0625,-2.1875,71.8125
1588210674322,2020-04-30T01:39:14.203113,80.915,-65.375,-3.625,78.9375
1588210674421,2020-04-30T01:39:14.248160,81.014,-67.1875,-3.625,82.125
1588210674521,2020-04-30T01:39:14.315630,81.114,-67.9375,-4.375,81.75
1588210674621,2020-04-30T01:39:14.375641,81.214,-67.9375,-4.375,82.9375
1588210674720,2020-04-30T01:39:14.428294,81.313,-68.3125,-7.3125,81.75
1588210674820,2020-04-30T01:39:14.488290,81.413,-67.5625,-2.5625,80.5625
1588210674919,2020-04-30T01:39:14.533297,81.512,-66.875,-5.125,79.375
1588210675019,2020-04-30T01:39:14.593395,81.612,-66.125,-5.125,79.375
1588210675119,2020-04-30T01:39:14.638192,81.712,-66.125,-9.125,77.75
1588210675218,2020-04-30T01:39:14.698352,81.811,-63.9375,-0.3125,70.625
1588210675318,2020-04-30T01:39:14.758173,81.911,-62.0625,2.625,59.125
1588210675418,2020-04-30T01:39:14.825704,82.011,-62.0625,5.875,46.4375
1588210675517,2020-04-30T01:39:14.870839,82.11,-63.1875,8.5,45.625
1588210675617,2020-04-30T01:39:14.930786,82.21,-64.625,6.25,48.0
1588210675716,2020-04-30T01:39:14.975775,82.309,-64.625,7.75,52.375
1588210675816,2020-04-30T01:39:15.073245,82.409,-65.375,3.6875,55.1875
1588210675916,2020-04-30T01:39:15.118236,82.509,-65.75,8.5,53.5625
1588210676014,2020-04-30T01:39:15.178300,82.607,-64.625,8.8125,51.5625
1588210676113,2020-04-30T01:39:15.223294,82.706,-65.0,6.25,53.1875
1588210676213,2020-04-30T01:39:15.290757,82.806,-65.75,0.75,54.375
1588210676313,2020-04-30T01:39:15.335763,82.906,-64.25,5.5625,57.9375
1588210676412,2020-04-30T01:39:15.395777,83.005,-64.25,1.875,61.9375
1588210676512,2020-04-30T01:39:15.455787,83.105,-64.625,-1.0625,64.6875
1588210676611,2020-04-30T01:39:15.500794,83.204,-63.5625,-1.0625,66.6875
1588210676711,2020-04-30T01:39:15.560819,83.304,-63.5625,-1.4375,66.6875
1588210676811,2020-04-30T01:39:15.605798,83.404,-63.5625,-1.8125,65.5
1588210676910,2020-04-30T01:39:15.665858,83.503,-63.5625,-4.375,65.5
1588210677010,2020-04-30T01:39:15.711190,83.603,-64.25,-2.5625,65.5
1588210677109,2020-04-30T01:39:15.770882,83.702,-63.5625,-1.8125,64.6875
1588210677209,2020-04-30T01:39:15.815668,83.802,-63.9375,-3.625,66.6875
1588210677309,2020-04-30T01:39:15.883141,83.902,-63.5625,-9.875,67.0625
1588210677408,2020-04-30T01:39:15.928137,84.001,-63.5625,-5.8125,68.625
1588210677508,2020-04-30T01:39:15.988132,84.101,-63.5625,-5.125,67.4375
1588210677607,2020-04-30T01:39:16.033133,84.2,-62.0625,-4.75,67.4375
1588210677707,2020-04-30T01:39:16.100857,84.3,-63.9375,-4.0,66.6875
1588210677807,2020-04-30T01:39:16.146018,84.4,-63.1875,-4.75,67.0625
1588210677906,2020-04-30T01:39:16.206572,84.499,-63.5625,-5.8125,68.25
1588210678006,2020-04-30T01:39:16.250914,84.599,-63.5625,-6.9375,66.625
1588210678105,2020-04-30T01:39:16.310774,84.698,-63.9375,-4.0,68.25
1588210678205,2020-04-30T01:39:16.355914,84.798,-62.8125,-5.5,67.0625
