epoch  (ms),time  (-07:00),elapsed  (s),Pressure  (Pa)
1588210480210,2020-04-30T01:35:25.468412,0.0,97977.484375
1588210480256,2020-04-30T01:35:25.474647,0.046,97977.3125
1588210480303,2020-04-30T01:35:25.501798,0.093,97977.3515625
1588210480350,2020-04-30T01:35:25.506790,0.14,97977.765625
1588210480397,2020-04-30T01:35:25.542558,0.187,97978.625
1588210480444,2020-04-30T01:35:25.559263,0.234,97979.0703125
1588210480491,2020-04-30T01:35:25.587750,0.281,97979.3046875
1588210480536,2020-04-30T01:35:25.606621,0.326,97980.1171875
1588210480583,2020-04-30T01:35:25.632062,0.373,97981.1328125
1588210480630,2020-04-30T01:35:25.647488,0.42,97982.3125
1588210480677,2020-04-30T01:35:25.713937,0.467,97982.28125
1588210480724,2020-04-30T01:35:25.729255,0.514,97981.1171875
1588210480771,2020-04-30T01:35:25.759405,0.561,97980.1875
1588210480817,2020-04-30T01:35:25.774245,0.607,97980.59375
1588210480864,2020-04-30T01:35:25.796751,0.654,97981.1015625
1588210480910,2020-04-30T01:35:25.834254,0.7,97981.03125
1588210480957,2020-04-30T01:35:25.856627,0.747,97980.84375
1588210481003,2020-04-30T01:35:25.879209,0.793,97980.0
1588210481050,2020-04-30T01:35:25.901444,0.84,97980.2734375
1588210481097,2020-04-30T01:35:25.924221,0.887,97980.34375
1588210481144,2020-04-30T01:35:25.946626,0.934,97980.984375
1588210481191,2020-04-30T01:35:25.984186,0.981,97980.6796875
1588210481238,2020-04-30T01:35:26.006440,1.028,97980.40625
1588210481283,2020-04-30T01:35:26.029220,1.073,97980.140625
1588210481330,2020-04-30T01:35:26.051421,1.12,97980.515625
1588210481377,2020-04-30T01:35:26.074404,1.167,97979.9453125
1588210481424,2020-04-30T01:35:26.111638,1.214,97979.671875
1588210481471,2020-04-30T01:35:26.134194,1.261,97979.90625
1588210481518,2020-04-30T01:35:26.163937,1.308,97980.078125
1588210481564,2020-04-30T01:35:26.186740,1.354,97980.1171875
1588210481611,2020-04-30T01:35:26.208937,1.401,97981.09375
1588210481658,2020-04-30T01:35:26.239844,1.448,97981.59375
1588210481705,2020-04-30T01:35:26.276651,1.495,97982.296875
1588210481752,2020-04-30T01:35:26.291680,1.542,97982.46875
1588210481797,2020-04-30T01:35:26.321443,1.587,97983.1328125
1588210481844,2020-04-30T01:35:26.336686,1.634,97983.1328125
1588210481891,2020-04-30T01:35:26.373949,1.681,97983.703125
1588210481938,2020-04-30T01:35:26.411749,1.728,97984.0390625
1588210481985,2020-04-30T01:35:26.441444,1.775,97984.3046875
1588210482032,2020-04-30T01:35:26.456742,1.822,97984.703125
1588210482079,2020-04-30T01:35:26.487271,1.869,97984.5390625
1588210482126,2020-04-30T01:35:26.501776,1.916,97984.9375
1588210482172,2020-04-30T01:35:26.546990,1.962,97984.0390625
1588210482218,2020-04-30T01:35:26.561744,2.008,97984.9375
1588210482265,2020-04-30T01:35:26.591458,2.055,97984.609375
1588210482312,2020-04-30T01:35:26.606712,2.102,97984.2734375
1588210482358,2020-04-30T01:35:26.628916,2.148,97984.34375
1588210482405,2020-04-30T01:35:26.666872,2.195,97985.046875
1588210482452,2020-04-30T01:35:26.688928,2.242,97984.875
1588210482499,2020-04-30T01:35:26.711740,2.289,97985.046875
1588210482546,2020-04-30T01:35:26.733933,2.336,97985.046875
1588210482593,2020-04-30T01:35:26.779098,2.383,97984.875
1588210482638,2020-04-30T01:35:26.794271,2.428,97985.1171875
1588210482685,2020-04-30T01:35:26.839105,2.475,97985.28125
1588210482732,2020-04-30T01:35:26.854219,2.522,97985.1171875
1588210482779,2020-04-30T01:35:26.891418,2.569,97985.28125
1588210482826,2020-04-30T01:35:26.906712,2.616,97985.28125
1588210482873,2020-04-30T01:35:26.936478,2.663,97986.1875
1588210482919,2020-04-30T01:35:26.966798,2.709,97985.953125
1588210482966,2020-04-30T01:35:26.996429,2.756,97986.5234375
1588210483013,2020-04-30T01:35:27.011723,2.803,97986.21875
1588210483060,2020-04-30T01:35:27.041578,2.85,97985.890625
1588210483105,2020-04-30T01:35:27.056883,2.895,97985.71875
1588210483152,2020-04-30T01:35:27.078968,2.942,97985.34375
1588210483199,2020-04-30T01:35:27.124211,2.989,97986.796875
1588210483246,2020-04-30T01:35:27.146482,3.036,97986.5625
1588210483293,2020-04-30T01:35:27.176926,3.083,97986.5625
1588210483340,2020-04-30T01:35:27.198938,3.13,97986.5625
1588210483387,2020-04-30T01:35:27.221752,3.177,97987.0625
1588210483434,2020-04-30T01:35:27.260317,3.224,97987.0625
1588210483479,2020-04-30T01:35:27.289310,3.269,97987.0625
1588210483526,2020-04-30T01:35:27.318971,3.316,97986.890625
1588210483573,2020-04-30T01:35:27.341741,3.363,97987.0234375
1588210483620,2020-04-30T01:35:27.363919,3.41,97986.890625
1588210483667,2020-04-30T01:35:27.401786,3.457,97987.6328125
1588210483713,2020-04-30T01:35:27.431504,3.503,97987.4609375
1588210483760,2020-04-30T01:35:27.461728,3.55,97987.859375
1588210483807,2020-04-30T01:35:27.484041,3.597,97988.03125
1588210483854,2020-04-30T01:35:27.506781,3.644,97988.234375
1588210483899,2020-04-30T01:35:27.534715,3.689,97988.90625
1588210483946,2020-04-30T01:35:27.619284,3.736,97988.90625
1588210483993,2020-04-30T01:35:27.686729,3.783,97988.90625
1588210484040,2020-04-30T01:35:27.701640,3.83,97988.90625
1588210484087,2020-04-30T01:35:27.733017,3.877,97988.90625
1588210484134,2020-04-30T01:35:27.749727,3.924,97989.234375
1588210484181,2020-04-30T01:35:27.792601,3.971,97989.0390625
1588210484228,2020-04-30T01:35:27.807830,4.018,97989.5390625
1588210484274,2020-04-30T01:35:27.848902,4.064,97988.8671875
1588210484321,2020-04-30T01:35:27.859993,4.111,97988.359375
1588210484368,2020-04-30T01:35:27.896565,4.158,97988.703125
1588210484414,2020-04-30T01:35:27.913390,4.204,97988.03125
1588210484460,2020-04-30T01:35:27.968849,4.25,97988.03125
1588210484507,2020-04-30T01:35:27.982740,4.297,97987.359375
1588210484554,2020-04-30T01:35:28.009055,4.344,97987.1953125
1588210484601,2020-04-30T01:35:28.024479,4.391,97986.8984375
1588210484648,2020-04-30T01:35:28.050504,4.438,97986.390625
1588210484695,2020-04-30T01:35:28.086258,4.485,97986.0234375
1588210484742,2020-04-30T01:35:28.110074,4.532,97986.5625
1588210484789,2020-04-30T01:35:28.130987,4.579,97987.0625
1588210484835,2020-04-30T01:35:28.159063,4.625,97987.0625
1588210484882,2020-04-30T01:35:28.182193,4.672,97988.140625
1588210484928,2020-04-30T01:35:28.219892,4.718,97987.734375
1588210484975,2020-04-30T01:35:28.253786,4.765,97987.90625
1588210485022,2020-04-30T01:35:28.270561,4.812,97988.0625
1588210485068,2020-04-30T01:35:28.290362,4.858,97988.640625
1588210485115,2020-04-30T01:35:28.309746,4.905,97988.46875
1588210485162,2020-04-30T01:35:28.342815,4.952,97988.40625
1588210485209,2020-04-30T01:35:28.380296,4.999,97989.3125
1588210485256,2020-04-30T01:35:28.401232,5.046,97989.140625
1588210485301,2020-04-30T01:35:28.451977,5.091,97988.90625
1588210485348,2020-04-30T01:35:28.475071,5.138,97988.96875
1588210485395,2020-04-30T01:35:28.500511,5.185,97988.875
1588210485442,2020-04-30T01:35:28.527568,5.232,97989.203125
1588210485489,2020-04-30T01:35:28.571463,5.279,97989.375
1588210485536,2020-04-30T01:35:28.594368,5.326,97989.546875
1588210485583,2020-04-30T01:35:28.623972,5.373,97990.046875
1588210485629,2020-04-30T01:35:28.639245,5.419,97990.046875
1588210485675,2020-04-30T01:35:28.669005,5.465,97989.7109375
1588210485722,2020-04-30T01:35:28.699239,5.512,97989.375
1588210485769,2020-04-30T01:35:28.743984,5.559,97988.5390625
1588210485815,2020-04-30T01:35:28.759218,5.605,97988.3046875
1588210485862,2020-04-30T01:35:28.796487,5.652,97988.140625
1588210485909,2020-04-30T01:35:28.811725,5.699,97987.96875
1588210485956,2020-04-30T01:35:28.856899,5.746,97987.296875
1588210486003,2020-04-30T01:35:28.871764,5.793,97987.96875
1588210486050,2020-04-30T01:35:28.938956,5.84,97988.140625
1588210486097,2020-04-30T01:35:28.957335,5.887,97988.46875
1588210486142,2020-04-30T01:35:29.006679,5.932,97988.640625
1588210486189,2020-04-30T01:35:29.082100,5.979,97988.3046875
1588210486236,2020-04-30T01:35:29.101415,6.026,97988.140625
1588210486283,2020-04-30T01:35:29.134461,6.073,97987.796875
1588210486330,2020-04-30T01:35:29.152029,6.12,97987.703125
1588210486376,2020-04-30T01:35:29.208980,6.166,97988.03125
1588210486423,2020-04-30T01:35:29.231780,6.213,97988.4375
1588210486470,2020-04-30T01:35:29.291489,6.26,97987.53125
1588210486517,2020-04-30T01:35:29.306745,6.307,97987.53125
1588210486563,2020-04-30T01:35:29.336467,6.353,97988.03125
1588210486609,2020-04-30T01:35:29.351706,6.399,97988.375
1588210486656,2020-04-30T01:35:29.381569,6.446,97988.203125
1588210486703,2020-04-30T01:35:29.412491,6.493,97988.609375
1588210486750,2020-04-30T01:35:29.441921,6.54,97988.9375
1588210486797,2020-04-30T01:35:29.457394,6.587,97989.109375
1588210486844,2020-04-30T01:35:29.501436,6.634,97989.3125
1588210486891,2020-04-30T01:35:29.532792,6.681,97989.140625
1588210486938,2020-04-30T01:35:29.561452,6.728,97988.9765625
1588210486983,2020-04-30T01:35:29.614240,6.773,97989.3125
1588210487030,2020-04-30T01:35:29.636448,6.82,97989.546875
1588210487077,2020-04-30T01:35:29.659272,6.867,97988.640625
1588210487124,2020-04-30T01:35:29.681650,6.914,97988.8125
1588210487170,2020-04-30T01:35:29.727882,6.96,97989.546875
1588210487217,2020-04-30T01:35:29.802437,7.007,97989.2109375
1588210487264,2020-04-30T01:35:29.840186,7.054,97988.3046875
1588210487311,2020-04-30T01:35:29.862050,7.101,97987.96875
1588210487356,2020-04-30T01:35:29.884641,7.146,97987.96875
1588210487403,2020-04-30T01:35:29.936465,7.193,97988.375
1588210487450,2020-04-30T01:35:29.981721,7.24,97988.546875
1588210487497,2020-04-30T01:35:30.003972,7.287,97988.203125
1588210487544,2020-04-30T01:35:30.027448,7.334,97988.203125
1588210487591,2020-04-30T01:35:30.063936,7.381,97988.546875
1588210487638,2020-04-30T01:35:30.101924,7.428,97988.375
1588210487685,2020-04-30T01:35:30.154194,7.475,97987.8046875
1588210487731,2020-04-30T01:35:30.210775,7.521,97987.296875
1588210487777,2020-04-30T01:35:30.236441,7.567,97987.296875
1588210487824,2020-04-30T01:35:30.252037,7.614,97986.8671875
1588210487871,2020-04-30T01:35:30.289415,7.661,97986.796875
1588210487918,2020-04-30T01:35:30.320357,7.708,97986.796875
1588210487964,2020-04-30T01:35:30.386805,7.754,97987.140625
1588210488011,2020-04-30T01:35:30.410218,7.801,97987.46875
1588210488058,2020-04-30T01:35:30.438461,7.848,97987.140625
1588210488105,2020-04-30T01:35:30.453487,7.895,97987.296875
1588210488150,2020-04-30T01:35:30.478242,7.94,97987.46875
1588210488197,2020-04-30T01:35:30.502759,7.987,97987.46875
1588210488244,2020-04-30T01:35:30.574968,8.034,97987.640625
1588210488291,2020-04-30T01:35:30.600008,8.081,97987.875
1588210488338,2020-04-30T01:35:30.628135,8.128,97987.703125
1588210488385,2020-04-30T01:35:30.657620,8.175,97987.703125
1588210488432,2020-04-30T01:35:30.686445,8.222,97988.109375
1588210488479,2020-04-30T01:35:30.716752,8.269,97987.203125
1588210488525,2020-04-30T01:35:30.746458,8.315,97987.703125
1588210488572,2020-04-30T01:35:30.776846,8.362,97988.0390625
1588210488618,2020-04-30T01:35:30.806466,8.408,97988.2734375
1588210488665,2020-04-30T01:35:30.844231,8.455,97988.203125
1588210488711,2020-04-30T01:35:30.904026,8.501,97988.703125
1588210488758,2020-04-30T01:35:30.926742,8.548,97988.546875
1588210488805,2020-04-30T01:35:30.964070,8.595,97988.546875
1588210488852,2020-04-30T01:35:30.994248,8.642,97988.78125
1588210488899,2020-04-30T01:35:31.023993,8.689,97988.78125
1588210488946,2020-04-30T01:35:31.054313,8.736,97988.78125
1588210488991,2020-04-30T01:35:31.121451,8.781,97989.046875
1588210489038,2020-04-30T01:35:31.159435,8.828,97989.109375
1588210489085,2020-04-30T01:35:31.182167,8.875,97989.109375
1588210489132,2020-04-30T01:35:31.204654,8.922,97988.78125
1588210489179,2020-04-30T01:35:31.237501,8.969,97988.203125
1588210489226,2020-04-30T01:35:31.271771,9.016,97988.0390625
1588210489272,2020-04-30T01:35:31.309012,9.062,97988.375
1588210489319,2020-04-30T01:35:31.324536,9.109,97988.375
1588210489365,2020-04-30T01:35:31.361480,9.155,97988.2734375
1588210489412,2020-04-30T01:35:31.391773,9.202,97987.7734375
1588210489459,2020-04-30T01:35:31.436472,9.249,97987.375
1588210489505,2020-04-30T01:35:31.482842,9.295,97987.5390625
1588210489552,2020-04-30T01:35:31.519020,9.342,97987.9375
1588210489599,2020-04-30T01:35:31.534227,9.389,97988.109375
1588210489646,2020-04-30T01:35:31.563949,9.436,97987.4375
1588210489693,2020-04-30T01:35:31.586729,9.483,97987.96875
1588210489740,2020-04-30T01:35:31.654334,9.53,97987.640625
1588210489785,2020-04-30T01:35:31.684640,9.575,97988.2109375
1588210489832,2020-04-30T01:35:31.709038,9.622,97988.4765625
1588210489879,2020-04-30T01:35:31.729086,9.669,97988.8125
1588210489926,2020-04-30T01:35:31.759693,9.716,97988.984375
1588210489973,2020-04-30T01:35:31.797026,9.763,97988.6484375
1588210490020,2020-04-30T01:35:31.815323,9.81,97989.484375
1588210490066,2020-04-30T01:35:31.841537,9.856,97988.609375
1588210490113,2020-04-30T01:35:31.856727,9.903,97988.3125
1588210490159,2020-04-30T01:35:31.910063,9.949,97988.140625
1588210490206,2020-04-30T01:35:31.926667,9.996,97987.9375
1588210490252,2020-04-30T01:35:31.991583,10.042,97987.7734375
1588210490299,2020-04-30T01:35:32.007664,10.089,97988.140625
1588210490346,2020-04-30T01:35:32.036500,10.136,97988.109375
1588210490393,2020-04-30T01:35:32.051748,10.183,97988.6484375
1588210490440,2020-04-30T01:35:32.081470,10.23,97987.7734375
1588210490487,2020-04-30T01:35:32.111779,10.277,97987.4375
1588210490532,2020-04-30T01:35:32.141497,10.322,97987.640625
1588210490579,2020-04-30T01:35:32.164349,10.369,97987.46875
1588210490626,2020-04-30T01:35:32.201484,10.416,97987.875
1588210490673,2020-04-30T01:35:32.216928,10.463,97988.375
1588210490720,2020-04-30T01:35:32.254050,10.51,97988.046875
1588210490767,2020-04-30T01:35:32.284269,10.557,97988.046875
1588210490814,2020-04-30T01:35:32.306494,10.604,97988.2109375
1588210490860,2020-04-30T01:35:32.329416,10.65,97987.640625
1588210490907,2020-04-30T01:35:32.358975,10.697,97987.703125
1588210490953,2020-04-30T01:35:32.381757,10.743,97988.2109375
1588210491000,2020-04-30T01:35:32.418988,10.79,97989.109375
1588210491046,2020-04-30T01:35:32.449336,10.836,97989.453125
1588210491093,2020-04-30T01:35:32.471504,10.883,97989.6171875
1588210491140,2020-04-30T01:35:32.512973,10.93,97989.453125
1588210491187,2020-04-30T01:35:32.540254,10.977,97988.28125
1588210491234,2020-04-30T01:35:32.585564,11.024,97988.78125
1588210491281,2020-04-30T01:35:32.606673,11.071,97989.109375
1588210491328,2020-04-30T01:35:32.641285,11.118,97989.453125
1588210491375,2020-04-30T01:35:32.651434,11.165,97989.046875
1588210491421,2020-04-30T01:35:32.674161,11.211,97989.3828125
1588210491467,2020-04-30T01:35:32.696404,11.257,97989.3828125
1588210491514,2020-04-30T01:35:32.735482,11.304,97989.21875
1588210491561,2020-04-30T01:35:32.766772,11.351,97989.78125
1588210491607,2020-04-30T01:35:32.795282,11.397,97988.7109375
1588210491654,2020-04-30T01:35:32.817275,11.444,97988.2109375
1588210491701,2020-04-30T01:35:32.832709,11.491,97987.46875
1588210491748,2020-04-30T01:35:32.887796,11.538,97987.5390625
1588210491795,2020-04-30T01:35:32.901626,11.585,97987.609375
1588210491840,2020-04-30T01:35:32.938137,11.63,97987.78125
1588210491887,2020-04-30T01:35:32.946519,11.677,97988.109375
1588210491934,2020-04-30T01:35:32.974636,11.724,97988.609375
1588210491981,2020-04-30T01:35:32.992147,11.771,97988.109375
1588210492028,2020-04-30T01:35:33.042502,11.818,97987.9375
1588210492075,2020-04-30T01:35:33.064350,11.865,97988.34375
1588210492122,2020-04-30T01:35:33.093989,11.912,97988.109375
1588210492168,2020-04-30T01:35:33.109247,11.958,97987.875
1588210492214,2020-04-30T01:35:33.146496,12.004,97987.5390625
1588210492261,2020-04-30T01:35:33.191751,12.051,97987.5390625
1588210492308,2020-04-30T01:35:33.213997,12.098,97988.109375
1588210492355,2020-04-30T01:35:33.238530,12.145,97988.4453125
1588210492401,2020-04-30T01:35:33.266737,12.191,97988.609375
1588210492448,2020-04-30T01:35:33.296889,12.238,97988.28125
1588210492495,2020-04-30T01:35:33.356478,12.285,97988.109375
1588210492542,2020-04-30T01:35:33.379502,12.332,97988.609375
1588210492589,2020-04-30T01:35:33.401613,12.379,97988.6796875
1588210492634,2020-04-30T01:35:33.424869,12.424,97989.515625
1588210492681,2020-04-30T01:35:33.455407,12.471,97989.28125
1588210492728,2020-04-30T01:35:33.476976,12.518,97989.78125
1588210492775,2020-04-30T01:35:33.514657,12.565,97989.6171875
1588210492822,2020-04-30T01:35:33.537423,12.612,97989.453125
1588210492869,2020-04-30T01:35:33.559965,12.659,97989.28125
1588210492916,2020-04-30T01:35:33.589463,12.706,97988.9453125
1588210492962,2020-04-30T01:35:33.634999,12.752,97988.9453125
1588210493008,2020-04-30T01:35:33.665551,12.798,97988.609375
1588210493055,2020-04-30T01:35:33.710187,12.845,97988.4453125
1588210493102,2020-04-30T01:35:33.731989,12.892,97988.4453125
1588210493148,2020-04-30T01:35:33.770419,12.938,97988.609375
1588210493195,2020-04-30T01:35:33.786212,12.985,97988.78125
1588210493242,2020-04-30T01:35:33.814125,13.032,97988.78125
1588210493289,2020-04-30T01:35:33.844931,13.079,97988.9453125
1588210493336,2020-04-30T01:35:33.904924,13.126,97988.9453125
1588210493381,2020-04-30T01:35:33.933996,13.171,97989.28125
1588210493428,2020-04-30T01:35:33.971755,13.218,97988.4453125
1588210493475,2020-04-30T01:35:34.008972,13.265,97988.9453125
1588210493522,2020-04-30T01:35:34.054265,13.312,97989.1875
1588210493569,2020-04-30T01:35:34.076483,13.359,97988.84375
1588210493616,2020-04-30T01:35:34.099239,13.406,97988.515625
1588210493663,2020-04-30T01:35:34.128984,13.453,97987.671875
1588210493710,2020-04-30T01:35:34.159220,13.5,97987.875
1588210493756,2020-04-30T01:35:34.203993,13.546,97987.671875
1588210493802,2020-04-30T01:35:34.219288,13.592,97988.015625
1588210493849,2020-04-30T01:35:34.271650,13.639,97988.015625
1588210493896,2020-04-30T01:35:34.301767,13.686,97987.671875
1588210493942,2020-04-30T01:35:34.331467,13.732,97987.171875
1588210493989,2020-04-30T01:35:34.346730,13.779,97987.671875
1588210494036,2020-04-30T01:35:34.391471,13.826,97987.5078125
1588210494083,2020-04-30T01:35:34.414283,13.873,97987.34375
1588210494130,2020-04-30T01:35:34.451473,13.92,97987.5078125
1588210494177,2020-04-30T01:35:34.481768,13.967,97987.84375
1588210494222,2020-04-30T01:35:34.533971,14.012,97987.875
1588210494269,2020-04-30T01:35:34.586742,14.059,97988.046875
1588210494316,2020-04-30T01:35:34.631470,14.106,97988.546875
1588210494363,2020-04-30T01:35:34.661745,14.153,97988.890625
1588210494410,2020-04-30T01:35:34.714105,14.2,97988.546875
1588210494457,2020-04-30T01:35:34.730862,14.247,97988.71875
1588210494503,2020-04-30T01:35:34.802853,14.293,97988.546875
1588210494550,2020-04-30T01:35:34.826798,14.34,97988.171875
1588210494596,2020-04-30T01:35:34.856381,14.386,97988.890625
1588210494643,2020-04-30T01:35:34.879030,14.433,97988.6796875
1588210494689,2020-04-30T01:35:34.901519,14.479,97988.34375
1588210494736,2020-04-30T01:35:34.931842,14.526,97988.71875
1588210494783,2020-04-30T01:35:34.991531,14.573,97988.546875
1588210494830,2020-04-30T01:35:35.052065,14.62,97989.28125
1588210494877,2020-04-30T01:35:35.089633,14.667,97989.28125
1588210494924,2020-04-30T01:35:35.174898,14.714,97989.390625
1588210494969,2020-04-30T01:35:35.183566,14.759,97989.6171875
1588210495016,2020-04-30T01:35:35.232147,14.806,97989.1171875
1588210495063,2020-04-30T01:35:35.257036,14.853,97988.953125
1588210495110,2020-04-30T01:35:35.284513,14.9,97988.71875
1588210495157,2020-04-30T01:35:35.314173,14.947,97988.71875
1588210495204,2020-04-30T01:35:35.337057,14.994,97988.78125
1588210495251,2020-04-30T01:35:35.398503,15.041,97988.609375
1588210495297,2020-04-30T01:35:35.449458,15.087,97988.71875
1588210495344,2020-04-30T01:35:35.516876,15.134,97988.171875
1588210495391,2020-04-30T01:35:35.546554,15.181,97988.015625
1588210495438,2020-04-30T01:35:35.576614,15.228,97988.515625
1588210495483,2020-04-30T01:35:35.617016,15.273,97988.6796875
1588210495530,2020-04-30T01:35:35.682166,15.32,97988.71875
1588210495577,2020-04-30T01:35:35.696762,15.367,97988.546875
1588210495624,2020-04-30T01:35:35.733991,15.414,97988.171875
1588210495671,2020-04-30T01:35:35.749276,15.461,97988.71875
1588210495718,2020-04-30T01:35:35.794007,15.508,97989.21875
1588210495765,2020-04-30T01:35:35.824280,15.555,97989.7890625
1588210495812,2020-04-30T01:35:35.891486,15.602,97990.453125
1588210495857,2020-04-30T01:35:35.914476,15.647,97990.796875
1588210495904,2020-04-30T01:35:35.951632,15.694,97991.125
1588210495951,2020-04-30T01:35:35.989700,15.741,97990.625
1588210495998,2020-04-30T01:35:36.019357,15.788,97990.21875
1588210496044,2020-04-30T01:35:36.049914,15.834,97990.453125
1588210496091,2020-04-30T01:35:36.109696,15.881,97990.125
1588210496138,2020-04-30T01:35:36.154649,15.928,97989.5546875
1588210496185,2020-04-30T01:35:36.191962,15.975,97989.390625
1588210496232,2020-04-30T01:35:36.251382,16.022,97989.015625
1588210496279,2020-04-30T01:35:36.297027,16.069,97989.5546875
1588210496324,2020-04-30T01:35:36.351606,16.114,97989.71875
1588210496371,2020-04-30T01:35:36.394255,16.161,97989.390625
1588210496418,2020-04-30T01:35:36.431790,16.208,97989.046875
1588210496465,2020-04-30T01:35:36.491523,16.255,97989.6171875
1588210496512,2020-04-30T01:35:36.529235,16.302,97989.453125
1588210496559,2020-04-30T01:35:36.566505,16.349,97989.28125
1588210496605,2020-04-30T01:35:36.596771,16.395,97988.546875
1588210496652,2020-04-30T01:35:36.664007,16.442,97988.546875
1588210496698,2020-04-30T01:35:36.711007,16.488,97988.609375
1588210496745,2020-04-30T01:35:36.739283,16.535,97988.2109375
1588210496792,2020-04-30T01:35:36.809718,16.582,97988.2109375
1588210496838,2020-04-30T01:35:36.830433,16.628,97988.046875
1588210496885,2020-04-30T01:35:36.881631,16.675,97988.953125
1588210496932,2020-04-30T01:35:36.912460,16.722,97989.28125
1588210496979,2020-04-30T01:35:36.942121,16.769,97989.953125
1588210497026,2020-04-30T01:35:36.979353,16.816,97989.046875
1588210497073,2020-04-30T01:35:37.024121,16.863,97989.453125
1588210497118,2020-04-30T01:35:37.054713,16.908,97989.28125
1588210497165,2020-04-30T01:35:37.084345,16.955,97988.546875
1588210497212,2020-04-30T01:35:37.107099,17.002,97990.125
1588210497259,2020-04-30T01:35:37.136480,17.049,97990.296875
1588210497306,2020-04-30T01:35:37.219006,17.096,97990.53125
1588210497353,2020-04-30T01:35:37.256348,17.143,97990.359375
1588210497399,2020-04-30T01:35:37.278946,17.189,97990.1875
1588210497446,2020-04-30T01:35:37.308840,17.236,97990.1875
1588210497493,2020-04-30T01:35:37.331466,17.283,97989.859375
1588210497540,2020-04-30T01:35:37.368863,17.33,97990.1875
1588210497587,2020-04-30T01:35:37.391449,17.377,97990.125
1588210497632,2020-04-30T01:35:37.413846,17.422,97990.125
1588210497679,2020-04-30T01:35:37.428974,17.469,97990.296875
1588210497726,2020-04-30T01:35:37.473868,17.516,97990.296875
1588210497773,2020-04-30T01:35:37.496478,17.563,97990.21875
1588210497820,2020-04-30T01:35:37.579029,17.61,97989.890625
1588210497867,2020-04-30T01:35:37.594171,17.657,97990.21875
1588210497914,2020-04-30T01:35:37.638928,17.704,97990.9609375
1588210497960,2020-04-30T01:35:37.654071,17.75,97990.796875
1588210498007,2020-04-30T01:35:37.683985,17.797,97990.21875
1588210498053,2020-04-30T01:35:37.714123,17.843,97990.0546875
1588210498100,2020-04-30T01:35:37.773879,17.89,97990.625
1588210498147,2020-04-30T01:35:37.788959,17.937,97990.6875
1588210498193,2020-04-30T01:35:37.848855,17.983,97990.0234375
1588210498240,2020-04-30T01:35:37.864172,18.03,97989.1875
1588210498287,2020-04-30T01:35:37.908947,18.077,97989.015625
1588210498334,2020-04-30T01:35:37.946675,18.124,97988.6875
1588210498379,2020-04-30T01:35:37.968912,18.169,97988.515625
1588210498426,2020-04-30T01:35:37.991573,18.216,97988.6875
1588210498473,2020-04-30T01:35:38.013917,18.263,97988.84375
1588210498520,2020-04-30T01:35:38.052108,18.31,97989.015625
1588210498567,2020-04-30T01:35:38.103973,18.357,97988.84375
1588210498614,2020-04-30T01:35:38.134442,18.404,97989.5625
1588210498661,2020-04-30T01:35:38.186755,18.451,97989.6875
1588210498708,2020-04-30T01:35:38.209124,18.498,97989.5234375
1588210498754,2020-04-30T01:35:38.231391,18.544,97989.3515625
1588210498801,2020-04-30T01:35:38.269088,18.591,97989.3515625
1588210498847,2020-04-30T01:35:38.298926,18.637,97989.015625
1588210498894,2020-04-30T01:35:38.336587,18.684,97989.015625
1588210498940,2020-04-30T01:35:38.373980,18.73,97988.28125
1588210498987,2020-04-30T01:35:38.411716,18.777,97988.28125
1588210499034,2020-04-30T01:35:38.441465,18.824,97987.4375
1588210499081,2020-04-30T01:35:38.495570,18.871,97987.4375
1588210499128,2020-04-30T01:35:38.524639,18.918,97987.609375
1588210499175,2020-04-30T01:35:38.539762,18.965,97987.28125
1588210499220,2020-04-30T01:35:38.591359,19.01,97988.1796875
1588210499267,2020-04-30T01:35:38.614012,19.057,97988.34375
1588210499314,2020-04-30T01:35:38.696349,19.104,97988.1796875
1588210499361,2020-04-30T01:35:38.741672,19.151,97988.015625
1588210499408,2020-04-30T01:35:38.794058,19.198,97987.6796875
1588210499455,2020-04-30T01:35:38.809326,19.245,97987.515625
1588210499501,2020-04-30T01:35:38.839059,19.291,97987.84375
1588210499548,2020-04-30T01:35:38.885308,19.338,97988.1796875
1588210499594,2020-04-30T01:35:38.959068,19.384,97988.34375
1588210499641,2020-04-30T01:35:38.974434,19.431,97988.6875
1588210499688,2020-04-30T01:35:39.026507,19.478,97988.109375
1588210499734,2020-04-30T01:35:39.041812,19.524,97989.0546875
1588210499781,2020-04-30T01:35:39.079073,19.571,97988.34375
1588210499828,2020-04-30T01:35:39.116840,19.618,97987.28125
1588210499875,2020-04-30T01:35:39.161537,19.665,97987.609375
1588210499922,2020-04-30T01:35:39.199647,19.712,97987.609375
1588210499967,2020-04-30T01:35:39.237570,19.757,97987.609375
1588210500014,2020-04-30T01:35:39.312427,19.804,97988.1796875
1588210500061,2020-04-30T01:35:39.356700,19.851,97988.515625
1588210500108,2020-04-30T01:35:39.379684,19.898,97988.6875
1588210500155,2020-04-30T01:35:39.440774,19.945,97988.84375
1588210500202,2020-04-30T01:35:39.492024,19.992,97988.84375
1588210500249,2020-04-30T01:35:39.521735,20.039,97988.71875
1588210500295,2020-04-30T01:35:39.596789,20.085,97988.546875
1588210500342,2020-04-30T01:35:39.649057,20.132,97988.71875
1588210500389,2020-04-30T01:35:39.671818,20.179,97988.71875
1588210500435,2020-04-30T01:35:39.724154,20.225,97988.015625
1588210500481,2020-04-30T01:35:39.784268,20.271,97988.890625
1588210500528,2020-04-30T01:35:39.799404,20.318,97988.390625
1588210500575,2020-04-30T01:35:39.896943,20.365,97988.015625
1588210500622,2020-04-30T01:35:39.912608,20.412,97989.1875
1588210500669,2020-04-30T01:35:39.964141,20.459,97989.015625
1588210500716,2020-04-30T01:35:40.002254,20.506,97988.6875
1588210500763,2020-04-30T01:35:40.055745,20.553,97988.546875
1588210500810,2020-04-30T01:35:40.092192,20.6,97988.546875
1588210500855,2020-04-30T01:35:40.151818,20.645,97989.125
1588210500902,2020-04-30T01:35:40.182621,20.692,97988.953125
1588210500949,2020-04-30T01:35:40.204915,20.739,97988.7890625
1588210500996,2020-04-30T01:35:40.249277,20.786,97988.21875
1588210501043,2020-04-30T01:35:40.309032,20.833,97988.890625
1588210501089,2020-04-30T01:35:40.392770,20.879,97988.890625
1588210501136,2020-04-30T01:35:40.414139,20.926,97988.71875
1588210501183,2020-04-30T01:35:40.445265,20.973,97989.0546875
1588210501229,2020-04-30T01:35:40.466654,21.019,97989.1875
1588210501275,2020-04-30T01:35:40.498282,21.065,97989.28125
1588210501322,2020-04-30T01:35:40.601940,21.112,97988.953125
1588210501369,2020-04-30T01:35:40.632513,21.159,97989.3515625
1588210501416,2020-04-30T01:35:40.661541,21.206,97988.84375
1588210501463,2020-04-30T01:35:40.679455,21.253,97988.6875
1588210501510,2020-04-30T01:35:40.706540,21.3,97988.609375
1588210501557,2020-04-30T01:35:40.721802,21.347,97988.515625
1588210501602,2020-04-30T01:35:40.766569,21.392,97988.015625
1588210501650,2020-04-30T01:35:40.781803,21.44,97987.2109375
1588210501697,2020-04-30T01:35:40.811507,21.487,97986.671875
1588210501743,2020-04-30T01:35:40.826801,21.533,97986.84375
1588210501790,2020-04-30T01:35:40.856662,21.58,97987.015625
1588210501836,2020-04-30T01:35:40.894541,21.626,97987.015625
1588210501883,2020-04-30T01:35:40.924277,21.673,97987.171875
1588210501930,2020-04-30T01:35:40.943565,21.72,97987.015625
1588210501977,2020-04-30T01:35:40.969083,21.767,97987.171875
1588210502024,2020-04-30T01:35:40.984360,21.814,97987.28125
1588210502071,2020-04-30T01:35:41.021527,21.861,97986.9375
1588210502116,2020-04-30T01:35:41.052471,21.906,97987.28125
1588210502163,2020-04-30T01:35:41.074199,21.953,97987.4375
1588210502210,2020-04-30T01:35:41.104921,22.0,97988.015625
1588210502257,2020-04-30T01:35:41.126659,22.047,97986.671875
1588210502304,2020-04-30T01:35:41.149812,22.094,97986.875
1588210502351,2020-04-30T01:35:41.194043,22.141,97987.2109375
1588210502397,2020-04-30T01:35:41.216832,22.187,97987.546875
1588210502444,2020-04-30T01:35:41.239211,22.234,97987.546875
1588210502490,2020-04-30T01:35:41.262187,22.28,97988.046875
1588210502537,2020-04-30T01:35:41.284233,22.327,97987.515625
1588210502584,2020-04-30T01:35:41.337296,22.374,97988.046875
1588210502630,2020-04-30T01:35:41.358969,22.42,97987.34375
1588210502677,2020-04-30T01:35:41.381497,22.467,97988.046875
1588210502724,2020-04-30T01:35:41.403882,22.514,97988.21875
1588210502771,2020-04-30T01:35:41.426499,22.561,97988.1796875
1588210502818,2020-04-30T01:35:41.448877,22.608,97988.6875
1588210502865,2020-04-30T01:35:41.486482,22.655,97988.1796875
1588210502912,2020-04-30T01:35:41.508872,22.702,97988.015625
1588210502957,2020-04-30T01:35:41.524029,22.747,97987.6796875
1588210503004,2020-04-30T01:35:41.553882,22.794,97987.84375
1588210503051,2020-04-30T01:35:41.568998,22.841,97987.84375
1588210503098,2020-04-30T01:35:41.628887,22.888,97987.6796875
1588210503145,2020-04-30T01:35:41.643989,22.935,97988.015625
1588210503191,2020-04-30T01:35:41.673874,22.981,97988.1796875
1588210503238,2020-04-30T01:35:41.689197,23.028,97987.515625
1588210503285,2020-04-30T01:35:41.719148,23.075,97988.046875
1588210503331,2020-04-30T01:35:41.741965,23.121,97987.84375
1588210503377,2020-04-30T01:35:41.794257,23.167,97988.015625
1588210503424,2020-04-30T01:35:41.809352,23.214,97988.546875
1588210503471,2020-04-30T01:35:41.838938,23.261,97988.390625
1588210503518,2020-04-30T01:35:41.854138,23.308,97988.546875
1588210503565,2020-04-30T01:35:41.883954,23.355,97989.0546875
1588210503612,2020-04-30T01:35:41.921707,23.402,97989.0546875
1588210503659,2020-04-30T01:35:41.951478,23.449,97988.515625
1588210503704,2020-04-30T01:35:41.966749,23.494,97988.84375
1588210503751,2020-04-30T01:35:41.989021,23.541,97989.21875
1588210503798,2020-04-30T01:35:42.011711,23.588,97988.84375
1588210503845,2020-04-30T01:35:42.048995,23.635,97988.6875
1588210503892,2020-04-30T01:35:42.071702,23.682,97989.015625
1588210503939,2020-04-30T01:35:42.093992,23.729,97989.5234375
1588210503985,2020-04-30T01:35:42.116690,23.775,97989.015625
1588210504032,2020-04-30T01:35:42.139059,23.822,97988.71875
1588210504079,2020-04-30T01:35:42.184022,23.869,97988.390625
1588210504125,2020-04-30T01:35:42.229280,23.915,97988.21875
1588210504171,2020-04-30T01:35:42.266607,23.961,97988.1796875
1588210504218,2020-04-30T01:35:42.281918,24.008,97988.1796875
1588210504265,2020-04-30T01:35:42.311547,24.055,97987.78125
1588210504312,2020-04-30T01:35:42.334039,24.102,97988.515625
1588210504359,2020-04-30T01:35:42.393901,24.149,97988.015625
1588210504406,2020-04-30T01:35:42.408997,24.196,97988.21875
1588210504453,2020-04-30T01:35:42.431388,24.243,97987.515625
1588210504498,2020-04-30T01:35:42.461516,24.288,97987.171875
1588210504545,2020-04-30T01:35:42.498966,24.335,97986.671875
1588210504592,2020-04-30T01:35:42.544067,24.382,97986.671875
1588210504639,2020-04-30T01:35:42.581534,24.429,97987.015625
1588210504686,2020-04-30T01:35:42.611767,24.476,97987.28125
1588210504732,2020-04-30T01:35:42.641412,24.522,97987.34375
1588210504779,2020-04-30T01:35:42.671539,24.569,97986.84375
1588210504826,2020-04-30T01:35:42.693897,24.616,97987.546875
1588210504872,2020-04-30T01:35:42.731534,24.662,97987.71875
1588210504918,2020-04-30T01:35:42.768919,24.708,97987.71875
1588210504965,2020-04-30T01:35:42.806537,24.755,97988.390625
1588210505012,2020-04-30T01:35:42.828895,24.802,97987.515625
1588210505059,2020-04-30T01:35:42.858979,24.849,97987.34375
1588210505106,2020-04-30T01:35:42.888907,24.896,97987.84375
1588210505153,2020-04-30T01:35:42.949347,24.943,97987.84375
1588210505200,2020-04-30T01:35:42.971460,24.99,97987.8828125
1588210505245,2020-04-30T01:35:42.986503,25.035,97987.8828125
1588210505292,2020-04-30T01:35:43.023997,25.082,97988.046875
1588210505339,2020-04-30T01:35:43.046858,25.129,97987.8828125
1588210505386,2020-04-30T01:35:43.099002,25.176,97987.546875
1588210505433,2020-04-30T01:35:43.114360,25.223,97988.21875
1588210505480,2020-04-30T01:35:43.151629,25.27,97988.390625
1588210505526,2020-04-30T01:35:43.174665,25.316,97988.015625
1588210505573,2020-04-30T01:35:43.226535,25.363,97988.21875
1588210505619,2020-04-30T01:35:43.256719,25.409,97988.046875
1588210505666,2020-04-30T01:35:43.286539,25.456,97988.453125
1588210505712,2020-04-30T01:35:43.302748,25.502,97987.953125
1588210505759,2020-04-30T01:35:43.354215,25.549,97987.71875
1588210505806,2020-04-30T01:35:43.369447,25.596,97987.8828125
1588210505853,2020-04-30T01:35:43.399162,25.643,97988.6171875
1588210505900,2020-04-30T01:35:43.444358,25.69,97988.390625
1588210505947,2020-04-30T01:35:43.481551,25.737,97988.015625
1588210505992,2020-04-30T01:35:43.504358,25.782,97987.6796875
1588210506039,2020-04-30T01:35:43.526566,25.829,97988.34375
1588210506086,2020-04-30T01:35:43.549332,25.876,97988.34375
1588210506133,2020-04-30T01:35:43.594033,25.923,97988.546875
1588210506180,2020-04-30T01:35:43.624337,25.97,97988.21875
1588210506227,2020-04-30T01:35:43.661547,26.017,97988.453125
1588210506273,2020-04-30T01:35:43.684869,26.063,97988.046875
1588210506320,2020-04-30T01:35:43.706699,26.11,97988.21875
1588210506366,2020-04-30T01:35:43.729671,26.156,97988.390625
1588210506413,2020-04-30T01:35:43.781756,26.203,97989.2890625
1588210506460,2020-04-30T01:35:43.804634,26.25,97989.21875
1588210506506,2020-04-30T01:35:43.826721,26.296,97989.453125
1588210506553,2020-04-30T01:35:43.850045,26.343,97989.2890625
1588210506600,2020-04-30T01:35:43.879473,26.39,97988.390625
1588210506647,2020-04-30T01:35:43.931843,26.437,97987.78125
1588210506694,2020-04-30T01:35:43.954061,26.484,97988.109375
1588210506741,2020-04-30T01:35:43.969362,26.531,97988.28125
1588210506786,2020-04-30T01:35:44.006549,26.576,97988.6171875
1588210506833,2020-04-30T01:35:44.029366,26.623,97989.453125
1588210506880,2020-04-30T01:35:44.081544,26.67,97989.5625
1588210506927,2020-04-30T01:35:44.096805,26.717,97989.71875
1588210506974,2020-04-30T01:35:44.126553,26.764,97989.890625
1588210507021,2020-04-30T01:35:44.149313,26.811,97988.84375
1588210507067,2020-04-30T01:35:44.186541,26.857,97988.6875
1588210507114,2020-04-30T01:35:44.201825,26.904,97988.34375
1588210507160,2020-04-30T01:35:44.246702,26.95,97988.21875
1588210507207,2020-04-30T01:35:44.261810,26.997,97988.21875
1588210507253,2020-04-30T01:35:44.299040,27.043,97988.71875
1588210507300,2020-04-30T01:35:44.314364,27.09,97988.84375
1588210507347,2020-04-30T01:35:44.344761,27.137,97989.890625
1588210507394,2020-04-30T01:35:44.374354,27.184,97989.5234375
1588210507441,2020-04-30T01:35:44.404073,27.231,97989.890625
1588210507488,2020-04-30T01:35:44.419315,27.278,97989.390625
1588210507533,2020-04-30T01:35:44.441560,27.323,97989.390625
1588210507580,2020-04-30T01:35:44.464326,27.37,97989.0546875
1588210507627,2020-04-30T01:35:44.501832,27.417,97989.953125
1588210507674,2020-04-30T01:35:44.546581,27.464,97990.125
1588210507721,2020-04-30T01:35:44.561810,27.511,97990.4609375
1588210507768,2020-04-30T01:35:44.599246,27.558,97990.296875
1588210507814,2020-04-30T01:35:44.614795,27.604,97990.125
1588210507861,2020-04-30T01:35:44.644237,27.651,97989.1875
1588210507907,2020-04-30T01:35:44.674565,27.697,97988.953125
1588210507954,2020-04-30T01:35:44.704688,27.744,97989.28125
1588210508001,2020-04-30T01:35:44.719803,27.791,97989.453125
1588210508047,2020-04-30T01:35:44.749230,27.837,97989.7890625
1588210508094,2020-04-30T01:35:44.764612,27.884,97989.7890625
1588210508141,2020-04-30T01:35:44.809213,27.931,97989.859375
1588210508188,2020-04-30T01:35:44.824636,27.978,97989.5625
1588210508235,2020-04-30T01:35:44.854388,28.025,97989.71875
1588210508280,2020-04-30T01:35:44.877122,28.07,97990.0625
1588210508327,2020-04-30T01:35:44.906729,28.117,97990.2265625
1588210508374,2020-04-30T01:35:44.929541,28.164,97990.390625
1588210508421,2020-04-30T01:35:44.967053,28.211,97991.296875
1588210508468,2020-04-30T01:35:44.993290,28.258,97991.0625
1588210508515,2020-04-30T01:35:45.011821,28.305,97991.234375
1588210508562,2020-04-30T01:35:45.042214,28.352,97991.0625
1588210508608,2020-04-30T01:35:45.064463,28.398,97990.7265625
1588210508655,2020-04-30T01:35:45.101973,28.445,97990.1875
1588210508702,2020-04-30T01:35:45.124087,28.492,97990.8984375
1588210508748,2020-04-30T01:35:45.146851,28.538,97990.859375
1588210508794,2020-04-30T01:35:45.169075,28.584,97990.359375
1588210508841,2020-04-30T01:35:45.192129,28.631,97989.453125
1588210508888,2020-04-30T01:35:45.214105,28.678,97989.28125
1588210508935,2020-04-30T01:35:45.266867,28.725,97990.0234375
1588210508982,2020-04-30T01:35:45.289077,28.772,97990.1875
1588210509029,2020-04-30T01:35:45.304369,28.819,97989.859375
1588210509076,2020-04-30T01:35:45.334064,28.866,97989.1875
1588210509123,2020-04-30T01:35:45.349344,28.913,97990.2265625
1588210509168,2020-04-30T01:35:45.394241,28.958,97989.71875
1588210509215,2020-04-30T01:35:45.417505,29.005,97989.890625
1588210509262,2020-04-30T01:35:45.446582,29.052,97990.0625
1588210509309,2020-04-30T01:35:45.461912,29.099,97990.0625
1588210509355,2020-04-30T01:35:45.491588,29.145,97989.5625
1588210509402,2020-04-30T01:35:45.537110,29.192,97989.390625
1588210509449,2020-04-30T01:35:45.573922,29.239,97988.6875
1588210509496,2020-04-30T01:35:45.589040,29.286,97988.84375
1588210509542,2020-04-30T01:35:45.618921,29.332,97989.3515625
1588210509588,2020-04-30T01:35:45.634046,29.378,97989.1875
1588210509635,2020-04-30T01:35:45.663926,29.425,97989.015625
1588210509682,2020-04-30T01:35:45.694064,29.472,97988.84375
1588210509729,2020-04-30T01:35:45.723930,29.519,97988.84375
1588210509776,2020-04-30T01:35:45.739037,29.566,97988.6875
1588210509823,2020-04-30T01:35:45.761409,29.613,97988.6875
1588210509870,2020-04-30T01:35:45.784055,29.66,97989.3515625
1588210509917,2020-04-30T01:35:45.821435,29.707,97989.1875
1588210509962,2020-04-30T01:35:45.844064,29.752,97989.71875
1588210510009,2020-04-30T01:35:45.866435,29.799,97989.015625
1588210510056,2020-04-30T01:35:45.889036,29.846,97988.6875
1588210510103,2020-04-30T01:35:45.911421,29.893,97989.1875
1588210510149,2020-04-30T01:35:45.934131,29.939,97989.0546875
1588210510196,2020-04-30T01:35:45.971463,29.986,97989.21875
1588210510243,2020-04-30T01:35:45.994056,30.033,97989.015625
1588210510290,2020-04-30T01:35:46.016417,30.08,97989.015625
1588210510335,2020-04-30T01:35:46.039033,30.125,97988.6875
1588210510382,2020-04-30T01:35:46.061435,30.172,97987.78125
1588210510429,2020-04-30T01:35:46.099061,30.219,97987.4375
1588210510476,2020-04-30T01:35:46.121428,30.266,97987.28125
1588210510523,2020-04-30T01:35:46.136557,30.313,97987.4375
1588210510570,2020-04-30T01:35:46.173939,30.36,97987.609375
1588210510617,2020-04-30T01:35:46.189050,30.407,97987.609375
1588210510664,2020-04-30T01:35:46.234389,30.454,97988.390625
1588210510709,2020-04-30T01:35:46.249613,30.499,97988.1796875
1588210510756,2020-04-30T01:35:46.279060,30.546,97987.515625
1588210510803,2020-04-30T01:35:46.294360,30.593,97987.6796875
1588210510850,2020-04-30T01:35:46.331499,30.64,97987.171875
1588210510897,2020-04-30T01:35:46.346638,30.687,97987.515625
1588210510943,2020-04-30T01:35:46.391589,30.733,97988.015625
1588210510990,2020-04-30T01:35:46.406953,30.78,97988.6875
1588210511037,2020-04-30T01:35:46.436872,30.827,97988.6875
1588210511084,2020-04-30T01:35:46.452161,30.874,97988.1796875
1588210511131,2020-04-30T01:35:46.481523,30.921,97988.015625
1588210511176,2020-04-30T01:35:46.541524,30.966,97988.1796875
1588210511223,2020-04-30T01:35:46.571998,31.013,97987.84375
1588210511270,2020-04-30T01:35:46.601905,31.06,97988.515625
1588210511317,2020-04-30T01:35:46.617189,31.107,97988.34375
1588210511364,2020-04-30T01:35:46.661477,31.154,97988.109375
1588210511411,2020-04-30T01:35:46.676715,31.201,97987.609375
1588210511458,2020-04-30T01:35:46.721485,31.248,97988.546875
1588210511504,2020-04-30T01:35:46.737040,31.294,97988.390625
1588210511550,2020-04-30T01:35:46.774486,31.34,97988.21875
1588210511597,2020-04-30T01:35:46.789988,31.387,97988.21875
1588210511644,2020-04-30T01:35:46.819275,31.434,97987.84375
1588210511690,2020-04-30T01:35:46.849307,31.48,97988.34375
1588210511737,2020-04-30T01:35:46.878995,31.527,97988.6875
1588210511784,2020-04-30T01:35:46.894130,31.574,97988.84375
1588210511831,2020-04-30T01:35:46.923928,31.621,97989.015625
1588210511878,2020-04-30T01:35:46.946553,31.668,97988.34375
1588210511925,2020-04-30T01:35:46.998919,31.715,97987.78125
1588210511970,2020-04-30T01:35:47.014079,31.76,97987.84375
1588210512017,2020-04-30T01:35:47.043946,31.807,97987.84375
1588210512064,2020-04-30T01:35:47.059050,31.854,97987.6796875
1588210512111,2020-04-30T01:35:47.081436,31.901,97987.6796875
1588210512158,2020-04-30T01:35:47.104051,31.948,97987.6796875
1588210512205,2020-04-30T01:35:47.156432,31.995,97987.8828125
1588210512251,2020-04-30T01:35:47.179052,32.041,97987.171875
1588210512298,2020-04-30T01:35:47.201416,32.088,97987.015625
1588210512345,2020-04-30T01:35:47.224064,32.135,97986.7734375
1588210512391,2020-04-30T01:35:47.253979,32.181,97986.9375
1588210512438,2020-04-30T01:35:47.291561,32.228,97986.203125
1588210512484,2020-04-30T01:35:47.321440,32.274,97986.375
1588210512531,2020-04-30T01:35:47.344096,32.321,97986.203125
1588210512578,2020-04-30T01:35:47.366519,32.368,97986.609375
1588210512625,2020-04-30T01:35:47.389061,32.415,97987.015625
1588210512672,2020-04-30T01:35:47.411419,32.462,97987.015625
1588210512719,2020-04-30T01:35:47.449053,32.509,97987.171875
1588210512764,2020-04-30T01:35:47.471487,32.554,97987.515625
1588210512811,2020-04-30T01:35:47.486581,32.601,97987.8828125
1588210512858,2020-04-30T01:35:47.523937,32.648,97987.71875
1588210512905,2020-04-30T01:35:47.539289,32.695,97988.046875
1588210512952,2020-04-30T01:35:47.584173,32.742,97988.015625
1588210512999,2020-04-30T01:35:47.599489,32.789,97988.34375
1588210513045,2020-04-30T01:35:47.636785,32.835,97988.84375
1588210513092,2020-04-30T01:35:47.659925,32.882,97988.6875
1588210513139,2020-04-30T01:35:47.696502,32.929,97987.9453125
1588210513186,2020-04-30T01:35:47.726689,32.976,97987.78125
1588210513233,2020-04-30T01:35:47.756535,33.023,97988.015625
1588210513278,2020-04-30T01:35:47.771774,33.068,97988.28125
1588210513325,2020-04-30T01:35:47.801532,33.115,97988.6875
1588210513372,2020-04-30T01:35:47.816795,33.162,97988.6875
1588210513419,2020-04-30T01:35:47.846592,33.209,97988.515625
1588210513466,2020-04-30T01:35:47.884370,33.256,97988.84375
1588210513513,2020-04-30T01:35:47.914111,33.303,97989.015625
1588210513560,2020-04-30T01:35:47.936875,33.35,97988.84375
1588210513606,2020-04-30T01:35:47.974090,33.396,97989.0546875
1588210513652,2020-04-30T01:35:47.996766,33.442,97988.515625
1588210513699,2020-04-30T01:35:48.034036,33.489,97989.21875
1588210513746,2020-04-30T01:35:48.056984,33.536,97988.515625
1588210513793,2020-04-30T01:35:48.079094,33.583,97988.34375
1588210513839,2020-04-30T01:35:48.101868,33.629,97988.6875
1588210513886,2020-04-30T01:35:48.124090,33.676,97988.6875
1588210513933,2020-04-30T01:35:48.146853,33.723,97988.515625
1588210513980,2020-04-30T01:35:48.191541,33.77,97988.1796875
1588210514025,2020-04-30T01:35:48.214262,33.815,97988.1796875
1588210514072,2020-04-30T01:35:48.251557,33.862,97988.515625
1588210514119,2020-04-30T01:35:48.274282,33.909,97988.109375
1588210514166,2020-04-30T01:35:48.296544,33.956,97987.609375
1588210514213,2020-04-30T01:35:48.341773,34.003,97987.4375
1588210514260,2020-04-30T01:35:48.371571,34.05,97986.4375
1588210514307,2020-04-30T01:35:48.401744,34.097,97986.3359375
1588210514354,2020-04-30T01:35:48.424069,34.144,97985.8359375
1588210514399,2020-04-30T01:35:48.446757,34.189,97985.8359375
1588210514446,2020-04-30T01:35:48.491533,34.236,97986.3359375
1588210514493,2020-04-30T01:35:48.506798,34.283,97986.84375
1588210514540,2020-04-30T01:35:48.536535,34.33,97986.703125
1588210514586,2020-04-30T01:35:48.551780,34.376,97987.375
1588210514633,2020-04-30T01:35:48.581550,34.423,97987.546875
1588210514680,2020-04-30T01:35:48.604263,34.47,97987.7109375
1588210514727,2020-04-30T01:35:48.656631,34.517,97987.375
1588210514774,2020-04-30T01:35:48.694038,34.564,97987.375
1588210514821,2020-04-30T01:35:48.716748,34.611,97987.546875
1588210514866,2020-04-30T01:35:48.739055,34.656,97988.609375
1588210514913,2020-04-30T01:35:48.762009,34.703,97988.609375
1588210514960,2020-04-30T01:35:48.799178,34.75,97988.78125
1588210515007,2020-04-30T01:35:48.822682,34.797,97988.78125
1588210515054,2020-04-30T01:35:48.851692,34.844,97989.1875
1588210515101,2020-04-30T01:35:48.874624,34.891,97989.5625
1588210515147,2020-04-30T01:35:48.896576,34.937,97989.3515625
1588210515194,2020-04-30T01:35:48.912168,34.984,97989.890625
1588210515241,2020-04-30T01:35:48.956684,35.031,97990.0625
1588210515287,2020-04-30T01:35:48.972016,35.077,97988.84375
1588210515334,2020-04-30T01:35:49.009087,35.124,97988.515625
1588210515380,2020-04-30T01:35:49.024406,35.17,97988.1796875
1588210515427,2020-04-30T01:35:49.054096,35.217,97987.609375
1588210515474,2020-04-30T01:35:49.091859,35.264,97988.015625
1588210515521,2020-04-30T01:35:49.121590,35.311,97987.84375
1588210515568,2020-04-30T01:35:49.136875,35.358,97988.015625
1588210515615,2020-04-30T01:35:49.181588,35.405,97989.21875
1588210515662,2020-04-30T01:35:49.197233,35.452,97989.21875
1588210515709,2020-04-30T01:35:49.241783,35.499,97989.390625
1588210515755,2020-04-30T01:35:49.257387,35.545,97989.390625
1588210515802,2020-04-30T01:35:49.294268,35.592,97989.390625
1588210515849,2020-04-30T01:35:49.309953,35.639,97989.390625
1588210515895,2020-04-30T01:35:49.331580,35.685,97989.015625
1588210515941,2020-04-30T01:35:49.361878,35.731,97988.34375
1588210515988,2020-04-30T01:35:49.399117,35.778,97988.515625
1588210516035,2020-04-30T01:35:49.421907,35.825,97988.015625
1588210516082,2020-04-30T01:35:49.444138,35.872,97987.515625
1588210516129,2020-04-30T01:35:49.466953,35.919,97987.109375
1588210516176,2020-04-30T01:35:49.489098,35.966,97986.9375
1588210516223,2020-04-30T01:35:49.526864,36.013,97987.109375
1588210516270,2020-04-30T01:35:49.549110,36.06,97987.78125
1588210516315,2020-04-30T01:35:49.571998,36.105,97988.109375
1588210516362,2020-04-30T01:35:49.601596,36.152,97988.84375
1588210516409,2020-04-30T01:35:49.639382,36.199,97988.609375
1588210516456,2020-04-30T01:35:49.661650,36.246,97989.3515625
1588210516502,2020-04-30T01:35:49.699364,36.292,97988.84375
1588210516549,2020-04-30T01:35:49.729119,36.339,97988.890625
1588210516596,2020-04-30T01:35:49.759703,36.386,97988.71875
1588210516643,2020-04-30T01:35:49.781778,36.433,97988.390625
1588210516689,2020-04-30T01:35:49.797301,36.479,97988.21875
1588210516735,2020-04-30T01:35:49.841887,36.525,97987.515625
1588210516782,2020-04-30T01:35:49.857397,36.572,97987.34375
1588210516829,2020-04-30T01:35:49.886780,36.619,97987.34375
1588210516876,2020-04-30T01:35:49.917358,36.666,97987.84375
1588210516923,2020-04-30T01:35:49.947766,36.713,97987.6796875
1588210516970,2020-04-30T01:35:49.984656,36.76,97987.8828125
1588210517017,2020-04-30T01:35:50.014124,36.807,97987.8828125
1588210517062,2020-04-30T01:35:50.029389,36.852,97988.046875
1588210517109,2020-04-30T01:35:50.059114,36.899,97988.046875
1588210517156,2020-04-30T01:35:50.074412,36.946,97987.6796875
1588210517203,2020-04-30T01:35:50.104099,36.993,97988.390625
1588210517250,2020-04-30T01:35:50.141876,37.04,97988.34375
1588210517296,2020-04-30T01:35:50.179115,37.086,97988.71875
1588210517343,2020-04-30T01:35:50.194404,37.133,97989.2890625
1588210517390,2020-04-30T01:35:50.231607,37.18,97988.7890625
1588210517437,2020-04-30T01:35:50.247004,37.227,97988.6171875
1588210517482,2020-04-30T01:35:50.284145,37.272,97988.546875
1588210517529,2020-04-30T01:35:50.306893,37.319,97988.21875
1588210517576,2020-04-30T01:35:50.329106,37.366,97987.8828125
1588210517623,2020-04-30T01:35:50.351923,37.413,97987.34375
1588210517670,2020-04-30T01:35:50.374134,37.46,97988.046875
1588210517717,2020-04-30T01:35:50.404656,37.507,97988.546875
1588210517764,2020-04-30T01:35:50.456767,37.554,97988.546875
1588210517811,2020-04-30T01:35:50.494533,37.601,97988.390625
1588210517856,2020-04-30T01:35:50.516818,37.646,97988.390625
1588210517903,2020-04-30T01:35:50.539712,37.693,97988.6171875
1588210517950,2020-04-30T01:35:50.569285,37.74,97988.890625
1588210517997,2020-04-30T01:35:50.606995,37.787,97988.890625
1588210518043,2020-04-30T01:35:50.629095,37.833,97988.6875
1588210518090,2020-04-30T01:35:50.651899,37.88,97989.390625
1588210518137,2020-04-30T01:35:50.681663,37.927,97989.21875
1588210518184,2020-04-30T01:35:50.704423,37.974,97988.890625
1588210518230,2020-04-30T01:35:50.749312,38.02,97988.890625
1588210518276,2020-04-30T01:35:50.764480,38.066,97988.546875
1588210518323,2020-04-30T01:35:50.816960,38.113,97988.34375
1588210518370,2020-04-30T01:35:50.854121,38.16,97988.1796875
1588210518417,2020-04-30T01:35:50.876862,38.207,97988.015625
1588210518464,2020-04-30T01:35:50.899049,38.254,97988.1796875
1588210518511,2020-04-30T01:35:50.936785,38.301,97988.015625
1588210518558,2020-04-30T01:35:50.959051,38.348,97987.6796875
1588210518605,2020-04-30T01:35:50.981878,38.395,97987.6796875
1588210518650,2020-04-30T01:35:51.004145,38.44,97987.515625
1588210518697,2020-04-30T01:35:51.026913,38.487,97988.046875
1588210518744,2020-04-30T01:35:51.064106,38.534,97987.71875
1588210518791,2020-04-30T01:35:51.101865,38.581,97987.6796875
1588210518837,2020-04-30T01:35:51.124108,38.627,97987.34375
1588210518884,2020-04-30T01:35:51.146835,38.674,97987.84375
1588210518931,2020-04-30T01:35:51.169144,38.721,97988.28125
1588210518978,2020-04-30T01:35:51.184415,38.768,97988.6875
1588210519023,2020-04-30T01:35:51.236764,38.813,97988.6875
1588210519070,2020-04-30T01:35:51.252155,38.86,97988.953125
1588210519117,2020-04-30T01:35:51.281605,38.907,97988.953125
1588210519164,2020-04-30T01:35:51.297205,38.954,97988.28125
1588210519211,2020-04-30T01:35:51.326739,39.001,97988.109375
1588210519258,2020-04-30T01:35:51.357162,39.048,97987.78125
1588210519305,2020-04-30T01:35:51.394182,39.095,97987.6796875
1588210519352,2020-04-30T01:35:51.409102,39.142,97987.34375
1588210519398,2020-04-30T01:35:51.438957,39.188,97986.9375
1588210519445,2020-04-30T01:35:51.454073,39.235,97987.28125
1588210519491,2020-04-30T01:35:51.498957,39.281,97987.28125
1588210519538,2020-04-30T01:35:51.514059,39.328,97987.28125
1588210519585,2020-04-30T01:35:51.551468,39.375,97987.4375
1588210519631,2020-04-30T01:35:51.566634,39.421,97987.609375
1588210519678,2020-04-30T01:35:51.596477,39.468,97987.609375
1588210519725,2020-04-30T01:35:51.611610,39.515,97988.34375
1588210519772,2020-04-30T01:35:51.648980,39.562,97988.109375
1588210519819,2020-04-30T01:35:51.679070,39.609,97987.9453125
1588210519864,2020-04-30T01:35:51.708998,39.654,97987.84375
1588210519911,2020-04-30T01:35:51.731846,39.701,97987.28125
1588210519958,2020-04-30T01:35:51.754087,39.748,97988.015625
1588210520005,2020-04-30T01:35:51.791641,39.795,97988.6875
1588210520052,2020-04-30T01:35:51.813972,39.842,97988.6875
1588210520099,2020-04-30T01:35:51.836619,39.889,97989.3515625
1588210520146,2020-04-30T01:35:51.858963,39.936,97989.1875
1588210520192,2020-04-30T01:35:51.881571,39.982,97989.015625
1588210520238,2020-04-30T01:35:51.911600,40.028,97988.84375
1588210520285,2020-04-30T01:35:51.964135,40.075,97988.84375
1588210520332,2020-04-30T01:35:51.986495,40.122,97988.78125
1588210520378,2020-04-30T01:35:52.009070,40.168,97989.5234375
1588210520425,2020-04-30T01:35:52.031617,40.215,97988.953125
1588210520472,2020-04-30T01:35:52.054485,40.262,97989.5234375
1588210520519,2020-04-30T01:35:52.099426,40.309,97989.6171875
1588210520566,2020-04-30T01:35:52.123543,40.356,97989.6171875
1588210520613,2020-04-30T01:35:52.159210,40.403,97989.453125
1588210520660,2020-04-30T01:35:52.174573,40.45,97989.953125
1588210520705,2020-04-30T01:35:52.211780,40.495,97989.453125
1588210520752,2020-04-30T01:35:52.242211,40.542,97989.5234375
1588210520799,2020-04-30T01:35:52.271617,40.589,97989.3515625
1588210520846,2020-04-30T01:35:52.286947,40.636,97989.3515625
1588210520893,2020-04-30T01:35:52.316660,40.683,97988.6875
1588210520939,2020-04-30T01:35:52.339402,40.729,97988.890625
1588210520986,2020-04-30T01:35:52.376626,40.776,97989.0546875
1588210521033,2020-04-30T01:35:52.407078,40.823,97988.6875
1588210521079,2020-04-30T01:35:52.444206,40.869,97988.71875
1588210521126,2020-04-30T01:35:52.459398,40.916,97988.546875
1588210521172,2020-04-30T01:35:52.496668,40.962,97988.390625
1588210521219,2020-04-30T01:35:52.511878,41.009,97987.78125
1588210521266,2020-04-30T01:35:52.549108,41.056,97988.84375
1588210521313,2020-04-30T01:35:52.579402,41.103,97988.78125
1588210521360,2020-04-30T01:35:52.609113,41.15,97988.78125
1588210521407,2020-04-30T01:35:52.631980,41.197,97988.609375
1588210521454,2020-04-30T01:35:52.654119,41.244,97988.28125
1588210521499,2020-04-30T01:35:52.676883,41.289,97988.109375
1588210521546,2020-04-30T01:35:52.714123,41.336,97988.34375
1588210521593,2020-04-30T01:35:52.736892,41.383,97989.015625
1588210521640,2020-04-30T01:35:52.759146,41.43,97988.890625
1588210521687,2020-04-30T01:35:52.789364,41.477,97988.390625
1588210521733,2020-04-30T01:35:52.811605,41.523,97988.015625
1588210521780,2020-04-30T01:35:52.849374,41.57,97987.6796875
1588210521827,2020-04-30T01:35:52.879140,41.617,97986.9375
1588210521874,2020-04-30T01:35:52.901859,41.664,97987.015625
1588210521921,2020-04-30T01:35:52.939429,41.711,97987.34375
1588210521966,2020-04-30T01:35:52.969156,41.756,97987.515625
1588210522013,2020-04-30T01:35:52.999383,41.803,97987.4375
1588210522060,2020-04-30T01:35:53.029193,41.85,97987.109375
1588210522107,2020-04-30T01:35:53.052156,41.897,97988.015625
1588210522154,2020-04-30T01:35:53.074257,41.944,97987.4375
1588210522201,2020-04-30T01:35:53.096986,41.991,97986.7734375
1588210522248,2020-04-30T01:35:53.119128,42.038,97986.84375
1588210522294,2020-04-30T01:35:53.157077,42.084,97985.9375
1588210522341,2020-04-30T01:35:53.186680,42.131,97985.59375
1588210522388,2020-04-30T01:35:53.209444,42.178,97985.265625
1588210522435,2020-04-30T01:35:53.231649,42.225,97985.09375
1588210522480,2020-04-30T01:35:53.254435,42.27,97984.828125
1588210522527,2020-04-30T01:35:53.291655,42.317,97983.765625
1588210522574,2020-04-30T01:35:53.329408,42.364,97983.65625
1588210522621,2020-04-30T01:35:53.351632,42.411,97983.15625
1588210522668,2020-04-30T01:35:53.374449,42.458,97982.65625
1588210522715,2020-04-30T01:35:53.396641,42.505,97982.15625
1588210522762,2020-04-30T01:35:53.419433,42.552,97981.75
1588210522809,2020-04-30T01:35:53.479193,42.599,97981.015625
1588210522855,2020-04-30T01:35:53.494421,42.645,97980.84375
1588210522902,2020-04-30T01:35:53.524134,42.692,97981.015625
1588210522948,2020-04-30T01:35:53.539438,42.738,97981.25
1588210522995,2020-04-30T01:35:53.569170,42.785,97980.90625
1588210523042,2020-04-30T01:35:53.599406,42.832,97980.578125
1588210523088,2020-04-30T01:35:53.629133,42.878,97980.40625
1588210523135,2020-04-30T01:35:53.652473,42.925,97980.40625
1588210523182,2020-04-30T01:35:53.681760,42.972,97980.2421875
1588210523229,2020-04-30T01:35:53.697214,43.019,97980.640625
1588210523276,2020-04-30T01:35:53.742159,43.066,97980.6796875
1588210523321,2020-04-30T01:35:53.757750,43.111,97980.515625
1588210523368,2020-04-30T01:35:53.786501,43.158,97980.3125
1588210523415,2020-04-30T01:35:53.801621,43.205,97979.8046875
1588210523462,2020-04-30T01:35:53.831491,43.252,97979.640625
1588210523509,2020-04-30T01:35:53.846601,43.299,97978.734375
1588210523556,2020-04-30T01:35:53.883969,43.346,97978.734375
1588210523603,2020-04-30T01:35:53.906823,43.393,97978.90625
1588210523649,2020-04-30T01:35:53.937062,43.439,97978.3359375
1588210523695,2020-04-30T01:35:53.959809,43.485,97978.734375
1588210523742,2020-04-30T01:35:53.981760,43.532,97978.734375
1588210523789,2020-04-30T01:35:54.026936,43.579,97979.078125
1588210523835,2020-04-30T01:35:54.049352,43.625,97979.578125
1588210523882,2020-04-30T01:35:54.072212,43.672,97979.8046875
1588210523929,2020-04-30T01:35:54.094637,43.719,97979.46875
1588210523976,2020-04-30T01:35:54.125465,43.766,97978.96875
1588210524023,2020-04-30T01:35:54.147012,43.813,97978.5703125
1588210524070,2020-04-30T01:35:54.191916,43.86,97978.3984375
1588210524115,2020-04-30T01:35:54.214359,43.905,97979.140625
1588210524162,2020-04-30T01:35:54.237609,43.952,97979.140625
1588210524209,2020-04-30T01:35:54.266808,43.999,97978.90625
1588210524256,2020-04-30T01:35:54.290657,44.046,97978.734375
1588210524303,2020-04-30T01:35:54.341775,44.093,97978.3359375
1588210524350,2020-04-30T01:35:54.357346,44.14,97978.3359375
1588210524397,2020-04-30T01:35:54.386805,44.187,97977.828125
1588210524443,2020-04-30T01:35:54.403434,44.233,97977.328125
1588210524490,2020-04-30T01:35:54.439309,44.28,97976.328125
1588210524536,2020-04-30T01:35:54.469560,44.326,97976.4921875
1588210524583,2020-04-30T01:35:54.499196,44.373,97976.5625
1588210524629,2020-04-30T01:35:54.514497,44.419,97976.7265625
1588210524676,2020-04-30T01:35:54.544236,44.466,97977.8984375
1588210524723,2020-04-30T01:35:54.559504,44.513,97978.640625
1588210524770,2020-04-30T01:35:54.596633,44.56,97978.46875
1588210524817,2020-04-30T01:35:54.634397,44.607,97978.796875
1588210524864,2020-04-30T01:35:54.664206,44.654,97979.140625
1588210524909,2020-04-30T01:35:54.686965,44.699,97979.46875
1588210524956,2020-04-30T01:35:54.716640,44.746,97979.140625
1588210525003,2020-04-30T01:35:54.731897,44.793,97978.640625
1588210525050,2020-04-30T01:35:54.769183,44.84,97978.796875
1588210525097,2020-04-30T01:35:54.791904,44.887,97978.296875
1588210525144,2020-04-30T01:35:54.814189,44.934,97979.3046875
1588210525190,2020-04-30T01:35:54.836945,44.98,97979.46875
1588210525237,2020-04-30T01:35:54.859130,45.027,97980.140625
1588210525284,2020-04-30T01:35:54.881890,45.074,97981.015625
1588210525330,2020-04-30T01:35:54.926651,45.12,97981.1875
1588210525376,2020-04-30T01:35:54.934388,45.166,97981.1875
