epoch  (ms),time  (-07:00),elapsed  (s),Pressure  (Pa)
1588209998934,2020-04-30T01:27:13.642002,0.0,97980.03125
1588209998981,2020-04-30T01:27:13.642676,0.047,97980.328125
1588209999027,2020-04-30T01:27:13.650419,0.093,97980.5625
1588209999074,2020-04-30T01:27:13.651330,0.14,97980.9140625
1588209999120,2020-04-30T01:27:13.721452,0.186,97980.703125
1588209999167,2020-04-30T01:27:13.735369,0.233,97980.359375
1588209999214,2020-04-30T01:27:13.760321,0.28,97981.078125
1588209999261,2020-04-30T01:27:13.802393,0.327,97981.6875
1588209999308,2020-04-30T01:27:13.845727,0.374,97982.9765625
1588209999355,2020-04-30T01:27:13.904426,0.421,97983.625
1588209999400,2020-04-30T01:27:13.920890,0.466,97983.8515625
1588209999447,2020-04-30T01:27:13.927626,0.513,97984.09375
1588209999494,2020-04-30T01:27:13.935650,0.56,97983.109375
1588209999541,2020-04-30T01:27:13.950514,0.607,97983.375
1588209999588,2020-04-30T01:27:13.979733,0.654,97982.828125
1588209999635,2020-04-30T01:27:14.016982,0.701,97982.359375
1588209999681,2020-04-30T01:27:14.047739,0.747,97982.34375
1588209999728,2020-04-30T01:27:14.077608,0.794,97981.28125
1588209999774,2020-04-30T01:27:14.085224,0.84,97980.65625
1588209999821,2020-04-30T01:27:14.121917,0.887,97980.953125
1588209999867,2020-04-30T01:27:14.123627,0.933,97980.359375
1588209999914,2020-04-30T01:27:14.153410,0.98,97980.484375
1588209999961,2020-04-30T01:27:14.160559,1.027,97980.390625
1588210000008,2020-04-30T01:27:14.197540,1.074,97979.96875
1588210000055,2020-04-30T01:27:14.204749,1.121,97979.296875
1588210000102,2020-04-30T01:27:14.220591,1.168,97979.5859375
1588210000149,2020-04-30T01:27:14.228819,1.215,97979.4140625
1588210000194,2020-04-30T01:27:14.256939,1.26,97979.875
1588210000241,2020-04-30T01:27:14.258720,1.307,97979.203125
1588210000288,2020-04-30T01:27:14.324462,1.354,97980.15625
1588210000335,2020-04-30T01:27:14.326496,1.401,97980.734375
1588210000382,2020-04-30T01:27:14.354431,1.448,97980.234375
1588210000429,2020-04-30T01:27:14.362420,1.495,97979.328125
1588210000475,2020-04-30T01:27:14.400517,1.541,97979.328125
1588210000522,2020-04-30T01:27:14.424048,1.588,97979.4765625
1588210000569,2020-04-30T01:27:14.430747,1.635,97979.6875
1588210000615,2020-04-30T01:27:14.437879,1.681,97979.6875
1588210000661,2020-04-30T01:27:14.459433,1.727,97980.1875
1588210000708,2020-04-30T01:27:14.468168,1.774,97980.1875
1588210000755,2020-04-30T01:27:14.483670,1.821,97980.59375
1588210000802,2020-04-30T01:27:14.504793,1.868,97981.0078125
1588210000849,2020-04-30T01:27:14.534444,1.915,97981.5078125
1588210000896,2020-04-30T01:27:14.556934,1.962,97982.171875
1588210000943,2020-04-30T01:27:14.571940,2.009,97982.546875
1588210000988,2020-04-30T01:27:14.603292,2.054,97982.890625
1588210001035,2020-04-30T01:27:14.631949,2.101,97983.390625
1588210001082,2020-04-30T01:27:14.633639,2.148,97984.796875
1588210001129,2020-04-30T01:27:14.662908,2.195,97985.296875
1588210001176,2020-04-30T01:27:14.678218,2.242,97985.796875
1588210001222,2020-04-30T01:27:14.700713,2.288,97985.796875
1588210001269,2020-04-30T01:27:14.707844,2.335,97987.171875
1588210001316,2020-04-30T01:27:14.738163,2.382,97987.515625
1588210001363,2020-04-30T01:27:14.745693,2.429,97988.171875
1588210001408,2020-04-30T01:27:14.760425,2.474,97988.015625
1588210001455,2020-04-30T01:27:14.774724,2.521,97988.25
1588210001502,2020-04-30T01:27:14.783456,2.568,97988.5859375
1588210001549,2020-04-30T01:27:14.814268,2.615,97988.25
1588210001596,2020-04-30T01:27:14.880082,2.662,97988.1640625
1588210001643,2020-04-30T01:27:14.894701,2.709,97988.5
1588210001690,2020-04-30T01:27:14.910109,2.756,97988.1640625
1588210001737,2020-04-30T01:27:14.917197,2.803,97988.5
1588210001782,2020-04-30T01:27:14.955184,2.848,97988.328125
1588210001829,2020-04-30T01:27:14.956758,2.895,97987.421875
1588210001876,2020-04-30T01:27:14.985042,2.942,97987.5
1588210001923,2020-04-30T01:27:14.992864,2.989,97988.0390625
1588210001970,2020-04-30T01:27:15.014478,3.036,97987.703125
1588210002016,2020-04-30T01:27:15.030376,3.082,97988.0390625
1588210002063,2020-04-30T01:27:15.037952,3.129,97988.109375
1588210002110,2020-04-30T01:27:15.045530,3.176,97987.28125
1588210002157,2020-04-30T01:27:15.060391,3.223,97986.875
1588210002202,2020-04-30T01:27:15.083556,3.268,97987.203125
1588210002249,2020-04-30T01:27:15.090828,3.315,97987.28125
1588210002296,2020-04-30T01:27:15.113652,3.362,97987.0234375
1588210002343,2020-04-30T01:27:15.158332,3.409,97986.6875
1588210002390,2020-04-30T01:27:15.216944,3.456,97986.5234375
1588210002437,2020-04-30T01:27:15.233068,3.503,97986.1171875
1588210002484,2020-04-30T01:27:15.292429,3.55,97985.78125
1588210002531,2020-04-30T01:27:15.300252,3.597,97986.0234375
1588210002577,2020-04-30T01:27:15.314434,3.643,97985.6875
1588210002624,2020-04-30T01:27:15.329449,3.69,97984.609375
1588210002670,2020-04-30T01:27:15.337240,3.736,97984.4453125
1588210002717,2020-04-30T01:27:15.360537,3.783,97983.515625
1588210002763,2020-04-30T01:27:15.389926,3.829,97983.734375
1588210002810,2020-04-30T01:27:15.546945,3.876,97983.5625
1588210002857,2020-04-30T01:27:15.607701,3.923,97983.8984375
1588210002904,2020-04-30T01:27:15.809989,3.97,97984.734375
1588210002951,2020-04-30T01:27:15.825301,4.017,97984.359375
1588210002998,2020-04-30T01:27:15.891853,4.064,97985.234375
1588210003045,2020-04-30T01:27:15.938247,4.111,97985.40625
1588210003090,2020-04-30T01:27:15.945156,4.156,97985.0625
1588210003137,2020-04-30T01:27:16.013377,4.203,97984.8984375
1588210003184,2020-04-30T01:27:16.028306,4.25,97985.140625
1588210003231,2020-04-30T01:27:16.064709,4.297,97985.8125
1588210003278,2020-04-30T01:27:16.095756,4.344,97986.8515625
1588210003325,2020-04-30T01:27:16.116970,4.391,97986.5234375
1588210003371,2020-04-30T01:27:16.132812,4.437,97986.6875
1588210003418,2020-04-30T01:27:16.169572,4.484,97987.0234375
1588210003465,2020-04-30T01:27:16.171168,4.531,97986.8515625
1588210003512,2020-04-30T01:27:16.200680,4.578,97986.6875
1588210003557,2020-04-30T01:27:16.223378,4.623,97986.8515625
1588210003604,2020-04-30T01:27:16.287523,4.67,97987.0234375
1588210003651,2020-04-30T01:27:16.295859,4.717,97987.140625
1588210003698,2020-04-30T01:27:16.343343,4.764,97987.859375
1588210003745,2020-04-30T01:27:16.367070,4.811,97988.265625
1588210003792,2020-04-30T01:27:16.376821,4.858,97988.1875
1588210003839,2020-04-30T01:27:16.440332,4.905,97988.359375
1588210003886,2020-04-30T01:27:16.492667,4.952,97989.765625
1588210003932,2020-04-30T01:27:16.499765,4.998,97989.59375
1588210003978,2020-04-30T01:27:16.581975,5.044,97990.1015625
1588210004025,2020-04-30T01:27:16.657296,5.091,97990.4375
1588210004072,2020-04-30T01:27:16.716978,5.138,97990.34375
1588210004118,2020-04-30T01:27:16.725369,5.184,97989.765625
1588210004165,2020-04-30T01:27:16.777584,5.231,97990.34375
1588210004212,2020-04-30T01:27:16.785331,5.278,97990.765625
1588210004259,2020-04-30T01:27:16.920949,5.325,97990.9375
1588210004306,2020-04-30T01:27:16.935022,5.372,97991.859375
1588210004351,2020-04-30T01:27:16.965263,5.417,97992.1015625
1588210004398,2020-04-30T01:27:16.995103,5.464,97992.1015625
1588210004445,2020-04-30T01:27:17.048098,5.511,97991.6015625
1588210004492,2020-04-30T01:27:17.197645,5.558,97990.9375
1588210004539,2020-04-30T01:27:17.212414,5.605,97990.9375
1588210004586,2020-04-30T01:27:17.272871,5.652,97991.5078125
1588210004633,2020-04-30T01:27:17.399621,5.699,97991.0546875
1588210004679,2020-04-30T01:27:17.416677,5.745,97991.0546875
1588210004726,2020-04-30T01:27:17.601998,5.792,97990.34375
1588210004773,2020-04-30T01:27:17.692437,5.839,97990.34375
1588210004819,2020-04-30T01:27:17.767986,5.885,97990.171875
1588210004866,2020-04-30T01:27:17.894553,5.932,97990.34375
1588210004912,2020-04-30T01:27:18.030612,5.978,97991.0546875
1588210004959,2020-04-30T01:27:18.037144,6.025,97990.890625
1588210005006,2020-04-30T01:27:18.164665,6.072,97990.015625
1588210005053,2020-04-30T01:27:18.178914,6.119,97989.84375
1588210005100,2020-04-30T01:27:18.224672,6.166,97989.21875
1588210005147,2020-04-30T01:27:18.234962,6.213,97989.21875
1588210005194,2020-04-30T01:27:18.269334,6.26,97989.390625
1588210005239,2020-04-30T01:27:18.284604,6.305,97989.71875
1588210005286,2020-04-30T01:27:18.315065,6.352,97989.0546875
1588210005333,2020-04-30T01:27:18.337005,6.399,97988.21875
1588210005380,2020-04-30T01:27:18.351995,6.446,97988.296875
1588210005427,2020-04-30T01:27:18.359840,6.493,97988.125
1588210005473,2020-04-30T01:27:18.368286,6.539,97987.71875
1588210005520,2020-04-30T01:27:18.382919,6.586,97987.546875
1588210005567,2020-04-30T01:27:18.412003,6.633,97987.796875
1588210005614,2020-04-30T01:27:18.421552,6.68,97988.125
1588210005659,2020-04-30T01:27:18.450114,6.725,97988.4609375
1588210005706,2020-04-30T01:27:18.488616,6.772,97988.0546875
1588210005753,2020-04-30T01:27:18.510488,6.819,97988.5546875
1588210005800,2020-04-30T01:27:18.522186,6.866,97988.0546875
1588210005847,2020-04-30T01:27:18.548129,6.913,97988.21875
1588210005894,2020-04-30T01:27:18.563614,6.96,97987.9609375
1588210005941,2020-04-30T01:27:18.586712,7.007,97987.71875
1588210005988,2020-04-30T01:27:18.616637,7.054,97988.125
1588210006034,2020-04-30T01:27:18.620637,7.1,97987.796875
1588210006081,2020-04-30T01:27:18.629313,7.147,97987.390625
1588210006128,2020-04-30T01:27:18.642209,7.194,97987.21875
1588210006174,2020-04-30T01:27:18.650760,7.24,97987.390625
1588210006220,2020-04-30T01:27:18.661381,7.286,97987.21875
1588210006267,2020-04-30T01:27:18.697469,7.333,97987.390625
1588210006314,2020-04-30T01:27:18.713689,7.38,97987.71875
1588210006361,2020-04-30T01:27:18.721225,7.427,97988.125
1588210006408,2020-04-30T01:27:18.729847,7.474,97987.71875
1588210006455,2020-04-30T01:27:18.788110,7.521,97987.21875
1588210006502,2020-04-30T01:27:18.795440,7.568,97987.625
1588210006549,2020-04-30T01:27:18.803795,7.615,97987.796875
1588210006595,2020-04-30T01:27:18.838151,7.661,97987.9609375
1588210006641,2020-04-30T01:27:18.869600,7.707,97988.375
1588210006688,2020-04-30T01:27:18.878338,7.754,97987.625
1588210006735,2020-04-30T01:27:18.900554,7.801,97987.296875
1588210006782,2020-04-30T01:27:18.918415,7.848,97986.9609375
1588210006828,2020-04-30T01:27:18.922802,7.894,97986.9609375
1588210006875,2020-04-30T01:27:18.937864,7.941,97986.625
1588210006922,2020-04-30T01:27:18.945969,7.988,97986.796875
1588210006969,2020-04-30T01:27:18.979874,8.035,97987.0390625
1588210007014,2020-04-30T01:27:19.057031,8.08,97986.4609375
1588210007061,2020-04-30T01:27:19.065481,8.127,97986.4609375
1588210007108,2020-04-30T01:27:19.079519,8.174,97987.375
1588210007155,2020-04-30T01:27:19.103373,8.221,97988.078125
1588210007202,2020-04-30T01:27:19.139591,8.268,97988.25
1588210007249,2020-04-30T01:27:19.147751,8.315,97987.703125
1588210007296,2020-04-30T01:27:19.170136,8.362,97987.5390625
1588210007343,2020-04-30T01:27:19.177901,8.409,97987.203125
1588210007389,2020-04-30T01:27:19.192644,8.455,97986.703125
1588210007435,2020-04-30T01:27:19.201156,8.501,97986.703125
1588210007482,2020-04-30T01:27:19.222650,8.548,97987.25
1588210007529,2020-04-30T01:27:19.246688,8.595,97987.921875
1588210007575,2020-04-30T01:27:19.320487,8.641,97988.484375
1588210007622,2020-04-30T01:27:19.335793,8.688,97988.484375
1588210007669,2020-04-30T01:27:19.357036,8.735,97988.828125
1588210007716,2020-04-30T01:27:19.379932,8.782,97988.9921875
1588210007763,2020-04-30T01:27:19.417035,8.829,97988.9921875
1588210007810,2020-04-30T01:27:19.432494,8.876,97988.828125
1588210007855,2020-04-30T01:27:19.552054,8.921,97988.421875
1588210007902,2020-04-30T01:27:19.597872,8.968,97988.75
1588210007949,2020-04-30T01:27:19.694609,9.015,97988.421875
1588210007996,2020-04-30T01:27:19.769859,9.062,97988.75
1588210008043,2020-04-30T01:27:19.972701,9.109,97989.328125
1588210008090,2020-04-30T01:27:19.996288,9.156,97988.828125
1588210008137,2020-04-30T01:27:20.115228,9.203,97988.9921875
1588210008183,2020-04-30T01:27:20.325097,9.249,97988.65625
1588210008230,2020-04-30T01:27:20.468278,9.296,97988.65625
1588210008276,2020-04-30T01:27:20.602786,9.342,97988.15625
1588210008323,2020-04-30T01:27:20.745054,9.389,97988.8671875
1588210008369,2020-04-30T01:27:20.821048,9.435,97988.8671875
1588210008416,2020-04-30T01:27:20.880384,9.482,97988.5390625
1588210008463,2020-04-30T01:27:21.022172,9.529,97988.328125
1588210008510,2020-04-30T01:27:21.089479,9.576,97988.8671875
1588210008557,2020-04-30T01:27:21.097575,9.623,97989.203125
1588210008604,2020-04-30T01:27:21.262391,9.67,97989.0390625
1588210008649,2020-04-30T01:27:21.281552,9.715,97988.8671875
1588210008696,2020-04-30T01:27:21.404630,9.762,97988.703125
1588210008743,2020-04-30T01:27:21.577740,9.809,97988.609375
1588210008790,2020-04-30T01:27:21.653210,9.856,97988.9453125
1588210008837,2020-04-30T01:27:21.772651,9.903,97988.203125
1588210008884,2020-04-30T01:27:21.930188,9.95,97988.4453125
1588210008930,2020-04-30T01:27:21.990250,9.996,97988.28125
1588210008977,2020-04-30T01:27:22.132097,10.043,97988.03125
1588210009024,2020-04-30T01:27:22.208864,10.09,97987.703125
1588210009070,2020-04-30T01:27:22.409594,10.136,97987.703125
1588210009116,2020-04-30T01:27:22.485015,10.182,97988.203125
1588210009163,2020-04-30T01:27:22.612519,10.229,97988.4453125
1588210009210,2020-04-30T01:27:22.665961,10.276,97988.4453125
1588210009257,2020-04-30T01:27:22.762760,10.323,97988.3515625
1588210009304,2020-04-30T01:27:22.823316,10.37,97988.1875
1588210009351,2020-04-30T01:27:23.039648,10.417,97988.1875
1588210009398,2020-04-30T01:27:23.099973,10.464,97988.3984375
1588210009443,2020-04-30T01:27:23.242541,10.509,97988.234375
1588210009490,2020-04-30T01:27:23.309940,10.556,97988.1875
1588210009537,2020-04-30T01:27:23.318189,10.603,97988.1875
1588210009584,2020-04-30T01:27:23.417618,10.65,97988.109375
1588210009631,2020-04-30T01:27:23.595223,10.697,97988.28125
1588210009678,2020-04-30T01:27:23.632947,10.744,97988.6875
1588210009724,2020-04-30T01:27:23.774622,10.79,97989.1875
1588210009771,2020-04-30T01:27:23.798009,10.837,97988.5234375
1588210009817,2020-04-30T01:27:23.864755,10.883,97988.5234375
1588210009864,2020-04-30T01:27:23.903714,10.93,97988.859375
1588210009910,2020-04-30T01:27:23.910980,10.976,97988.6875
1588210009957,2020-04-30T01:27:23.970624,11.023,97988.859375
1588210010004,2020-04-30T01:27:23.992886,11.07,97988.90625
1588210010051,2020-04-30T01:27:24.038167,11.117,97988.5625
1588210010098,2020-04-30T01:27:24.053470,11.164,97988.90625
1588210010145,2020-04-30T01:27:24.070573,11.211,97988.5625
1588210010190,2020-04-30T01:27:24.099274,11.256,97988.3984375
1588210010237,2020-04-30T01:27:24.150866,11.303,97988.0625
1588210010284,2020-04-30T01:27:24.158048,11.35,97988.234375
1588210010331,2020-04-30T01:27:24.172243,11.397,97988.6875
1588210010378,2020-04-30T01:27:24.180260,11.444,97988.859375
1588210010425,2020-04-30T01:27:24.210936,11.491,97988.859375
1588210010471,2020-04-30T01:27:24.247926,11.537,97988.90625
1588210010518,2020-04-30T01:27:24.270543,11.584,97988.734375
1588210010564,2020-04-30T01:27:24.315209,11.63,97988.90625
1588210010611,2020-04-30T01:27:24.330362,11.677,97988.640625
1588210010658,2020-04-30T01:27:24.352130,11.724,97988.0625
1588210010704,2020-04-30T01:27:24.390642,11.77,97987.8984375
1588210010751,2020-04-30T01:27:24.421222,11.817,97987.015625
1588210010798,2020-04-30T01:27:24.442164,11.864,97986.6875
1588210010845,2020-04-30T01:27:24.458885,11.911,97986.734375
1588210010892,2020-04-30T01:27:24.487150,11.958,97986.8984375
1588210010939,2020-04-30T01:27:24.495784,12.005,97987.0625
1588210010984,2020-04-30T01:27:24.547330,12.05,97987.234375
1588210011031,2020-04-30T01:27:24.594262,12.097,97987.5625
1588210011078,2020-04-30T01:27:24.615135,12.144,97987.5625
1588210011125,2020-04-30T01:27:24.625104,12.191,97987.734375
1588210011172,2020-04-30T01:27:24.699170,12.238,97987.734375
1588210011219,2020-04-30T01:27:24.703038,12.285,97988.46875
1588210011265,2020-04-30T01:27:24.764757,12.331,97987.96875
1588210011312,2020-04-30T01:27:24.870019,12.378,97987.96875
1588210011359,2020-04-30T01:27:24.899648,12.425,97987.96875
1588210011405,2020-04-30T01:27:24.907442,12.471,97988.140625
1588210011451,2020-04-30T01:27:24.976211,12.517,97987.890625
1588210011498,2020-04-30T01:27:25.013129,12.564,97987.46875
1588210011545,2020-04-30T01:27:25.103949,12.611,97988.046875
1588210011592,2020-04-30T01:27:25.180017,12.658,97988.046875
1588210011639,2020-04-30T01:27:25.319862,12.705,97988.265625
1588210011686,2020-04-30T01:27:25.380194,12.752,97987.9296875
1588210011733,2020-04-30T01:27:25.597683,12.799,97987.9296875
1588210011778,2020-04-30T01:27:25.718027,12.844,97987.546875
1588210011825,2020-04-30T01:27:26.152025,12.891,97987.59375
1588210011872,2020-04-30T01:27:26.399706,12.938,97987.59375
1588210011919,2020-04-30T01:27:27.817450,12.985,97987.421875
1588210011966,2020-04-30T01:27:27.820021,13.032,97987.59375
1588210012012,2020-04-30T01:27:28.373169,13.078,97987.9296875
1588210012059,2020-04-30T01:27:28.650519,13.125,97987.546875
1588210012106,2020-04-30T01:27:28.861268,13.172,97987.9296875
1588210012153,2020-04-30T01:27:28.905560,13.219,97988.09375
1588210012200,2020-04-30T01:27:28.964857,13.266,97988.8359375
1588210012247,2020-04-30T01:27:29.108939,13.313,97989.5078125
1588210012292,2020-04-30T01:27:29.152962,13.358,97989.84375
1588210012339,2020-04-30T01:27:29.167265,13.405,97989.3359375
1588210012386,2020-04-30T01:27:29.182875,13.452,97989.84375
1588210012433,2020-04-30T01:27:29.212823,13.499,97989.5078125
1588210012480,2020-04-30T01:27:29.369916,13.546,97989.171875
1588210012527,2020-04-30T01:27:29.467274,13.593,97989.0078125
1588210012574,2020-04-30T01:27:29.587261,13.64,97988.9296875
1588210012620,2020-04-30T01:27:29.663483,13.686,97989.171875
1588210012667,2020-04-30T01:27:29.693617,13.733,97989.3359375
1588210012713,2020-04-30T01:27:29.828640,13.779,97989.5078125
1588210012760,2020-04-30T01:27:29.926226,13.826,97988.8359375
1588210012806,2020-04-30T01:27:29.940998,13.872,97988.8359375
1588210012853,2020-04-30T01:27:29.984911,13.919,97988.3359375
1588210012900,2020-04-30T01:27:29.986578,13.966,97988.671875
1588210012947,2020-04-30T01:27:30.014766,14.013,97989.0078125
1588210012994,2020-04-30T01:27:30.024244,14.06,97988.265625
1588210013041,2020-04-30T01:27:30.099652,14.107,97988.09375
1588210013086,2020-04-30T01:27:30.105646,14.152,97988.5078125
1588210013133,2020-04-30T01:27:30.143601,14.199,97988.8359375
1588210013180,2020-04-30T01:27:30.173831,14.246,97989.890625
1588210013227,2020-04-30T01:27:30.220320,14.293,97990.0078125
1588210013274,2020-04-30T01:27:30.267618,14.34,97989.71875
1588210013321,2020-04-30T01:27:30.280416,14.387,97989.71875
1588210013367,2020-04-30T01:27:30.293779,14.433,97989.3359375
1588210013414,2020-04-30T01:27:30.359618,14.48,97989.890625
1588210013461,2020-04-30T01:27:30.377508,14.527,97989.890625
1588210013507,2020-04-30T01:27:30.423257,14.573,97989.390625
1588210013554,2020-04-30T01:27:30.424456,14.62,97989.0078125
1588210013600,2020-04-30T01:27:30.496249,14.666,97989.890625
1588210013647,2020-04-30T01:27:30.541224,14.713,97988.8359375
1588210013694,2020-04-30T01:27:30.570385,14.76,97989.171875
1588210013741,2020-04-30T01:27:30.579727,14.807,97989.171875
1588210013788,2020-04-30T01:27:30.653416,14.854,97989.390625
1588210013833,2020-04-30T01:27:30.661178,14.899,97989.046875
1588210013880,2020-04-30T01:27:30.772797,14.946,97989.296875
1588210013927,2020-04-30T01:27:30.849735,14.993,97989.296875
1588210013974,2020-04-30T01:27:30.854907,15.04,97989.125
1588210014021,2020-04-30T01:27:30.930889,15.087,97988.625
1588210014068,2020-04-30T01:27:31.132702,15.134,97989.203125
1588210014115,2020-04-30T01:27:31.215393,15.181,97988.8671875
1588210014161,2020-04-30T01:27:31.331483,15.227,97989.203125
1588210014208,2020-04-30T01:27:31.531769,15.274,97988.796875
1588210014255,2020-04-30T01:27:31.606262,15.321,97988.625
1588210014302,2020-04-30T01:27:31.635868,15.368,97988.625
1588210014349,2020-04-30T01:27:31.703191,15.415,97989.125
1588210014394,2020-04-30T01:27:31.915359,15.46,97989.296875
1588210014441,2020-04-30T01:27:31.967516,15.507,97989.625
1588210014488,2020-04-30T01:27:32.144823,15.554,97990.03125
1588210014535,2020-04-30T01:27:32.160699,15.601,97990.9140625
1588210014582,2020-04-30T01:27:32.205775,15.648,97990.9140625
1588210014629,2020-04-30T01:27:32.244196,15.695,97991.078125
1588210014676,2020-04-30T01:27:32.363155,15.742,97990.703125
1588210014722,2020-04-30T01:27:32.467767,15.788,97990.75
1588210014769,2020-04-30T01:27:32.504834,15.835,97990.5390625
1588210014816,2020-04-30T01:27:32.513213,15.882,97990.75
1588210014862,2020-04-30T01:27:32.520753,15.928,97990.75
1588210014908,2020-04-30T01:27:32.535579,15.974,97990.9140625
1588210014955,2020-04-30T01:27:32.595680,16.021,97991.078125
1588210015002,2020-04-30T01:27:32.640609,16.068,97989.9140625
1588210015049,2020-04-30T01:27:32.662671,16.115,97989.75
1588210015096,2020-04-30T01:27:32.665341,16.162,97989.53125
1588210015143,2020-04-30T01:27:32.774866,16.209,97989.53125
1588210015190,2020-04-30T01:27:32.776883,16.256,97989.9140625
1588210015237,2020-04-30T01:27:32.850352,16.303,97989.75
1588210015282,2020-04-30T01:27:32.876045,16.348,97989.984375
1588210015329,2020-04-30T01:27:32.948513,16.395,97989.65625
1588210015376,2020-04-30T01:27:32.955418,16.442,97989.65625
1588210015423,2020-04-30T01:27:32.978894,16.489,97989.484375
1588210015470,2020-04-30T01:27:33.025919,16.536,97989.3203125
1588210015516,2020-04-30T01:27:33.053609,16.582,97989.3203125
1588210015563,2020-04-30T01:27:33.067729,16.629,97989.3203125
1588210015610,2020-04-30T01:27:33.090428,16.676,97989.65625
1588210015656,2020-04-30T01:27:33.127686,16.722,97989.8203125
1588210015702,2020-04-30T01:27:33.203486,16.768,97989.3203125
1588210015749,2020-04-30T01:27:33.217947,16.815,97989.3203125
1588210015796,2020-04-30T01:27:33.240717,16.862,97989.484375
1588210015843,2020-04-30T01:27:33.302389,16.909,97989.484375
1588210015890,2020-04-30T01:27:33.353616,16.956,97989.65625
1588210015937,2020-04-30T01:27:33.428929,17.003,97989.65625
1588210015984,2020-04-30T01:27:33.443630,17.05,97989.484375
1588210016029,2020-04-30T01:27:33.473922,17.095,97990.234375
1588210016076,2020-04-30T01:27:33.496118,17.142,97989.734375
1588210016123,2020-04-30T01:27:33.534717,17.189,97989.5625
1588210016170,2020-04-30T01:27:33.548946,17.236,97989.234375
1588210016217,2020-04-30T01:27:33.578741,17.283,97988.65625
1588210016263,2020-04-30T01:27:33.600717,17.329,97988.484375
1588210016310,2020-04-30T01:27:33.610583,17.376,97988.484375
1588210016357,2020-04-30T01:27:33.683466,17.423,97988.15625
1588210016404,2020-04-30T01:27:33.707858,17.47,97988.5625
1588210016450,2020-04-30T01:27:33.714863,17.516,97988.734375
1588210016496,2020-04-30T01:27:33.753448,17.562,97988.5625
1588210016543,2020-04-30T01:27:33.774105,17.609,97987.8203125
1588210016590,2020-04-30T01:27:33.782598,17.656,97987.7265625
1588210016637,2020-04-30T01:27:33.825829,17.703,97988.0625
1588210016684,2020-04-30T01:27:33.828220,17.75,97987.8984375
1588210016731,2020-04-30T01:27:33.865345,17.797,97988.0625
1588210016778,2020-04-30T01:27:33.880646,17.844,97988.5625
1588210016823,2020-04-30T01:27:33.886919,17.889,97988.8984375
1588210016870,2020-04-30T01:27:33.901522,17.936,97988.734375
1588210016917,2020-04-30T01:27:33.911573,17.983,97988.8984375
1588210016964,2020-04-30T01:27:33.924734,18.03,97989.28125
1588210017011,2020-04-30T01:27:33.962983,18.077,97989.609375
1588210017057,2020-04-30T01:27:33.984944,18.123,97989.109375
1588210017104,2020-04-30T01:27:33.998636,18.17,97988.9375
1588210017151,2020-04-30T01:27:34.000340,18.217,97988.78125
1588210017198,2020-04-30T01:27:34.027548,18.264,97989.109375
1588210017243,2020-04-30T01:27:34.029629,18.309,97989.4375
1588210017290,2020-04-30T01:27:34.051906,18.356,97989.4375
1588210017337,2020-04-30T01:27:34.061310,18.403,97989.28125
1588210017384,2020-04-30T01:27:34.072711,18.45,97988.78125
1588210017431,2020-04-30T01:27:34.074716,18.497,97987.7734375
1588210017478,2020-04-30T01:27:34.134804,18.544,97987.7265625
1588210017525,2020-04-30T01:27:34.149378,18.591,97987.9375
1588210017572,2020-04-30T01:27:34.159016,18.638,97987.9375
1588210017618,2020-04-30T01:27:34.169993,18.684,97987.7265625
1588210017664,2020-04-30T01:27:34.171746,18.73,97987.7265625
1588210017711,2020-04-30T01:27:34.200041,18.777,97987.8984375
1588210017758,2020-04-30T01:27:34.203273,18.824,97988.0625
1588210017804,2020-04-30T01:27:34.237890,18.87,97988.4375
1588210017851,2020-04-30T01:27:34.253916,18.917,97988.2265625
1588210017898,2020-04-30T01:27:34.263673,18.964,97988.4375
1588210017945,2020-04-30T01:27:34.269616,19.011,97988.4375
1588210017992,2020-04-30T01:27:34.308212,19.058,97988.84375
1588210018037,2020-04-30T01:27:34.322242,19.103,97989.015625
1588210018084,2020-04-30T01:27:34.328902,19.15,97988.2734375
1588210018131,2020-04-30T01:27:34.343216,19.197,97988.109375
1588210018178,2020-04-30T01:27:34.350312,19.244,97988.109375
1588210018225,2020-04-30T01:27:34.366895,19.291,97988.109375
1588210018272,2020-04-30T01:27:34.372798,19.338,97988.1875
1588210018319,2020-04-30T01:27:34.383110,19.385,97987.7734375
1588210018366,2020-04-30T01:27:34.404921,19.432,97987.7734375
1588210018412,2020-04-30T01:27:34.412364,19.478,97987.609375
1588210018458,2020-04-30T01:27:34.419053,19.524,97987.609375
1588210018505,2020-04-30T01:27:34.426442,19.571,97987.515625
1588210018552,2020-04-30T01:27:34.441741,19.618,97987.515625
1588210018598,2020-04-30T01:27:34.456143,19.664,97987.015625
1588210018645,2020-04-30T01:27:34.464288,19.711,97986.6796875
1588210018692,2020-04-30T01:27:34.485874,19.758,97986.515625
1588210018739,2020-04-30T01:27:34.515863,19.805,97986.1796875
1588210018786,2020-04-30T01:27:34.530575,19.852,97985.9375
1588210018831,2020-04-30T01:27:34.537962,19.897,97986.609375
1588210018878,2020-04-30T01:27:34.545523,19.944,97986.4375
1588210018925,2020-04-30T01:27:34.552970,19.991,97986.609375
1588210018972,2020-04-30T01:27:34.584459,20.038,97987.109375
1588210019019,2020-04-30T01:27:34.604887,20.085,97988.84375
1588210019066,2020-04-30T01:27:34.606447,20.132,97988.34375
1588210019113,2020-04-30T01:27:34.619869,20.179,97987.7734375
1588210019159,2020-04-30T01:27:34.621437,20.225,97988.1875
1588210019205,2020-04-30T01:27:34.642995,20.271,97987.609375
1588210019252,2020-04-30T01:27:34.644504,20.318,97987.4375
1588210019299,2020-04-30T01:27:34.689241,20.365,97988.015625
1588210019345,2020-04-30T01:27:34.710733,20.411,97988.1875
1588210019392,2020-04-30T01:27:34.718842,20.458,97988.34375
1588210019439,2020-04-30T01:27:34.725729,20.505,97987.84375
1588210019486,2020-04-30T01:27:34.733642,20.552,97987.515625
1588210019533,2020-04-30T01:27:34.740731,20.599,97987.515625
1588210019578,2020-04-30T01:27:34.763635,20.644,97988.390625
1588210019627,2020-04-30T01:27:34.793881,20.693,97988.8046875
1588210019672,2020-04-30T01:27:34.808645,20.738,97989.2265625
1588210019719,2020-04-30T01:27:34.816562,20.785,97989.2265625
1588210019766,2020-04-30T01:27:34.822980,20.832,97989.7265625
1588210019813,2020-04-30T01:27:34.832036,20.879,97989.640625
1588210019860,2020-04-30T01:27:34.859861,20.926,97989.5625
1588210019907,2020-04-30T01:27:34.867846,20.973,97989.5625
1588210019953,2020-04-30T01:27:34.874900,21.019,97989.96875
1588210020000,2020-04-30T01:27:34.883912,21.066,97988.8984375
1588210020046,2020-04-30T01:27:34.891155,21.112,97988.8984375
1588210020093,2020-04-30T01:27:34.898623,21.159,97988.8984375
1588210020139,2020-04-30T01:27:34.920500,21.205,97988.7265625
1588210020186,2020-04-30T01:27:34.928232,21.252,97988.1875
1588210020233,2020-04-30T01:27:34.935863,21.299,97988.015625
1588210020280,2020-04-30T01:27:34.966461,21.346,97987.84375
1588210020327,2020-04-30T01:27:34.974148,21.393,97987.84375
1588210020374,2020-04-30T01:27:34.981441,21.44,97988.2265625
1588210020421,2020-04-30T01:27:34.995637,21.487,97988.640625
1588210020466,2020-04-30T01:27:35.002586,21.532,97988.2265625
1588210020513,2020-04-30T01:27:35.010055,21.579,97988.0625
1588210020560,2020-04-30T01:27:35.011601,21.626,97988.640625
1588210020607,2020-04-30T01:27:35.040681,21.673,97989.5625
1588210020654,2020-04-30T01:27:35.042086,21.72,97989.7265625
1588210020700,2020-04-30T01:27:35.086230,21.766,97990.46875
1588210020747,2020-04-30T01:27:35.093594,21.813,97989.8984375
1588210020794,2020-04-30T01:27:35.101709,21.86,97989.8984375
1588210020840,2020-04-30T01:27:35.109926,21.906,97989.96875
1588210020887,2020-04-30T01:27:35.139825,21.953,97989.8046875
1588210020933,2020-04-30T01:27:35.147295,21.999,97989.2265625
1588210020980,2020-04-30T01:27:35.176585,22.046,97988.7265625
1588210021027,2020-04-30T01:27:35.182858,22.093,97988.96875
1588210021074,2020-04-30T01:27:35.212574,22.14,97988.8046875
1588210021121,2020-04-30T01:27:35.227387,22.187,97988.46875
1588210021168,2020-04-30T01:27:35.236083,22.234,97988.46875
1588210021213,2020-04-30T01:27:35.243648,22.279,97987.96875
1588210021260,2020-04-30T01:27:35.259796,22.326,97988.2109375
1588210021307,2020-04-30T01:27:35.266778,22.373,97987.96875
1588210021354,2020-04-30T01:27:35.274869,22.42,97988.3046875
1588210021401,2020-04-30T01:27:35.282650,22.467,97988.8046875
1588210021448,2020-04-30T01:27:35.288688,22.514,97988.96875
1588210021494,2020-04-30T01:27:35.298023,22.56,97989.3828125
1588210021541,2020-04-30T01:27:35.317984,22.607,97988.7109375
1588210021588,2020-04-30T01:27:35.340806,22.654,97987.96875
1588210021634,2020-04-30T01:27:35.348768,22.7,97988.140625
1588210021680,2020-04-30T01:27:35.363501,22.746,97988.640625
1588210021727,2020-04-30T01:27:35.371102,22.793,97989.2109375
1588210021774,2020-04-30T01:27:35.393741,22.84,97988.8046875
1588210021821,2020-04-30T01:27:35.410029,22.887,97988.921875
1588210021868,2020-04-30T01:27:35.424661,22.934,97988.7578125
1588210021915,2020-04-30T01:27:35.426043,22.981,97988.2109375
1588210021962,2020-04-30T01:27:35.438053,23.028,97988.2109375
1588210022009,2020-04-30T01:27:35.446189,23.075,97988.2109375
1588210022054,2020-04-30T01:27:35.459992,23.12,97988.921875
1588210022101,2020-04-30T01:27:35.475281,23.167,97988.2109375
1588210022148,2020-04-30T01:27:35.490999,23.214,97988.2109375
1588210022195,2020-04-30T01:27:35.513604,23.261,97988.2109375
1588210022241,2020-04-30T01:27:35.520998,23.307,97988.2109375
1588210022288,2020-04-30T01:27:35.528612,23.354,97988.046875
1588210022335,2020-04-30T01:27:35.535999,23.401,97988.046875
1588210022382,2020-04-30T01:27:35.543497,23.448,97987.140625
1588210022428,2020-04-30T01:27:35.557823,23.494,97987.375
1588210022474,2020-04-30T01:27:35.565603,23.54,97987.546875
1588210022521,2020-04-30T01:27:35.572848,23.587,97987.546875
1588210022568,2020-04-30T01:27:35.595327,23.634,97987.046875
1588210022615,2020-04-30T01:27:35.617836,23.681,97986.7109375
1588210022662,2020-04-30T01:27:35.625326,23.728,97986.546875
1588210022709,2020-04-30T01:27:35.654715,23.775,97986.375
1588210022756,2020-04-30T01:27:35.662205,23.822,97986.046875
1588210022803,2020-04-30T01:27:35.684727,23.869,97986.2578125
1588210022849,2020-04-30T01:27:35.686112,23.915,97985.921875
1588210022895,2020-04-30T01:27:35.699707,23.961,97986.046875
1588210022942,2020-04-30T01:27:35.701103,24.008,97987.046875
1588210022989,2020-04-30T01:27:35.716089,24.055,97987.921875
1588210023035,2020-04-30T01:27:35.723275,24.101,97988.328125
1588210023082,2020-04-30T01:27:35.731065,24.148,97988.2578125
1588210023129,2020-04-30T01:27:35.738084,24.195,97988.671875
1588210023176,2020-04-30T01:27:35.753507,24.242,97989.171875
1588210023223,2020-04-30T01:27:35.760487,24.289,97989.171875
1588210023268,2020-04-30T01:27:35.791181,24.334,97988.421875
1588210023315,2020-04-30T01:27:35.798796,24.381,97988.328125
1588210023362,2020-04-30T01:27:35.828873,24.428,97988.09375
1588210023409,2020-04-30T01:27:35.835787,24.475,97988.328125
1588210023456,2020-04-30T01:27:35.844722,24.522,97988.5
1588210023503,2020-04-30T01:27:35.850611,24.569,97988.671875
1588210023550,2020-04-30T01:27:35.895051,24.616,97988.328125
1588210023596,2020-04-30T01:27:35.896903,24.662,97987.828125
1588210023642,2020-04-30T01:27:35.904779,24.708,97987.5
1588210023689,2020-04-30T01:27:35.919289,24.755,97987.828125
1588210023736,2020-04-30T01:27:35.933708,24.802,97988.171875
1588210023783,2020-04-30T01:27:35.941027,24.849,97989.2421875
1588210023829,2020-04-30T01:27:35.949433,24.895,97988.7421875
1588210023876,2020-04-30T01:27:35.964482,24.942,97988.578125
1588210023923,2020-04-30T01:27:35.971729,24.989,97989.2421875
1588210023970,2020-04-30T01:27:35.978964,25.036,97988.90625
1588210024017,2020-04-30T01:27:35.992513,25.083,97988.90625
1588210024062,2020-04-30T01:27:35.999937,25.128,97988.90625
1588210024109,2020-04-30T01:27:36.008925,25.175,97988.7421875
1588210024156,2020-04-30T01:27:36.016621,25.222,97988.40625
1588210024203,2020-04-30T01:27:36.039075,25.269,97988.5
1588210024250,2020-04-30T01:27:36.046272,25.316,97988.171875
1588210024297,2020-04-30T01:27:36.076185,25.363,97988.5
1588210024344,2020-04-30T01:27:36.091256,25.41,97989.0
1588210024390,2020-04-30T01:27:36.105503,25.456,97989.171875
1588210024437,2020-04-30T01:27:36.120158,25.503,97989.328125
1588210024483,2020-04-30T01:27:36.128013,25.549,97989.0
1588210024530,2020-04-30T01:27:36.135347,25.596,97989.40625
1588210024576,2020-04-30T01:27:36.143056,25.642,97990.078125
1588210024623,2020-04-30T01:27:36.150160,25.689,97990.2421875
1588210024670,2020-04-30T01:27:36.173032,25.736,97990.453125
1588210024717,2020-04-30T01:27:36.196220,25.783,97989.953125
1588210024764,2020-04-30T01:27:36.203954,25.83,97989.1171875
1588210024811,2020-04-30T01:27:36.211172,25.877,97989.1171875
1588210024858,2020-04-30T01:27:36.219113,25.924,97988.453125
1588210024903,2020-04-30T01:27:36.241591,25.969,97988.2890625
1588210024950,2020-04-30T01:27:36.253305,26.016,97988.453125
1588210024997,2020-04-30T01:27:36.263337,26.063,97988.6171875
1588210025044,2020-04-30T01:27:36.271187,26.11,97988.6171875
1588210025091,2020-04-30T01:27:36.278427,26.157,97988.2890625
1588210025137,2020-04-30T01:27:36.293782,26.203,97988.125
1588210025184,2020-04-30T01:27:36.308339,26.25,97987.90625
1588210025231,2020-04-30T01:27:36.315779,26.297,97988.234375
1588210025278,2020-04-30T01:27:36.338677,26.344,97988.078125
1588210025324,2020-04-30T01:27:36.346233,26.39,97988.078125
1588210025370,2020-04-30T01:27:36.353794,26.436,97987.7421875
1588210025417,2020-04-30T01:27:36.367954,26.483,97987.40625
1588210025464,2020-04-30T01:27:36.382624,26.53,97987.578125
1588210025511,2020-04-30T01:27:36.383974,26.577,97988.125
1588210025558,2020-04-30T01:27:36.406187,26.624,97988.125
1588210025605,2020-04-30T01:27:36.427705,26.671,97987.78125
1588210025652,2020-04-30T01:27:36.443271,26.718,97988.359375
1588210025699,2020-04-30T01:27:36.450217,26.765,97988.125
1588210025745,2020-04-30T01:27:36.458059,26.811,97988.2890625
1588210025792,2020-04-30T01:27:36.465588,26.858,97988.2890625
1588210025838,2020-04-30T01:27:36.479925,26.904,97988.453125
1588210025885,2020-04-30T01:27:36.481471,26.951,97988.453125
1588210025931,2020-04-30T01:27:36.488712,26.997,97988.234375
1588210025978,2020-04-30T01:27:36.496474,27.044,97988.453125
1588210026025,2020-04-30T01:27:36.503698,27.091,97989.1171875
1588210026072,2020-04-30T01:27:36.511460,27.138,97988.7890625
1588210026119,2020-04-30T01:27:36.525553,27.185,97988.125
1588210026166,2020-04-30T01:27:36.533320,27.232,97987.625
1588210026213,2020-04-30T01:27:36.540510,27.279,97988.03125
1588210026258,2020-04-30T01:27:36.548443,27.324,97988.1953125
1588210026305,2020-04-30T01:27:36.555579,27.371,97988.359375
1588210026352,2020-04-30T01:27:36.563248,27.418,97988.53125
1588210026399,2020-04-30T01:27:36.584929,27.465,97988.40625
1588210026446,2020-04-30T01:27:36.592880,27.512,97988.40625
1588210026492,2020-04-30T01:27:36.599900,27.558,97989.078125
1588210026539,2020-04-30T01:27:36.614908,27.605,97989.078125
1588210026586,2020-04-30T01:27:36.622458,27.652,97989.234375
1588210026632,2020-04-30T01:27:36.629902,27.698,97988.859375
1588210026679,2020-04-30T01:27:36.638693,27.745,97988.6953125
1588210026725,2020-04-30T01:27:36.645832,27.791,97988.1953125
1588210026772,2020-04-30T01:27:36.661202,27.838,97988.03125
1588210026819,2020-04-30T01:27:36.668382,27.885,97988.53125
1588210026866,2020-04-30T01:27:36.676200,27.932,97988.03125
1588210026913,2020-04-30T01:27:36.683307,27.979,97987.859375
1588210026960,2020-04-30T01:27:36.698221,28.026,97988.40625
1588210027007,2020-04-30T01:27:36.705297,28.073,97988.90625
1588210027052,2020-04-30T01:27:36.713047,28.118,97988.90625
1588210027099,2020-04-30T01:27:36.720378,28.165,97988.578125
1588210027146,2020-04-30T01:27:36.735561,28.212,97988.53125
1588210027193,2020-04-30T01:27:36.742871,28.259,97988.03125
1588210027240,2020-04-30T01:27:36.757415,28.306,97988.40625
1588210027286,2020-04-30T01:27:36.758997,28.352,97987.859375
1588210027333,2020-04-30T01:27:36.772472,28.399,97988.234375
1588210027380,2020-04-30T01:27:36.773976,28.446,97988.234375
1588210027426,2020-04-30T01:27:36.794907,28.492,97987.90625
1588210027472,2020-04-30T01:27:36.796463,28.538,97987.734375
1588210027519,2020-04-30T01:27:36.803698,28.585,97988.234375
1588210027566,2020-04-30T01:27:36.818327,28.632,97989.65625
1588210027613,2020-04-30T01:27:36.825586,28.679,97989.65625
1588210027660,2020-04-30T01:27:36.833605,28.726,97989.65625
1588210027707,2020-04-30T01:27:36.840539,28.773,97989.65625
1588210027754,2020-04-30T01:27:36.848231,28.82,97989.234375
1588210027799,2020-04-30T01:27:36.863028,28.865,97988.734375
1588210027846,2020-04-30T01:27:36.877712,28.912,97989.3125
1588210027893,2020-04-30T01:27:36.884913,28.959,97988.484375
1588210027940,2020-04-30T01:27:36.892792,29.006,97987.90625
1588210027987,2020-04-30T01:27:36.899908,29.053,97987.0703125
1588210028033,2020-04-30T01:27:36.908814,29.099,97987.2421875
1588210028080,2020-04-30T01:27:36.916200,29.146,97987.0703125
1588210028127,2020-04-30T01:27:36.930877,29.193,97986.984375
1588210028174,2020-04-30T01:27:36.938085,29.24,97986.4765625
1588210028220,2020-04-30T01:27:36.945703,29.286,97985.984375
1588210028266,2020-04-30T01:27:36.953048,29.332,97985.40625
1588210028313,2020-04-30T01:27:36.960183,29.379,97984.734375
1588210028360,2020-04-30T01:27:36.976900,29.426,97984.234375
1588210028407,2020-04-30T01:27:36.990500,29.473,97984.3125
1588210028454,2020-04-30T01:27:36.998300,29.52,97984.140625
1588210028501,2020-04-30T01:27:37.010107,29.567,97983.5625
1588210028548,2020-04-30T01:27:37.013926,29.614,97982.3984375
1588210028595,2020-04-30T01:27:37.021158,29.661,97982.9765625
1588210028640,2020-04-30T01:27:37.028662,29.706,97982.8125
1588210028687,2020-04-30T01:27:37.042961,29.753,97982.3125
1588210028734,2020-04-30T01:27:37.050469,29.8,97982.3125
1588210028781,2020-04-30T01:27:37.057572,29.847,97982.4765625
1588210028827,2020-04-30T01:27:37.064923,29.893,97982.640625
1588210028874,2020-04-30T01:27:37.072866,29.94,97983.390625
1588210028921,2020-04-30T01:27:37.079919,29.987,97983.890625
1588210028968,2020-04-30T01:27:37.088695,30.034,97984.484375
1588210029013,2020-04-30T01:27:37.097573,30.079,97984.484375
1588210029060,2020-04-30T01:27:37.103883,30.126,97984.484375
1588210029107,2020-04-30T01:27:37.110785,30.173,97984.484375
1588210029154,2020-04-30T01:27:37.118696,30.22,97983.234375
1588210029201,2020-04-30T01:27:37.125847,30.267,97983.8125
1588210029248,2020-04-30T01:27:37.148026,30.314,97984.3125
1588210029295,2020-04-30T01:27:37.155238,30.361,97984.140625
1588210029342,2020-04-30T01:27:37.170519,30.408,97983.8125
1588210029387,2020-04-30T01:27:37.177713,30.453,97983.3125
1588210029434,2020-04-30T01:27:37.185517,30.5,97982.734375
1588210029481,2020-04-30T01:27:37.192786,30.547,97982.90625
1588210029528,2020-04-30T01:27:37.207422,30.594,97982.734375
1588210029575,2020-04-30T01:27:37.209000,30.641,97983.0625
1588210029621,2020-04-30T01:27:37.229910,30.687,97983.234375
1588210029668,2020-04-30T01:27:37.231664,30.734,97983.40625
1588210029715,2020-04-30T01:27:37.245347,30.781,97984.140625
1588210029762,2020-04-30T01:27:37.248857,30.828,97984.71875
1588210029809,2020-04-30T01:27:37.261480,30.875,97983.984375
1588210029854,2020-04-30T01:27:37.269212,30.92,97983.640625
1588210029901,2020-04-30T01:27:37.276495,30.967,97983.484375
1588210029948,2020-04-30T01:27:37.284287,31.014,97982.640625
1588210029995,2020-04-30T01:27:37.291687,31.061,97982.640625
1588210030042,2020-04-30T01:27:37.299642,31.108,97983.21875
1588210030089,2020-04-30T01:27:37.306922,31.155,97982.546875
1588210030136,2020-04-30T01:27:37.321986,31.202,97982.890625
1588210030181,2020-04-30T01:27:37.328550,31.247,97982.21875
1588210030228,2020-04-30T01:27:37.337363,31.294,97982.21875
1588210030275,2020-04-30T01:27:37.343571,31.341,97982.046875
1588210030322,2020-04-30T01:27:37.350713,31.388,97982.546875
1588210030368,2020-04-30T01:27:37.358041,31.434,97982.21875
1588210030415,2020-04-30T01:27:37.372891,31.481,97981.890625
1588210030462,2020-04-30T01:27:37.379907,31.528,97981.046875
1588210030509,2020-04-30T01:27:37.387424,31.575,97980.546875
1588210030556,2020-04-30T01:27:37.394935,31.622,97980.265625
1588210030603,2020-04-30T01:27:37.396481,31.669,97979.765625
1588210030648,2020-04-30T01:27:37.409912,31.714,97979.421875
1588210030695,2020-04-30T01:27:37.418315,31.761,97979.59375
1588210030742,2020-04-30T01:27:37.426201,31.808,97978.7578125
1588210030789,2020-04-30T01:27:37.433441,31.855,97978.59375
1588210030836,2020-04-30T01:27:37.441211,31.902,97978.09375
1588210030883,2020-04-30T01:27:37.448297,31.949,97977.7578125
1588210030929,2020-04-30T01:27:37.456203,31.995,97977.8359375
1588210030976,2020-04-30T01:27:37.470278,32.042,97978.5
1588210031022,2020-04-30T01:27:37.478703,32.088,97978.671875
1588210031069,2020-04-30T01:27:37.485826,32.135,97979.0
1588210031116,2020-04-30T01:27:37.493711,32.182,97979.671875
1588210031162,2020-04-30T01:27:37.500797,32.228,97980.421875
1588210031209,2020-04-30T01:27:37.508706,32.275,97980.09375
1588210031256,2020-04-30T01:27:37.522847,32.322,97980.265625
1588210031303,2020-04-30T01:27:37.530564,32.369,97980.265625
1588210031350,2020-04-30T01:27:37.537697,32.416,97979.421875
1588210031397,2020-04-30T01:27:37.545122,32.463,97979.671875
1588210031442,2020-04-30T01:27:37.556443,32.508,97979.671875
1588210031489,2020-04-30T01:27:37.560055,32.555,97979.8359375
1588210031536,2020-04-30T01:27:37.569259,32.602,97979.8359375
1588210031583,2020-04-30T01:27:37.577590,32.649,97980.0
1588210031630,2020-04-30T01:27:37.584427,32.696,97980.078125
1588210031677,2020-04-30T01:27:37.591719,32.743,97979.75
1588210031723,2020-04-30T01:27:37.599521,32.789,97980.078125
1588210031770,2020-04-30T01:27:37.607838,32.836,97979.5
1588210031817,2020-04-30T01:27:37.629032,32.883,97979.3359375
1588210031863,2020-04-30T01:27:37.635905,32.929,97978.8359375
1588210031909,2020-04-30T01:27:37.644411,32.975,97979.0
1588210031956,2020-04-30T01:27:37.666182,33.022,97978.5
1588210032003,2020-04-30T01:27:37.673771,33.069,97977.921875
1588210032050,2020-04-30T01:27:37.680807,33.116,97978.5
1588210032097,2020-04-30T01:27:37.703031,33.163,97978.8359375
1588210032144,2020-04-30T01:27:37.710437,33.21,97979.3359375
1588210032191,2020-04-30T01:27:37.717427,33.257,97979.671875
1588210032236,2020-04-30T01:27:37.725508,33.302,97980.40625
1588210032283,2020-04-30T01:27:37.732517,33.349,97980.078125
1588210032330,2020-04-30T01:27:37.740433,33.396,97979.90625
1588210032377,2020-04-30T01:27:37.748712,33.443,97980.40625
1588210032424,2020-04-30T01:27:37.759746,33.49,97980.578125
1588210032470,2020-04-30T01:27:37.764186,33.536,97980.90625
1588210032517,2020-04-30T01:27:37.771745,33.583,97981.7890625
1588210032564,2020-04-30T01:27:37.779000,33.63,97980.578125
1588210032611,2020-04-30T01:27:37.786826,33.677,97980.25
1588210032657,2020-04-30T01:27:37.794185,33.723,97979.90625
1588210032703,2020-04-30T01:27:37.808934,33.769,97980.125
1588210032750,2020-04-30T01:27:37.816360,33.816,97980.7890625
1588210032797,2020-04-30T01:27:37.823943,33.863,97980.2890625
1588210032844,2020-04-30T01:27:37.831118,33.91,97979.578125
1588210032891,2020-04-30T01:27:37.838536,33.957,97979.7890625
1588210032938,2020-04-30T01:27:37.845380,34.004,97979.2890625
1588210032985,2020-04-30T01:27:37.853665,34.051,97978.953125
1588210033030,2020-04-30T01:27:37.875067,34.096,97977.90625
1588210033077,2020-04-30T01:27:37.876340,34.143,97977.7421875
1588210033124,2020-04-30T01:27:37.889812,34.19,97977.578125
1588210033171,2020-04-30T01:27:37.891212,34.237,97978.125
1588210033218,2020-04-30T01:27:37.904841,34.284,97978.625
1588210033264,2020-04-30T01:27:37.913217,34.33,97978.28125
1588210033311,2020-04-30T01:27:37.921043,34.377,97978.859375
1588210033358,2020-04-30T01:27:37.927986,34.424,97978.78125
1588210033404,2020-04-30T01:27:37.936043,34.47,97978.625
1588210033450,2020-04-30T01:27:37.943034,34.516,97978.453125
1588210033497,2020-04-30T01:27:37.951044,34.563,97979.03125
1588210033544,2020-04-30T01:27:37.972571,34.61,97979.9375
