epoch  (ms),time  (-07:00),elapsed  (s),X-Axis  (T),Y-Axis  (T),Z-Axis  (T)
1588209998896,2020-04-30T01:27:13.627869,0.0,-58.75,157.8125,336.375
1588209998996,2020-04-30T01:27:13.644579,0.1,-58.75,156.75,327.0
1588209999095,2020-04-30T01:27:13.694043,0.199,-59.125,155.25,328.6875
1588209999195,2020-04-30T01:27:13.756051,0.299,-59.5,157.875,328.6875
1588209999295,2020-04-30T01:27:13.829679,0.399,-59.875,157.5,328.6875
1588209999393,2020-04-30T01:27:13.920485,0.497,-58.0,156.75,329.9375
1588209999492,2020-04-30T01:27:13.934790,0.596,-58.375,153.375,330.125
1588209999592,2020-04-30T01:27:14.001920,0.696,-59.125,156.375,332.1875
1588209999692,2020-04-30T01:27:14.048192,0.796,-58.75,154.875,332.125
1588209999791,2020-04-30T01:27:14.107567,0.895,-58.375,156.75,331.6875
1588209999891,2020-04-30T01:27:14.146800,0.995,-58.0,149.25,332.4375
1588209999989,2020-04-30T01:27:14.196924,1.093,-58.375,154.5,333.25
1588210000089,2020-04-30T01:27:14.219414,1.193,-59.875,153.0,333.75
1588210000188,2020-04-30T01:27:14.235378,1.292,-60.25,153.0,333.625
1588210000288,2020-04-30T01:27:14.281144,1.392,-60.625,150.0,333.3125
1588210000387,2020-04-30T01:27:14.354925,1.491,-59.5,156.75,332.4375
1588210000487,2020-04-30T01:27:14.400760,1.591,-62.125,159.0,329.25
1588210000587,2020-04-30T01:27:14.430990,1.691,-61.75,157.5,327.1875
1588210000685,2020-04-30T01:27:14.467345,1.789,-63.25,149.625,326.8125
1588210000784,2020-04-30T01:27:14.483901,1.888,-65.5,154.875,327.1875
1588210000884,2020-04-30T01:27:14.536099,1.988,-67.375,156.0,327.1875
1588210000984,2020-04-30T01:27:14.602830,2.088,-64.0,156.0,327.625
1588210001083,2020-04-30T01:27:14.639430,2.187,-60.25,150.375,329.25
1588210001183,2020-04-30T01:27:14.678581,2.287,-56.125,154.5,332.4375
1588210001281,2020-04-30T01:27:14.729545,2.385,-53.875,150.375,337.3125
1588210001381,2020-04-30T01:27:14.751915,2.485,-53.5,151.5,340.125
1588210001480,2020-04-30T01:27:14.783047,2.584,-53.5,146.625,344.125
1588210001580,2020-04-30T01:27:14.835425,2.684,-53.5,154.125,343.3125
1588210001679,2020-04-30T01:27:14.909432,2.783,-55.375,153.375,342.9375
1588210001779,2020-04-30T01:27:14.940119,2.883,-58.0,151.875,338.1875
1588210001879,2020-04-30T01:27:14.985276,2.983,-61.375,148.125,333.375
1588210001977,2020-04-30T01:27:15.014757,3.081,-62.875,155.25,330.9375
1588210002076,2020-04-30T01:27:15.044699,3.18,-65.125,154.5,329.3125
1588210002176,2020-04-30T01:27:15.060628,3.28,-67.375,154.5,328.5625
1588210002276,2020-04-30T01:27:15.091074,3.38,-70.75,149.25,328.0
1588210002375,2020-04-30T01:27:15.195677,3.479,-72.5625,156.0,328.5625
1588210002475,2020-04-30T01:27:15.262572,3.579,-74.8125,156.0,330.1875
1588210002575,2020-04-30T01:27:15.308484,3.679,-76.6875,154.5,331.375
1588210002673,2020-04-30T01:27:15.338178,3.777,-77.0625,146.625,334.0625
1588210002772,2020-04-30T01:27:15.390847,3.876,-77.4375,153.0,336.1875
1588210002872,2020-04-30T01:27:15.608227,3.976,-77.4375,153.0,336.9375
1588210002971,2020-04-30T01:27:15.862883,4.075,-77.8125,155.625,336.0625
1588210003071,2020-04-30T01:27:15.938399,4.175,-78.5625,147.75,336.125
1588210003171,2020-04-30T01:27:16.027792,4.275,-76.3125,152.25,338.5625
1588210003269,2020-04-30T01:27:16.093646,4.373,-77.8125,152.25,342.625
1588210003368,2020-04-30T01:27:16.132376,4.472,-79.3125,151.875,342.125
1588210003468,2020-04-30T01:27:16.192062,4.572,-80.0625,149.625,338.9375
1588210003568,2020-04-30T01:27:16.269601,4.672,-80.8125,156.0,337.75
1588210003667,2020-04-30T01:27:16.309865,4.771,-80.8125,155.25,338.875
1588210003767,2020-04-30T01:27:16.375293,4.871,-80.4375,154.125,339.75
1588210003866,2020-04-30T01:27:16.469487,4.97,-81.9375,148.5,342.125
1588210003966,2020-04-30T01:27:16.507587,5.07,-81.9375,155.625,344.1875
1588210004064,2020-04-30T01:27:16.694471,5.168,-82.3125,156.375,342.625
1588210004164,2020-04-30T01:27:16.776964,5.268,-82.6875,156.75,343.375
1588210004263,2020-04-30T01:27:16.921235,5.367,-83.0625,151.875,343.0625
1588210004363,2020-04-30T01:27:16.965613,5.467,-83.0625,154.5,344.1875
1588210004463,2020-04-30T01:27:17.048627,5.567,-81.9375,155.25,344.25
1588210004562,2020-04-30T01:27:17.212752,5.666,-81.9375,153.75,343.8125
1588210004660,2020-04-30T01:27:17.415674,5.764,-81.9375,148.875,343.3125
1588210004760,2020-04-30T01:27:17.602245,5.864,-81.5625,155.25,345.0625
1588210004860,2020-04-30T01:27:17.889684,5.964,-82.3125,153.375,345.0
1588210004959,2020-04-30T01:27:18.033935,6.063,-82.3125,153.0,345.0625
1588210005059,2020-04-30T01:27:18.209556,6.163,-82.3125,144.375,345.875
1588210005158,2020-04-30T01:27:18.235745,6.262,-82.6875,153.75,345.9375
1588210005257,2020-04-30T01:27:18.314440,6.361,-82.3125,154.125,345.125
1588210005356,2020-04-30T01:27:18.337443,6.46,-82.3125,152.625,345.875
1588210005456,2020-04-30T01:27:18.367616,6.56,-81.9375,145.875,346.6875
1588210005555,2020-04-30T01:27:18.390785,6.659,-82.3125,153.375,347.875
1588210005655,2020-04-30T01:27:18.449500,6.759,-82.6875,155.25,345.9375
1588210005755,2020-04-30T01:27:18.510799,6.859,-81.5625,154.5,347.0
1588210005854,2020-04-30T01:27:18.555849,6.958,-82.3125,150.375,345.4375
1588210005952,2020-04-30T01:27:18.587083,7.056,-83.0625,152.625,345.875
1588210006052,2020-04-30T01:27:18.625103,7.156,-82.6875,155.625,346.25
1588210006152,2020-04-30T01:27:18.647149,7.256,-82.6875,153.75,345.875
1588210006251,2020-04-30T01:27:18.690407,7.355,-82.6875,150.375,347.4375
1588210006351,2020-04-30T01:27:18.717793,7.455,-82.6875,155.625,347.625
1588210006450,2020-04-30T01:27:18.765679,7.554,-82.3125,153.75,347.5
1588210006549,2020-04-30T01:27:18.804294,7.653,-82.6875,154.125,348.3125
1588210006648,2020-04-30T01:27:18.870838,7.752,-82.6875,152.25,347.875
1588210006748,2020-04-30T01:27:18.900898,7.852,-83.0625,151.5,347.875
1588210006847,2020-04-30T01:27:18.923239,7.951,-83.0625,153.75,347.875
1588210006947,2020-04-30T01:27:18.978204,8.051,-82.6875,154.5,347.875
1588210007047,2020-04-30T01:27:19.057365,8.151,-82.3125,151.5,347.5
1588210007146,2020-04-30T01:27:19.102518,8.25,-83.4375,153.75,347.125
1588210007244,2020-04-30T01:27:19.147319,8.348,-82.3125,154.125,347.875
1588210007344,2020-04-30T01:27:19.184528,8.448,-82.3125,153.0,347.875
1588210007444,2020-04-30T01:27:19.214533,8.548,-82.6875,153.0,347.0625
1588210007543,2020-04-30T01:27:19.274532,8.647,-81.9375,151.875,348.375
1588210007643,2020-04-30T01:27:19.349565,8.747,-82.3125,154.875,347.5
1588210007742,2020-04-30T01:27:19.395143,8.846,-81.9375,154.5,347.875
1588210007842,2020-04-30T01:27:19.500167,8.946,-82.6875,154.875,348.3125
1588210007940,2020-04-30T01:27:19.635764,9.044,-83.0625,153.0,349.0625
1588210008040,2020-04-30T01:27:19.914515,9.144,-83.0625,154.125,348.3125
1588210008139,2020-04-30T01:27:20.115486,9.243,-82.6875,153.375,347.875
1588210008239,2020-04-30T01:27:20.468855,9.343,-82.6875,151.875,347.875
1588210008339,2020-04-30T01:27:20.820671,9.443,-82.3125,153.375,348.3125
1588210008438,2020-04-30T01:27:20.942877,9.542,-82.6875,154.875,347.875
1588210008538,2020-04-30T01:27:21.097181,9.642,-81.9375,154.125,347.875
1588210008636,2020-04-30T01:27:21.277911,9.74,-82.3125,154.5,346.6875
1588210008736,2020-04-30T01:27:21.435014,9.84,-82.3125,154.5,348.3125
1588210008835,2020-04-30T01:27:21.712990,9.939,-82.6875,154.125,347.875
1588210008935,2020-04-30T01:27:21.990945,10.039,-82.3125,153.375,347.875
1588210009034,2020-04-30T01:27:22.211201,10.138,-82.6875,154.875,348.3125
1588210009134,2020-04-30T01:27:22.485878,10.238,-82.6875,153.375,347.5
1588210009234,2020-04-30T01:27:22.688097,10.338,-83.8125,153.375,348.3125
1588210009332,2020-04-30T01:27:22.824695,10.436,-82.6875,154.875,348.3125
1588210009431,2020-04-30T01:27:23.220791,10.535,-83.0625,154.125,347.5
1588210009531,2020-04-30T01:27:23.317229,10.635,-81.9375,155.625,347.9375
1588210009631,2020-04-30T01:27:23.594584,10.735,-82.6875,154.125,348.6875
1588210009730,2020-04-30T01:27:23.774996,10.834,-82.3125,153.75,348.3125
1588210009830,2020-04-30T01:27:23.867458,10.934,-82.6875,154.5,348.6875
1588210009928,2020-04-30T01:27:23.911315,11.032,-83.4375,153.75,348.75
1588210010028,2020-04-30T01:27:24.000501,11.132,-81.9375,153.75,348.6875
1588210010127,2020-04-30T01:27:24.060314,11.231,-83.0625,154.5,347.875
1588210010227,2020-04-30T01:27:24.144814,11.331,-83.0625,155.25,347.875
1588210010326,2020-04-30T01:27:24.166613,11.43,-82.6875,153.75,348.375
1588210010426,2020-04-30T01:27:24.212638,11.53,-83.0625,153.75,348.375
1588210010526,2020-04-30T01:27:24.270795,11.63,-83.0625,152.625,347.875
1588210010624,2020-04-30T01:27:24.345640,11.728,-81.9375,153.375,347.5625
1588210010723,2020-04-30T01:27:24.390882,11.827,-82.6875,154.125,347.875
1588210010823,2020-04-30T01:27:24.442498,11.927,-83.4375,155.25,347.875
1588210010923,2020-04-30T01:27:24.494930,12.027,-82.3125,151.875,347.5
1588210011022,2020-04-30T01:27:24.555234,12.126,-81.1875,155.625,347.875
1588210011122,2020-04-30T01:27:24.624422,12.226,-82.6875,154.5,348.3125
1588210011221,2020-04-30T01:27:24.705340,12.325,-83.0625,154.875,346.6875
1588210011320,2020-04-30T01:27:24.871253,12.424,-82.3125,151.875,347.5
1588210011419,2020-04-30T01:27:24.907865,12.523,-82.6875,154.5,347.5
1588210011519,2020-04-30T01:27:25.102627,12.623,-82.6875,154.125,347.875
1588210011618,2020-04-30T01:27:25.187437,12.722,-83.0625,155.625,346.8125
1588210011718,2020-04-30T01:27:25.538980,12.822,-83.4375,152.25,347.9375
1588210011818,2020-04-30T01:27:25.846631,12.922,-83.0625,155.25,348.3125
1588210011917,2020-04-30T01:27:26.430127,13.021,-81.9375,152.625,349.625
1588210012015,2020-04-30T01:27:28.373524,13.119,-82.6875,153.75,348.4375
1588210012115,2020-04-30T01:27:28.862599,13.219,-83.8125,150.75,348.4375
1588210012215,2020-04-30T01:27:28.965112,13.319,-82.6875,154.125,347.9375
1588210012314,2020-04-30T01:27:29.156110,13.418,-82.6875,154.875,349.125
1588210012414,2020-04-30T01:27:29.205032,13.518,-83.0625,154.875,348.375
1588210012513,2020-04-30T01:27:29.372182,13.617,-83.4375,151.875,348.75
1588210012613,2020-04-30T01:27:29.588840,13.717,-82.3125,154.5,348.3125
1588210012711,2020-04-30T01:27:29.828142,13.815,-82.6875,154.125,348.375
1588210012811,2020-04-30T01:27:29.941857,13.915,-82.3125,153.75,348.375
1588210012910,2020-04-30T01:27:29.999764,14.014,-82.3125,150.75,347.5625
1588210013010,2020-04-30T01:27:30.025642,14.114,-81.9375,155.25,348.4375
1588210013110,2020-04-30T01:27:30.106119,14.214,-82.6875,155.25,347.5
1588210013209,2020-04-30T01:27:30.219745,14.313,-81.9375,153.375,347.625
1588210013309,2020-04-30T01:27:30.270101,14.413,-81.5625,149.625,347.0625
1588210013407,2020-04-30T01:27:30.357557,14.511,-81.5625,155.25,347.625
1588210013507,2020-04-30T01:27:30.390736,14.611,-83.0625,154.875,347.875
1588210013606,2020-04-30T01:27:30.496519,14.71,-82.6875,154.875,347.875
1588210013706,2020-04-30T01:27:30.570635,14.81,-82.3125,149.25,347.0625
1588210013805,2020-04-30T01:27:30.660677,14.909,-82.6875,154.875,348.4375
1588210013905,2020-04-30T01:27:30.773000,15.009,-83.0625,153.75,348.4375
1588210014005,2020-04-30T01:27:30.930162,15.109,-83.4375,155.25,347.9375
1588210014103,2020-04-30T01:27:31.214829,15.207,-81.9375,147.0,349.25
1588210014202,2020-04-30T01:27:31.530874,15.306,-81.9375,155.25,347.9375
1588210014302,2020-04-30T01:27:31.636168,15.406,-81.9375,154.875,348.375
1588210014402,2020-04-30T01:27:31.957779,15.506,-83.0625,152.625,347.625
1588210014501,2020-04-30T01:27:32.145106,15.605,-83.4375,147.375,348.4375
1588210014601,2020-04-30T01:27:32.243262,15.705,-82.3125,155.625,348.75
1588210014700,2020-04-30T01:27:32.422782,15.804,-82.6875,153.375,348.375
1588210014799,2020-04-30T01:27:32.512799,15.903,-83.0625,154.5,348.375
1588210014898,2020-04-30T01:27:32.535098,16.002,-82.3125,149.25,348.6875
1588210014998,2020-04-30T01:27:32.603029,16.102,-82.3125,154.125,348.3125
1588210015097,2020-04-30T01:27:32.670552,16.201,-83.0625,153.75,349.25
1588210015197,2020-04-30T01:27:32.797841,16.301,-83.0625,152.625,348.4375
1588210015297,2020-04-30T01:27:32.876494,16.401,-83.0625,146.625,347.875
1588210015396,2020-04-30T01:27:32.955960,16.5,-83.0625,155.25,349.5
1588210015494,2020-04-30T01:27:33.052977,16.598,-83.8125,155.625,347.125
1588210015594,2020-04-30T01:27:33.068132,16.698,-82.6875,153.75,347.875
1588210015694,2020-04-30T01:27:33.202418,16.798,-82.3125,148.875,348.3125
1588210015793,2020-04-30T01:27:33.239961,16.897,-83.4375,155.625,347.5625
1588210015893,2020-04-30T01:27:33.353860,16.997,-81.9375,154.125,347.9375
1588210015992,2020-04-30T01:27:33.443898,17.096,-82.6875,154.5,347.875
1588210016092,2020-04-30T01:27:33.518805,17.196,-83.0625,151.125,347.875
1588210016190,2020-04-30T01:27:33.549250,17.294,-83.0625,153.375,347.875
1588210016290,2020-04-30T01:27:33.608369,17.394,-82.6875,154.875,348.375
1588210016389,2020-04-30T01:27:33.685398,17.493,-83.8125,153.375,348.75
1588210016489,2020-04-30T01:27:33.751695,17.593,-82.6875,152.25,348.75
1588210016589,2020-04-30T01:27:33.781515,17.693,-82.6875,151.875,348.6875
1588210016688,2020-04-30T01:27:33.858319,17.792,-83.4375,154.875,348.375
1588210016788,2020-04-30T01:27:33.881064,17.892,-82.6875,154.5,348.3125
1588210016886,2020-04-30T01:27:33.911035,17.99,-82.6875,153.75,348.6875
1588210016986,2020-04-30T01:27:33.932251,18.09,-83.0625,154.875,348.375
1588210017085,2020-04-30T01:27:33.990098,18.189,-82.3125,155.25,348.4375
1588210017185,2020-04-30T01:27:34.008325,18.289,-82.6875,154.875,348.6875
1588210017284,2020-04-30T01:27:34.036409,18.388,-82.3125,153.375,348.3125
1588210017384,2020-04-30T01:27:34.070646,18.488,-82.6875,155.25,349.5625
1588210017484,2020-04-30T01:27:34.135730,18.588,-82.6875,153.75,348.375
1588210017582,2020-04-30T01:27:34.162966,18.686,-83.0625,154.5,348.6875
1588210017681,2020-04-30T01:27:34.177496,18.785,-83.0625,155.25,347.5625
1588210017781,2020-04-30T01:27:34.211073,18.885,-82.6875,150.375,348.3125
1588210017881,2020-04-30T01:27:34.255047,18.985,-83.4375,153.75,348.375
1588210017980,2020-04-30T01:27:34.307641,19.084,-82.6875,154.125,347.5
1588210018080,2020-04-30T01:27:34.328167,19.184,-82.3125,153.75,347.875
1588210018179,2020-04-30T01:27:34.351170,19.283,-81.9375,153.75,348.6875
1588210018278,2020-04-30T01:27:34.375005,19.382,-82.6875,153.75,348.8125
1588210018377,2020-04-30T01:27:34.406443,19.481,-83.0625,153.0,349.0625
1588210018477,2020-04-30T01:27:34.419319,19.581,-82.3125,155.25,348.6875
1588210018576,2020-04-30T01:27:34.455746,19.68,-82.3125,153.75,348.75
1588210018676,2020-04-30T01:27:34.478256,19.78,-83.4375,154.125,348.6875
1588210018776,2020-04-30T01:27:34.530178,19.88,-82.6875,155.25,348.3125
1588210018875,2020-04-30T01:27:34.545135,19.979,-82.3125,154.875,347.875
1588210018973,2020-04-30T01:27:34.590540,20.077,-83.0625,153.375,348.75
1588210019073,2020-04-30T01:27:34.612447,20.177,-82.6875,154.875,347.875
1588210019173,2020-04-30T01:27:34.628642,20.277,-82.6875,153.375,347.875
1588210019272,2020-04-30T01:27:34.659205,20.376,-82.3125,156.0,348.6875
1588210019372,2020-04-30T01:27:34.711180,20.476,-83.0625,154.5,349.0625
1588210019471,2020-04-30T01:27:34.732988,20.575,-83.8125,154.875,348.3125
1588210019571,2020-04-30T01:27:34.755465,20.675,-82.6875,152.25,348.6875
1588210019669,2020-04-30T01:27:34.807969,20.773,-82.6875,154.125,348.6875
1588210019769,2020-04-30T01:27:34.823217,20.873,-83.8125,154.5,349.5
1588210019868,2020-04-30T01:27:34.860108,20.972,-83.4375,154.125,348.3125
1588210019968,2020-04-30T01:27:34.875152,21.072,-82.6875,153.0,347.875
1588210020068,2020-04-30T01:27:34.898236,21.172,-82.6875,154.875,349.0625
1588210020167,2020-04-30T01:27:34.920772,21.271,-82.6875,154.875,347.875
1588210020267,2020-04-30T01:27:34.965775,21.371,-82.6875,153.75,348.3125
1588210020365,2020-04-30T01:27:34.980604,21.469,-83.0625,150.75,348.3125
1588210020465,2020-04-30T01:27:34.997458,21.569,-83.0625,155.625,348.375
1588210020564,2020-04-30T01:27:35.017544,21.668,-82.3125,155.25,347.9375
1588210020664,2020-04-30T01:27:35.072224,21.768,-83.4375,153.75,347.5
1588210020763,2020-04-30T01:27:35.094039,21.867,-82.6875,149.625,347.9375
1588210020863,2020-04-30T01:27:35.138970,21.967,-82.6875,156.0,348.375
1588210020963,2020-04-30T01:27:35.168528,22.067,-83.0625,154.5,347.5
1588210021061,2020-04-30T01:27:35.197531,22.165,-82.6875,155.25,348.3125
1588210021160,2020-04-30T01:27:35.228942,22.264,-82.6875,147.375,348.0
1588210021260,2020-04-30T01:27:35.259337,22.364,-83.0625,154.5,347.5625
1588210021360,2020-04-30T01:27:35.275370,22.464,-83.0625,154.5,349.125
1588210021459,2020-04-30T01:27:35.289171,22.563,-83.4375,153.375,348.3125
1588210021559,2020-04-30T01:27:35.318684,22.663,-82.3125,147.75,348.3125
1588210021658,2020-04-30T01:27:35.349274,22.762,-83.4375,151.875,348.75
1588210021757,2020-04-30T01:27:35.392949,22.861,-81.9375,154.875,349.0625
1588210021856,2020-04-30T01:27:35.415489,22.96,-83.0625,154.125,349.125
1588210021956,2020-04-30T01:27:35.437398,23.06,-82.6875,148.875,348.75
1588210022055,2020-04-30T01:27:35.460307,23.159,-83.0625,154.5,348.6875
1588210022155,2020-04-30T01:27:35.491098,23.259,-82.6875,153.375,347.9375
1588210022255,2020-04-30T01:27:35.521102,23.359,-82.3125,151.5,348.6875
1588210022354,2020-04-30T01:27:35.542950,23.458,-83.8125,148.875,348.75
1588210022454,2020-04-30T01:27:35.557925,23.558,-82.6875,155.25,347.9375
1588210022552,2020-04-30T01:27:35.594874,23.656,-82.3125,154.125,347.9375
1588210022652,2020-04-30T01:27:35.624844,23.756,-82.3125,153.0,347.875
1588210022751,2020-04-30T01:27:35.656108,23.855,-82.6875,150.75,347.9375
1588210022851,2020-04-30T01:27:35.692205,23.955,-83.4375,154.125,348.3125
1588210022950,2020-04-30T01:27:35.708627,24.054,-83.0625,154.125,347.625
1588210023050,2020-04-30T01:27:35.723555,24.154,-83.0625,153.0,347.875
1588210023150,2020-04-30T01:27:35.753047,24.254,-82.3125,152.25,347.875
1588210023249,2020-04-30T01:27:35.768506,24.353,-83.0625,154.5,347.5625
1588210023347,2020-04-30T01:27:35.828347,24.451,-82.3125,154.125,347.625
1588210023447,2020-04-30T01:27:35.842908,24.551,-82.6875,154.5,347.5
1588210023547,2020-04-30T01:27:35.872609,24.651,-82.3125,152.625,348.375
1588210023646,2020-04-30T01:27:35.905278,24.75,-82.6875,153.75,348.375
1588210023746,2020-04-30T01:27:35.934043,24.85,-82.3125,154.875,348.0
1588210023845,2020-04-30T01:27:35.949698,24.949,-83.0625,153.75,348.6875
1588210023944,2020-04-30T01:27:35.972376,25.048,-82.3125,154.5,348.3125
1588210024043,2020-04-30T01:27:35.993969,25.147,-83.0625,154.5,347.875
1588210024143,2020-04-30T01:27:36.009161,25.247,-82.6875,153.75,348.75
1588210024242,2020-04-30T01:27:36.045782,25.346,-83.0625,153.375,347.9375
1588210024342,2020-04-30T01:27:36.090767,25.446,-82.6875,155.25,347.875
1588210024442,2020-04-30T01:27:36.120630,25.546,-83.0625,154.125,349.4375
1588210024541,2020-04-30T01:27:36.135719,25.645,-83.0625,155.25,348.375
1588210024639,2020-04-30T01:27:36.172480,25.743,-82.6875,154.5,348.3125
1588210024739,2020-04-30T01:27:36.196470,25.843,-83.0625,156.375,348.375
1588210024839,2020-04-30T01:27:36.218659,25.943,-83.4375,153.0,349.25
1588210024938,2020-04-30T01:27:36.252757,26.042,-83.0625,153.75,348.375
1588210025038,2020-04-30T01:27:36.270592,26.142,-82.6875,154.125,348.375
1588210025137,2020-04-30T01:27:36.293271,26.241,-82.6875,155.25,349.5
1588210025237,2020-04-30T01:27:36.322737,26.341,-83.0625,154.875,348.375
1588210025337,2020-04-30T01:27:36.346624,26.441,-82.6875,153.75,348.75
1588210025435,2020-04-30T01:27:36.374907,26.539,-82.6875,154.875,348.75
1588210025534,2020-04-30T01:27:36.398680,26.638,-83.0625,152.625,347.125
1588210025634,2020-04-30T01:27:36.442609,26.738,-82.6875,154.875,347.9375
1588210025734,2020-04-30T01:27:36.457424,26.838,-83.0625,153.0,347.625
1588210025833,2020-04-30T01:27:36.472591,26.937,-82.6875,154.125,347.9375
1588210025933,2020-04-30T01:27:36.488956,27.037,-82.6875,155.625,347.5625
1588210026031,2020-04-30T01:27:36.503943,27.135,-82.6875,155.25,348.4375
1588210026131,2020-04-30T01:27:36.525805,27.235,-82.6875,153.75,347.875
1588210026230,2020-04-30T01:27:36.540751,27.334,-82.6875,153.75,347.875
1588210026330,2020-04-30T01:27:36.562752,27.434,-83.0625,151.875,348.0
1588210026429,2020-04-30T01:27:36.585216,27.533,-83.0625,154.5,348.0
1588210026529,2020-04-30T01:27:36.601461,27.633,-82.6875,154.875,348.0
1588210026629,2020-04-30T01:27:36.623970,27.733,-82.6875,154.875,348.4375
1588210026727,2020-04-30T01:27:36.646309,27.831,-82.3125,154.875,348.375
1588210026826,2020-04-30T01:27:36.668833,27.93,-81.9375,154.875,345.5
1588210026926,2020-04-30T01:27:36.690519,28.03,-83.0625,155.25,344.8125
1588210027026,2020-04-30T01:27:36.705741,28.13,-82.3125,153.0,343.9375
1588210027125,2020-04-30T01:27:36.734914,28.229,-81.5625,155.625,345.0625
1588210027225,2020-04-30T01:27:36.749902,28.329,-81.9375,153.375,345.125
1588210027325,2020-04-30T01:27:36.766251,28.429,-82.3125,154.5,345.9375
1588210027423,2020-04-30T01:27:36.781195,28.527,-81.5625,152.25,346.3125
1588210027522,2020-04-30T01:27:36.810826,28.626,-81.1875,154.5,346.3125
1588210027622,2020-04-30T01:27:36.825832,28.726,-81.9375,153.0,346.0
1588210027721,2020-04-30T01:27:36.847675,28.825,-81.1875,152.25,346.3125
1588210027821,2020-04-30T01:27:36.870348,28.925,-80.4375,150.75,344.0
1588210027921,2020-04-30T01:27:36.885160,29.025,-78.5625,154.5,342.6875
1588210028020,2020-04-30T01:27:36.908328,29.124,-77.8125,152.625,339.0625
1588210028118,2020-04-30T01:27:36.923299,29.222,-77.4375,153.0,336.6875
1588210028218,2020-04-30T01:27:36.945208,29.322,-77.0625,151.875,335.0625
1588210028318,2020-04-30T01:27:36.960904,29.422,-77.8125,155.25,333.875
1588210028417,2020-04-30T01:27:36.990751,29.521,-77.8125,155.625,335.0625
1588210028517,2020-04-30T01:27:37.010365,29.621,-78.9375,156.0,335.375
1588210028616,2020-04-30T01:27:37.028112,29.72,-77.8125,151.875,335.375
1588210028716,2020-04-30T01:27:37.043345,29.82,-79.3125,158.625,335.125
1588210028814,2020-04-30T01:27:37.059014,29.918,-78.9375,159.375,333.875
1588210028914,2020-04-30T01:27:37.074187,30.018,-78.5625,159.0,333.0
1588210029013,2020-04-30T01:27:37.097071,30.117,-76.3125,154.125,331.125
1588210029113,2020-04-30T01:27:37.111230,30.217,-75.9375,158.625,329.8125
1588210029213,2020-04-30T01:27:37.140641,30.317,-75.1875,159.375,328.625
1588210029312,2020-04-30T01:27:37.155635,30.416,-74.8125,156.375,328.1875
1588210029412,2020-04-30T01:27:37.184912,30.516,-74.0625,148.125,329.0625
1588210029510,2020-04-30T01:27:37.199897,30.614,-73.6875,156.375,328.1875
1588210029610,2020-04-30T01:27:37.216191,30.714,-71.5,156.375,328.6875
1588210029709,2020-04-30T01:27:37.239089,30.813,-72.25,154.5,328.25
1588210029809,2020-04-30T01:27:37.261815,30.913,-71.125,144.75,329.5
1588210029908,2020-04-30T01:27:37.276796,31.012,-71.125,151.875,331.8125
1588210030008,2020-04-30T01:27:37.291983,31.112,-70.375,146.25,335.125
1588210030108,2020-04-30T01:27:37.314152,31.212,-69.25,147.375,336.6875
1588210030206,2020-04-30T01:27:37.329603,31.31,-69.625,142.875,338.625
1588210030305,2020-04-30T01:27:37.350252,31.409,-70.75,147.75,339.4375
1588210030405,2020-04-30T01:27:37.365375,31.509,-70.0,147.75,341.5
1588210030505,2020-04-30T01:27:37.381479,31.609,-67.75,148.125,339.9375
1588210030604,2020-04-30T01:27:37.402523,31.708,-66.25,144.375,337.5625
1588210030704,2020-04-30T01:27:37.418786,31.808,-64.375,152.25,335.0625
1588210030802,2020-04-30T01:27:37.433880,31.906,-62.5,151.875,333.4375
1588210030902,2020-04-30T01:27:37.455508,32.006,-61.0,149.625,336.1875
1588210031001,2020-04-30T01:27:37.470717,32.105,-59.125,142.9375,338.3125
1588210031101,2020-04-30T01:27:37.493026,32.205,-58.0,148.5,341.5
1588210031200,2020-04-30T01:27:37.508023,32.304,-57.25,147.0,345.125
1588210031300,2020-04-30T01:27:37.529962,32.404,-56.125,148.5,345.0625
1588210031400,2020-04-30T01:27:37.545659,32.504,-56.875,143.625,343.5
1588210031498,2020-04-30T01:27:37.561804,32.602,-56.125,151.125,342.6875
1588210031597,2020-04-30T01:27:37.577958,32.701,-56.125,149.625,341.125
1588210031697,2020-04-30T01:27:37.599034,32.801,-56.875,151.125,340.375
1588210031797,2020-04-30T01:27:37.615540,32.901,-56.875,146.25,338.75
1588210031896,2020-04-30T01:27:37.643534,33.0,-56.875,153.375,337.5625
1588210031996,2020-04-30T01:27:37.673180,33.1,-56.875,152.25,337.9375
1588210032094,2020-04-30T01:27:37.695627,33.198,-56.875,152.625,336.1875
1588210032194,2020-04-30T01:27:37.717687,33.298,-55.75,147.75,335.875
1588210032293,2020-04-30T01:27:37.732891,33.397,-56.5,154.875,335.875
1588210032393,2020-04-30T01:27:37.748964,33.497,-56.5,155.25,335.875
1588210032492,2020-04-30T01:27:37.764508,33.596,-57.25,153.375,336.3125
1588210032592,2020-04-30T01:27:37.786295,33.696,-56.125,147.75,335.875
1588210032692,2020-04-30T01:27:37.801855,33.796,-56.5,154.875,335.875
1588210032790,2020-04-30T01:27:37.823312,33.894,-56.5,150.0,336.3125
1588210032889,2020-04-30T01:27:37.838018,33.993,-57.25,154.875,336.6875
1588210032989,2020-04-30T01:27:37.867288,34.093,-55.75,149.25,337.0625
1588210033089,2020-04-30T01:27:37.882490,34.193,-56.125,154.125,336.625
1588210033188,2020-04-30T01:27:37.898549,34.292,-56.875,154.5,336.3125
1588210033288,2020-04-30T01:27:37.913618,34.392,-55.75,155.25,335.5
1588210033387,2020-04-30T01:27:37.935389,34.491,-56.125,148.125,335.4375
1588210033486,2020-04-30T01:27:37.950368,34.59,-56.5,156.375,335.5
