epoch  (ms),time  (-07:00),elapsed  (s),X-Axis  (T),Y-Axis  (T),Z-Axis  (T)
1588210480169,2020-04-30T01:35:25.513060,0.0,-82.9375,-2.9375,-179.5
1588210480267,2020-04-30T01:35:25.566242,0.098,-81.875,-1.0625,-180.3125
1588210480366,2020-04-30T01:35:25.641522,0.197,-82.25,-2.9375,-179.5
1588210480464,2020-04-30T01:35:25.730174,0.295,-81.875,-3.6875,-178.75
1588210480564,2020-04-30T01:35:25.808556,0.395,-82.25,-2.5625,-177.9375
1588210480664,2020-04-30T01:35:25.917667,0.495,-82.25,-2.1875,-178.375
1588210480762,2020-04-30T01:35:26.000165,0.593,-81.5,-2.1875,-178.4375
1588210480861,2020-04-30T01:35:26.082676,0.692,-82.25,-4.4375,-178.375
1588210480961,2020-04-30T01:35:26.142663,0.792,-81.875,-8.5,-177.1875
1588210481059,2020-04-30T01:35:26.210168,0.89,-81.5,-4.4375,-177.5625
1588210481159,2020-04-30T01:35:26.255170,0.99,-80.375,-2.5625,-176.3125
1588210481258,2020-04-30T01:35:26.330208,1.089,-80.375,-3.6875,-173.0625
1588210481357,2020-04-30T01:35:26.375197,1.188,-79.625,-4.8125,-165.75
1588210481456,2020-04-30T01:35:26.435186,1.287,-80.0,-11.5,-155.5
1588210481556,2020-04-30T01:35:26.495168,1.387,-78.5,-9.25,-142.0
1588210481654,2020-04-30T01:35:26.570169,1.485,-75.9375,-10.375,-134.3125
1588210481754,2020-04-30T01:35:26.622673,1.585,-76.25,-13.375,-130.625
1588210481853,2020-04-30T01:35:26.697668,1.684,-75.5625,-14.5,-131.875
1588210481951,2020-04-30T01:35:26.772676,1.782,-76.25,-11.125,-136.75
1588210482051,2020-04-30T01:35:26.833043,1.882,-78.125,-9.25,-147.0
1588210482150,2020-04-30T01:35:26.907695,1.981,-80.0,-5.9375,-158.8125
1588210482249,2020-04-30T01:35:26.990173,2.08,-81.875,-4.8125,-167.75
1588210482348,2020-04-30T01:35:27.050166,2.179,-82.25,-8.875,-176.375
1588210482448,2020-04-30T01:35:27.132747,2.279,-82.25,-1.8125,-178.8125
1588210482546,2020-04-30T01:35:27.192823,2.377,-82.25,-2.1875,-176.375
1588210482646,2020-04-30T01:35:27.260746,2.477,-81.5,-4.0625,-169.0625
1588210482745,2020-04-30T01:35:27.312688,2.576,-81.875,-6.6875,-155.125
1588210482843,2020-04-30T01:35:27.372675,2.674,-81.5,-14.125,-147.75
1588210482943,2020-04-30T01:35:27.432666,2.774,-81.5,-9.25,-142.4375
1588210483043,2020-04-30T01:35:27.492694,2.874,-81.5,-11.875,-140.875
1588210483141,2020-04-30T01:35:27.538439,2.972,-81.875,-10.75,-137.5625
1588210483240,2020-04-30T01:35:27.606159,3.071,-82.25,-14.5,-137.5625
1588210483338,2020-04-30T01:35:27.657621,3.169,-83.3125,-14.875,-131.4375
1588210483438,2020-04-30T01:35:27.742045,3.269,-83.375,-18.5625,-130.625
1588210483538,2020-04-30T01:35:27.808561,3.369,-84.0625,-16.6875,-131.4375
1588210483636,2020-04-30T01:35:27.882801,3.467,-83.6875,-18.9375,-127.8125
1588210483735,2020-04-30T01:35:27.950442,3.566,-83.0,-23.75,-124.9375
1588210483835,2020-04-30T01:35:28.056535,3.666,-83.6875,-19.6875,-124.9375
1588210483933,2020-04-30T01:35:28.117060,3.764,-84.0625,-20.8125,-126.1875
1588210484033,2020-04-30T01:35:28.192128,3.864,-84.0625,-18.5625,-126.5625
1588210484132,2020-04-30T01:35:28.263793,3.963,-84.4375,-20.0625,-127.0
1588210484231,2020-04-30T01:35:28.317849,4.062,-84.4375,-23.75,-129.4375
1588210484330,2020-04-30T01:35:28.382077,4.161,-85.1875,-17.4375,-130.6875
1588210484430,2020-04-30T01:35:28.445445,4.261,-85.5625,-18.5625,-131.875
1588210484528,2020-04-30T01:35:28.490939,4.359,-86.3125,-17.4375,-133.125
1588210484628,2020-04-30T01:35:28.550218,4.459,-87.0625,-18.1875,-133.125
1588210484727,2020-04-30T01:35:28.610185,4.558,-87.4375,-22.3125,-134.3125
1588210484825,2020-04-30T01:35:28.685190,4.656,-87.4375,-18.1875,-134.3125
1588210484925,2020-04-30T01:35:28.745186,4.756,-86.6875,-16.6875,-135.9375
1588210485025,2020-04-30T01:35:28.820267,4.856,-84.8125,-15.9375,-135.1875
1588210485123,2020-04-30T01:35:28.880201,4.954,-83.375,-18.9375,-136.75
1588210485222,2020-04-30T01:35:28.955618,5.053,-81.5,-11.125,-140.4375
1588210485320,2020-04-30T01:35:29.000200,5.151,-80.75,-10.375,-141.25
1588210485420,2020-04-30T01:35:29.060592,5.251,-78.875,-9.25,-139.25
1588210485520,2020-04-30T01:35:29.129304,5.351,-78.5,-9.625,-138.4375
1588210485618,2020-04-30T01:35:29.180196,5.449,-78.125,-13.75,-140.0625
1588210485717,2020-04-30T01:35:29.225216,5.548,-76.625,-7.4375,-138.875
1588210485817,2020-04-30T01:35:29.293157,5.648,-77.0,-8.875,-140.5
1588210485915,2020-04-30T01:35:29.337739,5.746,-77.0,-7.75,-142.0625
1588210486015,2020-04-30T01:35:29.429051,5.846,-79.25,-8.5,-142.875
1588210486114,2020-04-30T01:35:29.473379,5.945,-81.125,-14.5,-142.0625
1588210486212,2020-04-30T01:35:29.533187,6.043,-82.625,-7.75,-144.125
1588210486312,2020-04-30T01:35:29.577694,6.143,-84.8125,-8.125,-148.625
1588210486412,2020-04-30T01:35:29.637710,6.243,-82.625,-9.625,-142.5
1588210486510,2020-04-30T01:35:29.682875,6.341,-81.125,-8.125,-140.875
1588210486609,2020-04-30T01:35:29.770320,6.44,-80.75,-8.875,-140.0625
1588210486709,2020-04-30T01:35:29.828483,6.54,-80.0,-9.625,-136.75
1588210486807,2020-04-30T01:35:29.885196,6.638,-79.625,-9.25,-136.75
1588210486907,2020-04-30T01:35:29.937688,6.738,-78.875,-9.25,-139.25
1588210487005,2020-04-30T01:35:29.997679,6.836,-79.625,-12.25,-138.0
1588210487105,2020-04-30T01:35:30.050185,6.936,-78.5,-8.5,-136.0
1588210487204,2020-04-30T01:35:30.111708,7.035,-78.875,-11.5,-136.0
1588210487302,2020-04-30T01:35:30.156108,7.133,-78.875,-10.75,-135.9375
1588210487402,2020-04-30T01:35:30.215744,7.233,-78.875,-11.5,-135.1875
1588210487502,2020-04-30T01:35:30.260109,7.333,-79.25,-17.8125,-134.75
1588210487600,2020-04-30T01:35:30.322011,7.431,-78.875,-11.125,-133.5625
1588210487699,2020-04-30T01:35:30.407782,7.53,-79.25,-10.75,-133.9375
1588210487799,2020-04-30T01:35:30.457706,7.63,-78.5,-9.25,-133.9375
1588210487897,2020-04-30T01:35:30.485773,7.728,-79.25,-10.75,-135.1875
1588210487997,2020-04-30T01:35:30.547059,7.828,-79.25,-15.5625,-133.5625
1588210488096,2020-04-30T01:35:30.583771,7.927,-77.75,-10.75,-133.5625
1588210488194,2020-04-30T01:35:30.658028,8.025,-79.625,-10.75,-133.5
1588210488294,2020-04-30T01:35:30.710198,8.125,-78.5,-10.0,-134.3125
1588210488394,2020-04-30T01:35:30.785179,8.225,-78.5,-11.875,-134.3125
1588210488492,2020-04-30T01:35:30.830191,8.323,-77.75,-11.125,-133.5625
1588210488591,2020-04-30T01:35:30.890194,8.422,-78.125,-10.0,-134.375
1588210488691,2020-04-30T01:35:30.935188,8.522,-78.875,-10.375,-134.375
1588210488789,2020-04-30T01:35:31.002706,8.62,-78.875,-10.75,-135.5625
1588210488889,2020-04-30T01:35:31.047697,8.72,-78.875,-18.5625,-135.1875
1588210488988,2020-04-30T01:35:31.115195,8.819,-78.5,-9.625,-135.625
1588210489087,2020-04-30T01:35:31.160279,8.918,-79.25,-11.5,-134.8125
1588210489186,2020-04-30T01:35:31.220779,9.017,-78.125,-13.75,-134.375
1588210489286,2020-04-30T01:35:31.272733,9.117,-78.5,-12.625,-134.0
1588210489384,2020-04-30T01:35:31.332710,9.215,-78.875,-14.875,-134.0
1588210489483,2020-04-30T01:35:31.385212,9.314,-78.125,-10.375,-134.0
1588210489582,2020-04-30T01:35:31.475327,9.413,-78.875,-10.375,-134.75
1588210489681,2020-04-30T01:35:31.527697,9.512,-78.125,-11.5,-135.5625
1588210489781,2020-04-30T01:35:31.602722,9.612,-79.25,-10.375,-133.9375
1588210489879,2020-04-30T01:35:31.655356,9.71,-78.875,-10.375,-134.75
1588210489979,2020-04-30T01:35:31.737798,9.81,-78.125,-10.375,-134.8125
1588210490078,2020-04-30T01:35:31.798301,9.909,-78.875,-11.125,-135.125
1588210490176,2020-04-30T01:35:31.872732,10.007,-78.875,-10.75,-135.1875
1588210490276,2020-04-30T01:35:31.925577,10.107,-78.5,-17.0625,-134.375
1588210490376,2020-04-30T01:35:32.008485,10.207,-78.875,-11.125,-134.375
1588210490474,2020-04-30T01:35:32.067708,10.305,-79.25,-12.25,-134.375
1588210490573,2020-04-30T01:35:32.142743,10.404,-78.875,-11.125,-134.3125
1588210490673,2020-04-30T01:35:32.195213,10.504,-78.125,-12.25,-134.375
1588210490771,2020-04-30T01:35:32.270207,10.602,-78.5,-15.5625,-134.75
1588210490871,2020-04-30T01:35:32.315221,10.702,-78.125,-9.625,-135.625
1588210490970,2020-04-30T01:35:32.375218,10.801,-78.125,-11.5,-134.0
1588210491068,2020-04-30T01:35:32.427719,10.899,-79.25,-10.75,-134.375
1588210491168,2020-04-30T01:35:32.488037,10.999,-78.5,-10.0,-134.75
1588210491268,2020-04-30T01:35:32.532846,11.099,-78.125,-9.25,-135.1875
1588210491366,2020-04-30T01:35:32.593556,11.197,-78.5,-12.25,-134.8125
1588210491465,2020-04-30T01:35:32.642917,11.296,-78.875,-9.625,-135.1875
1588210491565,2020-04-30T01:35:32.705237,11.396,-79.25,-10.75,-135.625
1588210491665,2020-04-30T01:35:32.758101,11.496,-78.875,-15.9375,-134.0
1588210491763,2020-04-30T01:35:32.819396,11.594,-79.25,-10.75,-133.125
1588210491862,2020-04-30T01:35:32.864560,11.693,-78.5,-12.25,-134.375
1588210491962,2020-04-30T01:35:32.953265,11.793,-79.25,-11.125,-133.125
1588210492060,2020-04-30T01:35:33.015162,11.891,-78.875,-10.75,-134.0
1588210492160,2020-04-30T01:35:33.072738,11.991,-79.25,-13.75,-133.125
1588210492259,2020-04-30T01:35:33.117735,12.09,-78.5,-11.125,-133.9375
1588210492358,2020-04-30T01:35:33.177702,12.189,-78.125,-12.25,-133.9375
1588210492457,2020-04-30T01:35:33.222734,12.288,-78.125,-11.875,-133.125
1588210492557,2020-04-30T01:35:33.290300,12.388,-78.875,-13.0,-133.5625
1588210492655,2020-04-30T01:35:33.342762,12.486,-78.5,-11.125,-132.3125
1588210492754,2020-04-30T01:35:33.402839,12.585,-79.25,-10.75,-132.75
1588210492854,2020-04-30T01:35:33.448136,12.685,-77.75,-12.25,-133.5625
1588210492952,2020-04-30T01:35:33.507887,12.783,-78.875,-11.5,-134.75
1588210493052,2020-04-30T01:35:33.560870,12.883,-78.125,-16.3125,-133.5625
1588210493151,2020-04-30T01:35:33.629718,12.982,-78.875,-10.0,-134.0
1588210493250,2020-04-30T01:35:33.673099,13.081,-78.5,-15.5625,-133.9375
1588210493349,2020-04-30T01:35:33.748163,13.18,-79.25,-10.375,-134.0
1588210493449,2020-04-30T01:35:33.800692,13.28,-78.5,-12.25,-134.375
1588210493547,2020-04-30T01:35:33.860464,13.378,-78.875,-14.5,-133.125
1588210493647,2020-04-30T01:35:33.935210,13.478,-78.875,-10.375,-133.5625
1588210493746,2020-04-30T01:35:33.995218,13.577,-78.5,-10.0,-133.5625
1588210493844,2020-04-30T01:35:34.047718,13.675,-78.125,-11.875,-134.8125
1588210493944,2020-04-30T01:35:34.107724,13.775,-78.5,-13.75,-134.0
1588210494042,2020-04-30T01:35:34.160210,13.873,-78.875,-11.5,-133.5625
1588210494142,2020-04-30T01:35:34.220210,13.973,-78.125,-10.375,-134.375
1588210494241,2020-04-30T01:35:34.265498,14.072,-78.125,-11.5,-134.3125
1588210494339,2020-04-30T01:35:34.332738,14.17,-78.875,-10.75,-135.625
1588210494439,2020-04-30T01:35:34.385229,14.27,-78.875,-18.1875,-133.9375
1588210494539,2020-04-30T01:35:34.452729,14.37,-78.875,-10.75,-134.0
1588210494637,2020-04-30T01:35:34.497746,14.468,-78.125,-13.0,-134.0
1588210494736,2020-04-30T01:35:34.572739,14.567,-78.5,-11.875,-134.3125
1588210494836,2020-04-30T01:35:34.625218,14.667,-78.5,-13.375,-133.5625
1588210494934,2020-04-30T01:35:34.693135,14.765,-79.25,-14.5,-133.5625
1588210495034,2020-04-30T01:35:34.762384,14.865,-79.25,-12.25,-134.0
1588210495133,2020-04-30T01:35:34.820210,14.964,-78.125,-11.125,-134.375
1588210495232,2020-04-30T01:35:34.865185,15.063,-78.875,-11.875,-133.5
1588210495331,2020-04-30T01:35:34.925250,15.162,-79.625,-13.0,-134.0
1588210495431,2020-04-30T01:35:34.970233,15.262,-79.25,-11.875,-132.75
1588210495529,2020-04-30T01:35:35.076031,15.36,-79.25,-11.875,-133.5625
1588210495629,2020-04-30T01:35:35.151212,15.46,-78.125,-10.75,-133.9375
1588210495728,2020-04-30T01:35:35.181622,15.559,-79.25,-10.375,-133.5625
1588210495826,2020-04-30T01:35:35.247850,15.657,-79.25,-17.0625,-133.125
1588210495926,2020-04-30T01:35:35.308059,15.757,-78.5,-10.75,-133.5625
1588210496025,2020-04-30T01:35:35.352883,15.856,-78.875,-11.875,-133.125
1588210496124,2020-04-30T01:35:35.420493,15.955,-78.125,-10.0,-133.125
1588210496223,2020-04-30T01:35:35.465413,16.054,-78.125,-11.125,-133.5625
1588210496323,2020-04-30T01:35:35.548251,16.154,-78.5,-15.5625,-133.125
1588210496421,2020-04-30T01:35:35.593010,16.252,-78.125,-10.0,-133.125
1588210496521,2020-04-30T01:35:35.661054,16.352,-78.5,-11.5,-134.0
1588210496620,2020-04-30T01:35:35.712776,16.451,-77.75,-11.875,-133.5625
1588210496718,2020-04-30T01:35:35.772767,16.549,-78.875,-12.625,-133.9375
1588210496818,2020-04-30T01:35:35.817747,16.649,-79.625,-10.375,-134.0
1588210496916,2020-04-30T01:35:35.877741,16.747,-78.875,-12.625,-134.375
1588210497016,2020-04-30T01:35:35.923876,16.847,-78.875,-11.125,-133.5625
1588210497115,2020-04-30T01:35:35.990843,16.946,-78.875,-10.75,-134.8125
1588210497213,2020-04-30T01:35:36.035283,17.044,-79.25,-17.0625,-134.375
1588210497313,2020-04-30T01:35:36.102921,17.144,-78.875,-13.0,-135.625
1588210497413,2020-04-30T01:35:36.147878,17.244,-79.625,-11.5,-135.625
1588210497511,2020-04-30T01:35:36.208145,17.342,-79.625,-10.0,-136.0
1588210497610,2020-04-30T01:35:36.275370,17.441,-79.25,-11.875,-136.0
1588210497710,2020-04-30T01:35:36.387738,17.541,-79.25,-14.125,-134.8125
1588210497810,2020-04-30T01:35:36.440247,17.641,-78.875,-9.25,-135.1875
1588210497908,2020-04-30T01:35:36.552764,17.739,-78.875,-10.0,-136.0
1588210498007,2020-04-30T01:35:36.605263,17.838,-79.25,-10.375,-136.0
1588210498106,2020-04-30T01:35:36.665386,17.937,-79.25,-10.75,-134.8125
1588210498205,2020-04-30T01:35:36.714874,18.036,-78.875,-9.625,-135.1875
1588210498305,2020-04-30T01:35:36.770322,18.136,-80.0,-12.25,-134.8125
1588210498403,2020-04-30T01:35:36.816601,18.234,-78.875,-10.375,-135.625
1588210498503,2020-04-30T01:35:36.882917,18.334,-78.875,-10.375,-134.8125
1588210498602,2020-04-30T01:35:36.930044,18.433,-79.25,-18.5625,-134.8125
1588210498700,2020-04-30T01:35:36.987832,18.531,-79.625,-10.375,-135.1875
1588210498800,2020-04-30T01:35:37.040355,18.631,-79.25,-11.125,-136.0
1588210498900,2020-04-30T01:35:37.100406,18.731,-80.0,-11.125,-134.8125
1588210498998,2020-04-30T01:35:37.152820,18.829,-80.0,-11.5,-134.75
1588210499097,2020-04-30T01:35:37.212629,18.928,-79.25,-13.75,-134.75
1588210499197,2020-04-30T01:35:37.272606,19.028,-79.25,-10.0,-134.8125
1588210499295,2020-04-30T01:35:37.332617,19.126,-79.25,-10.0,-135.5625
1588210499395,2020-04-30T01:35:37.377588,19.226,-79.625,-10.75,-135.1875
1588210499494,2020-04-30T01:35:37.437603,19.325,-79.25,-12.25,-134.8125
1588210499592,2020-04-30T01:35:37.542751,19.423,-79.625,-10.375,-134.8125
1588210499692,2020-04-30T01:35:37.587716,19.523,-79.25,-11.125,-133.125
1588210499792,2020-04-30T01:35:37.647607,19.623,-80.0,-10.375,-134.0
1588210499890,2020-04-30T01:35:37.692718,19.721,-79.625,-11.5,-134.375
1588210499989,2020-04-30T01:35:37.760112,19.82,-79.625,-17.4375,-132.75
1588210500089,2020-04-30T01:35:37.805090,19.92,-79.625,-10.0,-134.0
1588210500187,2020-04-30T01:35:37.865282,20.018,-79.625,-11.125,-133.5625
1588210500287,2020-04-30T01:35:37.910194,20.118,-79.625,-10.75,-134.375
1588210500385,2020-04-30T01:35:37.970160,20.216,-78.875,-10.375,-135.5625
1588210500484,2020-04-30T01:35:38.015164,20.315,-79.625,-17.8125,-133.5625
1588210500584,2020-04-30T01:35:38.090196,20.415,-79.25,-11.875,-133.5625
1588210500682,2020-04-30T01:35:38.135324,20.513,-78.5,-9.25,-134.375
1588210500782,2020-04-30T01:35:38.195216,20.613,-80.0,-9.625,-134.375
1588210500881,2020-04-30T01:35:38.255207,20.712,-79.625,-10.75,-134.75
1588210500980,2020-04-30T01:35:38.315169,20.811,-79.25,-8.875,-134.8125
1588210501079,2020-04-30T01:35:38.375203,20.91,-80.0,-10.0,-136.4375
1588210501179,2020-04-30T01:35:38.442831,21.01,-78.875,-11.125,-136.375
1588210501277,2020-04-30T01:35:38.497852,21.108,-78.875,-11.125,-136.0
1588210501377,2020-04-30T01:35:38.577591,21.208,-78.875,-19.3125,-136.375
1588210501476,2020-04-30T01:35:38.622619,21.307,-78.5,-10.375,-134.0
1588210501574,2020-04-30T01:35:38.697608,21.405,-79.25,-11.125,-135.1875
1588210501674,2020-04-30T01:35:38.742712,21.505,-79.25,-9.25,-135.625
1588210501774,2020-04-30T01:35:38.802786,21.605,-79.25,-11.875,-134.375
1588210501872,2020-04-30T01:35:38.855258,21.703,-80.0,-17.4375,-134.375
1588210501971,2020-04-30T01:35:38.915270,21.802,-78.875,-11.875,-134.375
1588210502071,2020-04-30T01:35:38.967773,21.902,-78.875,-10.75,-134.8125
1588210502169,2020-04-30T01:35:39.027753,22.0,-78.875,-11.5,-135.125
1588210502269,2020-04-30T01:35:39.080266,22.1,-78.5,-11.5,-133.9375
1588210502368,2020-04-30T01:35:39.147774,22.199,-79.25,-11.875,-133.5625
1588210502466,2020-04-30T01:35:39.192885,22.297,-79.25,-10.75,-134.0
1588210502566,2020-04-30T01:35:39.262119,22.397,-79.25,-10.0,-135.1875
1588210502664,2020-04-30T01:35:39.305613,22.495,-79.25,-11.125,-134.375
1588210502764,2020-04-30T01:35:39.389788,22.595,-79.25,-14.875,-134.375
1588210502863,2020-04-30T01:35:39.433528,22.694,-78.5,-10.0,-134.0
1588210502962,2020-04-30T01:35:39.492866,22.793,-79.25,-10.75,-133.5625
1588210503061,2020-04-30T01:35:39.540816,22.892,-79.625,-10.75,-134.375
1588210503161,2020-04-30T01:35:39.597758,22.992,-79.625,-10.375,-134.8125
1588210503259,2020-04-30T01:35:39.642775,23.09,-78.875,-15.5625,-133.5
1588210503358,2020-04-30T01:35:39.702901,23.189,-78.875,-10.375,-133.5
1588210503458,2020-04-30T01:35:39.748032,23.289,-78.875,-10.0,-133.5625
1588210503556,2020-04-30T01:35:39.816211,23.387,-78.875,-10.75,-133.5625
1588210503656,2020-04-30T01:35:39.867932,23.487,-79.25,-11.875,-133.125
1588210503755,2020-04-30T01:35:39.927914,23.586,-78.875,-11.875,-133.125
1588210503854,2020-04-30T01:35:39.988828,23.685,-79.625,-10.375,-133.125
1588210503953,2020-04-30T01:35:40.047910,23.784,-78.875,-10.375,-134.0
1588210504051,2020-04-30T01:35:40.104020,23.882,-79.25,-11.5,-133.5625
1588210504151,2020-04-30T01:35:40.160388,23.982,-78.5,-14.875,-133.125
1588210504251,2020-04-30T01:35:40.212873,24.082,-79.25,-11.125,-133.125
1588210504349,2020-04-30T01:35:40.272798,24.18,-79.625,-11.5,-134.0
1588210504448,2020-04-30T01:35:40.317766,24.279,-78.875,-10.375,-134.0
1588210504548,2020-04-30T01:35:40.390963,24.379,-79.625,-14.125,-134.0
1588210504646,2020-04-30T01:35:40.437918,24.477,-79.625,-21.1875,-133.125
1588210504746,2020-04-30T01:35:40.529025,24.577,-78.875,-11.125,-132.75
1588210504845,2020-04-30T01:35:40.572941,24.676,-79.25,-11.5,-134.0
1588210504943,2020-04-30T01:35:40.633158,24.774,-78.5,-11.875,-134.0
1588210505043,2020-04-30T01:35:40.678767,24.874,-78.875,-11.875,-134.375
1588210505141,2020-04-30T01:35:40.745302,24.972,-79.625,-18.5625,-132.75
1588210505241,2020-04-30T01:35:40.805310,25.072,-78.875,-10.0,-133.5625
1588210505340,2020-04-30T01:35:40.865496,25.171,-79.625,-11.875,-133.5
1588210505439,2020-04-30T01:35:40.910471,25.27,-79.625,-13.375,-133.5625
1588210505538,2020-04-30T01:35:40.970420,25.369,-78.875,-11.875,-133.9375
1588210505638,2020-04-30T01:35:41.022782,25.469,-78.875,-12.25,-134.0
1588210505736,2020-04-30T01:35:41.098017,25.567,-78.125,-12.25,-133.5625
1588210505836,2020-04-30T01:35:41.143268,25.667,-78.875,-10.75,-134.0
1588210505935,2020-04-30T01:35:41.202800,25.766,-79.25,-10.75,-134.8125
1588210506033,2020-04-30T01:35:41.255428,25.864,-79.625,-13.375,-134.375
1588210506133,2020-04-30T01:35:41.352906,25.964,-80.0,-10.75,-134.375
1588210506231,2020-04-30T01:35:41.397626,26.062,-80.75,-10.75,-135.625
1588210506331,2020-04-30T01:35:41.480194,26.162,-81.875,-11.5,-136.8125
1588210506430,2020-04-30T01:35:41.532632,26.261,-81.125,-11.125,-137.25
1588210506528,2020-04-30T01:35:41.630116,26.359,-81.5,-18.9375,-136.8125
1588210506628,2020-04-30T01:35:41.675131,26.459,-81.5,-10.375,-136.875
1588210506728,2020-04-30T01:35:41.735361,26.559,-81.5,-13.75,-137.25
1588210506826,2020-04-30T01:35:41.780487,26.657,-81.5,-10.75,-137.25
1588210506925,2020-04-30T01:35:41.847694,26.756,-81.5,-13.0,-138.4375
1588210507025,2020-04-30T01:35:41.907715,26.856,-81.5,-15.9375,-137.625
1588210507123,2020-04-30T01:35:41.975236,26.954,-81.5,-11.875,-137.25
1588210507223,2020-04-30T01:35:42.020233,27.054,-82.625,-10.375,-137.625
1588210507321,2020-04-30T01:35:42.080219,27.152,-81.5,-9.625,-138.0
1588210507421,2020-04-30T01:35:42.140222,27.252,-81.875,-10.0,-137.625
1588210507520,2020-04-30T01:35:42.215357,27.351,-80.75,-10.75,-137.1875
1588210507618,2020-04-30T01:35:42.260333,27.449,-81.125,-10.75,-137.25
1588210507718,2020-04-30T01:35:42.327667,27.549,-81.875,-10.75,-138.0
1588210507817,2020-04-30T01:35:42.372744,27.648,-81.5,-10.75,-138.0625
1588210507916,2020-04-30T01:35:42.515145,27.747,-81.875,-14.5,-138.0625
1588210508015,2020-04-30T01:35:42.567636,27.846,-81.5,-9.625,-137.625
1588210508115,2020-04-30T01:35:42.627753,27.946,-81.5,-11.125,-137.25
1588210508213,2020-04-30T01:35:42.672654,28.044,-81.5,-10.0,-137.625
1588210508313,2020-04-30T01:35:42.747630,28.144,-81.5,-10.75,-137.625
1588210508412,2020-04-30T01:35:42.792636,28.243,-81.125,-17.4375,-136.8125
1588210508510,2020-04-30T01:35:42.867639,28.341,-81.5,-9.625,-136.8125
1588210508610,2020-04-30T01:35:42.912764,28.441,-82.25,-11.5,-137.25
1588210508708,2020-04-30T01:35:42.995148,28.539,-81.125,-13.0,-137.625
1588210508808,2020-04-30T01:35:43.115401,28.639,-81.875,-12.625,-137.1875
1588210508907,2020-04-30T01:35:43.175356,28.738,-81.5,-13.375,-138.0625
1588210509007,2020-04-30T01:35:43.220255,28.838,-81.875,-9.625,-138.0
1588210509105,2020-04-30T01:35:43.295435,28.936,-81.5,-11.875,-137.6875
1588210509205,2020-04-30T01:35:43.340493,29.036,-80.75,-10.0,-137.25
1588210509303,2020-04-30T01:35:43.430454,29.134,-81.875,-12.25,-137.625
1588210509402,2020-04-30T01:35:43.482813,29.233,-81.875,-11.125,-137.25
1588210509502,2020-04-30T01:35:43.572792,29.333,-81.5,-11.875,-137.25
1588210509600,2020-04-30T01:35:43.617836,29.431,-81.5,-10.375,-138.0625
1588210509700,2020-04-30T01:35:43.692952,29.531,-81.125,-11.875,-137.625
1588210509799,2020-04-30T01:35:43.737931,29.63,-82.25,-16.6875,-137.625
1588210509898,2020-04-30T01:35:43.842944,29.729,-81.5,-10.375,-137.625
1588210509997,2020-04-30T01:35:43.888256,29.828,-81.875,-10.75,-136.375
1588210510097,2020-04-30T01:35:43.947790,29.928,-81.875,-9.625,-138.0
1588210510195,2020-04-30T01:35:44.000274,30.026,-81.125,-10.75,-137.5625
1588210510295,2020-04-30T01:35:44.067804,30.126,-80.75,-18.1875,-136.8125
1588210510394,2020-04-30T01:35:44.135310,30.225,-81.125,-10.0,-136.8125
1588210510492,2020-04-30T01:35:44.195288,30.323,-81.5,-10.375,-136.8125
1588210510592,2020-04-30T01:35:44.240436,30.423,-81.875,-11.5,-137.1875
1588210510690,2020-04-30T01:35:44.315288,30.521,-81.5,-11.125,-136.8125
1588210510790,2020-04-30T01:35:44.390351,30.621,-81.125,-10.375,-137.1875
1588210510889,2020-04-30T01:35:44.457796,30.72,-81.125,-11.125,-136.0
1588210510987,2020-04-30T01:35:44.502824,30.818,-81.125,-10.75,-137.1875
1588210511087,2020-04-30T01:35:44.562854,30.918,-81.125,-12.625,-137.25
1588210511187,2020-04-30T01:35:44.622971,31.018,-81.125,-15.1875,-137.1875
1588210511285,2020-04-30T01:35:44.728157,31.116,-81.875,-10.0,-136.8125
1588210511384,2020-04-30T01:35:44.773033,31.215,-82.25,-10.0,-138.0
1588210511484,2020-04-30T01:35:44.840378,31.315,-82.625,-10.0,-138.875
1588210511582,2020-04-30T01:35:44.900464,31.413,-82.25,-10.0,-138.8125
1588210511682,2020-04-30T01:35:44.975648,31.513,-82.625,-17.8125,-138.4375
1588210511781,2020-04-30T01:35:45.035528,31.612,-82.25,-11.5,-138.4375
1588210511879,2020-04-30T01:35:45.132830,31.71,-82.25,-10.0,-138.8125
1588210511979,2020-04-30T01:35:45.192881,31.81,-82.25,-13.375,-137.625
1588210512077,2020-04-30T01:35:45.267921,31.908,-81.5,-10.375,-138.875
1588210512177,2020-04-30T01:35:45.320319,32.008,-81.5,-12.25,-138.0625
1588210512276,2020-04-30T01:35:45.395497,32.107,-81.875,-10.375,-138.5
1588210512375,2020-04-30T01:35:45.447822,32.206,-81.875,-10.375,-137.625
1588210512474,2020-04-30T01:35:45.537747,32.305,-82.25,-10.75,-138.0
1588210512574,2020-04-30T01:35:45.597657,32.405,-82.25,-13.0,-137.25
1588210512672,2020-04-30T01:35:45.680163,32.503,-81.875,-10.375,-138.4375
1588210512772,2020-04-30T01:35:45.740156,32.603,-81.875,-11.125,-137.625
1588210512871,2020-04-30T01:35:45.822674,32.702,-82.625,-10.0,-138.0625
1588210512969,2020-04-30T01:35:45.875154,32.8,-81.875,-11.125,-137.625
1588210513069,2020-04-30T01:35:45.972695,32.9,-82.25,-16.6875,-137.25
1588210513169,2020-04-30T01:35:46.040161,33.0,-81.875,-10.375,-137.25
1588210513267,2020-04-30T01:35:46.115162,33.098,-81.5,-11.125,-137.625
1588210513366,2020-04-30T01:35:46.167708,33.197,-81.5,-11.5,-136.4375
1588210513466,2020-04-30T01:35:46.287828,33.297,-81.5,-10.375,-138.0625
1588210513564,2020-04-30T01:35:46.377851,33.395,-81.5,-13.75,-137.25
1588210513664,2020-04-30T01:35:46.467846,33.495,-81.5,-9.25,-137.1875
1588210513763,2020-04-30T01:35:46.542775,33.594,-81.5,-10.0,-137.625
1588210513861,2020-04-30T01:35:46.617918,33.692,-81.125,-11.5,-136.8125
1588210513961,2020-04-30T01:35:46.707750,33.792,-81.125,-14.125,-136.8125
1588210514059,2020-04-30T01:35:46.790491,33.89,-81.125,-11.125,-136.8125
1588210514159,2020-04-30T01:35:46.857840,33.99,-82.25,-10.75,-136.0
1588210514258,2020-04-30T01:35:46.955181,34.089,-81.125,-10.0,-137.625
1588210514357,2020-04-30T01:35:47.007702,34.188,-81.125,-11.125,-137.625
1588210514456,2020-04-30T01:35:47.082732,34.287,-81.5,-16.3125,-136.8125
1588210514556,2020-04-30T01:35:47.135175,34.387,-81.875,-10.0,-137.25
1588210514654,2020-04-30T01:35:47.210189,34.485,-81.875,-11.875,-138.0625
1588210514754,2020-04-30T01:35:47.270188,34.585,-81.5,-11.125,-136.4375
1588210514853,2020-04-30T01:35:47.345188,34.684,-81.875,-11.5,-137.25
1588210514951,2020-04-30T01:35:47.390164,34.782,-81.125,-16.3125,-137.25
1588210515051,2020-04-30T01:35:47.457673,34.882,-82.25,-11.125,-137.25
1588210515150,2020-04-30T01:35:47.532718,34.981,-81.5,-10.375,-137.3125
1588210515249,2020-04-30T01:35:47.615542,35.08,-81.875,-11.5,-137.25
1588210515348,2020-04-30T01:35:47.667767,35.179,-81.125,-10.75,-136.0625
1588210515446,2020-04-30T01:35:47.735237,35.277,-80.75,-14.5,-136.4375
1588210515546,2020-04-30T01:35:47.787777,35.377,-81.125,-10.375,-136.0
1588210515646,2020-04-30T01:35:47.855350,35.477,-81.125,-10.375,-136.8125
1588210515744,2020-04-30T01:35:47.915352,35.575,-81.125,-12.25,-136.4375
1588210515843,2020-04-30T01:35:47.990278,35.674,-80.75,-11.875,-136.4375
1588210515943,2020-04-30T01:35:48.042872,35.774,-81.5,-10.75,-136.8125
1588210516041,2020-04-30T01:35:48.125335,35.872,-81.5,-11.125,-136.0
1588210516141,2020-04-30T01:35:48.170304,35.972,-81.5,-11.125,-136.875
1588210516240,2020-04-30T01:35:48.230278,36.071,-81.875,-13.0,-137.1875
1588210516338,2020-04-30T01:35:48.275287,36.169,-81.125,-15.25,-135.625
1588210516438,2020-04-30T01:35:48.350285,36.269,-80.75,-9.625,-136.4375
1588210516538,2020-04-30T01:35:48.410293,36.369,-81.125,-12.25,-137.25
1588210516636,2020-04-30T01:35:48.477775,36.467,-81.125,-10.75,-136.8125
1588210516735,2020-04-30T01:35:48.522787,36.566,-81.125,-13.375,-137.25
1588210516835,2020-04-30T01:35:48.582799,36.666,-81.5,-17.8125,-136.375
1588210516933,2020-04-30T01:35:48.635332,36.764,-80.75,-13.375,-136.875
1588210517033,2020-04-30T01:35:48.710348,36.864,-81.5,-10.75,-137.6875
1588210517131,2020-04-30T01:35:48.785471,36.962,-81.5,-9.25,-136.8125
1588210517231,2020-04-30T01:35:48.845552,37.062,-80.75,-11.125,-137.25
1588210517330,2020-04-30T01:35:48.913129,37.161,-81.125,-13.0,-136.8125
1588210517428,2020-04-30T01:35:48.987843,37.259,-81.125,-11.125,-137.25
1588210517528,2020-04-30T01:35:49.032859,37.359,-81.5,-12.25,-137.25
1588210517628,2020-04-30T01:35:49.107849,37.459,-81.5,-10.375,-137.625
1588210517726,2020-04-30T01:35:49.160339,37.557,-81.125,-14.125,-137.3125
1588210517825,2020-04-30T01:35:49.220464,37.656,-80.375,-11.875,-138.0625
1588210517925,2020-04-30T01:35:49.273017,37.756,-81.875,-11.5,-136.4375
1588210518023,2020-04-30T01:35:49.347859,37.854,-81.125,-10.0,-137.25
1588210518123,2020-04-30T01:35:49.400335,37.954,-81.5,-10.75,-137.25
1588210518221,2020-04-30T01:35:49.490380,38.052,-82.25,-18.1875,-136.0
1588210518320,2020-04-30T01:35:49.557848,38.151,-80.75,-9.25,-136.875
1588210518420,2020-04-30T01:35:49.647837,38.251,-81.125,-11.5,-136.8125
1588210518518,2020-04-30T01:35:49.722843,38.349,-80.0,-10.0,-136.4375
1588210518618,2020-04-30T01:35:49.782967,38.449,-80.375,-12.25,-134.8125
1588210518717,2020-04-30T01:35:49.858134,38.548,-78.5,-14.875,-133.125
1588210518817,2020-04-30T01:35:49.940803,38.648,-78.5,-12.25,-131.125
1588210518915,2020-04-30T01:35:50.015346,38.746,-77.375,-13.0,-127.8125
1588210519015,2020-04-30T01:35:50.097845,38.846,-76.625,-14.125,-125.8125
1588210519113,2020-04-30T01:35:50.165753,38.944,-75.5625,-15.9375,-124.5625
1588210519212,2020-04-30T01:35:50.232860,39.043,-74.4375,-14.875,-122.125
1588210519312,2020-04-30T01:35:50.285355,39.143,-74.8125,-17.0625,-121.75
1588210519410,2020-04-30T01:35:50.352896,39.241,-74.4375,-13.75,-123.75
1588210519510,2020-04-30T01:35:50.405475,39.341,-74.4375,-16.3125,-123.75
1588210519609,2020-04-30T01:35:50.503006,39.44,-74.8125,-20.8125,-123.375
1588210519708,2020-04-30T01:35:50.563453,39.539,-74.4375,-15.25,-121.75
1588210519807,2020-04-30T01:35:50.622870,39.638,-75.5625,-17.0625,-120.0625
1588210519907,2020-04-30T01:35:50.690361,39.738,-74.8125,-16.3125,-118.875
1588210520005,2020-04-30T01:35:50.772891,39.836,-74.4375,-18.9375,-116.8125
1588210520105,2020-04-30T01:35:50.817866,39.936,-74.8125,-25.25,-117.25
1588210520204,2020-04-30T01:35:50.885293,40.035,-76.625,-17.4375,-118.875
1588210520302,2020-04-30T01:35:50.945308,40.133,-80.375,-17.8125,-121.3125
1588210520402,2020-04-30T01:35:51.020335,40.233,-82.625,-19.3125,-122.5
1588210520500,2020-04-30T01:35:51.080339,40.331,-84.4375,-21.1875,-123.75
1588210520600,2020-04-30T01:35:51.162854,40.431,-83.375,-20.0625,-123.75
1588210520699,2020-04-30T01:35:51.245507,40.53,-83.375,-18.5625,-126.1875
1588210520797,2020-04-30T01:35:51.366021,40.628,-82.625,-17.0625,-126.25
1588210520897,2020-04-30T01:35:51.410213,40.728,-78.125,-18.9375,-120.875
1588210520997,2020-04-30T01:35:51.462704,40.828,-72.9375,-26.0,-115.25
1588210521095,2020-04-30T01:35:51.530210,40.926,-73.3125,-17.0625,-119.6875
1588210521194,2020-04-30T01:35:51.590217,41.025,-74.0625,-16.3125,-122.5625
1588210521294,2020-04-30T01:35:51.680201,41.125,-74.8125,-15.5625,-123.75
1588210521392,2020-04-30T01:35:51.740335,41.223,-75.1875,-17.8125,-124.625
1588210521492,2020-04-30T01:35:51.807704,41.323,-74.8125,-21.1875,-125.4375
1588210521591,2020-04-30T01:35:51.890334,41.422,-73.6875,-13.75,-125.4375
1588210521690,2020-04-30T01:35:51.987724,41.521,-73.6875,-14.125,-126.25
1588210521789,2020-04-30T01:35:52.070454,41.62,-74.0625,-14.125,-127.4375
1588210521889,2020-04-30T01:35:52.167874,41.72,-75.1875,-12.625,-131.5
1588210521987,2020-04-30T01:35:52.242924,41.818,-76.6875,-16.3125,-133.5625
1588210522087,2020-04-30T01:35:52.332893,41.918,-80.0,-11.875,-138.5
1588210522186,2020-04-30T01:35:52.385363,42.017,-83.375,-11.125,-143.375
1588210522284,2020-04-30T01:35:52.505365,42.115,-85.5625,-9.25,-151.9375
1588210522384,2020-04-30T01:35:52.557916,42.215,-85.9375,-10.375,-155.1875
1588210522482,2020-04-30T01:35:52.632961,42.313,-85.5625,-9.25,-151.9375
1588210522582,2020-04-30T01:35:52.685380,42.413,-86.6875,-17.0625,-151.9375
1588210522681,2020-04-30T01:35:52.752863,42.512,-87.0625,-10.375,-151.9375
1588210522779,2020-04-30T01:35:52.812870,42.61,-87.8125,-14.875,-152.375
1588210522879,2020-04-30T01:35:52.887872,42.71,-89.3125,-20.4375,-152.0
1588210522979,2020-04-30T01:35:52.932863,42.81,-90.8125,-13.75,-159.75
1588210523077,2020-04-30T01:35:53.022900,42.908,-90.0625,-10.375,-165.875
1588210523176,2020-04-30T01:35:53.112889,43.007,-90.0625,-8.875,-171.5625
1588210523276,2020-04-30T01:35:53.187883,43.107,-88.5625,-8.5,-174.0625
1588210523374,2020-04-30T01:35:53.240510,43.205,-88.5625,-10.75,-175.6875
1588210523474,2020-04-30T01:35:53.330367,43.305,-87.0625,-6.3125,-176.5
1588210523573,2020-04-30T01:35:53.375369,43.404,-86.6875,-7.0625,-177.3125
1588210523671,2020-04-30T01:35:53.450374,43.502,-86.3125,-4.8125,-178.1875
1588210523771,2020-04-30T01:35:53.502931,43.602,-86.6875,-4.8125,-178.5625
1588210523871,2020-04-30T01:35:53.562872,43.702,-85.5625,-4.0625,-178.9375
1588210523969,2020-04-30T01:35:53.607860,43.8,-85.1875,-6.3125,-179.8125
1588210524068,2020-04-30T01:35:53.675492,43.899,-85.1875,-2.5625,-180.5625
1588210524168,2020-04-30T01:35:53.735653,43.999,-84.8125,-4.0625,-180.625
1588210524266,2020-04-30T01:35:53.825238,44.097,-84.125,-8.875,-180.9375
1588210524366,2020-04-30T01:35:53.885225,44.197,-83.375,-2.1875,-180.1875
1588210524464,2020-04-30T01:35:53.945763,44.295,-83.75,-3.6875,-180.1875
1588210524564,2020-04-30T01:35:54.012884,44.395,-83.0,-2.1875,-180.625
1588210524663,2020-04-30T01:35:54.072991,44.494,-82.625,-4.0625,-180.625
1588210524761,2020-04-30T01:35:54.132975,44.592,-83.0,-8.125,-181.0
1588210524861,2020-04-30T01:35:54.208010,44.692,-83.375,-3.3125,-180.125
1588210524961,2020-04-30T01:35:54.268262,44.792,-83.75,-2.5625,-180.5625
1588210525059,2020-04-30T01:35:54.350486,44.89,-83.375,-2.1875,-180.25
1588210525158,2020-04-30T01:35:54.410462,44.989,-83.75,-2.9375,-179.75
1588210525258,2020-04-30T01:35:54.477899,45.089,-83.0,-2.1875,-179.8125
1588210525356,2020-04-30T01:35:54.530415,45.187,-83.0,-1.8125,-181.0
