epoch  (ms),time  (-07:00),elapsed  (s),X-Axis  (T),Y-Axis  (T),Z-Axis  (T)
1588210244001,2020-04-30T01:31:45.049963,0.0,90.375,23.0,1.9375
1588210244103,2020-04-30T01:31:45.088149,0.102,88.5625,23.375,1.9375
1588210244202,2020-04-30T01:31:45.118014,0.201,88.9375,17.5625,1.9375
1588210244303,2020-04-30T01:31:45.178427,0.302,87.125,24.4375,1.5625
1588210244403,2020-04-30T01:31:45.216726,0.402,88.1875,24.125,1.9375
1588210244502,2020-04-30T01:31:45.282820,0.501,88.9375,17.5625,1.9375
1588210244604,2020-04-30T01:31:45.334912,0.603,87.5,23.75,1.125
1588210244703,2020-04-30T01:31:45.394788,0.702,86.75,23.0,0.75
1588210244803,2020-04-30T01:31:45.440045,0.802,87.8125,21.1875,1.125
1588210244904,2020-04-30T01:31:45.500311,0.903,89.3125,23.75,0.375
1588210245003,2020-04-30T01:31:45.552643,1.002,87.5,22.625,0.75
1588210245103,2020-04-30T01:31:45.612421,1.102,90.0,24.4375,1.125
1588210245204,2020-04-30T01:31:45.657549,1.203,89.3125,22.625,2.3125
1588210245304,2020-04-30T01:31:45.717558,1.303,90.0,22.25,1.9375
1588210245403,2020-04-30T01:31:45.762848,1.402,92.1875,21.1875,2.6875
1588210245504,2020-04-30T01:31:45.830067,1.503,95.5,20.0625,4.6875
1588210245604,2020-04-30T01:31:45.875088,1.603,99.875,19.0,6.625
1588210245704,2020-04-30T01:31:45.934805,1.703,100.9375,19.375,8.1875
1588210245805,2020-04-30T01:31:45.979660,1.804,104.25,18.625,12.5625
1588210245904,2020-04-30T01:31:46.040049,1.903,109.6875,15.0,16.0625
1588210246005,2020-04-30T01:31:46.122858,2.004,112.25,20.4375,14.5
1588210246105,2020-04-30T01:31:46.168291,2.104,115.1875,23.375,11.375
1588210246205,2020-04-30T01:31:46.227855,2.204,117.75,20.8125,12.9375
1588210246304,2020-04-30T01:31:46.272417,2.303,117.375,27.75,13.3125
1588210246405,2020-04-30T01:31:46.332161,2.404,117.375,28.5,11.375
1588210246505,2020-04-30T01:31:46.385072,2.504,118.4375,21.1875,12.9375
1588210246606,2020-04-30T01:31:46.445032,2.605,116.625,28.125,14.125
1588210246706,2020-04-30T01:31:46.490103,2.705,116.25,28.8125,11.75
1588210246805,2020-04-30T01:31:46.550095,2.804,117.375,25.5625,10.9375
1588210246906,2020-04-30T01:31:46.602652,2.905,116.625,31.0,8.1875
1588210247006,2020-04-30T01:31:46.692455,3.005,116.25,32.5,8.1875
1588210247105,2020-04-30T01:31:46.744791,3.104,115.9375,32.875,8.625
1588210247207,2020-04-30T01:31:46.812622,3.206,116.25,31.75,9.0
1588210247306,2020-04-30T01:31:46.857599,3.305,115.5625,32.125,9.375
1588210247406,2020-04-30T01:31:46.924883,3.405,117.0,29.5625,12.125
1588210247507,2020-04-30T01:31:46.969834,3.506,114.8125,27.75,7.4375
1588210247606,2020-04-30T01:31:47.030106,3.605,113.75,27.0,1.125
1588210247706,2020-04-30T01:31:47.076258,3.705,114.0625,27.75,0.0
1588210247807,2020-04-30T01:31:47.136600,3.806,113.375,24.4375,5.0625
1588210247907,2020-04-30T01:31:47.188078,3.906,112.25,24.8125,4.6875
1588210248006,2020-04-30T01:31:47.248831,4.005,112.25,24.8125,-0.75
1588210248107,2020-04-30T01:31:47.300718,4.106,111.1875,25.5625,-2.3125
1588210248207,2020-04-30T01:31:47.359971,4.206,110.0625,20.8125,1.125
1588210248307,2020-04-30T01:31:47.404836,4.306,113.0,24.8125,7.4375
1588210248408,2020-04-30T01:31:47.472822,4.407,115.9375,21.1875,9.75
1588210248507,2020-04-30T01:31:47.517198,4.506,113.6875,16.0625,12.125
1588210248607,2020-04-30T01:31:47.577372,4.606,113.375,21.1875,14.125
1588210248708,2020-04-30T01:31:47.622404,4.707,115.5625,23.0,13.3125
1588210248808,2020-04-30T01:31:47.685503,4.807,114.4375,18.625,12.9375
1588210248909,2020-04-30T01:31:47.728135,4.908,115.1875,24.125,18.0
1588210249008,2020-04-30T01:31:47.795729,5.007,117.0,23.375,18.8125
1588210249108,2020-04-30T01:31:47.845000,5.107,116.625,21.5625,14.875
1588210249209,2020-04-30T01:31:47.901566,5.208,115.9375,26.625,12.125
1588210249309,2020-04-30T01:31:47.945296,5.308,115.9375,26.3125,7.8125
1588210249408,2020-04-30T01:31:48.011555,5.407,114.4375,28.8125,8.1875
1588210249509,2020-04-30T01:31:48.081168,5.508,116.25,27.375,9.375
1588210249609,2020-04-30T01:31:48.125920,5.608,117.75,27.0,12.5
1588210249709,2020-04-30T01:31:48.185133,5.708,117.375,29.1875,10.5625
1588210249810,2020-04-30T01:31:48.229787,5.809,116.625,27.75,10.5625
1588210249909,2020-04-30T01:31:48.298528,5.908,117.375,30.6875,9.375
1588210250009,2020-04-30T01:31:48.350023,6.008,117.0,26.3125,10.9375
1588210250110,2020-04-30T01:31:48.409910,6.109,117.75,28.125,12.125
1588210250209,2020-04-30T01:31:48.462731,6.208,117.375,26.3125,11.75
1588210250309,2020-04-30T01:31:48.522789,6.308,117.375,28.8125,13.3125
1588210250410,2020-04-30T01:31:48.575802,6.409,118.125,27.75,11.375
1588210250510,2020-04-30T01:31:48.636474,6.509,115.9375,22.625,10.1875
1588210250609,2020-04-30T01:31:48.681325,6.608,117.375,30.3125,7.0625
1588210250710,2020-04-30T01:31:48.763901,6.709,116.25,32.125,3.125
1588210250810,2020-04-30T01:31:48.807653,6.809,116.25,25.9375,2.6875
1588210250910,2020-04-30T01:31:48.876658,6.909,115.5625,32.5,2.3125
1588210251011,2020-04-30T01:31:48.920754,7.01,116.25,31.75,2.3125
1588210251110,2020-04-30T01:31:48.983899,7.109,115.5625,29.5625,3.125
1588210251210,2020-04-30T01:31:49.026944,7.209,115.5625,33.1875,1.5625
1588210251311,2020-04-30T01:31:49.090809,7.31,115.5625,32.875,1.9375
1588210251411,2020-04-30T01:31:49.158178,7.41,114.8125,32.5,2.3125
1588210251512,2020-04-30T01:31:49.203358,7.511,115.1875,33.5625,1.5625
1588210251611,2020-04-30T01:31:49.249802,7.61,117.0,32.125,1.9375
1588210251711,2020-04-30T01:31:49.311586,7.71,115.1875,31.75,0.75
1588210251812,2020-04-30T01:31:49.357006,7.811,115.5625,35.0625,1.5625
1588210251912,2020-04-30T01:31:49.422457,7.911,115.1875,31.0,0.0
1588210252011,2020-04-30T01:31:49.467811,8.01,116.625,34.6875,0.75
1588210252112,2020-04-30T01:31:49.527692,8.111,113.0,34.6875,0.0
1588210252212,2020-04-30T01:31:49.574428,8.211,115.1875,35.0625,1.125
1588210252312,2020-04-30T01:31:49.634364,8.311,113.375,34.3125,0.0
1588210252413,2020-04-30T01:31:49.685932,8.412,113.75,34.6875,0.0
1588210252512,2020-04-30T01:31:49.748657,8.511,116.25,31.75,1.5625
1588210252612,2020-04-30T01:31:49.789918,8.611,117.0,33.5625,1.125
1588210252713,2020-04-30T01:31:49.851972,8.712,115.9375,34.6875,1.125
1588210252813,2020-04-30T01:31:49.894729,8.812,116.3125,28.125,1.125
1588210252912,2020-04-30T01:31:49.962516,8.911,114.4375,33.5625,0.75
1588210253013,2020-04-30T01:31:50.038021,9.012,114.8125,34.3125,-0.375
1588210253113,2020-04-30T01:31:50.085213,9.112,114.8125,29.5625,0.375
1588210253212,2020-04-30T01:31:50.144892,9.211,114.8125,34.3125,-0.375
1588210253313,2020-04-30T01:31:50.187993,9.312,115.5625,32.875,-0.375
1588210253413,2020-04-30T01:31:50.255025,9.412,115.1875,35.0625,-0.375
1588210253513,2020-04-30T01:31:50.300747,9.512,114.0625,32.5,-0.375
1588210253614,2020-04-30T01:31:50.359766,9.613,113.75,33.1875,-0.375
1588210253713,2020-04-30T01:31:50.404791,9.712,117.0,34.6875,0.0
1588210253813,2020-04-30T01:31:50.466188,9.812,116.25,35.75,-0.375
1588210253914,2020-04-30T01:31:50.517583,9.913,114.8125,33.5625,-0.75
1588210254014,2020-04-30T01:31:50.578172,10.013,115.1875,34.6875,0.0
1588210254113,2020-04-30T01:31:50.623015,10.112,115.9375,33.5625,0.0
1588210254214,2020-04-30T01:31:50.705022,10.213,114.8125,33.9375,0.375
1588210254314,2020-04-30T01:31:50.750749,10.313,117.0,34.3125,0.75
1588210254414,2020-04-30T01:31:50.817637,10.413,115.5625,35.0625,0.0
1588210254515,2020-04-30T01:31:50.862733,10.514,114.8125,32.875,0.375
1588210254614,2020-04-30T01:31:50.922517,10.613,115.9375,35.0625,-0.375
1588210254715,2020-04-30T01:31:50.967384,10.714,114.8125,34.3125,0.375
1588210254815,2020-04-30T01:31:51.027373,10.814,115.1875,27.75,0.75
1588210254915,2020-04-30T01:31:51.079854,10.914,114.0625,33.9375,0.75
1588210255016,2020-04-30T01:31:51.140155,11.015,117.75,33.5625,0.375
1588210255115,2020-04-30T01:31:51.192368,11.114,115.5625,28.5,0.375
1588210255215,2020-04-30T01:31:51.252845,11.214,114.4375,30.6875,0.75
1588210255316,2020-04-30T01:31:51.297609,11.315,114.8125,33.5625,0.0
1588210255416,2020-04-30T01:31:51.365114,11.415,115.9375,31.0,1.125
1588210255515,2020-04-30T01:31:51.410199,11.514,115.5625,34.3125,-0.75
1588210255616,2020-04-30T01:31:51.469907,11.615,114.8125,33.9375,0.0
1588210255716,2020-04-30T01:31:51.515291,11.715,114.8125,35.75,0.375
1588210255815,2020-04-30T01:31:51.575086,11.814,114.4375,33.5625,0.0
1588210255917,2020-04-30T01:31:51.629230,11.916,115.1875,30.3125,-0.375
1588210256016,2020-04-30T01:31:51.694868,12.015,115.1875,34.3125,1.125
1588210256116,2020-04-30T01:31:51.741114,12.115,114.0625,36.125,0.375
1588210256217,2020-04-30T01:31:51.800695,12.216,115.9375,34.6875,0.75
1588210256316,2020-04-30T01:31:51.846530,12.315,115.9375,36.125,0.0
1588210256416,2020-04-30T01:31:51.913014,12.415,115.5625,34.6875,-0.75
1588210256517,2020-04-30T01:31:51.980583,12.516,114.8125,33.1875,0.75
1588210256617,2020-04-30T01:31:52.024919,12.616,115.5625,34.3125,0.375
1588210256716,2020-04-30T01:31:52.085775,12.715,115.9375,34.6875,0.0
1588210256817,2020-04-30T01:31:52.129953,12.816,116.3125,28.8125,1.125
1588210256917,2020-04-30T01:31:52.197553,12.916,115.5625,33.9375,-0.375
1588210257018,2020-04-30T01:31:52.249721,13.017,114.8125,31.75,0.75
1588210257118,2020-04-30T01:31:52.309737,13.117,115.9375,28.125,0.0
1588210257217,2020-04-30T01:31:52.354704,13.216,117.0,33.5625,0.375
1588210257318,2020-04-30T01:31:52.414750,13.317,115.1875,29.9375,-0.375
1588210257418,2020-04-30T01:31:52.467288,13.417,115.9375,31.75,0.375
1588210257518,2020-04-30T01:31:52.527247,13.517,115.1875,34.3125,0.0
1588210257619,2020-04-30T01:31:52.572501,13.618,114.0625,35.75,0.75
1588210257718,2020-04-30T01:31:52.639707,13.717,118.125,35.0625,0.0
1588210257818,2020-04-30T01:31:52.691896,13.817,113.75,33.1875,0.75
1588210257919,2020-04-30T01:31:52.775032,13.918,115.9375,33.5625,0.375
1588210258019,2020-04-30T01:31:52.819730,14.018,115.5625,32.5,-0.375
1588210258118,2020-04-30T01:31:52.880479,14.117,115.1875,34.6875,0.375
1588210258219,2020-04-30T01:31:52.926292,14.218,115.5625,32.875,0.75
1588210258319,2020-04-30T01:31:52.988373,14.318,113.75,35.375,0.0
1588210258420,2020-04-30T01:31:53.041163,14.419,116.625,34.6875,0.375
1588210258520,2020-04-30T01:31:53.104894,14.519,114.8125,33.1875,0.375
1588210258619,2020-04-30T01:31:53.157361,14.618,115.9375,34.6875,0.375
1588210258720,2020-04-30T01:31:53.217445,14.719,115.1875,33.9375,-0.375
1588210258820,2020-04-30T01:31:53.270682,14.819,116.25,31.0,1.125
1588210258919,2020-04-30T01:31:53.337817,14.918,115.9375,34.6875,0.375
1588210259021,2020-04-30T01:31:53.383200,15.02,114.8125,34.3125,0.75
1588210259120,2020-04-30T01:31:53.442685,15.119,115.5625,29.5625,0.75
1588210259220,2020-04-30T01:31:53.488003,15.219,115.5625,33.5625,0.0
1588210259321,2020-04-30T01:31:53.554953,15.32,114.0625,33.9375,0.0
1588210259420,2020-04-30T01:31:53.607458,15.419,115.9375,32.875,0.0
1588210259520,2020-04-30T01:31:53.667754,15.519,115.1875,33.9375,-0.375
1588210259621,2020-04-30T01:31:53.712496,15.62,115.9375,33.5625,0.0
1588210259721,2020-04-30T01:31:53.773659,15.72,115.1875,34.6875,-0.375
1588210259822,2020-04-30T01:31:53.821457,15.821,116.25,35.0625,-0.375
1588210259921,2020-04-30T01:31:53.892519,15.92,115.5625,33.9375,0.0
1588210260021,2020-04-30T01:31:53.953525,16.02,115.5625,34.6875,0.0
1588210260122,2020-04-30T01:31:53.999468,16.121,116.625,33.9375,0.375
1588210260222,2020-04-30T01:31:54.064046,16.221,114.8125,34.3125,0.0
1588210260321,2020-04-30T01:31:54.102629,16.32,114.0625,35.375,0.75
1588210260422,2020-04-30T01:31:54.170409,16.421,114.8125,34.6875,-0.375
1588210260522,2020-04-30T01:31:54.214872,16.521,114.4375,31.0,0.375
1588210260622,2020-04-30T01:31:54.274852,16.621,115.5625,34.6875,0.0
1588210260723,2020-04-30T01:31:54.320092,16.722,114.4375,33.9375,-0.75
1588210260822,2020-04-30T01:31:54.380113,16.821,115.5625,27.75,0.75
1588210260922,2020-04-30T01:31:54.432753,16.921,115.9375,34.3125,0.375
1588210261023,2020-04-30T01:31:54.492803,17.022,116.25,33.1875,-1.125
1588210261123,2020-04-30T01:31:54.537629,17.122,115.9375,31.0,1.125
1588210261224,2020-04-30T01:31:54.597680,17.223,115.1875,34.6875,-0.375
1588210261323,2020-04-30T01:31:54.650178,17.322,115.1875,33.5625,-0.75
1588210261423,2020-04-30T01:31:54.732465,17.422,114.4375,35.375,0.0
1588210261524,2020-04-30T01:31:54.777402,17.523,115.1875,34.6875,0.0
1588210261624,2020-04-30T01:31:54.845221,17.623,114.8125,35.0625,-0.375
1588210261723,2020-04-30T01:31:54.897394,17.722,114.8125,35.375,0.75
1588210261824,2020-04-30T01:31:54.965600,17.823,114.4375,35.0625,0.0
1588210261924,2020-04-30T01:31:55.010641,17.923,116.25,34.6875,0.75
1588210262023,2020-04-30T01:31:55.079837,18.022,115.9375,34.6875,0.75
1588210262125,2020-04-30T01:31:55.130221,18.124,114.8125,35.75,-0.75
1588210262224,2020-04-30T01:31:55.189739,18.223,116.625,32.125,0.375
1588210262324,2020-04-30T01:31:55.252463,18.323,115.9375,35.375,0.375
1588210262425,2020-04-30T01:31:55.318738,18.424,114.8125,35.75,0.375
1588210262524,2020-04-30T01:31:55.362977,18.523,114.8125,29.1875,0.75
1588210262625,2020-04-30T01:31:55.430124,18.624,115.1875,35.0625,0.0
1588210262725,2020-04-30T01:31:55.482751,18.724,113.75,34.6875,0.0
1588210262825,2020-04-30T01:31:55.550061,18.824,116.25,29.9375,0.0
1588210262926,2020-04-30T01:31:55.604083,18.925,115.5625,32.875,0.0
1588210263025,2020-04-30T01:31:55.668621,19.024,116.25,34.6875,0.0
1588210263125,2020-04-30T01:31:55.708345,19.124,115.5625,34.6875,0.0
1588210263226,2020-04-30T01:31:55.768368,19.225,115.1875,34.3125,0.0
1588210263326,2020-04-30T01:31:55.835180,19.325,115.5625,34.3125,0.0
1588210263425,2020-04-30T01:31:55.889068,19.424,114.4375,34.6875,0.375
1588210263526,2020-04-30T01:31:55.955211,19.525,114.8125,34.3125,-0.375
1588210263626,2020-04-30T01:31:56.000038,19.625,115.9375,35.375,0.0
1588210263727,2020-04-30T01:31:56.069889,19.726,115.5625,35.0625,0.375
1588210263827,2020-04-30T01:31:56.115319,19.826,114.4375,34.3125,0.375
1588210263926,2020-04-30T01:31:56.172860,19.925,115.9375,33.5625,0.375
1588210264027,2020-04-30T01:31:56.220040,20.026,115.1875,33.1875,0.0
1588210264127,2020-04-30T01:31:56.277625,20.126,117.0,35.375,0.375
1588210264227,2020-04-30T01:31:56.322705,20.226,116.25,30.3125,0.0
1588210264328,2020-04-30T01:31:56.390432,20.327,116.625,34.6875,0.0
1588210264427,2020-04-30T01:31:56.435192,20.426,116.625,33.9375,0.375
1588210264527,2020-04-30T01:31:56.496016,20.526,116.25,28.8125,0.375
1588210264628,2020-04-30T01:31:56.541533,20.627,113.375,35.0625,0.0
1588210264728,2020-04-30T01:31:56.602896,20.727,115.1875,34.3125,0.375
1588210264827,2020-04-30T01:31:56.660214,20.826,116.25,31.375,0.75
1588210264928,2020-04-30T01:31:56.720179,20.927,114.4375,34.6875,0.0
1588210265028,2020-04-30T01:31:56.764889,21.027,114.4375,32.875,0.375
1588210265127,2020-04-30T01:31:56.840133,21.126,116.25,32.5,-0.375
1588210265229,2020-04-30T01:31:56.885193,21.228,116.625,34.6875,0.375
1588210265328,2020-04-30T01:31:56.967624,21.327,115.5625,34.3125,-0.375
1588210265429,2020-04-30T01:31:57.005229,21.428,114.4375,35.75,0.0
1588210265529,2020-04-30T01:31:57.080146,21.528,114.8125,32.875,-0.75
1588210265628,2020-04-30T01:31:57.133741,21.627,114.8125,33.1875,-0.375
1588210265729,2020-04-30T01:31:57.209284,21.728,115.5625,34.6875,0.0
1588210265829,2020-04-30T01:31:57.262443,21.828,115.5625,33.9375,0.375
1588210265929,2020-04-30T01:31:57.325518,21.928,114.0625,33.9375,0.375
1588210266030,2020-04-30T01:31:57.388139,22.029,116.625,34.6875,0.75
1588210266129,2020-04-30T01:31:57.455024,22.128,113.375,35.375,-0.375
1588210266229,2020-04-30T01:31:57.508891,22.228,117.0,28.5,0.375
1588210266330,2020-04-30T01:31:57.567629,22.329,115.9375,33.5625,0.75
1588210266430,2020-04-30T01:31:57.612745,22.429,114.4375,33.5625,0.0
1588210266529,2020-04-30T01:31:57.674965,22.528,116.25,27.75,0.75
1588210266630,2020-04-30T01:31:57.718817,22.629,115.1875,35.0625,0.375
1588210266730,2020-04-30T01:31:57.784990,22.729,114.8125,34.6875,-0.375
1588210266831,2020-04-30T01:31:57.844834,22.83,115.1875,31.375,0.0
1588210266931,2020-04-30T01:31:57.897603,22.93,116.625,33.9375,0.0
1588210267030,2020-04-30T01:31:57.965301,23.029,114.0625,34.3125,-0.375
1588210267131,2020-04-30T01:31:58.017307,23.13,115.1875,34.6875,0.0
1588210267231,2020-04-30T01:31:58.077451,23.23,116.25,33.5625,0.0
1588210267331,2020-04-30T01:31:58.122478,23.33,115.5625,34.6875,0.0
1588210267432,2020-04-30T01:31:58.183283,23.431,115.5625,34.6875,0.375
1588210267531,2020-04-30T01:31:58.229132,23.53,116.625,32.875,-0.375
1588210267631,2020-04-30T01:31:58.295091,23.63,116.25,33.5625,-0.75
1588210267732,2020-04-30T01:31:58.340051,23.731,117.0,35.0625,0.75
1588210267832,2020-04-30T01:31:58.399774,23.831,115.1875,35.0625,-0.75
1588210267931,2020-04-30T01:31:58.445091,23.93,114.4375,32.125,0.0
1588210268032,2020-04-30T01:31:58.504772,24.031,115.5625,36.5,-0.75
1588210268132,2020-04-30T01:31:58.549770,24.131,114.8125,34.6875,-0.375
1588210268233,2020-04-30T01:31:58.617536,24.232,115.5625,28.125,0.375
1588210268333,2020-04-30T01:31:58.669782,24.332,115.1875,35.0625,-0.375
1588210268432,2020-04-30T01:31:58.730212,24.431,115.5625,35.375,0.0
1588210268533,2020-04-30T01:31:58.775239,24.532,114.0625,28.5,0.0
1588210268633,2020-04-30T01:31:58.857771,24.632,117.0,34.3125,0.0
1588210268732,2020-04-30T01:31:58.911981,24.731,114.8125,33.1875,0.0
1588210268834,2020-04-30T01:31:58.977752,24.833,115.1875,33.5625,0.0
1588210268933,2020-04-30T01:31:59.031146,24.932,115.5625,34.3125,-0.375
1588210269033,2020-04-30T01:31:59.097912,25.032,114.4375,31.0,0.0
1588210269134,2020-04-30T01:31:59.151999,25.133,115.5625,34.6875,0.375
1588210269233,2020-04-30T01:31:59.213451,25.232,115.9375,33.9375,-0.375
1588210269333,2020-04-30T01:31:59.255523,25.332,115.9375,34.3125,-0.375
1588210269434,2020-04-30T01:31:59.315245,25.433,114.8125,36.5,0.0
1588210269534,2020-04-30T01:31:59.360496,25.533,114.8125,34.6875,0.0
1588210269635,2020-04-30T01:31:59.427673,25.634,113.375,33.5625,0.0
1588210269734,2020-04-30T01:31:59.472879,25.733,114.8125,34.3125,-0.375
1588210269834,2020-04-30T01:31:59.532773,25.833,113.75,35.0625,-0.375
1588210269935,2020-04-30T01:31:59.577552,25.934,115.1875,31.375,-0.375
1588210270035,2020-04-30T01:31:59.640505,26.034,114.8125,34.3125,-0.375
1588210270134,2020-04-30T01:31:59.690204,26.133,115.5625,33.9375,-0.375
1588210270235,2020-04-30T01:31:59.750451,26.234,117.375,30.6875,0.0
1588210270335,2020-04-30T01:31:59.819026,26.334,115.5625,36.125,0.375
1588210270435,2020-04-30T01:31:59.870090,26.434,115.9375,34.6875,0.375
1588210270536,2020-04-30T01:31:59.930232,26.535,114.8125,28.8125,0.0
1588210270635,2020-04-30T01:31:59.982688,26.634,117.75,34.3125,-0.375
1588210270735,2020-04-30T01:32:00.052642,26.734,115.1875,33.9375,0.375
1588210270836,2020-04-30T01:32:00.111736,26.835,114.8125,36.125,0.375
1588210270936,2020-04-30T01:32:00.163180,26.935,115.5625,35.0625,0.0
1588210271035,2020-04-30T01:32:00.217787,27.034,115.9375,35.0625,0.0
1588210271136,2020-04-30T01:32:00.290170,27.135,115.9375,34.3125,0.0
1588210271236,2020-04-30T01:32:00.342787,27.235,115.1875,32.125,1.125
1588210271337,2020-04-30T01:32:00.402867,27.336,114.0625,34.6875,0.75
1588210271437,2020-04-30T01:32:00.447700,27.436,115.1875,35.375,1.125
1588210271536,2020-04-30T01:32:00.515209,27.535,116.25,34.3125,0.0
1588210271637,2020-04-30T01:32:00.560217,27.636,114.0625,33.5625,0.0
1588210271737,2020-04-30T01:32:00.635208,27.736,117.0,35.375,0.75
1588210271836,2020-04-30T01:32:00.687662,27.835,115.9375,35.0625,-0.375
1588210271938,2020-04-30T01:32:00.755246,27.937,114.8125,28.125,0.0
1588210272037,2020-04-30T01:32:00.807439,28.036,115.5625,34.6875,0.75
1588210272137,2020-04-30T01:32:00.875086,28.136,115.1875,34.6875,0.375
1588210272238,2020-04-30T01:32:00.923521,28.237,117.375,28.5,0.375
1588210272337,2020-04-30T01:32:01.010032,28.336,116.25,34.3125,0.375
1588210272437,2020-04-30T01:32:01.070147,28.436,115.9375,34.6875,0.75
1588210272538,2020-04-30T01:32:01.147412,28.537,114.4375,28.8125,0.75
1588210272638,2020-04-30T01:32:01.193642,28.637,115.9375,31.75,-0.375
1588210272737,2020-04-30T01:32:01.266983,28.736,116.625,33.5625,-0.375
1588210272838,2020-04-30T01:32:01.302785,28.837,114.4375,34.3125,1.125
1588210272938,2020-04-30T01:32:01.370159,28.937,114.0625,35.0625,0.75
1588210273039,2020-04-30T01:32:01.415153,29.038,114.8125,33.5625,-0.375
1588210273139,2020-04-30T01:32:01.475448,29.138,114.8125,35.75,0.375
1588210273238,2020-04-30T01:32:01.527677,29.237,114.0625,35.0625,0.75
1588210273339,2020-04-30T01:32:01.588010,29.338,115.1875,31.75,0.0
1588210273439,2020-04-30T01:32:01.648561,29.438,115.9375,35.75,0.75
1588210273539,2020-04-30T01:32:01.709025,29.538,115.1875,35.375,0.375
1588210273640,2020-04-30T01:32:01.768053,29.639,115.5625,34.3125,0.75
1588210273739,2020-04-30T01:32:01.813237,29.738,114.0625,35.375,0.75
1588210273839,2020-04-30T01:32:01.895154,29.838,115.9375,35.0625,0.0
1588210273940,2020-04-30T01:32:01.940426,29.939,115.5625,29.9375,0.375
1588210274040,2020-04-30T01:32:02.000360,30.039,115.1875,33.9375,0.0
1588210274139,2020-04-30T01:32:02.047223,30.138,116.625,32.875,0.0
1588210274240,2020-04-30T01:32:02.105127,30.239,114.4375,29.5625,0.0
1588210274340,2020-04-30T01:32:02.160285,30.339,114.8125,33.5625,-0.375
1588210274439,2020-04-30T01:32:02.225114,30.438,117.375,35.375,-0.375
1588210274541,2020-04-30T01:32:02.271289,30.54,116.25,31.375,1.125
1588210274640,2020-04-30T01:32:02.330513,30.639,114.8125,33.5625,0.0
1588210274741,2020-04-30T01:32:02.377082,30.74,115.1875,32.875,-0.375
1588210274841,2020-04-30T01:32:02.435265,30.84,115.1875,34.6875,-0.375
1588210274940,2020-04-30T01:32:02.488065,30.939,113.75,35.375,0.0
1588210275042,2020-04-30T01:32:02.562984,31.041,116.625,33.5625,0.0
1588210275141,2020-04-30T01:32:02.607673,31.14,115.5625,35.75,0.375
1588210275241,2020-04-30T01:32:02.675501,31.24,114.4375,33.9375,0.0
1588210275342,2020-04-30T01:32:02.727761,31.341,115.9375,34.6875,-0.375
1588210275441,2020-04-30T01:32:02.787755,31.44,116.25,34.6875,-0.375
1588210275541,2020-04-30T01:32:02.832733,31.54,115.5625,35.0625,0.375
1588210275642,2020-04-30T01:32:02.902558,31.641,115.9375,34.6875,0.75
1588210275742,2020-04-30T01:32:02.945591,31.741,114.8125,34.6875,-0.375
1588210275841,2020-04-30T01:32:03.035471,31.84,114.8125,32.875,0.0
1588210275942,2020-04-30T01:32:03.103148,31.941,114.8125,30.3125,0.375
1588210276042,2020-04-30T01:32:03.162669,32.041,115.5625,34.6875,0.0
1588210276142,2020-04-30T01:32:03.230401,32.141,114.4375,35.375,0.0
1588210276243,2020-04-30T01:32:03.312834,32.242,118.125,29.5625,0.0
1588210276342,2020-04-30T01:32:03.357738,32.341,114.8125,33.1875,0.375
1588210276443,2020-04-30T01:32:03.417642,32.442,115.5625,34.6875,0.0
1588210276543,2020-04-30T01:32:03.463085,32.542,114.8125,31.0,0.75
1588210276643,2020-04-30T01:32:03.523284,32.642,115.1875,33.1875,-0.75
1588210276744,2020-04-30T01:32:03.575444,32.743,114.8125,34.6875,-0.375
1588210276843,2020-04-30T01:32:03.634882,32.842,115.1875,35.0625,-0.375
1588210276943,2020-04-30T01:32:03.687388,32.942,116.25,34.6875,-0.375
1588210277044,2020-04-30T01:32:03.747380,33.043,116.25,35.0625,0.0
1588210277144,2020-04-30T01:32:03.815097,33.143,115.5625,34.6875,0.375
1588210277243,2020-04-30T01:32:03.870340,33.242,115.5625,34.3125,-0.75
1588210277344,2020-04-30T01:32:03.951031,33.343,113.75,33.9375,0.0
1588210277444,2020-04-30T01:32:03.995483,33.443,114.8125,35.75,0.375
1588210277543,2020-04-30T01:32:04.070461,33.542,113.75,35.375,-0.375
1588210277645,2020-04-30T01:32:04.124237,33.644,114.4375,31.0,0.375
1588210277744,2020-04-30T01:32:04.183270,33.743,114.8125,35.0625,0.0
1588210277845,2020-04-30T01:32:04.227657,33.844,114.8125,34.6875,0.0
1588210277945,2020-04-30T01:32:04.295181,33.944,116.625,28.125,1.5625
1588210278044,2020-04-30T01:32:04.349069,34.043,114.8125,34.6875,0.0
1588210278146,2020-04-30T01:32:04.415237,34.145,115.1875,33.9375,-0.375
1588210278245,2020-04-30T01:32:04.460495,34.244,116.625,27.0,0.375
1588210278345,2020-04-30T01:32:04.527732,34.344,115.1875,35.0625,-0.375
1588210278446,2020-04-30T01:32:04.572909,34.445,115.9375,34.3125,0.375
1588210278545,2020-04-30T01:32:04.641926,34.544,115.9375,32.125,-0.375
1588210278645,2020-04-30T01:32:04.693048,34.644,115.1875,35.0625,0.0
1588210278746,2020-04-30T01:32:04.760217,34.745,114.0625,34.3125,0.0
1588210278846,2020-04-30T01:32:04.805506,34.845,115.5625,35.375,0.0
1588210278945,2020-04-30T01:32:04.865172,34.944,116.3125,35.0625,-0.375
1588210279046,2020-04-30T01:32:04.910170,35.045,116.25,34.6875,-0.375
1588210279146,2020-04-30T01:32:04.978627,35.145,115.9375,34.3125,0.375
1588210279246,2020-04-30T01:32:05.030212,35.245,114.0625,34.6875,-0.375
1588210279347,2020-04-30T01:32:05.098454,35.346,114.0625,32.875,-0.375
1588210279446,2020-04-30T01:32:05.165785,35.445,114.0625,34.6875,0.75
1588210279547,2020-04-30T01:32:05.240499,35.546,116.3125,34.6875,0.0
1588210279647,2020-04-30T01:32:05.287781,35.646,116.3125,30.6875,-0.375
1588210279747,2020-04-30T01:32:05.345788,35.746,115.1875,35.375,-0.375
1588210279848,2020-04-30T01:32:05.397728,35.847,117.0,35.75,0.0
1588210279947,2020-04-30T01:32:05.457753,35.946,115.1875,28.125,0.0
1588210280047,2020-04-30T01:32:05.510582,36.046,114.8125,34.3125,0.375
1588210280148,2020-04-30T01:32:05.570361,36.147,115.9375,35.375,0.0
1588210280248,2020-04-30T01:32:05.615341,36.247,115.5625,30.6875,-0.375
1588210280347,2020-04-30T01:32:05.675274,36.346,115.9375,33.9375,0.0
1588210280448,2020-04-30T01:32:05.720247,36.447,115.1875,34.3125,0.75
1588210280548,2020-04-30T01:32:05.787822,36.547,116.625,34.3125,0.375
1588210280647,2020-04-30T01:32:05.848285,36.646,114.8125,34.3125,0.375
1588210280749,2020-04-30T01:32:05.894387,36.748,115.5625,34.6875,0.375
1588210280848,2020-04-30T01:32:05.960273,36.847,114.4375,34.6875,0.375
1588210280949,2020-04-30T01:32:06.005995,36.948,115.9375,34.6875,-0.375
1588210281049,2020-04-30T01:32:06.073211,37.048,116.625,35.0625,-0.75
1588210281148,2020-04-30T01:32:06.117745,37.147,115.9375,33.9375,0.0
1588210281250,2020-04-30T01:32:06.177767,37.249,114.4375,33.9375,-0.375
1588210281349,2020-04-30T01:32:06.222430,37.348,116.25,33.5625,0.375
1588210281449,2020-04-30T01:32:06.282472,37.448,114.4375,36.125,0.375
1588210281550,2020-04-30T01:32:06.342661,37.549,115.1875,35.0625,-0.375
1588210281649,2020-04-30T01:32:06.402690,37.648,115.1875,27.75,0.375
1588210281749,2020-04-30T01:32:06.447577,37.748,114.8125,33.1875,0.75
1588210281850,2020-04-30T01:32:06.507442,37.849,114.8125,33.5625,0.0
1588210281950,2020-04-30T01:32:06.552502,37.949,114.8125,28.125,0.375
1588210282049,2020-04-30T01:32:06.619940,38.048,116.625,34.3125,-0.375
1588210282150,2020-04-30T01:32:06.665234,38.149,114.8125,34.6875,0.375
1588210282250,2020-04-30T01:32:06.740161,38.249,115.5625,34.6875,0.0
1588210282351,2020-04-30T01:32:06.785008,38.35,115.1875,34.3125,0.0
1588210282451,2020-04-30T01:32:06.845147,38.45,116.25,33.5625,0.0
1588210282550,2020-04-30T01:32:06.897561,38.549,113.75,36.125,-0.75
1588210282651,2020-04-30T01:32:06.957579,38.65,115.9375,33.9375,0.375
1588210282751,2020-04-30T01:32:07.002670,38.75,115.1875,33.5625,0.375
1588210282851,2020-04-30T01:32:07.062653,38.85,114.4375,35.375,0.75
1588210282952,2020-04-30T01:32:07.115153,38.951,114.4375,34.6875,0.0
1588210283051,2020-04-30T01:32:07.212674,39.05,115.9375,34.6875,0.375
1588210283152,2020-04-30T01:32:07.257511,39.151,114.8125,35.375,-0.375
1588210283252,2020-04-30T01:32:07.317853,39.251,116.625,34.6875,0.375
1588210283352,2020-04-30T01:32:07.362785,39.351,114.125,27.375,-0.375
1588210283453,2020-04-30T01:32:07.422819,39.452,114.8125,34.6875,-0.375
1588210283552,2020-04-30T01:32:07.475235,39.551,116.25,33.9375,0.0
1588210283652,2020-04-30T01:32:07.549961,39.651,115.1875,27.0,0.0
1588210283753,2020-04-30T01:32:07.602850,39.752,116.25,33.5625,0.375
1588210283853,2020-04-30T01:32:07.662859,39.852,114.8125,33.1875,0.0
1588210283952,2020-04-30T01:32:07.738024,39.951,114.8125,31.0,0.0
1588210284053,2020-04-30T01:32:07.783091,40.052,115.1875,34.6875,0.375
1588210284153,2020-04-30T01:32:07.850248,40.152,115.9375,33.9375,-0.375
1588210284252,2020-04-30T01:32:07.895883,40.251,116.25,35.375,0.0
1588210284354,2020-04-30T01:32:07.962721,40.353,112.625,35.75,-0.375
1588210284453,2020-04-30T01:32:08.015285,40.452,115.9375,33.9375,-0.375
1588210284553,2020-04-30T01:32:08.075940,40.552,115.5625,35.0625,0.375
1588210284654,2020-04-30T01:32:08.130125,40.653,114.4375,33.9375,0.0
1588210284753,2020-04-30T01:32:08.188844,40.752,115.5625,35.375,0.0
1588210284854,2020-04-30T01:32:08.234286,40.853,117.0,34.6875,1.125
1588210284954,2020-04-30T01:32:08.308357,40.953,115.9375,34.3125,-0.375
1588210285054,2020-04-30T01:32:08.353214,41.053,114.4375,32.5,0.0
1588210285155,2020-04-30T01:32:08.413167,41.154,114.4375,34.6875,0.0
1588210285254,2020-04-30T01:32:08.458128,41.253,116.625,33.9375,0.0
1588210285354,2020-04-30T01:32:08.518248,41.353,116.25,29.1875,0.0
1588210285455,2020-04-30T01:32:08.577903,41.454,114.8125,35.0625,1.125
1588210285555,2020-04-30T01:32:08.645238,41.554,115.5625,34.6875,0.0
1588210285654,2020-04-30T01:32:08.690256,41.653,114.8125,31.0,0.0
1588210285755,2020-04-30T01:32:08.765324,41.754,117.0,34.3125,-0.375
1588210285855,2020-04-30T01:32:08.810269,41.854,116.625,34.6875,-0.375
1588210285955,2020-04-30T01:32:08.885533,41.954,114.4375,35.0625,0.75
1588210286056,2020-04-30T01:32:08.938005,42.055,115.5625,35.0625,-0.375
1588210286155,2020-04-30T01:32:08.997786,42.154,114.0625,32.125,-0.75
1588210286255,2020-04-30T01:32:09.050283,42.254,114.8125,36.5,0.0
1588210286356,2020-04-30T01:32:09.117820,42.355,114.4375,35.0625,0.375
1588210286456,2020-04-30T01:32:09.162870,42.455,115.1875,33.5625,0.375
1588210286557,2020-04-30T01:32:09.230177,42.556,115.1875,34.3125,0.0
1588210286656,2020-04-30T01:32:09.305322,42.655,115.1875,33.9375,0.375
1588210286756,2020-04-30T01:32:09.365651,42.755,115.9375,33.9375,0.75
1588210286857,2020-04-30T01:32:09.410679,42.856,114.0625,35.375,0.0
1588210286957,2020-04-30T01:32:09.471773,42.956,117.375,33.9375,0.0
1588210287056,2020-04-30T01:32:09.522729,43.055,114.4375,28.5,0.75
1588210287157,2020-04-30T01:32:09.590348,43.156,114.4375,33.5625,-0.375
1588210287257,2020-04-30T01:32:09.642889,43.256,114.4375,32.875,0.0
1588210287356,2020-04-30T01:32:09.710336,43.355,115.1875,29.9375,0.375
1588210287458,2020-04-30T01:32:09.770211,43.457,115.9375,35.375,0.75
1588210287557,2020-04-30T01:32:09.815696,43.556,114.8125,35.375,0.0
1588210287657,2020-04-30T01:32:09.882896,43.656,114.8125,32.875,-0.75
1588210287758,2020-04-30T01:32:09.927800,43.757,115.9375,33.9375,-0.75
1588210287857,2020-04-30T01:32:10.010012,43.856,115.1875,33.5625,-0.375
1588210287959,2020-04-30T01:32:10.062860,43.958,117.375,33.5625,0.0
1588210288058,2020-04-30T01:32:10.123775,44.057,114.8125,34.6875,0.0
1588210288158,2020-04-30T01:32:10.175500,44.157,115.9375,31.375,-0.75
1588210288259,2020-04-30T01:32:10.243499,44.258,115.1875,33.5625,0.0
1588210288358,2020-04-30T01:32:10.295368,44.357,116.25,35.75,0.375
1588210288458,2020-04-30T01:32:10.355705,44.457,115.5625,34.3125,-0.375
1588210288559,2020-04-30T01:32:10.401130,44.558,114.8125,35.75,0.75
1588210288659,2020-04-30T01:32:10.468567,44.658,115.1875,34.6875,-0.75
1588210288758,2020-04-30T01:32:10.513607,44.757,114.4375,31.75,0.0
1588210288859,2020-04-30T01:32:10.580474,44.858,114.8125,35.0625,-0.375
1588210288959,2020-04-30T01:32:10.626013,44.958,114.125,33.9375,0.375
1588210289060,2020-04-30T01:32:10.692843,45.059,116.625,29.9375,0.0
1588210289160,2020-04-30T01:32:10.745289,45.159,117.0,33.1875,-0.375
1588210289259,2020-04-30T01:32:10.812889,45.258,115.5625,35.75,-0.375
1588210289360,2020-04-30T01:32:10.858638,45.359,116.625,32.5,-0.375
1588210289460,2020-04-30T01:32:10.925718,45.459,115.9375,33.1875,-0.75
1588210289560,2020-04-30T01:32:10.977749,45.559,117.0,33.5625,-0.375
1588210289661,2020-04-30T01:32:11.037701,45.66,114.8125,33.9375,0.375
1588210289760,2020-04-30T01:32:11.090333,45.759,116.625,34.3125,-0.375
1588210289860,2020-04-30T01:32:11.150256,45.859,114.4375,34.6875,-0.375
1588210289961,2020-04-30T01:32:11.210305,45.96,117.0,35.375,-0.375
1588210290061,2020-04-30T01:32:11.277817,46.06,115.9375,34.3125,-0.375
1588210290160,2020-04-30T01:32:11.330560,46.159,114.4375,33.9375,0.375
1588210290261,2020-04-30T01:32:11.420564,46.26,114.0625,37.25,0.0
1588210290361,2020-04-30T01:32:11.466013,46.36,115.5625,35.0625,0.0
1588210290462,2020-04-30T01:32:11.532989,46.461,114.0625,31.375,0.375
1588210290562,2020-04-30T01:32:11.585261,46.561,116.25,36.125,0.375
1588210290661,2020-04-30T01:32:11.645222,46.66,115.5625,34.6875,-0.375
1588210290762,2020-04-30T01:32:11.712906,46.761,114.4375,28.8125,0.0
1588210290862,2020-04-30T01:32:11.758407,46.861,115.1875,34.6875,0.375
1588210290961,2020-04-30T01:32:11.825429,46.96,114.8125,35.375,0.0
1588210291063,2020-04-30T01:32:11.870672,47.062,113.375,28.5,0.0
1588210291162,2020-04-30T01:32:11.938072,47.161,115.9375,33.9375,0.0
1588210291262,2020-04-30T01:32:11.990235,47.261,115.5625,32.875,-1.125
1588210291363,2020-04-30T01:32:12.050063,47.362,114.8125,33.1875,-0.375
1588210291462,2020-04-30T01:32:12.095066,47.461,113.375,34.3125,0.0
1588210291562,2020-04-30T01:32:12.155448,47.561,114.8125,35.0625,0.0
1588210291663,2020-04-30T01:32:12.208627,47.662,115.9375,35.75,0.75
1588210291763,2020-04-30T01:32:12.267736,47.762,114.4375,34.6875,0.0
1588210291864,2020-04-30T01:32:12.320356,47.863,114.8125,34.6875,-0.375
1588210291963,2020-04-30T01:32:12.380595,47.962,115.9375,35.375,0.375
1588210292063,2020-04-30T01:32:12.440721,48.062,115.1875,35.375,0.0
1588210292164,2020-04-30T01:32:12.493160,48.163,115.9375,35.0625,-1.125
1588210292264,2020-04-30T01:32:12.545297,48.263,114.8125,34.6875,-0.75
1588210292363,2020-04-30T01:32:12.613735,48.362,114.8125,34.3125,0.0
1588210292464,2020-04-30T01:32:12.658708,48.463,115.1875,31.375,-0.375
1588210292564,2020-04-30T01:32:12.717832,48.563,115.1875,35.75,0.375
1588210292664,2020-04-30T01:32:12.771345,48.663,115.5625,35.0625,-0.75
1588210292765,2020-04-30T01:32:12.838320,48.764,114.0625,29.5625,-0.75
1588210292864,2020-04-30T01:32:12.882985,48.863,114.0625,34.3125,-0.375
1588210292964,2020-04-30T01:32:12.950895,48.963,116.25,33.1875,-0.375
1588210293065,2020-04-30T01:32:12.995358,49.064,115.1875,28.5,0.375
1588210293165,2020-04-30T01:32:13.055790,49.164,115.1875,35.0625,0.375
1588210293264,2020-04-30T01:32:13.100750,49.263,114.4375,35.375,-0.375
1588210293365,2020-04-30T01:32:13.168024,49.364,117.75,35.0625,0.375
1588210293465,2020-04-30T01:32:13.213503,49.464,114.4375,36.125,-0.375
1588210293566,2020-04-30T01:32:13.273086,49.565,115.5625,34.6875,-0.375
1588210293666,2020-04-30T01:32:13.317998,49.665,114.4375,35.75,0.0
1588210293765,2020-04-30T01:32:13.378700,49.764,116.625,35.0625,0.0
1588210293866,2020-04-30T01:32:13.446830,49.865,118.125,34.6875,0.0
1588210293966,2020-04-30T01:32:13.506722,49.965,115.9375,35.375,0.0
1588210294065,2020-04-30T01:32:13.551086,50.064,115.1875,35.0625,0.0
1588210294167,2020-04-30T01:32:13.611148,50.166,115.9375,32.875,-0.375
1588210294266,2020-04-30T01:32:13.670604,50.265,117.375,34.3125,0.0
1588210294366,2020-04-30T01:32:13.716127,50.365,114.0625,34.3125,-0.75
1588210294467,2020-04-30T01:32:13.775583,50.466,115.5625,29.5625,-0.375
1588210294566,2020-04-30T01:32:13.821187,50.565,114.8125,33.1875,-0.375
1588210294667,2020-04-30T01:32:13.880546,50.666,113.375,35.375,-0.375
1588210294767,2020-04-30T01:32:13.933201,50.766,116.25,29.1875,-0.375
1588210294867,2020-04-30T01:32:13.992905,50.866,115.9375,34.6875,-0.75
1588210294968,2020-04-30T01:32:14.037782,50.967,114.4375,34.3125,0.0
1588210295067,2020-04-30T01:32:14.097873,51.066,114.4375,33.9375,-1.125
1588210295167,2020-04-30T01:32:14.143058,51.166,114.4375,34.3125,-1.125
1588210295268,2020-04-30T01:32:14.202935,51.267,115.5625,34.3125,-1.125
1588210295368,2020-04-30T01:32:14.255290,51.367,113.375,35.375,0.0
1588210295469,2020-04-30T01:32:14.315373,51.468,115.9375,34.3125,-0.75
1588210295568,2020-04-30T01:32:14.360229,51.567,113.375,35.0625,-0.375
1588210295668,2020-04-30T01:32:14.420968,51.667,115.9375,36.125,-0.75
1588210295769,2020-04-30T01:32:14.465706,51.768,115.9375,35.375,0.0
1588210295869,2020-04-30T01:32:14.525217,51.868,115.5625,32.125,-0.375
1588210295968,2020-04-30T01:32:14.570169,51.967,117.0,35.75,0.375
1588210296069,2020-04-30T01:32:14.630411,52.068,114.4375,34.6875,-0.75
1588210296169,2020-04-30T01:32:14.690238,52.168,114.8125,30.3125,-0.375
1588210296269,2020-04-30T01:32:14.750161,52.268,114.4375,32.5,0.0
1588210296370,2020-04-30T01:32:14.795192,52.369,115.5625,34.6875,0.0
1588210296469,2020-04-30T01:32:14.862847,52.468,114.0625,29.5625,-0.375
1588210296570,2020-04-30T01:32:14.908408,52.569,114.8125,35.0625,-0.375
1588210296670,2020-04-30T01:32:14.975186,52.669,115.5625,34.3125,-0.75
1588210296770,2020-04-30T01:32:15.020254,52.769,115.5625,34.6875,1.5625
1588210296871,2020-04-30T01:32:15.080263,52.87,114.0625,35.375,-1.125
1588210296970,2020-04-30T01:32:15.125135,52.969,115.9375,32.875,-0.75
1588210297070,2020-04-30T01:32:15.192798,53.069,115.9375,36.125,-0.375
1588210297171,2020-04-30T01:32:15.237631,53.17,117.75,33.9375,-0.375
1588210297271,2020-04-30T01:32:15.305132,53.27,114.8125,36.125,0.375
1588210297370,2020-04-30T01:32:15.350133,53.369,114.4375,35.0625,0.375
1588210297471,2020-04-30T01:32:15.432641,53.47,117.375,35.375,-0.375
1588210297571,2020-04-30T01:32:15.500140,53.57,115.9375,32.125,-0.75
1588210297672,2020-04-30T01:32:15.545133,53.671,114.4375,35.75,0.375
1588210297771,2020-04-30T01:32:15.612701,53.77,113.75,35.0625,-1.125
1588210297871,2020-04-30T01:32:15.657710,53.87,117.0,27.0,-0.375
1588210297972,2020-04-30T01:32:15.725269,53.971,117.0,35.75,-0.75
1588210298072,2020-04-30T01:32:15.770154,54.071,116.25,33.1875,-0.375
1588210298171,2020-04-30T01:32:15.837763,54.17,115.1875,29.9375,0.375
1588210298272,2020-04-30T01:32:15.905267,54.271,115.5625,34.3125,-0.375
1588210298372,2020-04-30T01:32:15.965276,54.371,117.375,34.6875,-0.75
1588210298472,2020-04-30T01:32:16.017784,54.471,113.75,33.1875,0.375
1588210298573,2020-04-30T01:32:16.077894,54.572,114.0625,35.375,0.0
1588210298672,2020-04-30T01:32:16.130301,54.671,113.75,33.9375,0.75
1588210298772,2020-04-30T01:32:16.197782,54.771,116.625,33.9375,2.3125
1588210298873,2020-04-30T01:32:16.242872,54.872,115.9375,32.125,3.125
1588210298973,2020-04-30T01:32:16.310527,54.972,115.5625,32.5,3.125
1588210299074,2020-04-30T01:32:16.355293,55.073,114.4375,35.0625,0.0
1588210299173,2020-04-30T01:32:16.422906,55.172,115.5625,36.875,-2.3125
1588210299273,2020-04-30T01:32:16.467802,55.272,118.125,37.9375,-3.875
1588210299374,2020-04-30T01:32:16.535279,55.373,117.0,39.0625,-2.75
1588210299474,2020-04-30T01:32:16.580276,55.473,114.4375,39.0625,-1.125
1588210299573,2020-04-30T01:32:16.648186,55.572,117.0,35.375,1.125
1588210299674,2020-04-30T01:32:16.723012,55.673,116.625,35.75,4.3125
1588210299774,2020-04-30T01:32:16.782733,55.773,117.375,31.75,5.0625
1588210299874,2020-04-30T01:32:16.827658,55.873,115.1875,29.5625,4.6875
1588210299975,2020-04-30T01:32:16.895272,55.974,116.25,33.9375,5.875
1588210300074,2020-04-30T01:32:16.947659,56.073,116.625,33.5625,7.8125
1588210300174,2020-04-30T01:32:17.007663,56.173,116.625,24.8125,9.8125
1588210300275,2020-04-30T01:32:17.060167,56.274,117.0,27.75,14.5
1588210300375,2020-04-30T01:32:17.120169,56.374,117.0,26.3125,13.3125
1588210300476,2020-04-30T01:32:17.165233,56.475,117.375,21.5625,17.25
1588210300575,2020-04-30T01:32:17.232682,56.574,116.625,27.0,19.1875
1588210300675,2020-04-30T01:32:17.277796,56.674,117.375,25.1875,20.375
1588210300776,2020-04-30T01:32:17.345239,56.775,116.625,25.5625,21.5625
1588210300875,2020-04-30T01:32:17.405237,56.874,115.9375,24.8125,23.9375
1588210300975,2020-04-30T01:32:17.450290,56.974,116.25,24.8125,25.875
1588210301076,2020-04-30T01:32:17.540310,57.075,117.75,24.4375,23.5
1588210301176,2020-04-30T01:32:17.585306,57.175,118.8125,23.375,21.1875
1588210301275,2020-04-30T01:32:17.652816,57.274,117.75,21.5625,18.8125
1588210301376,2020-04-30T01:32:17.697872,57.375,116.25,24.125,15.6875
1588210301476,2020-04-30T01:32:17.757748,57.475,115.1875,23.375,14.875
1588210301577,2020-04-30T01:32:17.802750,57.576,112.25,13.5,13.6875
1588210301677,2020-04-30T01:32:17.877901,57.676,110.4375,18.625,14.5
1588210301776,2020-04-30T01:32:17.922853,57.775,109.375,18.25,16.4375
1588210301877,2020-04-30T01:32:17.990310,57.876,104.625,9.5,16.0625
1588210301977,2020-04-30T01:32:18.036057,57.976,103.5,16.8125,11.375
1588210302077,2020-04-30T01:32:18.095489,58.076,101.6875,16.8125,7.8125
1588210302178,2020-04-30T01:32:18.147812,58.177,100.9375,19.0,5.875
1588210302277,2020-04-30T01:32:18.207754,58.276,97.6875,22.25,-2.3125
1588210302377,2020-04-30T01:32:18.260308,58.376,91.5,24.4375,-5.4375
1588210302478,2020-04-30T01:32:18.335565,58.477,87.8125,26.625,-3.875
1588210302578,2020-04-30T01:32:18.380248,58.577,88.1875,25.9375,-3.5
1588210302679,2020-04-30T01:32:18.447758,58.678,87.5,24.8125,-1.5625
1588210302778,2020-04-30T01:32:18.492824,58.777,87.5,24.4375,-1.125
1588210302878,2020-04-30T01:32:18.560310,58.877,87.5,24.125,-0.75
1588210302979,2020-04-30T01:32:18.605316,58.978,88.1875,24.4375,-0.75
1588210303079,2020-04-30T01:32:18.680421,59.078,88.5625,23.75,-0.75
1588210303178,2020-04-30T01:32:18.725427,59.177,88.1875,25.5625,0.375
1588210303279,2020-04-30T01:32:18.792909,59.278,90.0,19.0,0.0
1588210303379,2020-04-30T01:32:18.837815,59.378,88.9375,23.75,0.0
1588210303479,2020-04-30T01:32:18.905673,59.478,90.0,25.1875,-1.125
1588210303580,2020-04-30T01:32:18.957719,59.579,88.9375,17.5625,0.0
1588210303679,2020-04-30T01:32:19.017720,59.678,88.9375,24.4375,-1.125
1588210303780,2020-04-30T01:32:19.070217,59.779,88.9375,24.4375,-0.75
1588210303880,2020-04-30T01:32:19.130211,59.879,88.1875,21.9375,-0.375
1588210303979,2020-04-30T01:32:19.175276,59.978,89.6875,23.375,0.375
1588210304081,2020-04-30T01:32:19.235291,60.08,88.5625,23.75,0.375
1588210304180,2020-04-30T01:32:19.287714,60.179,89.3125,25.9375,0.75
1588210304280,2020-04-30T01:32:19.347720,60.279,87.5,25.1875,-0.375
1588210304381,2020-04-30T01:32:19.415219,60.38,88.5625,23.75,-0.75
1588210304480,2020-04-30T01:32:19.467756,60.479,88.9375,25.9375,-0.375
1588210304580,2020-04-30T01:32:19.535223,60.579,88.9375,24.125,-1.125
1588210304681,2020-04-30T01:32:19.602734,60.68,89.6875,24.125,0.0
1588210304781,2020-04-30T01:32:19.662866,60.78,89.3125,25.5625,0.375
1588210304882,2020-04-30T01:32:19.722979,60.881,89.6875,23.75,0.0
1588210304981,2020-04-30T01:32:19.775403,60.98,87.8125,18.25,-0.75
