epoch  (ms),time  (-07:00),elapsed  (s),Pressure  (Pa)
1588210073485,2020-04-30T01:28:43.021053,0.0,98017.953125
1588210073532,2020-04-30T01:28:43.028801,0.047,98016.9765625
1588210073577,2020-04-30T01:28:43.054274,0.092,98017.046875
1588210073624,2020-04-30T01:28:43.059288,0.139,98017.0546875
1588210073671,2020-04-30T01:28:43.083362,0.186,98017.625
1588210073718,2020-04-30T01:28:43.098464,0.233,98017.1875
1588210073765,2020-04-30T01:28:43.145583,0.28,98016.90625
1588210073812,2020-04-30T01:28:43.156806,0.327,98017.140625
1588210073858,2020-04-30T01:28:43.203243,0.373,98018.109375
1588210073905,2020-04-30T01:28:43.218207,0.42,98018.34375
1588210073951,2020-04-30T01:28:43.253223,0.466,98017.984375
1588210073998,2020-04-30T01:28:43.268456,0.513,98018.796875
1588210074044,2020-04-30T01:28:43.313180,0.559,98019.6875
1588210074091,2020-04-30T01:28:43.328475,0.606,98019.984375
1588210074138,2020-04-30T01:28:43.350833,0.653,98021.3125
1588210074185,2020-04-30T01:28:43.373499,0.7,98021.421875
1588210074232,2020-04-30T01:28:43.395677,0.747,98021.609375
1588210074279,2020-04-30T01:28:43.418477,0.794,98021.8203125
1588210074324,2020-04-30T01:28:43.471129,0.839,98021.6875
1588210074371,2020-04-30T01:28:43.494036,0.886,98022.5
1588210074418,2020-04-30T01:28:43.524043,0.933,98022.28125
1588210074465,2020-04-30T01:28:43.546588,0.98,98022.3046875
1588210074512,2020-04-30T01:28:43.568180,1.027,98021.734375
1588210074559,2020-04-30T01:28:43.591478,1.074,98022.328125
1588210074605,2020-04-30T01:28:43.628677,1.12,98022.8984375
1588210074652,2020-04-30T01:28:43.651363,1.167,98023.328125
1588210074699,2020-04-30T01:28:43.673662,1.214,98023.328125
1588210074745,2020-04-30T01:28:43.696533,1.26,98023.078125
1588210074792,2020-04-30T01:28:43.718329,1.307,98023.25
1588210074838,2020-04-30T01:28:43.763978,1.353,98023.6875
1588210074885,2020-04-30T01:28:43.808185,1.4,98023.2734375
1588210074932,2020-04-30T01:28:43.824290,1.447,98023.109375
1588210074979,2020-04-30T01:28:43.853258,1.494,98022.9453125
1588210075026,2020-04-30T01:28:43.868699,1.541,98023.515625
1588210075073,2020-04-30T01:28:43.898734,1.588,98023.3515625
1588210075118,2020-04-30T01:28:43.928662,1.633,98024.28125
1588210075165,2020-04-30T01:28:43.958643,1.68,98024.359375
1588210075212,2020-04-30T01:28:43.974064,1.727,98024.03125
1588210075259,2020-04-30T01:28:44.011031,1.774,98022.890625
1588210075306,2020-04-30T01:28:44.033988,1.821,98022.890625
1588210075353,2020-04-30T01:28:44.071069,1.868,98022.828125
1588210075399,2020-04-30T01:28:44.101598,1.914,98023.0
1588210075446,2020-04-30T01:28:44.146637,1.961,98022.5078125
1588210075493,2020-04-30T01:28:44.168583,2.008,98022.671875
1588210075540,2020-04-30T01:28:44.183968,2.055,98022.671875
1588210075585,2020-04-30T01:28:44.213676,2.1,98023.078125
1588210075632,2020-04-30T01:28:44.228867,2.147,98023.234375
1588210075679,2020-04-30T01:28:44.273691,2.194,98023.515625
1588210075726,2020-04-30T01:28:44.296353,2.241,98023.40625
1588210075773,2020-04-30T01:28:44.326097,2.288,98022.90625
1588210075820,2020-04-30T01:28:44.341524,2.335,98022.90625
1588210075867,2020-04-30T01:28:44.370827,2.382,98022.046875
1588210075914,2020-04-30T01:28:44.423489,2.429,98021.875
1588210075959,2020-04-30T01:28:44.454311,2.474,98022.046875
1588210076006,2020-04-30T01:28:44.468683,2.521,98022.28125
1588210076053,2020-04-30T01:28:44.498812,2.568,98022.9375
1588210076100,2020-04-30T01:28:44.513669,2.615,98022.9375
1588210076146,2020-04-30T01:28:44.543643,2.661,98022.71875
1588210076193,2020-04-30T01:28:44.581464,2.708,98022.125
1588210076240,2020-04-30T01:28:44.603897,2.755,98021.625
1588210076287,2020-04-30T01:28:44.625976,2.802,98021.296875
1588210076334,2020-04-30T01:28:44.648636,2.849,98021.796875
1588210076379,2020-04-30T01:28:44.686164,2.894,98022.390625
1588210076426,2020-04-30T01:28:44.716401,2.941,98022.234375
1588210076473,2020-04-30T01:28:44.753874,2.988,98021.296875
1588210076520,2020-04-30T01:28:44.776159,3.035,98021.4140625
1588210076567,2020-04-30T01:28:44.798927,3.082,98021.09375
1588210076614,2020-04-30T01:28:44.821627,3.129,98020.6484375
1588210076661,2020-04-30T01:28:44.851355,3.176,98021.09375
1588210076708,2020-04-30T01:28:44.873495,3.223,98021.65625
1588210076754,2020-04-30T01:28:44.911773,3.269,98021.328125
1588210076800,2020-04-30T01:28:44.933384,3.315,98020.59375
1588210076847,2020-04-30T01:28:44.979894,3.362,98020.515625
1588210076894,2020-04-30T01:28:45.001240,3.409,98020.953125
1588210076940,2020-04-30T01:28:45.016429,3.455,98021.609375
1588210076987,2020-04-30T01:28:45.046236,3.502,98021.4375
1588210077034,2020-04-30T01:28:45.076634,3.549,98021.765625
1588210077081,2020-04-30T01:28:45.106216,3.596,98022.0078125
1588210077128,2020-04-30T01:28:45.128934,3.643,98022.328125
1588210077173,2020-04-30T01:28:45.158427,3.688,98022.5
1588210077220,2020-04-30T01:28:45.174082,3.735,98021.4375
1588210077267,2020-04-30T01:28:45.222614,3.782,98021.109375
1588210077314,2020-04-30T01:28:45.256813,3.829,98021.109375
1588210077361,2020-04-30T01:28:45.286076,3.876,98021.359375
1588210077408,2020-04-30T01:28:45.301245,3.923,98020.78125
1588210077455,2020-04-30T01:28:45.330993,3.97,98020.703125
1588210077501,2020-04-30T01:28:45.347404,4.016,98020.703125
1588210077548,2020-04-30T01:28:45.398542,4.063,98020.375
1588210077594,2020-04-30T01:28:45.413562,4.109,98020.2109375
1588210077641,2020-04-30T01:28:45.436044,4.156,98020.8125
1588210077688,2020-04-30T01:28:45.458955,4.203,98020.375
1588210077734,2020-04-30T01:28:45.480732,4.249,98020.6484375
1588210077781,2020-04-30T01:28:45.518666,4.296,98020.3203125
1588210077828,2020-04-30T01:28:45.574638,4.343,98021.046875
1588210077875,2020-04-30T01:28:45.594001,4.39,98020.15625
1588210077922,2020-04-30T01:28:45.616144,4.437,98020.6484375
1588210077969,2020-04-30T01:28:45.638889,4.484,98020.484375
1588210078016,2020-04-30T01:28:45.661532,4.531,98020.8125
1588210078061,2020-04-30T01:28:45.691352,4.576,98021.140625
1588210078108,2020-04-30T01:28:45.728743,4.623,98021.140625
1588210078155,2020-04-30T01:28:45.751345,4.67,98020.8125
1588210078202,2020-04-30T01:28:45.773486,4.717,98020.8125
1588210078249,2020-04-30T01:28:45.819349,4.764,98020.484375
1588210078295,2020-04-30T01:28:45.841335,4.81,98019.828125
1588210078342,2020-04-30T01:28:45.885051,4.857,98019.5
1588210078389,2020-04-30T01:28:45.900940,4.904,98019.90625
1588210078436,2020-04-30T01:28:45.917004,4.951,98019.90625
1588210078481,2020-04-30T01:28:45.953544,4.996,98020.7265625
1588210078528,2020-04-30T01:28:45.970026,5.043,98021.296875
1588210078575,2020-04-30T01:28:45.999922,5.09,98020.96875
1588210078622,2020-04-30T01:28:46.028716,5.137,98021.296875
1588210078669,2020-04-30T01:28:46.073524,5.184,98020.7265625
1588210078716,2020-04-30T01:28:46.096220,5.231,98020.7265625
1588210078763,2020-04-30T01:28:46.126127,5.278,98020.890625
1588210078810,2020-04-30T01:28:46.141742,5.325,98021.140625
1588210078856,2020-04-30T01:28:46.170881,5.371,98022.765625
1588210078902,2020-04-30T01:28:46.201445,5.417,98023.3671875
1588210078949,2020-04-30T01:28:46.238697,5.464,98022.765625
1588210078996,2020-04-30T01:28:46.253743,5.511,98022.2734375
1588210079042,2020-04-30T01:28:46.275662,5.557,98022.6015625
1588210079089,2020-04-30T01:28:46.320845,5.604,98022.1953125
1588210079136,2020-04-30T01:28:46.351155,5.651,98021.546875
1588210079183,2020-04-30T01:28:46.403721,5.698,98021.546875
1588210079230,2020-04-30T01:28:46.418682,5.745,98021.21875
1588210079275,2020-04-30T01:28:46.448623,5.79,98022.765625
1588210079322,2020-04-30T01:28:46.464313,5.837,98022.2734375
1588210079369,2020-04-30T01:28:46.493718,5.884,98022.109375
1588210079416,2020-04-30T01:28:46.516824,5.931,98022.109375
1588210079463,2020-04-30T01:28:46.561137,5.978,98022.4375
1588210079510,2020-04-30T01:28:46.580358,6.025,98022.4375
1588210079557,2020-04-30T01:28:46.607255,6.072,98022.546875
1588210079604,2020-04-30T01:28:46.643889,6.119,98022.390625
1588210079649,2020-04-30T01:28:46.675992,6.164,98022.21875
1588210079696,2020-04-30T01:28:46.711041,6.211,98022.7109375
1588210079743,2020-04-30T01:28:46.727888,6.258,98023.203125
1588210079790,2020-04-30T01:28:46.753636,6.305,98022.6015625
1588210079836,2020-04-30T01:28:46.772255,6.351,98022.546875
1588210079883,2020-04-30T01:28:46.801501,6.398,98022.7109375
1588210079930,2020-04-30T01:28:46.824656,6.445,98022.875
1588210079977,2020-04-30T01:28:46.862188,6.492,98023.0390625
1588210080024,2020-04-30T01:28:46.883736,6.539,98022.390625
1588210080069,2020-04-30T01:28:46.931751,6.584,98021.453125
1588210080116,2020-04-30T01:28:46.951547,6.631,98021.734375
1588210080163,2020-04-30T01:28:46.973774,6.678,98021.2421875
1588210080210,2020-04-30T01:28:46.995910,6.725,98020.75
1588210080257,2020-04-30T01:28:47.033724,6.772,98020.75
1588210080304,2020-04-30T01:28:47.065611,6.819,98021.921875
1588210080351,2020-04-30T01:28:47.086450,6.866,98021.8125
1588210080397,2020-04-30T01:28:47.108734,6.912,98021.15625
1588210080444,2020-04-30T01:28:47.124951,6.959,98021.640625
1588210080490,2020-04-30T01:28:47.156630,7.005,98022.140625
1588210080537,2020-04-30T01:28:47.206329,7.052,98022.625
1588210080584,2020-04-30T01:28:47.236097,7.099,98022.625
1588210080630,2020-04-30T01:28:47.251647,7.145,98023.0625
1588210080677,2020-04-30T01:28:47.280978,7.192,98021.3125
1588210080724,2020-04-30T01:28:47.296707,7.239,98021.484375
1588210080771,2020-04-30T01:28:47.326779,7.286,98021.3125
1588210080818,2020-04-30T01:28:47.364123,7.333,98021.640625
1588210080863,2020-04-30T01:28:47.398097,7.378,98021.15625
1588210080910,2020-04-30T01:28:47.415655,7.425,98021.3125
1588210080957,2020-04-30T01:28:47.438393,7.472,98021.15625
1588210081004,2020-04-30T01:28:47.476458,7.519,98020.09375
1588210081051,2020-04-30T01:28:47.521027,7.566,98020.5
1588210081098,2020-04-30T01:28:47.536477,7.613,98020.828125
1588210081145,2020-04-30T01:28:47.558903,7.66,98020.75
1588210081191,2020-04-30T01:28:47.581435,7.706,98020.59375
1588210081238,2020-04-30T01:28:47.603979,7.753,98020.09375
1588210081284,2020-04-30T01:28:47.634403,7.799,98020.421875
1588210081331,2020-04-30T01:28:47.671010,7.846,98020.828125
1588210081377,2020-04-30T01:28:47.695489,7.892,98020.34375
1588210081424,2020-04-30T01:28:47.715858,7.939,98020.34375
1588210081471,2020-04-30T01:28:47.760732,7.986,98020.6640625
1588210081518,2020-04-30T01:28:47.783131,8.033,98020.5
1588210081565,2020-04-30T01:28:47.805780,8.08,98021.15625
1588210081612,2020-04-30T01:28:47.843118,8.127,98020.34375
1588210081657,2020-04-30T01:28:47.865847,8.172,98020.6640625
1588210081704,2020-04-30T01:28:47.895803,8.219,98021.4296875
1588210081751,2020-04-30T01:28:47.918680,8.266,98021.265625
1588210081798,2020-04-30T01:28:47.941089,8.313,98020.78125
1588210081845,2020-04-30T01:28:47.957549,8.36,98020.609375
1588210081892,2020-04-30T01:28:48.016318,8.407,98021.265625
1588210081938,2020-04-30T01:28:48.040070,8.453,98021.8359375
1588210081985,2020-04-30T01:28:48.076251,8.5,98021.59375
1588210082031,2020-04-30T01:28:48.084909,8.546,98021.265625
1588210082078,2020-04-30T01:28:48.113859,8.593,98021.921875
1588210082125,2020-04-30T01:28:48.147739,8.64,98021.59375
1588210082171,2020-04-30T01:28:48.181248,8.686,98021.59375
1588210082218,2020-04-30T01:28:48.196736,8.733,98021.265625
1588210082265,2020-04-30T01:28:48.225788,8.78,98021.671875
1588210082312,2020-04-30T01:28:48.241411,8.827,98022.0
1588210082359,2020-04-30T01:28:48.270805,8.874,98022.65625
1588210082404,2020-04-30T01:28:48.324305,8.919,98022.484375
1588210082451,2020-04-30T01:28:48.353337,8.966,98022.765625
1588210082498,2020-04-30T01:28:48.368989,9.013,98022.6015625
1588210082545,2020-04-30T01:28:48.391421,9.06,98022.765625
1588210082592,2020-04-30T01:28:48.414069,9.107,98022.0
1588210082639,2020-04-30T01:28:48.435803,9.154,98021.671875
1588210082686,2020-04-30T01:28:48.504127,9.201,98020.78125
1588210082732,2020-04-30T01:28:48.518850,9.247,98020.4453125
1588210082779,2020-04-30T01:28:48.548470,9.294,98020.28125
1588210082825,2020-04-30T01:28:48.586187,9.34,98020.28125
1588210082872,2020-04-30T01:28:48.616205,9.387,98020.28125
1588210082918,2020-04-30T01:28:48.631201,9.433,98020.53125
1588210082965,2020-04-30T01:28:48.676154,9.48,98020.03125
1588210083012,2020-04-30T01:28:48.691509,9.527,98019.875
1588210083059,2020-04-30T01:28:48.728694,9.574,98019.7109375
1588210083106,2020-04-30T01:28:48.744195,9.621,98020.53125
1588210083153,2020-04-30T01:28:48.773701,9.668,98020.359375
1588210083198,2020-04-30T01:28:48.789180,9.713,98020.359375
1588210083245,2020-04-30T01:28:48.825787,9.76,98020.203125
1588210083292,2020-04-30T01:28:48.871512,9.807,98020.03125
1588210083339,2020-04-30T01:28:48.893701,9.854,98020.03125
1588210083386,2020-04-30T01:28:48.916484,9.901,98019.9609375
1588210083433,2020-04-30T01:28:48.938646,9.948,98019.9609375
1588210083479,2020-04-30T01:28:48.976484,9.994,98020.53125
1588210083526,2020-04-30T01:28:49.006141,10.041,98019.546875
1588210083573,2020-04-30T01:28:49.028929,10.088,98019.875
1588210083620,2020-04-30T01:28:49.051173,10.135,98020.03125
1588210083666,2020-04-30T01:28:49.073776,10.181,98020.640625
1588210083712,2020-04-30T01:28:49.096187,10.227,98020.359375
1588210083759,2020-04-30T01:28:49.156953,10.274,98020.796875
1588210083806,2020-04-30T01:28:49.178433,10.321,98020.3125
1588210083853,2020-04-30T01:28:49.201295,10.368,98020.4765625
1588210083900,2020-04-30T01:28:49.223456,10.415,98020.796875
1588210083947,2020-04-30T01:28:49.239132,10.462,98020.640625
1588210083994,2020-04-30T01:28:49.268399,10.509,98020.96875
1588210084039,2020-04-30T01:28:49.306163,10.554,98020.4765625
1588210084086,2020-04-30T01:28:49.343350,10.601,98019.65625
1588210084133,2020-04-30T01:28:49.359101,10.648,98019.828125
1588210084180,2020-04-30T01:28:49.403325,10.695,98020.3125
1588210084227,2020-04-30T01:28:49.426402,10.742,98019.875
1588210084273,2020-04-30T01:28:49.463662,10.788,98020.796875
1588210084320,2020-04-30T01:28:49.493926,10.835,98021.2890625
1588210084367,2020-04-30T01:28:49.525457,10.882,98022.1875
1588210084413,2020-04-30T01:28:49.539345,10.928,98021.6953125
1588210084459,2020-04-30T01:28:49.575955,10.974,98021.6953125
1588210084506,2020-04-30T01:28:49.593366,11.021,98020.875
1588210084553,2020-04-30T01:28:49.629305,11.068,98020.390625
1588210084600,2020-04-30T01:28:49.659145,11.115,98020.2265625
1588210084647,2020-04-30T01:28:49.703667,11.162,98020.71875
1588210084694,2020-04-30T01:28:49.726729,11.209,98020.71875
1588210084741,2020-04-30T01:28:49.748632,11.256,98020.546875
1588210084786,2020-04-30T01:28:49.771790,11.301,98020.0625
1588210084833,2020-04-30T01:28:49.808664,11.348,98019.734375
1588210084880,2020-04-30T01:28:49.838709,11.395,98020.546875
1588210084927,2020-04-30T01:28:49.861606,11.442,98020.875
1588210084974,2020-04-30T01:28:49.883939,11.489,98020.875
1588210085021,2020-04-30T01:28:49.905980,11.536,98021.046875
1588210085067,2020-04-30T01:28:49.933440,11.582,98021.484375
1588210085114,2020-04-30T01:28:50.004146,11.629,98020.71875
1588210085160,2020-04-30T01:28:50.014311,11.675,98020.34375
1588210085207,2020-04-30T01:28:50.035295,11.722,98019.734375
1588210085253,2020-04-30T01:28:50.057430,11.768,98019.578125
1588210085300,2020-04-30T01:28:50.080368,11.815,98020.0078125
1588210085347,2020-04-30T01:28:50.098253,11.862,98019.84375
1588210085394,2020-04-30T01:28:50.146857,11.909,98019.078125
1588210085441,2020-04-30T01:28:50.167760,11.956,98019.078125
1588210085488,2020-04-30T01:28:50.191480,12.003,98019.359375
1588210085533,2020-04-30T01:28:50.206468,12.048,98018.8671875
1588210085580,2020-04-30T01:28:50.258257,12.095,98019.359375
1588210085627,2020-04-30T01:28:50.273867,12.142,98019.25
1588210085674,2020-04-30T01:28:50.318755,12.189,98019.578125
1588210085721,2020-04-30T01:28:50.334945,12.236,98019.8984375
1588210085768,2020-04-30T01:28:50.363386,12.283,98020.0625
1588210085814,2020-04-30T01:28:50.380117,12.329,98020.9921875
1588210085861,2020-04-30T01:28:50.416115,12.376,98021.3125
1588210085908,2020-04-30T01:28:50.434199,12.423,98020.828125
1588210085954,2020-04-30T01:28:50.476662,12.469,98020.6640625
1588210086000,2020-04-30T01:28:50.492079,12.515,98020.546875
1588210086047,2020-04-30T01:28:50.536134,12.562,98020.6640625
1588210086094,2020-04-30T01:28:50.559133,12.609,98020.34375
1588210086141,2020-04-30T01:28:50.580936,12.656,98020.34375
1588210086188,2020-04-30T01:28:50.618647,12.703,98020.0625
1588210086235,2020-04-30T01:28:50.642590,12.75,98020.546875
1588210086282,2020-04-30T01:28:50.693947,12.797,98020.0625
1588210086329,2020-04-30T01:28:50.709587,12.844,98020.2265625
1588210086374,2020-04-30T01:28:50.741057,12.889,98019.734375
1588210086421,2020-04-30T01:28:50.769004,12.936,98019.734375
1588210086468,2020-04-30T01:28:50.821938,12.983,98020.171875
1588210086515,2020-04-30T01:28:50.840828,13.03,98019.84375
1588210086562,2020-04-30T01:28:50.867592,13.077,98019.8984375
1588210086608,2020-04-30T01:28:50.888130,13.123,98019.734375
1588210086655,2020-04-30T01:28:50.911137,13.17,98020.2265625
1588210086702,2020-04-30T01:28:50.926826,13.217,98020.875
1588210086748,2020-04-30T01:28:50.971138,13.263,98021.640625
1588210086794,2020-04-30T01:28:50.993918,13.309,98021.484375
1588210086841,2020-04-30T01:28:51.016114,13.356,98020.9921875
1588210086888,2020-04-30T01:28:51.038899,13.403,98020.171875
1588210086935,2020-04-30T01:28:51.083786,13.45,98020.0078125
1588210086982,2020-04-30T01:28:51.106267,13.497,98020.171875
1588210087029,2020-04-30T01:28:51.145283,13.544,98020.171875
1588210087076,2020-04-30T01:28:51.167384,13.591,98020.171875
1588210087121,2020-04-30T01:28:51.196247,13.636,98019.8984375
1588210087168,2020-04-30T01:28:51.226899,13.683,98020.0625
1588210087215,2020-04-30T01:28:51.248690,13.73,98019.8984375
1588210087262,2020-04-30T01:28:51.286517,13.777,98020.0625
1588210087309,2020-04-30T01:28:51.308968,13.824,98020.2265625
1588210087355,2020-04-30T01:28:51.346478,13.87,98020.0625
1588210087402,2020-04-30T01:28:51.375988,13.917,98020.875
1588210087449,2020-04-30T01:28:51.398977,13.964,98021.640625
1588210087495,2020-04-30T01:28:51.428747,14.01,98021.484375
1588210087542,2020-04-30T01:28:51.460293,14.057,98020.6640625
1588210087588,2020-04-30T01:28:51.488363,14.103,98020.828125
1588210087635,2020-04-30T01:28:51.511466,14.15,98021.15625
1588210087682,2020-04-30T01:28:51.541215,14.197,98020.9921875
1588210087729,2020-04-30T01:28:51.558076,14.244,98021.234375
1588210087776,2020-04-30T01:28:51.585934,14.291,98020.578125
1588210087823,2020-04-30T01:28:51.639037,14.338,98020.09375
1588210087868,2020-04-30T01:28:51.668754,14.383,98019.7109375
1588210087915,2020-04-30T01:28:51.684054,14.43,98019.7109375
1588210087962,2020-04-30T01:28:51.728392,14.477,98020.03125
1588210088009,2020-04-30T01:28:51.744105,14.524,98019.921875
1588210088056,2020-04-30T01:28:51.766132,14.571,98020.203125
1588210088103,2020-04-30T01:28:51.811384,14.618,98020.09375
1588210088149,2020-04-30T01:28:51.834948,14.664,98020.6875
1588210088196,2020-04-30T01:28:51.856420,14.711,98020.8515625
1588210088242,2020-04-30T01:28:51.878612,14.757,98020.8515625
1588210088289,2020-04-30T01:28:51.923933,14.804,98021.015625
1588210088335,2020-04-30T01:28:51.946135,14.85,98020.8515625
1588210088382,2020-04-30T01:28:51.983905,14.897,98020.8515625
1588210088429,2020-04-30T01:28:52.005995,14.944,98020.8515625
1588210088476,2020-04-30T01:28:52.033945,14.991,98020.359375
1588210088523,2020-04-30T01:28:52.059832,15.038,98021.234375
1588210088570,2020-04-30T01:28:52.081248,15.085,98021.5546875
1588210088615,2020-04-30T01:28:52.118453,15.13,98021.15625
1588210088662,2020-04-30T01:28:52.149033,15.177,98021.484375
1588210088709,2020-04-30T01:28:52.193752,15.224,98021.5546875
1588210088756,2020-04-30T01:28:52.209950,15.271,98021.390625
1588210088803,2020-04-30T01:28:52.238952,15.318,98020.90625
1588210088850,2020-04-30T01:28:52.261989,15.365,98020.578125
1588210088896,2020-04-30T01:28:52.305860,15.411,98020.0078125
1588210088943,2020-04-30T01:28:52.321827,15.458,98020.4140625
1588210088990,2020-04-30T01:28:52.358486,15.505,98020.25
1588210089036,2020-04-30T01:28:52.373819,15.551,98020.7421875
1588210089083,2020-04-30T01:28:52.403478,15.598,98021.5
1588210089129,2020-04-30T01:28:52.418991,15.644,98022.0
1588210089176,2020-04-30T01:28:52.485880,15.691,98021.828125
1588210089223,2020-04-30T01:28:52.501963,15.738,98021.5
1588210089270,2020-04-30T01:28:52.538755,15.785,98021.671875
1588210089317,2020-04-30T01:28:52.554080,15.832,98021.421875
1588210089364,2020-04-30T01:28:52.584159,15.879,98020.921875
1588210089409,2020-04-30T01:28:52.601256,15.924,98020.03125
1588210089456,2020-04-30T01:28:52.645671,15.971,98020.03125
1588210089503,2020-04-30T01:28:52.668491,16.018,98019.875
1588210089550,2020-04-30T01:28:52.689281,16.065,98020.203125
1588210089597,2020-04-30T01:28:52.711497,16.112,98020.5234375
1588210089644,2020-04-30T01:28:52.756151,16.159,98020.8515625
1588210089690,2020-04-30T01:28:52.779009,16.205,98020.90625
1588210089737,2020-04-30T01:28:52.823362,16.252,98021.34375
1588210089783,2020-04-30T01:28:52.846280,16.298,98021.34375
1588210089830,2020-04-30T01:28:52.868493,16.345,98020.8515625
1588210089876,2020-04-30T01:28:52.920831,16.391,98020.6875
1588210089923,2020-04-30T01:28:52.936224,16.438,98021.34375
1588210089970,2020-04-30T01:28:52.980963,16.485,98021.171875
1588210090017,2020-04-30T01:28:53.012801,16.532,98021.5
1588210090064,2020-04-30T01:28:53.048556,16.579,98022.0703125
1588210090111,2020-04-30T01:28:53.063865,16.626,98020.6875
1588210090158,2020-04-30T01:28:53.093455,16.673,98020.359375
1588210090205,2020-04-30T01:28:53.115908,16.72,98019.875
1588210090251,2020-04-30T01:28:53.153302,16.766,98020.359375
1588210090297,2020-04-30T01:28:53.183473,16.812,98019.4609375
1588210090344,2020-04-30T01:28:53.205796,16.859,98019.296875
1588210090391,2020-04-30T01:28:53.228369,16.906,98019.625
1588210090438,2020-04-30T01:28:53.250766,16.953,98019.953125
1588210090484,2020-04-30T01:28:53.288416,16.999,98020.6015625
1588210090531,2020-04-30T01:28:53.333608,17.046,98020.2734375
1588210090578,2020-04-30T01:28:53.363793,17.093,98020.4375
1588210090625,2020-04-30T01:28:53.385807,17.14,98020.4375
1588210090672,2020-04-30T01:28:53.408551,17.187,98020.109375
1588210090719,2020-04-30T01:28:53.430765,17.234,98020.03125
1588210090766,2020-04-30T01:28:53.460998,17.281,98020.4375
1588210090811,2020-04-30T01:28:53.498292,17.326,98020.5234375
1588210090858,2020-04-30T01:28:53.513431,17.373,98020.8515625
1588210090905,2020-04-30T01:28:53.543304,17.42,98020.5234375
1588210090952,2020-04-30T01:28:53.580946,17.467,98019.7109375
1588210090999,2020-04-30T01:28:53.611123,17.514,98019.21875
1588210091045,2020-04-30T01:28:53.648642,17.56,98019.546875
1588210091092,2020-04-30T01:28:53.678269,17.607,98018.734375
1588210091139,2020-04-30T01:28:53.693511,17.654,98018.5625
1588210091185,2020-04-30T01:28:53.731749,17.7,98018.078125
1588210091231,2020-04-30T01:28:53.746573,17.746,98018.3125
1588210091278,2020-04-30T01:28:53.777741,17.793,98017.984375
1588210091325,2020-04-30T01:28:53.806937,17.84,98017.828125
1588210091372,2020-04-30T01:28:53.858673,17.887,98017.828125
1588210091419,2020-04-30T01:28:53.875310,17.934,98018.3125
1588210091466,2020-04-30T01:28:53.903779,17.981,98018.640625
1588210091513,2020-04-30T01:28:53.927333,18.028,98018.484375
1588210091560,2020-04-30T01:28:53.949085,18.075,98018.3125
1588210091605,2020-04-30T01:28:53.993538,18.12,98018.3125
1588210091652,2020-04-30T01:28:54.016185,18.167,98018.15625
1588210091699,2020-04-30T01:28:54.039111,18.214,98018.484375
1588210091746,2020-04-30T01:28:54.069011,18.261,98019.375
1588210091792,2020-04-30T01:28:54.092496,18.307,98019.859375
1588210091839,2020-04-30T01:28:54.137076,18.354,98020.359375
1588210091886,2020-04-30T01:28:54.174152,18.401,98019.4609375
1588210091932,2020-04-30T01:28:54.203742,18.447,98019.4609375
1588210091979,2020-04-30T01:28:54.226249,18.494,98019.625
1588210092025,2020-04-30T01:28:54.248513,18.54,98019.625
1588210092072,2020-04-30T01:28:54.278781,18.587,98019.296875
1588210092119,2020-04-30T01:28:54.302192,18.634,98019.375
1588210092166,2020-04-30T01:28:54.339585,18.681,98020.03125
1588210092213,2020-04-30T01:28:54.361276,18.728,98020.359375
1588210092260,2020-04-30T01:28:54.377823,18.775,98020.359375
1588210092307,2020-04-30T01:28:54.429147,18.822,98019.703125
1588210092354,2020-04-30T01:28:54.445053,18.869,98019.296875
1588210092399,2020-04-30T01:28:54.496088,18.914,98018.640625
1588210092446,2020-04-30T01:28:54.513560,18.961,98019.4609375
1588210092493,2020-04-30T01:28:54.542261,19.008,98019.546875
1588210092540,2020-04-30T01:28:54.565018,19.055,98019.78125
1588210092586,2020-04-30T01:28:54.595691,19.101,98019.625
1588210092633,2020-04-30T01:28:54.610934,19.148,98020.2734375
1588210092680,2020-04-30T01:28:54.653970,19.195,98020.4375
1588210092727,2020-04-30T01:28:54.691430,19.242,98019.953125
1588210092772,2020-04-30T01:28:54.721135,19.287,98020.515625
1588210092819,2020-04-30T01:28:54.736429,19.334,98019.625
1588210092866,2020-04-30T01:28:54.773717,19.381,98019.78125
1588210092913,2020-04-30T01:28:54.788935,19.428,98019.78125
1588210092960,2020-04-30T01:28:54.833844,19.475,98019.78125
1588210093007,2020-04-30T01:28:54.856508,19.522,98020.109375
1588210093054,2020-04-30T01:28:54.878646,19.569,98019.78125
1588210093101,2020-04-30T01:28:54.901488,19.616,98019.0546875
1588210093146,2020-04-30T01:28:54.923746,19.661,98019.78125
1588210093193,2020-04-30T01:28:54.968785,19.708,98019.53125
1588210093240,2020-04-30T01:28:55.006176,19.755,98019.375
1588210093287,2020-04-30T01:28:55.036918,19.802,98019.859375
1588210093334,2020-04-30T01:28:55.058704,19.849,98020.359375
1588210093380,2020-04-30T01:28:55.081556,19.895,98020.359375
1588210093427,2020-04-30T01:28:55.111636,19.942,98020.1875
1588210093474,2020-04-30T01:28:55.156417,19.989,98020.359375
1588210093521,2020-04-30T01:28:55.186517,20.036,98020.515625
1588210093566,2020-04-30T01:28:55.231645,20.081,98020.1875
1588210093613,2020-04-30T01:28:55.254942,20.128,98020.109375
1588210093660,2020-04-30T01:28:55.276091,20.175,98020.6015625
1588210093707,2020-04-30T01:28:55.306653,20.222,98020.4375
1588210093754,2020-04-30T01:28:55.343659,20.269,98020.109375
1588210093801,2020-04-30T01:28:55.366691,20.316,98020.6015625
1588210093848,2020-04-30T01:28:55.396204,20.363,98020.2734375
1588210093895,2020-04-30T01:28:55.421082,20.41,98019.625
1588210093940,2020-04-30T01:28:55.441124,20.455,98019.21875
1588210093987,2020-04-30T01:28:55.464837,20.502,98019.546875
1588210094034,2020-04-30T01:28:55.524648,20.549,98019.78125
1588210094081,2020-04-30T01:28:55.546936,20.596,98021.0078125
1588210094127,2020-04-30T01:28:55.568774,20.642,98020.6015625
1588210094174,2020-04-30T01:28:55.599055,20.689,98020.4375
1588210094221,2020-04-30T01:28:55.622147,20.736,98020.2734375
1588210094268,2020-04-30T01:28:55.645150,20.783,98020.109375
1588210094313,2020-04-30T01:28:55.689605,20.828,98021.0078125
1588210094360,2020-04-30T01:28:55.704164,20.875,98021.3359375
1588210094407,2020-04-30T01:28:55.733802,20.922,98021.09375
1588210094454,2020-04-30T01:28:55.749288,20.969,98021.0078125
1588210094501,2020-04-30T01:28:55.801246,21.016,98020.359375
1588210094548,2020-04-30T01:28:55.816584,21.063,98020.6796875
1588210094595,2020-04-30T01:28:55.868911,21.11,98021.0078125
1588210094642,2020-04-30T01:28:55.884614,21.157,98020.4375
1588210094688,2020-04-30T01:28:55.913795,21.203,98020.4375
1588210094735,2020-04-30T01:28:55.929117,21.25,98020.84375
1588210094781,2020-04-30T01:28:55.965965,21.296,98020.4375
1588210094828,2020-04-30T01:28:55.995919,21.343,98019.953125
1588210094875,2020-04-30T01:28:56.025795,21.39,98020.03125
1588210094921,2020-04-30T01:28:56.040929,21.436,98019.703125
1588210094968,2020-04-30T01:28:56.093293,21.483,98019.8125
1588210095015,2020-04-30T01:28:56.109170,21.53,98019.375
1588210095062,2020-04-30T01:28:56.138574,21.577,98019.53125
1588210095109,2020-04-30T01:28:56.176644,21.624,98019.53125
1588210095156,2020-04-30T01:28:56.198458,21.671,98019.703125
1588210095201,2020-04-30T01:28:56.229011,21.716,98019.53125
1588210095248,2020-04-30T01:28:56.251347,21.763,98020.03125
1588210095295,2020-04-30T01:28:56.274204,21.81,98020.1875
1588210095342,2020-04-30T01:28:56.296430,21.857,98020.515625
1588210095389,2020-04-30T01:28:56.334164,21.904,98020.1875
1588210095436,2020-04-30T01:28:56.363820,21.951,98019.53125
1588210095482,2020-04-30T01:28:56.386692,21.997,98018.71875
1588210095529,2020-04-30T01:28:56.417713,22.044,98019.296875
1588210095576,2020-04-30T01:28:56.439583,22.091,98019.78125
1588210095622,2020-04-30T01:28:56.461237,22.137,98020.359375
1588210095668,2020-04-30T01:28:56.506653,22.183,98020.2734375
1588210095715,2020-04-30T01:28:56.528916,22.23,98020.515625
1588210095762,2020-04-30T01:28:56.543969,22.277,98020.515625
1588210095809,2020-04-30T01:28:56.573927,22.324,98020.515625
1588210095856,2020-04-30T01:28:56.596398,22.371,98020.515625
1588210095903,2020-04-30T01:28:56.633811,22.418,98021.4375
1588210095950,2020-04-30T01:28:56.663902,22.465,98021.765625
1588210095997,2020-04-30T01:28:56.700983,22.512,98021.765625
1588210096042,2020-04-30T01:28:56.716810,22.557,98022.09375
1588210096089,2020-04-30T01:28:56.746257,22.604,98021.4375
1588210096136,2020-04-30T01:28:56.776505,22.651,98020.953125
1588210096183,2020-04-30T01:28:56.828752,22.698,98020.953125
1588210096229,2020-04-30T01:28:56.845829,22.744,98020.953125
1588210096276,2020-04-30T01:28:56.873607,22.791,98020.84375
1588210096323,2020-04-30T01:28:56.889067,22.838,98020.625
1588210096370,2020-04-30T01:28:56.926271,22.885,98020.46875
1588210096416,2020-04-30T01:28:56.941569,22.931,98020.140625
1588210096462,2020-04-30T01:28:56.986279,22.977,98020.46875
1588210096509,2020-04-30T01:28:57.009006,23.024,98020.7890625
1588210096556,2020-04-30T01:28:57.038736,23.071,98019.9765625
1588210096603,2020-04-30T01:28:57.069179,23.118,98019.328125
1588210096650,2020-04-30T01:28:57.091231,23.165,98019.890625
1588210096697,2020-04-30T01:28:57.114272,23.212,98019.890625
1588210096744,2020-04-30T01:28:57.170507,23.259,98018.828125
1588210096791,2020-04-30T01:28:57.197129,23.306,98018.5
1588210096837,2020-04-30T01:28:57.226267,23.352,98018.6640625
1588210096883,2020-04-30T01:28:57.256685,23.398,98018.828125
1588210096930,2020-04-30T01:28:57.278671,23.445,98018.8828125
1588210096977,2020-04-30T01:28:57.302915,23.492,98018.71875
1588210097023,2020-04-30T01:28:57.346719,23.538,98018.8828125
1588210097070,2020-04-30T01:28:57.398754,23.585,98018.71875
1588210097117,2020-04-30T01:28:57.416071,23.632,98019.6484375
1588210097164,2020-04-30T01:28:57.443671,23.679,98020.046875
1588210097211,2020-04-30T01:28:57.479121,23.726,98019.7265625
1588210097258,2020-04-30T01:28:57.511168,23.773,98020.21875
1588210097305,2020-04-30T01:28:57.541429,23.82,98020.296875
1588210097350,2020-04-30T01:28:57.563662,23.865,98020.46875
1588210097397,2020-04-30T01:28:57.586547,23.912,98019.9765625
1588210097444,2020-04-30T01:28:57.616207,23.959,98019.9765625
1588210097491,2020-04-30T01:28:57.638923,24.006,98020.46875
1588210097538,2020-04-30T01:28:57.676299,24.053,98020.46875
1588210097584,2020-04-30T01:28:57.698960,24.099,98020.625
1588210097631,2020-04-30T01:28:57.721129,24.146,98020.46875
1588210097678,2020-04-30T01:28:57.751422,24.193,98019.9765625
1588210097724,2020-04-30T01:28:57.773744,24.239,98019.703125
1588210097771,2020-04-30T01:28:57.803792,24.286,98019.375
1588210097817,2020-04-30T01:28:57.844876,24.332,98018.8828125
1588210097864,2020-04-30T01:28:57.856483,24.379,98018.5546875
1588210097911,2020-04-30T01:28:57.893800,24.426,98019.0
1588210097958,2020-04-30T01:28:57.909514,24.473,98019.6484375
1588210098005,2020-04-30T01:28:57.938500,24.52,98020.140625
1588210098052,2020-04-30T01:28:57.954303,24.567,98020.140625
1588210098099,2020-04-30T01:28:58.000828,24.614,98020.140625
1588210098146,2020-04-30T01:28:58.021752,24.661,98019.859375
1588210098192,2020-04-30T01:28:58.051315,24.707,98020.03125
1588210098238,2020-04-30T01:28:58.066957,24.753,98020.7890625
1588210098285,2020-04-30T01:28:58.103485,24.8,98020.296875
1588210098332,2020-04-30T01:28:58.119056,24.847,98019.375
1588210098378,2020-04-30T01:28:58.171586,24.893,98019.2109375
1588210098425,2020-04-30T01:28:58.187491,24.94,98018.8828125
1588210098472,2020-04-30T01:28:58.216155,24.987,98019.6484375
1588210098519,2020-04-30T01:28:58.232117,25.034,98019.9765625
1588210098566,2020-04-30T01:28:58.253823,25.081,98019.6484375
1588210098613,2020-04-30T01:28:58.299028,25.128,98019.6484375
1588210098658,2020-04-30T01:28:58.321645,25.173,98019.328125
1588210098705,2020-04-30T01:28:58.344637,25.22,98019.0
1588210098752,2020-04-30T01:28:58.373702,25.267,98019.0
1588210098799,2020-04-30T01:28:58.397451,25.314,98018.90625
1588210098846,2020-04-30T01:28:58.418783,25.361,98018.171875
1588210098893,2020-04-30T01:28:58.464518,25.408,98018.34375
1588210098939,2020-04-30T01:28:58.486368,25.454,98018.828125
1588210098986,2020-04-30T01:28:58.509049,25.501,98019.15625
1588210099032,2020-04-30T01:28:58.531277,25.547,98018.828125
1588210099079,2020-04-30T01:28:58.553798,25.594,98019.0
1588210099125,2020-04-30T01:28:58.583826,25.64,98018.34375
1588210099172,2020-04-30T01:28:58.621515,25.687,98018.6640625
1588210099219,2020-04-30T01:28:58.651237,25.734,98018.6640625
1588210099266,2020-04-30T01:28:58.666703,25.781,98019.5625
1588210099313,2020-04-30T01:28:58.696289,25.828,98020.703125
1588210099360,2020-04-30T01:28:58.719356,25.875,98021.3046875
1588210099405,2020-04-30T01:28:58.748792,25.92,98021.3046875
1588210099452,2020-04-30T01:28:58.779367,25.967,98020.046875
1588210099499,2020-04-30T01:28:58.808802,26.014,98019.7265625
1588210099546,2020-04-30T01:28:58.824154,26.061,98020.375
1588210099593,2020-04-30T01:28:58.861035,26.108,98019.890625
1588210099640,2020-04-30T01:28:58.878505,26.155,98019.3984375
1588210099687,2020-04-30T01:28:58.930269,26.202,98019.234375
1588210099733,2020-04-30T01:28:58.944218,26.248,98019.3984375
1588210099780,2020-04-30T01:28:58.974810,26.295,98019.3984375
1588210099826,2020-04-30T01:28:58.996756,26.341,98019.3984375
1588210099873,2020-04-30T01:28:59.026291,26.388,98019.234375
1588210099919,2020-04-30T01:28:59.041535,26.434,98019.3984375
1588210099966,2020-04-30T01:28:59.086274,26.481,98019.234375
1588210100013,2020-04-30T01:28:59.108998,26.528,98019.078125
1588210100060,2020-04-30T01:28:59.138768,26.575,98019.5625
1588210100107,2020-04-30T01:28:59.161508,26.622,98020.15625
1588210100154,2020-04-30T01:28:59.198849,26.669,98019.890625
1588210100199,2020-04-30T01:28:59.221435,26.714,98020.046875
1588210100246,2020-04-30T01:28:59.259176,26.761,98020.0
1588210100293,2020-04-30T01:28:59.289824,26.808,98020.484375
1588210100340,2020-04-30T01:28:59.311763,26.855,98020.484375
1588210100387,2020-04-30T01:28:59.335613,26.902,98020.65625
1588210100434,2020-04-30T01:28:59.356421,26.949,98020.328125
1588210100480,2020-04-30T01:28:59.386621,26.995,98020.0
1588210100527,2020-04-30T01:28:59.431353,27.042,98019.5078125
1588210100574,2020-04-30T01:28:59.454163,27.089,98019.34375
1588210100620,2020-04-30T01:28:59.491370,27.135,98019.1796875
1588210100667,2020-04-30T01:28:59.528843,27.182,98019.671875
1588210100713,2020-04-30T01:28:59.559088,27.228,98020.15625
1588210100760,2020-04-30T01:28:59.581309,27.275,98019.8359375
1588210100807,2020-04-30T01:28:59.619047,27.322,98019.8359375
1588210100854,2020-04-30T01:28:59.641129,27.369,98020.40625
1588210100901,2020-04-30T01:28:59.664496,27.416,98020.15625
1588210100948,2020-04-30T01:28:59.694968,27.463,98019.5078125
1588210100995,2020-04-30T01:28:59.716978,27.51,98019.1796875
1588210101040,2020-04-30T01:28:59.761281,27.555,98019.078125
1588210101087,2020-04-30T01:28:59.784426,27.602,98019.671875
1588210101134,2020-04-30T01:28:59.806191,27.649,98018.75
1588210101181,2020-04-30T01:28:59.836689,27.696,98019.078125
1588210101228,2020-04-30T01:28:59.866540,27.743,98018.90625
1588210101274,2020-04-30T01:28:59.889194,27.789,98018.578125
1588210101321,2020-04-30T01:28:59.926220,27.836,98019.078125
1588210101367,2020-04-30T01:28:59.941601,27.882,98019.34375
1588210101414,2020-04-30T01:28:59.978758,27.929,98019.34375
1588210101460,2020-04-30T01:28:59.994155,27.975,98019.34375
1588210101507,2020-04-30T01:29:00.031742,28.022,98019.1796875
1588210101554,2020-04-30T01:29:00.048366,28.069,98018.6953125
1588210101601,2020-04-30T01:29:00.098518,28.116,98018.0390625
1588210101648,2020-04-30T01:29:00.114544,28.163,98017.875
1588210101695,2020-04-30T01:29:00.143641,28.21,98018.1171875
1588210101742,2020-04-30T01:29:00.159238,28.257,98017.71875
1588210101789,2020-04-30T01:29:00.189146,28.304,98017.3828125
1588210101835,2020-04-30T01:29:00.204095,28.35,98017.71875
1588210101881,2020-04-30T01:29:00.256358,28.396,98017.71875
1588210101928,2020-04-30T01:29:00.271428,28.443,98019.1796875
1588210101975,2020-04-30T01:29:00.308840,28.49,98018.578125
1588210102021,2020-04-30T01:29:00.324187,28.536,98018.25
1588210102068,2020-04-30T01:29:00.346384,28.583,98018.421875
1588210102115,2020-04-30T01:29:00.399005,28.63,98018.578125
1588210102162,2020-04-30T01:29:00.421717,28.677,98020.40625
1588210102209,2020-04-30T01:29:00.444007,28.724,98020.40625
1588210102256,2020-04-30T01:29:00.465961,28.771,98020.984375
1588210102301,2020-04-30T01:29:00.489477,28.816,98021.3828125
1588210102348,2020-04-30T01:29:00.518834,28.863,98020.890625
1588210102395,2020-04-30T01:29:00.556617,28.91,98021.21875
1588210102442,2020-04-30T01:29:00.586378,28.957,98021.3828125
1588210102489,2020-04-30T01:29:00.610994,29.004,98021.3828125
1588210102536,2020-04-30T01:29:00.631250,29.051,98020.5625
1588210102583,2020-04-30T01:29:00.661621,29.098,98020.2421875
1588210102629,2020-04-30T01:29:00.683854,29.144,98020.40625
1588210102675,2020-04-30T01:29:00.721986,29.19,98019.8359375
1588210102722,2020-04-30T01:29:00.743807,29.237,98020.0
1588210102769,2020-04-30T01:29:00.759030,29.284,98020.2421875
1588210102815,2020-04-30T01:29:00.796453,29.33,98020.484375
1588210102862,2020-04-30T01:29:00.811479,29.377,98020.15625
1588210102909,2020-04-30T01:29:00.841192,29.424,98020.0
1588210102956,2020-04-30T01:29:00.879005,29.471,98019.90625
1588210103003,2020-04-30T01:29:00.908552,29.518,98020.5625
1588210103048,2020-04-30T01:29:00.924038,29.563,98021.171875
1588210103095,2020-04-30T01:29:00.961223,29.61,98020.515625
1588210103142,2020-04-30T01:29:00.979209,29.657,98020.5625
1588210103189,2020-04-30T01:29:01.006894,29.704,98020.2421875
1588210103236,2020-04-30T01:29:01.036603,29.751,98019.5078125
1588210103283,2020-04-30T01:29:01.073640,29.798,98019.90625
1588210103330,2020-04-30T01:29:01.089422,29.845,98019.90625
1588210103376,2020-04-30T01:29:01.118673,29.891,98019.015625
1588210103423,2020-04-30T01:29:01.146926,29.938,98019.015625
1588210103469,2020-04-30T01:29:01.179007,29.984,98019.59375
1588210103516,2020-04-30T01:29:01.201774,30.031,98019.75
1588210103563,2020-04-30T01:29:01.231231,30.078,98020.078125
1588210103609,2020-04-30T01:29:01.254130,30.124,98019.671875
1588210103656,2020-04-30T01:29:01.276317,30.171,98019.34375
1588210103703,2020-04-30T01:29:01.299008,30.218,98019.34375
1588210103750,2020-04-30T01:29:01.336255,30.265,98018.6953125
1588210103797,2020-04-30T01:29:01.366593,30.312,98018.3671875
1588210103842,2020-04-30T01:29:01.396166,30.357,98018.0390625
1588210103889,2020-04-30T01:29:01.427131,30.404,98017.875
1588210103936,2020-04-30T01:29:01.449236,30.451,98018.53125
1588210103983,2020-04-30T01:29:01.475513,30.498,98019.2578125
1588210104030,2020-04-30T01:29:01.516559,30.545,98020.0234375
1588210104077,2020-04-30T01:29:01.531559,30.592,98020.0234375
1588210104124,2020-04-30T01:29:01.561250,30.639,98020.3515625
1588210104170,2020-04-30T01:29:01.576631,30.685,98019.09375
1588210104216,2020-04-30T01:29:01.606243,30.731,98018.9296875
1588210104263,2020-04-30T01:29:01.630211,30.778,98018.53125
1588210104310,2020-04-30T01:29:01.696549,30.825,98018.859375
1588210104356,2020-04-30T01:29:01.718716,30.871,98018.203125
1588210104403,2020-04-30T01:29:01.741519,30.918,98019.2578125
1588210104450,2020-04-30T01:29:01.771540,30.965,98019.671875
1588210104497,2020-04-30T01:29:01.793996,31.012,98019.90625
1588210104544,2020-04-30T01:29:01.816214,31.059,98020.3515625
1588210104591,2020-04-30T01:29:01.854017,31.106,98019.859375
1588210104636,2020-04-30T01:29:01.876290,31.151,98020.0234375
1588210104683,2020-04-30T01:29:01.906531,31.198,98020.0234375
1588210104730,2020-04-30T01:29:01.928993,31.245,98019.375
1588210104777,2020-04-30T01:29:01.944031,31.292,98018.9609375
1588210104824,2020-04-30T01:29:01.996263,31.339,98018.2265625
1588210104871,2020-04-30T01:29:02.011565,31.386,98018.0625
1588210104917,2020-04-30T01:29:02.056652,31.432,98018.2265625
1588210104964,2020-04-30T01:29:02.074276,31.479,98018.0625
1588210105010,2020-04-30T01:29:02.101729,31.525,98018.71875
1588210105057,2020-04-30T01:29:02.117486,31.572,98018.2265625
1588210105104,2020-04-30T01:29:02.170175,31.619,98018.0625
1588210105150,2020-04-30T01:29:02.193142,31.665,98017.46875
1588210105197,2020-04-30T01:29:02.222707,31.712,98017.953125
1588210105244,2020-04-30T01:29:02.244832,31.759,98018.875
1588210105291,2020-04-30T01:29:02.273799,31.806,98019.2109375
1588210105338,2020-04-30T01:29:02.291401,31.853,98018.4453125
1588210105383,2020-04-30T01:29:02.349410,31.898,98019.046875
1588210105430,2020-04-30T01:29:02.365508,31.945,98019.046875
1588210105477,2020-04-30T01:29:02.387224,31.992,98019.53125
1588210105524,2020-04-30T01:29:02.409068,32.039,98020.1015625
1588210105571,2020-04-30T01:29:02.431441,32.086,98020.265625
1588210105618,2020-04-30T01:29:02.469085,32.133,98019.859375
1588210105665,2020-04-30T01:29:02.506832,32.18,98020.1875
1588210105711,2020-04-30T01:29:02.536488,32.226,98019.859375
1588210105758,2020-04-30T01:29:02.566054,32.273,98019.859375
1588210105804,2020-04-30T01:29:02.588621,32.319,98019.7734375
1588210105851,2020-04-30T01:29:02.618493,32.366,98020.421875
1588210105897,2020-04-30T01:29:02.664181,32.412,98020.1875
1588210105944,2020-04-30T01:29:02.686384,32.459,98020.84375
1588210105991,2020-04-30T01:29:02.709120,32.506,98020.515625
1588210106038,2020-04-30T01:29:02.738672,32.553,98020.515625
1588210106085,2020-04-30T01:29:02.762539,32.6,98020.515625
1588210106132,2020-04-30T01:29:02.783833,32.647,98020.84375
1588210106177,2020-04-30T01:29:02.824775,32.692,98020.734375
1588210106224,2020-04-30T01:29:02.851177,32.739,98020.5625
1588210106271,2020-04-30T01:29:02.881690,32.786,98021.0
1588210106318,2020-04-30T01:29:02.911381,32.833,98021.171875
1588210106365,2020-04-30T01:29:02.934179,32.88,98020.40625
1588210106412,2020-04-30T01:29:02.965804,32.927,98020.5625
1588210106459,2020-04-30T01:29:02.994762,32.974,98020.078125
1588210106505,2020-04-30T01:29:03.032424,33.02,98019.90625
1588210106551,2020-04-30T01:29:03.048189,33.066,98019.59375
1588210106598,2020-04-30T01:29:03.083680,33.113,98018.9296875
1588210106645,2020-04-30T01:29:03.100251,33.16,98018.9296875
1588210106691,2020-04-30T01:29:03.130681,33.206,98019.703125
1588210106738,2020-04-30T01:29:03.175207,33.253,98019.859375
1588210106785,2020-04-30T01:29:03.212102,33.3,98020.0234375
1588210106832,2020-04-30T01:29:03.227505,33.347,98020.515625
1588210106879,2020-04-30T01:29:03.249215,33.394,98021.0
1588210106926,2020-04-30T01:29:03.272912,33.441,98020.84375
1588210106971,2020-04-30T01:29:03.301255,33.486,98020.515625
1588210107018,2020-04-30T01:29:03.354748,33.533,98020.515625
1588210107065,2020-04-30T01:29:03.376647,33.58,98020.515625
1588210107112,2020-04-30T01:29:03.400081,33.627,98020.0234375
1588210107159,2020-04-30T01:29:03.421488,33.674,98020.0234375
1588210107206,2020-04-30T01:29:03.452722,33.721,98019.703125
1588210107252,2020-04-30T01:29:03.496958,33.767,98019.53125
1588210107299,2020-04-30T01:29:03.520100,33.814,98019.53125
1588210107345,2020-04-30T01:29:03.541570,33.86,98019.2109375
1588210107392,2020-04-30T01:29:03.571466,33.907,98019.2109375
1588210107438,2020-04-30T01:29:03.593775,33.953,98019.453125
1588210107485,2020-04-30T01:29:03.616898,34.0,98020.1015625
1588210107532,2020-04-30T01:29:03.661175,34.047,98020.421875
1588210107579,2020-04-30T01:29:03.676986,34.094,98019.7734375
1588210107626,2020-04-30T01:29:03.722165,34.141,98019.9375
1588210107673,2020-04-30T01:29:03.737550,34.188,98019.9375
1588210107718,2020-04-30T01:29:03.776162,34.233,98019.9375
1588210107765,2020-04-30T01:29:03.789769,34.28,98020.1015625
1588210107812,2020-04-30T01:29:03.834104,34.327,98019.609375
1588210107859,2020-04-30T01:29:03.878627,34.374,98019.9375
1588210107906,2020-04-30T01:29:03.909012,34.421,98019.9375
1588210107953,2020-04-30T01:29:03.931461,34.468,98020.921875
1588210108000,2020-04-30T01:29:03.954096,34.515,98021.078125
1588210108046,2020-04-30T01:29:03.976479,34.561,98020.515625
1588210108093,2020-04-30T01:29:04.021745,34.608,98020.421875
1588210108140,2020-04-30T01:29:04.058781,34.655,98020.1875
1588210108187,2020-04-30T01:29:04.091042,34.702,98020.1875
1588210108232,2020-04-30T01:29:04.128226,34.747,98020.1875
1588210108279,2020-04-30T01:29:04.145635,34.794,98019.703125
1588210108326,2020-04-30T01:29:04.172984,34.841,98020.0234375
1588210108373,2020-04-30T01:29:04.210246,34.888,98020.1015625
1588210108420,2020-04-30T01:29:04.247203,34.935,98019.375
1588210108467,2020-04-30T01:29:04.274452,34.982,98019.2109375
1588210108514,2020-04-30T01:29:04.315841,35.029,98019.375
1588210108561,2020-04-30T01:29:04.329493,35.076,98019.453125
1588210108606,2020-04-30T01:29:04.373747,35.121,98019.7734375
1588210108653,2020-04-30T01:29:04.411510,35.168,98019.28125
1588210108700,2020-04-30T01:29:04.441224,35.215,98019.609375
1588210108747,2020-04-30T01:29:04.456599,35.262,98019.609375
1588210108793,2020-04-30T01:29:04.486302,35.308,98019.453125
1588210108840,2020-04-30T01:29:04.502338,35.355,98019.453125
1588210108887,2020-04-30T01:29:04.562591,35.402,98019.453125
1588210108934,2020-04-30T01:29:04.579976,35.449,98019.9375
1588210108981,2020-04-30T01:29:04.599796,35.496,98020.59375
1588210109028,2020-04-30T01:29:04.621628,35.543,98020.421875
1588210109073,2020-04-30T01:29:04.643924,35.588,98019.046875
1588210109120,2020-04-30T01:29:04.682084,35.635,98018.3046875
1588210109167,2020-04-30T01:29:04.719251,35.682,98018.46875
1588210109214,2020-04-30T01:29:04.741768,35.729,98017.578125
1588210109261,2020-04-30T01:29:04.764096,35.776,98017.8984375
1588210109308,2020-04-30T01:29:04.795468,35.823,98018.390625
1588210109354,2020-04-30T01:29:04.823888,35.869,98017.7890625
1588210109401,2020-04-30T01:29:04.848082,35.916,98018.546875
1588210109447,2020-04-30T01:29:04.899045,35.962,98018.796875
1588210109494,2020-04-30T01:29:04.921557,36.009,98018.546875
1588210109541,2020-04-30T01:29:04.966187,36.056,98018.875
1588210109587,2020-04-30T01:29:04.989809,36.102,98018.46875
1588210109634,2020-04-30T01:29:05.011516,36.149,98017.484375
1588210109681,2020-04-30T01:29:05.043522,36.196,98017.328125
1588210109728,2020-04-30T01:29:05.079271,36.243,98017.984375
1588210109775,2020-04-30T01:29:05.101197,36.29,98017.921875
1588210109822,2020-04-30T01:29:05.130970,36.337,98017.484375
1588210109867,2020-04-30T01:29:05.153598,36.382,98017.484375
1588210109914,2020-04-30T01:29:05.183476,36.429,98017.6484375
1588210109961,2020-04-30T01:29:05.221103,36.476,98018.09375
1588210110008,2020-04-30T01:29:05.258540,36.523,98017.765625
1588210110055,2020-04-30T01:29:05.288597,36.57,98017.328125
1588210110102,2020-04-30T01:29:05.318479,36.617,98017.6484375
1588210110148,2020-04-30T01:29:05.333746,36.663,98017.328125
1588210110195,2020-04-30T01:29:05.363544,36.71,98017.15625
1588210110241,2020-04-30T01:29:05.401457,36.756,98017.765625
1588210110288,2020-04-30T01:29:05.446209,36.803,98018.25
1588210110334,2020-04-30T01:29:05.461230,36.849,98018.09375
1588210110381,2020-04-30T01:29:05.491036,36.896,98017.59375
1588210110428,2020-04-30T01:29:05.513719,36.943,98017.8125
1588210110475,2020-04-30T01:29:05.536435,36.99,98017.6484375
1588210110522,2020-04-30T01:29:05.574101,37.037,98018.25
1588210110569,2020-04-30T01:29:05.596102,37.084,98018.578125
1588210110614,2020-04-30T01:29:05.618826,37.129,98017.734375
1588210110661,2020-04-30T01:29:05.641106,37.176,98017.40625
1588210110708,2020-04-30T01:29:05.665339,37.223,98017.0859375
1588210110755,2020-04-30T01:29:05.686819,37.27,98016.921875
1588210110802,2020-04-30T01:29:05.733464,37.317,98017.6484375
1588210110849,2020-04-30T01:29:05.753507,37.364,98017.8125
1588210110896,2020-04-30T01:29:05.783652,37.411,98018.09375
1588210110942,2020-04-30T01:29:05.805995,37.457,98017.6484375
1588210110989,2020-04-30T01:29:05.828598,37.504,98018.25
1588210111035,2020-04-30T01:29:05.866008,37.55,98018.578125
1588210111082,2020-04-30T01:29:05.881110,37.597,98018.578125
1588210111128,2020-04-30T01:29:05.910998,37.643,98018.25
1588210111175,2020-04-30T01:29:05.941522,37.69,98017.59375
1588210111222,2020-04-30T01:29:05.971010,37.737,98016.78125
1588210111269,2020-04-30T01:29:05.993631,37.784,98016.6171875
1588210111316,2020-04-30T01:29:06.046277,37.831,98016.9453125
1588210111363,2020-04-30T01:29:06.061518,37.878,98016.125
1588210111408,2020-04-30T01:29:06.091556,37.923,98016.6171875
1588210111455,2020-04-30T01:29:06.107764,37.97,98016.6171875
1588210111502,2020-04-30T01:29:06.159048,38.017,98016.9453125
1588210111549,2020-04-30T01:29:06.181234,38.064,98017.4375
1588210111596,2020-04-30T01:29:06.219555,38.111,98017.59375
1588210111643,2020-04-30T01:29:06.249105,38.158,98017.59375
1588210111689,2020-04-30T01:29:06.279616,38.204,98017.671875
1588210111736,2020-04-30T01:29:06.301938,38.251,98017.3515625
1588210111783,2020-04-30T01:29:06.328642,38.298,98018.1640625
1588210111830,2020-04-30T01:29:06.353849,38.345,98018.328125
1588210111877,2020-04-30T01:29:06.386846,38.392,98017.765625
1588210111924,2020-04-30T01:29:06.413755,38.439,98018.578125
1588210111971,2020-04-30T01:29:06.431865,38.486,98018.984375
1588210112018,2020-04-30T01:29:06.466291,38.533,98018.4140625
1588210112064,2020-04-30T01:29:06.486096,38.579,98018.25
1588210112110,2020-04-30T01:29:06.526259,38.625,98018.25
1588210112157,2020-04-30T01:29:06.550184,38.672,98018.25
1588210112204,2020-04-30T01:29:06.578956,38.719,98017.4375
1588210112250,2020-04-30T01:29:06.604158,38.765,98017.84375
1588210112297,2020-04-30T01:29:06.631367,38.812,98017.84375
1588210112344,2020-04-30T01:29:06.647213,38.859,98016.9453125
1588210112391,2020-04-30T01:29:06.691686,38.906,98016.78125
1588210112438,2020-04-30T01:29:06.706950,38.953,98017.3515625
1588210112485,2020-04-30T01:29:06.728914,39.0,98017.0234375
1588210112532,2020-04-30T01:29:06.751685,39.047,98018.4375
1588210112577,2020-04-30T01:29:06.773913,39.092,98018.765625
1588210112624,2020-04-30T01:29:06.796740,39.139,98018.328125
1588210112671,2020-04-30T01:29:06.841349,39.186,98018.328125
1588210112718,2020-04-30T01:29:06.864197,39.233,98018.984375
1588210112765,2020-04-30T01:29:06.886383,39.28,98020.078125
1588210112812,2020-04-30T01:29:06.909195,39.327,98019.640625
1588210112858,2020-04-30T01:29:06.931336,39.373,98019.796875
1588210112905,2020-04-30T01:29:06.954187,39.42,98019.640625
1588210112952,2020-04-30T01:29:06.991339,39.467,98019.140625
1588210112999,2020-04-30T01:29:07.014204,39.514,98019.2578125
1588210113044,2020-04-30T01:29:07.036411,39.559,98018.984375
1588210113091,2020-04-30T01:29:07.059186,39.606,98018.984375
1588210113138,2020-04-30T01:29:07.081363,39.653,98019.140625
1588210113185,2020-04-30T01:29:07.119208,39.7,98019.140625
1588210113232,2020-04-30T01:29:07.148936,39.747,98018.984375
1588210113279,2020-04-30T01:29:07.164485,39.794,98020.078125
1588210113326,2020-04-30T01:29:07.194107,39.841,98019.5859375
1588210113373,2020-04-30T01:29:07.210095,39.888,98019.421875
1588210113419,2020-04-30T01:29:07.239076,39.934,98019.09375
1588210113465,2020-04-30T01:29:07.269405,39.98,98019.09375
1588210113512,2020-04-30T01:29:07.301466,40.027,98018.328125
1588210113559,2020-04-30T01:29:07.315273,40.074,98017.296875
1588210113605,2020-04-30T01:29:07.343920,40.12,98017.953125
1588210113652,2020-04-30T01:29:07.360492,40.167,98017.953125
1588210113699,2020-04-30T01:29:07.397506,40.214,98018.4375
1588210113746,2020-04-30T01:29:07.427090,40.261,98017.84375
1588210113793,2020-04-30T01:29:07.456305,40.308,98018.4375
1588210113840,2020-04-30T01:29:07.473139,40.355,98018.109375
1588210113887,2020-04-30T01:29:07.494380,40.402,98018.28125
1588210113934,2020-04-30T01:29:07.521007,40.449,98017.84375
1588210113979,2020-04-30T01:29:07.539232,40.494,98018.28125
1588210114026,2020-04-30T01:29:07.577733,40.541,98018.0
1588210114073,2020-04-30T01:29:07.601626,40.588,98017.515625
1588210114120,2020-04-30T01:29:07.622169,40.635,98017.671875
1588210114167,2020-04-30T01:29:07.644027,40.682,98017.78125
1588210114213,2020-04-30T01:29:07.674685,40.728,98017.78125
1588210114260,2020-04-30T01:29:07.711909,40.775,98017.953125
1588210114307,2020-04-30T01:29:07.736024,40.822,98017.953125
1588210114354,2020-04-30T01:29:07.756442,40.869,98018.28125
1588210114401,2020-04-30T01:29:07.780101,40.916,98018.0
1588210114448,2020-04-30T01:29:07.805552,40.963,98018.28125
1588210114495,2020-04-30T01:29:07.824697,41.01,98018.109375
1588210114540,2020-04-30T01:29:07.861635,41.055,98017.953125
1588210114587,2020-04-30T01:29:07.877797,41.102,98017.296875
1588210114634,2020-04-30T01:29:07.906346,41.149,98017.1875
1588210114681,2020-04-30T01:29:07.921596,41.196,98017.1875
1588210114728,2020-04-30T01:29:07.959127,41.243,98017.78125
1588210114774,2020-04-30T01:29:07.982158,41.289,98019.09375
1588210114821,2020-04-30T01:29:08.026998,41.336,98019.5859375
1588210114868,2020-04-30T01:29:08.045918,41.383,98019.90625
1588210114914,2020-04-30T01:29:08.077434,41.429,98019.421875
1588210114960,2020-04-30T01:29:08.087681,41.475,98018.4375
1588210115007,2020-04-30T01:29:08.117380,41.522,98018.609375
1588210115054,2020-04-30T01:29:08.132205,41.569,98018.609375
1588210115101,2020-04-30T01:29:08.199276,41.616,98018.9296875
1588210115148,2020-04-30T01:29:08.228732,41.663,98019.09375
1588210115195,2020-04-30T01:29:08.252014,41.71,98018.9296875
1588210115242,2020-04-30T01:29:08.273848,41.757,98019.2578125
1588210115289,2020-04-30T01:29:08.289752,41.804,98019.5859375
1588210115334,2020-04-30T01:29:08.319041,41.849,98019.5859375
1588210115381,2020-04-30T01:29:08.349033,41.896,98020.234375
1588210115428,2020-04-30T01:29:08.379112,41.943,98019.640625
1588210115475,2020-04-30T01:29:08.395039,41.99,98020.078125
1588210115521,2020-04-30T01:29:08.423880,42.036,98019.90625
1588210115568,2020-04-30T01:29:08.442939,42.083,98019.75
1588210115615,2020-04-30T01:29:08.491073,42.13,98019.5859375
1588210115662,2020-04-30T01:29:08.506183,42.177,98020.078125
1588210115709,2020-04-30T01:29:08.536054,42.224,98019.90625
1588210115754,2020-04-30T01:29:08.551169,42.269,98019.421875
1588210115801,2020-04-30T01:29:08.581071,42.316,98019.09375
1588210115848,2020-04-30T01:29:08.596190,42.363,98018.9296875
1588210115895,2020-04-30T01:29:08.641059,42.41,98018.28125
1588210115942,2020-04-30T01:29:08.656192,42.457,98018.1640625
1588210115989,2020-04-30T01:29:08.678565,42.504,98018.765625
1588210116036,2020-04-30T01:29:08.701185,42.551,98018.1640625
1588210116083,2020-04-30T01:29:08.723571,42.598,98018.609375
1588210116129,2020-04-30T01:29:08.746193,42.644,98019.5
1588210116175,2020-04-30T01:29:08.791061,42.69,98018.4375
1588210116222,2020-04-30T01:29:08.813699,42.737,98017.515625
1588210116269,2020-04-30T01:29:08.836070,42.784,98017.3515625
1588210116315,2020-04-30T01:29:08.859043,42.83,98017.1875
1588210116362,2020-04-30T01:29:08.881645,42.877,98017.1875
1588210116409,2020-04-30T01:29:08.904278,42.924,98017.78125
1588210116456,2020-04-30T01:29:08.942953,42.971,98018.359375
1588210116503,2020-04-30T01:29:08.963717,43.018,98018.359375
1588210116550,2020-04-30T01:29:08.986060,43.065,98018.109375
1588210116595,2020-04-30T01:29:09.008668,43.11,98017.296875
1588210116642,2020-04-30T01:29:09.031077,43.157,98017.78125
1588210116689,2020-04-30T01:29:09.053681,43.204,98018.4375
1588210116736,2020-04-30T01:29:09.098567,43.251,98018.84375
1588210116783,2020-04-30T01:29:09.113690,43.298,98019.09375
1588210116830,2020-04-30T01:29:09.143563,43.345,98018.609375
1588210116876,2020-04-30T01:29:09.158683,43.391,98019.0078125
1588210116922,2020-04-30T01:29:09.188569,43.437,98019.3359375
1588210116969,2020-04-30T01:29:09.218704,43.484,98019.828125
1588210117016,2020-04-30T01:29:09.248566,43.531,98019.984375
1588210117063,2020-04-30T01:29:09.263709,43.578,98019.984375
1588210117109,2020-04-30T01:29:09.293569,43.624,98020.3125
1588210117156,2020-04-30T01:29:09.308680,43.671,98019.75
1588210117203,2020-04-30T01:29:09.346093,43.718,98018.9296875
1588210117250,2020-04-30T01:29:09.376411,43.765,98019.5859375
1588210117295,2020-04-30T01:29:09.406074,43.81,98019.75
1588210117342,2020-04-30T01:29:09.421178,43.857,98019.2578125
1588210117389,2020-04-30T01:29:09.443572,43.904,98019.421875
1588210117436,2020-04-30T01:29:09.466214,43.951,98019.5859375
1588210117483,2020-04-30T01:29:09.488574,43.998,98019.90625
1588210117530,2020-04-30T01:29:09.526539,44.045,98020.15625
1588210117577,2020-04-30T01:29:09.548642,44.092,98018.6796875
1588210117624,2020-04-30T01:29:09.571409,44.139,98018.359375
1588210117670,2020-04-30T01:29:09.601205,44.185,98018.515625
1588210117716,2020-04-30T01:29:09.623910,44.231,98018.6796875
1588210117763,2020-04-30T01:29:09.646090,44.278,98018.796875
1588210117810,2020-04-30T01:29:09.684658,44.325,98018.6796875
1588210117856,2020-04-30T01:29:09.706365,44.371,98018.1875
1588210117903,2020-04-30T01:29:09.729164,44.418,98017.859375
1588210117950,2020-04-30T01:29:09.751362,44.465,98017.2109375
1588210117997,2020-04-30T01:29:09.774191,44.512,98017.375
1588210118044,2020-04-30T01:29:09.815171,44.559,98018.140625
1588210118089,2020-04-30T01:29:09.827313,44.604,98018.796875
1588210118136,2020-04-30T01:29:09.857846,44.651,98018.953125
1588210118183,2020-04-30T01:29:09.879721,44.698,98019.453125
1588210118230,2020-04-30T01:29:09.910286,44.745,98019.5
1588210118277,2020-04-30T01:29:09.924276,44.792,98020.421875
1588210118324,2020-04-30T01:29:09.968925,44.839,98020.9140625
1588210118371,2020-04-30T01:29:09.985307,44.886,98020.640625
1588210118417,2020-04-30T01:29:10.014268,44.932,98021.2421875
1588210118463,2020-04-30T01:29:10.037141,44.978,98021.40625
1588210118510,2020-04-30T01:29:10.067198,45.025,98020.640625
1588210118557,2020-04-30T01:29:10.082035,45.072,98020.40625
1588210118604,2020-04-30T01:29:10.133860,45.119,98020.484375
1588210118650,2020-04-30T01:29:10.158498,45.165,98020.3125
1588210118697,2020-04-30T01:29:10.202119,45.212,98019.2578125
1588210118744,2020-04-30T01:29:10.231634,45.259,98018.765625
1588210118791,2020-04-30T01:29:10.247831,45.306,98017.53125
1588210118838,2020-04-30T01:29:10.276355,45.353,98017.046875
1588210118885,2020-04-30T01:29:10.306578,45.4,98016.390625
1588210118930,2020-04-30T01:29:10.344020,45.445,98017.046875
1588210118977,2020-04-30T01:29:10.359285,45.492,98017.703125
1588210119024,2020-04-30T01:29:10.390397,45.539,98018.1875
1588210119071,2020-04-30T01:29:10.404636,45.586,98018.515625
1588210119118,2020-04-30T01:29:10.441679,45.633,98018.296875
1588210119165,2020-04-30T01:29:10.472156,45.68,98018.46875
1588210119211,2020-04-30T01:29:10.501481,45.726,98018.359375
1588210119258,2020-04-30T01:29:10.517344,45.773,98018.515625
1588210119305,2020-04-30T01:29:10.548485,45.82,98019.3359375
1588210119352,2020-04-30T01:29:10.562602,45.867,98019.984375
1588210119397,2020-04-30T01:29:10.607116,45.912,98020.1015625
1588210119444,2020-04-30T01:29:10.622752,45.959,98019.7734375
1588210119491,2020-04-30T01:29:10.646352,46.006,98019.7734375
1588210119538,2020-04-30T01:29:10.671841,46.053,98020.1015625
1588210119585,2020-04-30T01:29:10.688934,46.1,98019.5
1588210119632,2020-04-30T01:29:10.719514,46.147,98018.765625
1588210119679,2020-04-30T01:29:10.756412,46.194,98019.5
1588210119726,2020-04-30T01:29:10.779347,46.241,98019.0078125
1588210119771,2020-04-30T01:29:10.801368,46.286,98018.6796875
1588210119818,2020-04-30T01:29:10.825004,46.333,98019.609375
1588210119865,2020-04-30T01:29:10.846400,46.38,98020.265625
1588210119912,2020-04-30T01:29:10.871823,46.427,98020.1015625
1588210119959,2020-04-30T01:29:10.906741,46.474,98020.1015625
1588210120005,2020-04-30T01:29:10.929802,46.52,98021.5625
1588210120052,2020-04-30T01:29:10.953861,46.567,98021.078125
1588210120099,2020-04-30T01:29:10.974621,46.614,98021.078125
1588210120146,2020-04-30T01:29:11.003806,46.661,98020.15625
1588210120193,2020-04-30T01:29:11.019055,46.708,98020.15625
1588210120240,2020-04-30T01:29:11.063821,46.755,98020.15625
1588210120285,2020-04-30T01:29:11.080104,46.8,98020.15625
1588210120332,2020-04-30T01:29:11.110603,46.847,98020.1015625
1588210120379,2020-04-30T01:29:11.124351,46.894,98020.484375
1588210120426,2020-04-30T01:29:11.153852,46.941,98020.96875
1588210120473,2020-04-30T01:29:11.184271,46.988,98020.640625
1588210120520,2020-04-30T01:29:11.213882,47.035,98021.40625
1588210120566,2020-04-30T01:29:11.230300,47.081,98021.40625
1588210120612,2020-04-30T01:29:11.266395,47.127,98020.75
1588210120659,2020-04-30T01:29:11.281787,47.174,98021.078125
1588210120706,2020-04-30T01:29:11.311453,47.221,98020.15625
1588210120752,2020-04-30T01:29:11.342062,47.267,98019.984375
1588210120799,2020-04-30T01:29:11.371503,47.314,98019.90625
1588210120846,2020-04-30T01:29:11.389156,47.361,98019.75
1588210120893,2020-04-30T01:29:11.409050,47.408,98019.828125
1588210120940,2020-04-30T01:29:11.432682,47.455,98019.984375
1588210120985,2020-04-30T01:29:11.453913,47.5,98018.84375
1588210121032,2020-04-30T01:29:11.492063,47.547,98019.0078125
1588210121079,2020-04-30T01:29:11.514004,47.594,98018.84375
1588210121126,2020-04-30T01:29:11.544648,47.641,98018.84375
1588210121173,2020-04-30T01:29:11.566498,47.688,98019.28125
1588210121220,2020-04-30T01:29:11.593340,47.735,98018.03125
1588210121267,2020-04-30T01:29:11.615789,47.782,98017.53125
1588210121313,2020-04-30T01:29:11.649966,47.828,98017.375
1588210121359,2020-04-30T01:29:11.674611,47.874,98017.703125
1588210121406,2020-04-30T01:29:11.695148,47.921,98018.140625
1588210121453,2020-04-30T01:29:11.716423,47.968,98018.296875
1588210121500,2020-04-30T01:29:11.740610,48.015,98017.9765625
1588210121546,2020-04-30T01:29:11.761405,48.061,98017.53125
1588210121593,2020-04-30T01:29:11.793679,48.108,98018.03125
1588210121640,2020-04-30T01:29:11.828873,48.155,98017.703125
1588210121687,2020-04-30T01:29:11.844329,48.202,98018.1875
1588210121732,2020-04-30T01:29:11.873919,48.247,98018.1875
1588210121779,2020-04-30T01:29:11.889419,48.294,98018.03125
1588210121826,2020-04-30T01:29:11.934007,48.341,98018.6796875
1588210121873,2020-04-30T01:29:11.949604,48.388,98019.125
1588210121920,2020-04-30T01:29:11.986633,48.435,98018.359375
1588210121967,2020-04-30T01:29:12.002202,48.482,98018.953125
1588210122014,2020-04-30T01:29:12.031620,48.529,98018.6796875
1588210122061,2020-04-30T01:29:12.046482,48.576,98018.515625
1588210122107,2020-04-30T01:29:12.106231,48.622,98019.3359375
1588210122153,2020-04-30T01:29:12.121392,48.668,98019.0078125
1588210122200,2020-04-30T01:29:12.151920,48.715,98018.46875
1588210122247,2020-04-30T01:29:12.167096,48.762,98018.140625
1588210122293,2020-04-30T01:29:12.212509,48.808,98017.9765625
1588210122340,2020-04-30T01:29:12.242687,48.855,98017.8125
1588210122387,2020-04-30T01:29:12.279495,48.902,98018.953125
1588210122434,2020-04-30T01:29:12.309014,48.949,98019.125
1588210122481,2020-04-30T01:29:12.324861,48.996,98018.953125
1588210122528,2020-04-30T01:29:12.354000,49.043,98018.796875
1588210122573,2020-04-30T01:29:12.369568,49.088,98018.140625
1588210122620,2020-04-30T01:29:12.406479,49.135,98018.046875
1588210122667,2020-04-30T01:29:12.441703,49.182,98018.21875
1588210122714,2020-04-30T01:29:12.466532,49.229,98018.875
1588210122761,2020-04-30T01:29:12.489765,49.276,98018.140625
1588210122808,2020-04-30T01:29:12.521107,49.323,98019.28125
1588210122854,2020-04-30T01:29:12.536300,49.369,98019.6875
1588210122901,2020-04-30T01:29:12.572233,49.416,98019.453125
1588210122947,2020-04-30T01:29:12.603216,49.462,98019.453125
