epoch  (ms),time  (-07:00),elapsed  (s),X-Axis  (g),Y-Axis  (g),Z-Axis  (g)
1588209999147,2020-04-30T01:27:13.733576,0.0,-1.0078125,-0.0634765625,0.2939453125
1588209999186,2020-04-30T01:27:13.743143,0.039,-0.9697265625,-0.11669921875,0.296875
1588209999227,2020-04-30T01:27:13.771641,0.08,-0.986328125,-0.12646484375,0.3046875
1588209999267,2020-04-30T01:27:13.806392,0.12,-0.98681640625,-0.142578125,0.30615234375
1588209999306,2020-04-30T01:27:13.830229,0.159,-0.98828125,-0.14794921875,0.298828125
1588209999347,2020-04-30T01:27:13.846131,0.2,-0.9833984375,-0.13818359375,0.29443359375
1588209999387,2020-04-30T01:27:13.905049,0.24,-0.98291015625,-0.1181640625,0.29443359375
1588209999428,2020-04-30T01:27:13.921270,0.281,-0.98876953125,-0.099609375,0.2958984375
1588209999468,2020-04-30T01:27:13.928388,0.321,-0.98974609375,-0.09423828125,0.287109375
1588209999507,2020-04-30T01:27:13.936648,0.36,-0.9921875,-0.09326171875,0.26904296875
1588209999548,2020-04-30T01:27:13.950922,0.401,-1.0009765625,-0.08642578125,0.255859375
1588209999588,2020-04-30T01:27:13.980129,0.441,-0.998046875,-0.0751953125,0.2587890625
1588209999629,2020-04-30T01:27:14.002553,0.482,-1.00146484375,-0.06982421875,0.2705078125
1588209999668,2020-04-30T01:27:14.017902,0.521,-1.0048828125,-0.08642578125,0.27783203125
1588209999708,2020-04-30T01:27:14.049166,0.561,-0.994140625,-0.08251953125,0.27734375
1588209999749,2020-04-30T01:27:14.078345,0.602,-0.99560546875,-0.06005859375,0.2939453125
1588209999788,2020-04-30T01:27:14.085608,0.641,-0.98974609375,-0.0537109375,0.3125
1588209999828,2020-04-30T01:27:14.122956,0.681,-0.9892578125,-0.056640625,0.31591796875
1588209999869,2020-04-30T01:27:14.144996,0.722,-0.9970703125,-0.056640625,0.30078125
1588209999908,2020-04-30T01:27:14.151916,0.761,-1.01318359375,-0.0234375,0.3017578125
1588209999950,2020-04-30T01:27:14.159414,0.803,-1.00634765625,0.01171875,0.30029296875
1588209999989,2020-04-30T01:27:14.181930,0.842,-0.9970703125,0.01123046875,0.29443359375
1588210000029,2020-04-30T01:27:14.198197,0.882,-0.99658203125,-0.01318359375,0.29443359375
1588210000070,2020-04-30T01:27:14.205590,0.923,-0.978515625,-0.00341796875,0.28564453125
1588210000109,2020-04-30T01:27:14.228137,0.962,-0.97509765625,0.04443359375,0.28173828125
1588210000150,2020-04-30T01:27:14.229185,1.003,-0.97509765625,0.07861328125,0.30126953125
1588210000190,2020-04-30T01:27:14.249533,1.043,-0.9599609375,0.09033203125,0.30322265625
1588210000229,2020-04-30T01:27:14.257642,1.082,-0.93359375,0.060546875,0.34228515625
1588210000270,2020-04-30T01:27:14.279432,1.123,-0.939453125,0.04833984375,0.43212890625
1588210000310,2020-04-30T01:27:14.325799,1.163,-0.9716796875,0.01513671875,0.4580078125
1588210000351,2020-04-30T01:27:14.339434,1.204,-0.98681640625,-0.00537109375,0.45751953125
1588210000390,2020-04-30T01:27:14.355954,1.243,-0.96142578125,0.02294921875,0.474609375
1588210000430,2020-04-30T01:27:14.363279,1.283,-0.92919921875,-0.02294921875,0.46484375
1588210000471,2020-04-30T01:27:14.385458,1.324,-0.88525390625,-0.1259765625,0.48486328125
1588210000511,2020-04-30T01:27:14.421947,1.364,-0.85009765625,-0.23779296875,0.470703125
1588210000552,2020-04-30T01:27:14.424423,1.405,-0.89208984375,-0.296875,0.44677734375
1588210000591,2020-04-30T01:27:14.436924,1.444,-0.91552734375,-0.2509765625,0.359375
1588210000631,2020-04-30T01:27:14.451935,1.484,-0.87890625,-0.248046875,0.27392578125
1588210000672,2020-04-30T01:27:14.460125,1.525,-0.76318359375,-0.2041015625,0.18994140625
1588210000711,2020-04-30T01:27:14.474467,1.564,-0.583984375,-0.06201171875,0.19775390625
1588210000752,2020-04-30T01:27:14.481947,1.605,-0.50146484375,-0.0419921875,0.2314453125
1588210000792,2020-04-30T01:27:14.497876,1.645,-0.53173828125,-0.07958984375,0.35009765625
1588210000831,2020-04-30T01:27:14.505620,1.684,-0.505859375,-0.0859375,0.39501953125
1588210000872,2020-04-30T01:27:14.535108,1.725,-0.55126953125,-0.12841796875,0.44970703125
1588210000912,2020-04-30T01:27:14.557550,1.765,-0.5732421875,-0.16357421875,0.48974609375
1588210000953,2020-04-30T01:27:14.572966,1.806,-0.61328125,-0.20458984375,0.48974609375
1588210000992,2020-04-30T01:27:14.603672,1.845,-0.7509765625,-0.140625,0.47900390625
1588210001032,2020-04-30T01:27:14.617924,1.885,-0.9150390625,-0.1171875,0.44873046875
1588210001073,2020-04-30T01:27:14.632965,1.926,-1.0712890625,-0.08154296875,0.32666015625
1588210001113,2020-04-30T01:27:14.640098,1.966,-1.130859375,-0.03662109375,0.24609375
1588210001154,2020-04-30T01:27:14.676944,2.007,-1.2119140625,-0.04150390625,0.17138671875
1588210001193,2020-04-30T01:27:14.699444,2.046,-1.328125,-0.044921875,0.10546875
1588210001233,2020-04-30T01:27:14.706938,2.086,-1.39306640625,-0.037109375,0.033203125
1588210001274,2020-04-30T01:27:14.708794,2.127,-1.32080078125,-0.05224609375,-0.02685546875
1588210001313,2020-04-30T01:27:14.730581,2.166,-1.25341796875,-0.0244140625,-0.03759765625
1588210001354,2020-04-30T01:27:14.744428,2.207,-1.27587890625,-0.013671875,-0.05224609375
1588210001394,2020-04-30T01:27:14.753178,2.247,-1.27880859375,-0.0546875,-0.0419921875
1588210001433,2020-04-30T01:27:14.760864,2.286,-1.22705078125,-0.02685546875,-0.0458984375
1588210001474,2020-04-30T01:27:14.775656,2.327,-1.1943359375,-0.029296875,0.001953125
1588210001514,2020-04-30T01:27:14.811933,2.367,-1.2314453125,-0.00244140625,0.00244140625
1588210001555,2020-04-30T01:27:14.814650,2.408,-1.265625,-0.0078125,-0.00732421875
1588210001595,2020-04-30T01:27:14.835828,2.448,-1.26123046875,-0.01123046875,0.01806640625
1588210001634,2020-04-30T01:27:14.880861,2.487,-1.2216796875,-0.0458984375,0.02490234375
1588210001675,2020-04-30T01:27:14.895561,2.528,-1.16943359375,-0.0791015625,-0.01123046875
1588210001715,2020-04-30T01:27:14.910832,2.568,-1.150390625,-0.07568359375,0.24658203125
1588210001756,2020-04-30T01:27:14.918016,2.609,-1.19873046875,0.0263671875,0.2099609375
1588210001795,2020-04-30T01:27:14.956091,2.648,-1.40576171875,-0.1142578125,0.23046875
1588210001835,2020-04-30T01:27:14.976961,2.688,-1.205078125,-0.06982421875,0.2607421875
1588210001876,2020-04-30T01:27:14.978379,2.729,-0.98193359375,-0.1337890625,0.31201171875
1588210001915,2020-04-30T01:27:14.991944,2.768,-0.84619140625,-0.1181640625,0.3876953125
1588210001956,2020-04-30T01:27:15.007074,2.809,-0.7724609375,-0.12939453125,0.4677734375
1588210001996,2020-04-30T01:27:15.029438,2.849,-0.74560546875,-0.1669921875,0.5380859375
1588210002035,2020-04-30T01:27:15.031055,2.888,-0.7880859375,-0.1220703125,0.58642578125
1588210002076,2020-04-30T01:27:15.038343,2.929,-0.80908203125,-0.138671875,0.61083984375
1588210002116,2020-04-30T01:27:15.045911,2.969,-0.80712890625,-0.14111328125,0.62890625
1588210002157,2020-04-30T01:27:15.053192,3.01,-0.798828125,-0.087890625,0.64111328125
1588210002197,2020-04-30T01:27:15.081938,3.05,-0.78466796875,-0.11083984375,0.6552734375
1588210002236,2020-04-30T01:27:15.089448,3.089,-0.7744140625,-0.14990234375,0.67724609375
1588210002277,2020-04-30T01:27:15.112911,3.13,-0.75341796875,-0.14013671875,0.708984375
1588210002317,2020-04-30T01:27:15.156943,3.17,-0.72607421875,-0.142578125,0.724609375
1588210002356,2020-04-30T01:27:15.194440,3.209,-0.71826171875,-0.17138671875,0.72216796875
1588210002397,2020-04-30T01:27:15.218167,3.25,-0.708984375,-0.189453125,0.74365234375
1588210002437,2020-04-30T01:27:15.254436,3.29,-0.630859375,-0.22802734375,0.798828125
1588210002478,2020-04-30T01:27:15.263524,3.331,-0.4833984375,-0.28759765625,0.91162109375
1588210002517,2020-04-30T01:27:15.293270,3.37,-0.34765625,-0.287109375,0.9267578125
1588210002557,2020-04-30T01:27:15.306939,3.41,-0.3037109375,-0.1728515625,0.89990234375
1588210002598,2020-04-30T01:27:15.315065,3.451,-0.3251953125,-0.04931640625,0.9208984375
1588210002637,2020-04-30T01:27:15.330139,3.49,-0.20849609375,-0.0361328125,0.96240234375
1588210002679,2020-04-30T01:27:15.338579,3.532,-0.09716796875,-0.05517578125,0.98974609375
1588210002718,2020-04-30T01:27:15.366940,3.571,-0.09423828125,-0.02294921875,1.01708984375
1588210002758,2020-04-30T01:27:15.368554,3.611,-0.087890625,0.001953125,1.0322265625
1588210002799,2020-04-30T01:27:15.391256,3.652,-0.04248046875,0.037109375,1.02880859375
1588210002838,2020-04-30T01:27:15.548089,3.691,-0.05517578125,0.052734375,1.009765625
1588210002879,2020-04-30T01:27:15.750436,3.732,-0.1044921875,0.005859375,1.02587890625
1588210002919,2020-04-30T01:27:15.812137,3.772,-0.1142578125,-0.06689453125,1.0380859375
1588210002958,2020-04-30T01:27:15.825715,3.811,-0.1005859375,-0.0498046875,1.072265625
1588210002999,2020-04-30T01:27:15.892500,3.852,-0.11279296875,-0.099609375,1.08837890625
1588210003039,2020-04-30T01:27:15.923127,3.892,-0.12939453125,-0.2001953125,1.060546875
1588210003080,2020-04-30T01:27:15.944357,3.933,-0.15625,-0.23876953125,1.0244140625
1588210003119,2020-04-30T01:27:16.004607,3.972,-0.2041015625,-0.1923828125,0.9541015625
1588210003159,2020-04-30T01:27:16.014054,4.012,-0.2880859375,-0.06884765625,0.85986328125
1588210003200,2020-04-30T01:27:16.050813,4.053,-0.22705078125,0.02734375,0.87353515625
1588210003240,2020-04-30T01:27:16.065803,4.093,-0.16650390625,0.1162109375,0.90087890625
1588210003281,2020-04-30T01:27:16.096795,4.134,-0.1494140625,0.15625,0.8427734375
1588210003320,2020-04-30T01:27:16.101980,4.173,-0.17822265625,0.08642578125,0.82666015625
1588210003360,2020-04-30T01:27:16.117561,4.213,-0.1357421875,-0.03271484375,0.80517578125
1588210003401,2020-04-30T01:27:16.162926,4.254,-0.126953125,-0.09326171875,0.81591796875
1588210003440,2020-04-30T01:27:16.170156,4.293,-0.05908203125,-0.12158203125,0.86767578125
1588210003481,2020-04-30T01:27:16.192766,4.334,-0.12548828125,-0.11328125,0.849609375
1588210003521,2020-04-30T01:27:16.222084,4.374,-0.1044921875,-0.0703125,0.8046875
1588210003560,2020-04-30T01:27:16.231960,4.413,-0.19580078125,-0.19677734375,0.83447265625
1588210003601,2020-04-30T01:27:16.270623,4.454,-0.1845703125,-0.09912109375,0.9921875
1588210003641,2020-04-30T01:27:16.292680,4.494,-0.11474609375,-0.115234375,1.10693359375
1588210003682,2020-04-30T01:27:16.312017,4.535,-0.06396484375,-0.140625,1.12890625
1588210003721,2020-04-30T01:27:16.365988,4.574,-0.076171875,-0.208984375,1.13671875
1588210003761,2020-04-30T01:27:16.369886,4.614,-0.07958984375,-0.1845703125,1.18212890625
1588210003802,2020-04-30T01:27:16.439487,4.655,-0.052734375,-0.0849609375,1.24853515625
1588210003842,2020-04-30T01:27:16.447006,4.695,0.0146484375,-0.072265625,1.28271484375
1588210003883,2020-04-30T01:27:16.470086,4.736,0.072265625,-0.119140625,1.13330078125
1588210003922,2020-04-30T01:27:16.493261,4.775,0.08935546875,-0.01416015625,1.06591796875
1588210003962,2020-04-30T01:27:16.500167,4.815,0.02783203125,-0.0478515625,0.9736328125
1588210004003,2020-04-30T01:27:16.582599,4.856,0.009765625,-0.21875,1.06005859375
1588210004042,2020-04-30T01:27:16.686983,4.895,0.02392578125,-0.26123046875,1.07568359375
1588210004083,2020-04-30T01:27:16.724523,4.936,0.11279296875,-0.2880859375,1.05615234375
1588210004123,2020-04-30T01:27:16.725777,4.976,0.1240234375,-0.08740234375,0.93798828125
1588210004162,2020-04-30T01:27:16.770108,5.015,0.095703125,-0.154296875,0.8701171875
1588210004203,2020-04-30T01:27:16.784480,5.056,-0.03564453125,-0.34375,0.9150390625
1588210004243,2020-04-30T01:27:16.919483,5.096,-0.005859375,-0.31982421875,0.9951171875
1588210004283,2020-04-30T01:27:16.927719,5.136,0.0478515625,-0.31884765625,1.09326171875
1588210004324,2020-04-30T01:27:16.936498,5.177,0.126953125,-0.2490234375,1.2080078125
1588210004363,2020-04-30T01:27:16.982951,5.216,0.1904296875,-0.2529296875,1.30517578125
1588210004404,2020-04-30T01:27:16.995609,5.257,0.20068359375,-0.318359375,1.1474609375
1588210004444,2020-04-30T01:27:17.036074,5.297,0.16796875,-0.2041015625,0.92041015625
1588210004483,2020-04-30T01:27:17.056820,5.336,0.14208984375,-0.193359375,0.88427734375
1588210004524,2020-04-30T01:27:17.198358,5.377,0.1220703125,-0.2041015625,1.0361328125
1588210004564,2020-04-30T01:27:17.271974,5.417,0.12158203125,-0.263671875,1.08837890625
1588210004605,2020-04-30T01:27:17.392099,5.458,0.07861328125,-0.2783203125,1.00927734375
1588210004644,2020-04-30T01:27:17.400231,5.497,-0.005859375,-0.18896484375,0.984375
1588210004684,2020-04-30T01:27:17.474712,5.537,-0.04541015625,-0.11962890625,1.03662109375
1588210004725,2020-04-30T01:27:17.490327,5.578,-0.01025390625,-0.15673828125,1.04833984375
1588210004764,2020-04-30T01:27:17.603272,5.617,0.03515625,-0.24267578125,1.0185546875
1588210004805,2020-04-30T01:27:17.693039,5.658,0.07373046875,-0.17919921875,1.01220703125
1588210004845,2020-04-30T01:27:17.887056,5.698,0.0927734375,-0.13232421875,1.01708984375
1588210004885,2020-04-30T01:27:17.895253,5.738,0.0751953125,-0.12451171875,1.0244140625
1588210004926,2020-04-30T01:27:18.031630,5.779,0.05224609375,-0.13134765625,1.01806640625
1588210004965,2020-04-30T01:27:18.037654,5.818,0.068359375,-0.13232421875,1.01318359375
1588210005006,2020-04-30T01:27:18.044600,5.859,0.076171875,-0.10302734375,1.009765625
1588210005046,2020-04-30T01:27:18.176390,5.899,0.05224609375,-0.11279296875,1.01123046875
1588210005085,2020-04-30T01:27:18.210342,5.938,0.02294921875,-0.14404296875,1.01416015625
1588210005126,2020-04-30T01:27:18.227701,5.979,0.025390625,-0.21484375,1.00244140625
1588210005166,2020-04-30T01:27:18.246960,6.019,0.0234375,-0.24951171875,0.99609375
1588210005207,2020-04-30T01:27:18.270028,6.06,0.03662109375,-0.24853515625,1.00634765625
1588210005246,2020-04-30T01:27:18.285014,6.099,0.05322265625,-0.2177734375,1.02783203125
1588210005286,2020-04-30T01:27:18.315782,6.139,0.083984375,-0.1865234375,1.03076171875
1588210005327,2020-04-30T01:27:18.322722,6.18,0.091796875,-0.158203125,1.015625
1588210005366,2020-04-30T01:27:18.344508,6.219,0.0595703125,-0.14599609375,1.0244140625
1588210005408,2020-04-30T01:27:18.352878,6.261,0.0546875,-0.07861328125,1.01220703125
1588210005447,2020-04-30T01:27:18.360281,6.3,0.083984375,-0.0439453125,1.00244140625
1588210005487,2020-04-30T01:27:18.382008,6.34,0.0732421875,-0.03564453125,1.01171875
1588210005528,2020-04-30T01:27:18.389527,6.381,0.0712890625,-0.0380859375,1.02099609375
1588210005567,2020-04-30T01:27:18.412622,6.42,0.0732421875,-0.06103515625,1.0107421875
1588210005608,2020-04-30T01:27:18.420875,6.461,0.060546875,-0.12939453125,1.00146484375
1588210005648,2020-04-30T01:27:18.442007,6.501,0.0712890625,-0.1728515625,1.00927734375
1588210005687,2020-04-30T01:27:18.487538,6.54,0.09375,-0.18212890625,1.015625
1588210005728,2020-04-30T01:27:18.489100,6.581,0.103515625,-0.19140625,1.0087890625
1588210005768,2020-04-30T01:27:18.517796,6.621,0.09912109375,-0.21826171875,1.00244140625
1588210005809,2020-04-30T01:27:18.534700,6.662,0.1064453125,-0.25390625,1.001953125
1588210005848,2020-04-30T01:27:18.549098,6.701,0.10546875,-0.259765625,1.00341796875
1588210005888,2020-04-30T01:27:18.562495,6.741,0.1015625,-0.255859375,1.0078125
1588210005929,2020-04-30T01:27:18.564067,6.782,0.1015625,-0.24267578125,1.0068359375
1588210005969,2020-04-30T01:27:18.614706,6.822,0.11083984375,-0.23193359375,1.013671875
1588210006010,2020-04-30T01:27:18.617366,6.863,0.1201171875,-0.21728515625,1.00732421875
1588210006049,2020-04-30T01:27:18.621472,6.902,0.1181640625,-0.20703125,0.994140625
1588210006089,2020-04-30T01:27:18.631125,6.942,0.11083984375,-0.19384765625,0.9921875
1588210006130,2020-04-30T01:27:18.644179,6.983,0.115234375,-0.1796875,1.00244140625
1588210006169,2020-04-30T01:27:18.649231,7.022,0.11767578125,-0.185546875,1.015625
1588210006210,2020-04-30T01:27:18.660032,7.063,0.11669921875,-0.22412109375,1.0048828125
1588210006250,2020-04-30T01:27:18.667116,7.103,0.107421875,-0.23876953125,0.9814453125
1588210006289,2020-04-30T01:27:18.698223,7.142,0.09912109375,-0.19677734375,0.98291015625
1588210006330,2020-04-30T01:27:18.714274,7.183,0.10888671875,-0.18798828125,1.01025390625
1588210006370,2020-04-30T01:27:18.725179,7.223,0.13818359375,-0.21240234375,1.021484375
1588210006411,2020-04-30T01:27:18.764619,7.264,0.1396484375,-0.2021484375,1.0087890625
1588210006450,2020-04-30T01:27:18.780799,7.303,0.11767578125,-0.16845703125,1.0009765625
1588210006490,2020-04-30T01:27:18.788608,7.343,0.12060546875,-0.17626953125,1.00537109375
1588210006531,2020-04-30T01:27:18.796424,7.384,0.130859375,-0.19189453125,1.013671875
1588210006571,2020-04-30T01:27:18.825122,7.424,0.13330078125,-0.185546875,1.0078125
1588210006612,2020-04-30T01:27:18.863703,7.465,0.1318359375,-0.18017578125,1.001953125
1588210006651,2020-04-30T01:27:18.871484,7.504,0.12939453125,-0.18310546875,1.005859375
1588210006691,2020-04-30T01:27:18.879968,7.544,0.12841796875,-0.1845703125,1.00634765625
1588210006732,2020-04-30T01:27:18.892878,7.585,0.126953125,-0.1884765625,1.00537109375
1588210006771,2020-04-30T01:27:18.909279,7.624,0.1376953125,-0.1826171875,1.0048828125
1588210006811,2020-04-30T01:27:18.918925,7.664,0.13525390625,-0.17578125,1.0068359375
1588210006852,2020-04-30T01:27:18.923883,7.705,0.1318359375,-0.17822265625,1.00537109375
1588210006891,2020-04-30T01:27:18.938469,7.744,0.130859375,-0.18603515625,1.00244140625
1588210006932,2020-04-30T01:27:18.947026,7.785,0.1279296875,-0.19384765625,1.0
1588210006972,2020-04-30T01:27:18.997041,7.825,0.12890625,-0.19921875,0.9990234375
1588210007012,2020-04-30T01:27:19.042032,7.865,0.12744140625,-0.19970703125,1.00048828125
1588210007053,2020-04-30T01:27:19.064561,7.906,0.12890625,-0.197265625,1.0
1588210007092,2020-04-30T01:27:19.072025,7.945,0.1298828125,-0.20068359375,0.99853515625
1588210007133,2020-04-30T01:27:19.080160,7.986,0.1279296875,-0.1962890625,1.00048828125
1588210007173,2020-04-30T01:27:19.117203,8.026,0.1298828125,-0.18994140625,1.00146484375
1588210007214,2020-04-30T01:27:19.140142,8.067,0.1318359375,-0.18359375,1.001953125
1588210007253,2020-04-30T01:27:19.148312,8.106,0.13330078125,-0.1796875,1.00341796875
1588210007293,2020-04-30T01:27:19.155556,8.146,0.1337890625,-0.18310546875,1.00341796875
1588210007334,2020-04-30T01:27:19.177060,8.187,0.13623046875,-0.19287109375,1.0009765625
1588210007373,2020-04-30T01:27:19.185135,8.226,0.13916015625,-0.19384765625,1.00341796875
1588210007413,2020-04-30T01:27:19.199617,8.266,0.14013671875,-0.189453125,1.0048828125
1588210007454,2020-04-30T01:27:19.215140,8.307,0.14013671875,-0.18603515625,1.00341796875
1588210007493,2020-04-30T01:27:19.245684,8.346,0.1396484375,-0.18798828125,1.001953125
1588210007534,2020-04-30T01:27:19.252018,8.387,0.140625,-0.18896484375,1.0029296875
1588210007574,2020-04-30T01:27:19.275755,8.427,0.14208984375,-0.18798828125,1.0
1588210007614,2020-04-30T01:27:19.334545,8.467,0.1416015625,-0.1875,1.0009765625
1588210007655,2020-04-30T01:27:19.350667,8.508,0.142578125,-0.18994140625,1.00146484375
1588210007694,2020-04-30T01:27:19.357655,8.547,0.14208984375,-0.19384765625,1.0009765625
1588210007735,2020-04-30T01:27:19.380750,8.588,0.1416015625,-0.19140625,1.00341796875
1588210007775,2020-04-30T01:27:19.417635,8.628,0.14208984375,-0.189453125,1.0
1588210007814,2020-04-30T01:27:19.433313,8.667,0.14306640625,-0.1884765625,0.99853515625
1588210007855,2020-04-30T01:27:19.529562,8.708,0.1416015625,-0.18603515625,0.998046875
1588210007895,2020-04-30T01:27:19.552680,8.748,0.14111328125,-0.18896484375,1.00048828125
1588210007936,2020-04-30T01:27:19.598253,8.789,0.14453125,-0.19287109375,1.00244140625
1588210007975,2020-04-30T01:27:19.695150,8.828,0.14794921875,-0.18994140625,1.0009765625
1588210008015,2020-04-30T01:27:19.770251,8.868,0.146484375,-0.189453125,1.001953125
1588210008056,2020-04-30T01:27:19.973578,8.909,0.146484375,-0.1884765625,1.00244140625
1588210008095,2020-04-30T01:27:19.999033,8.948,0.14599609375,-0.18701171875,1.001953125
1588210008137,2020-04-30T01:27:20.100155,8.99,0.14501953125,-0.1875,1.001953125
1588210008176,2020-04-30T01:27:20.266382,9.029,0.146484375,-0.189453125,1.0029296875
1588210008216,2020-04-30T01:27:20.325558,9.069,0.14892578125,-0.1904296875,1.0048828125
1588210008257,2020-04-30T01:27:20.542731,9.11,0.14794921875,-0.18994140625,1.00439453125
1588210008296,2020-04-30T01:27:20.603243,9.149,0.146484375,-0.18994140625,1.0048828125
1588210008337,2020-04-30T01:27:20.819562,9.19,0.14501953125,-0.19091796875,1.00048828125
1588210008377,2020-04-30T01:27:20.857089,9.23,0.14306640625,-0.189453125,0.998046875
1588210008416,2020-04-30T01:27:20.939642,9.269,0.14013671875,-0.1875,1.00146484375
1588210008457,2020-04-30T01:27:20.985434,9.31,0.13671875,-0.19140625,1.00048828125
1588210008497,2020-04-30T01:27:21.022588,9.35,0.14111328125,-0.1943359375,1.0009765625
1588210008538,2020-04-30T01:27:21.090076,9.391,0.14306640625,-0.19140625,1.00146484375
1588210008577,2020-04-30T01:27:21.157224,9.43,0.14013671875,-0.19189453125,1.0009765625
1588210008617,2020-04-30T01:27:21.262971,9.47,0.13720703125,-0.1923828125,1.001953125
1588210008658,2020-04-30T01:27:21.299723,9.511,0.13720703125,-0.1904296875,1.0009765625
1588210008698,2020-04-30T01:27:21.405518,9.551,0.13427734375,-0.19091796875,1.00244140625
1588210008739,2020-04-30T01:27:21.494579,9.592,0.13671875,-0.19091796875,1.00146484375
1588210008778,2020-04-30T01:27:21.578344,9.631,0.13818359375,-0.1884765625,1.00048828125
1588210008818,2020-04-30T01:27:21.712069,9.671,0.134765625,-0.19091796875,0.99755859375
1588210008859,2020-04-30T01:27:21.773733,9.712,0.1318359375,-0.19384765625,0.9970703125
1588210008898,2020-04-30T01:27:21.931401,9.751,0.12939453125,-0.19482421875,0.9951171875
1588210008939,2020-04-30T01:27:22.117116,9.792,0.1298828125,-0.19287109375,0.99755859375
1588210008979,2020-04-30T01:27:22.132811,9.832,0.1279296875,-0.19140625,1.001953125
1588210009018,2020-04-30T01:27:22.170305,9.871,0.130859375,-0.19189453125,1.00537109375
1588210009059,2020-04-30T01:27:22.387144,9.912,0.13720703125,-0.19482421875,1.00390625
1588210009099,2020-04-30T01:27:22.410197,9.952,0.14404296875,-0.193359375,1.001953125
1588210009138,2020-04-30T01:27:22.514602,9.991,0.1435546875,-0.1904296875,1.001953125
1588210009179,2020-04-30T01:27:22.613100,10.032,0.13818359375,-0.189453125,1.00048828125
1588210009219,2020-04-30T01:27:22.666772,10.072,0.134765625,-0.18896484375,1.0
1588210009260,2020-04-30T01:27:22.763456,10.113,0.13623046875,-0.1884765625,1.00244140625
1588210009300,2020-04-30T01:27:22.793615,10.153,0.1416015625,-0.1884765625,1.00146484375
1588210009339,2020-04-30T01:27:22.965062,10.192,0.14453125,-0.1904296875,1.00341796875
1588210009380,2020-04-30T01:27:23.040323,10.233,0.14501953125,-0.19189453125,1.0029296875
1588210009420,2020-04-30T01:27:23.100374,10.273,0.14453125,-0.19287109375,0.9990234375
1588210009461,2020-04-30T01:27:23.243100,10.314,0.142578125,-0.19287109375,1.001953125
1588210009500,2020-04-30T01:27:23.310828,10.353,0.1435546875,-0.1904296875,1.0009765625
1588210009541,2020-04-30T01:27:23.384767,10.394,0.1435546875,-0.1875,0.998046875
1588210009581,2020-04-30T01:27:23.415480,10.434,0.14453125,-0.1865234375,0.99755859375
1588210009620,2020-04-30T01:27:23.445942,10.473,0.1435546875,-0.18798828125,1.001953125
1588210009661,2020-04-30T01:27:23.632118,10.514,0.1484375,-0.193359375,1.0009765625
1588210009701,2020-04-30T01:27:23.692689,10.554,0.1484375,-0.193359375,1.00048828125
1588210009741,2020-04-30T01:27:23.797137,10.594,0.1494140625,-0.1904296875,1.0009765625
1588210009782,2020-04-30T01:27:23.834649,10.635,0.1494140625,-0.18994140625,1.00244140625
1588210009821,2020-04-30T01:27:23.866344,10.674,0.1484375,-0.18896484375,1.0
1588210009862,2020-04-30T01:27:23.872845,10.715,0.1494140625,-0.1865234375,1.0009765625
1588210009902,2020-04-30T01:27:23.904327,10.755,0.1474609375,-0.18701171875,0.99951171875
1588210009941,2020-04-30T01:27:23.942068,10.794,0.1494140625,-0.1884765625,1.00048828125
1588210009982,2020-04-30T01:27:23.971115,10.835,0.15087890625,-0.1884765625,1.0
1588210010022,2020-04-30T01:27:23.999623,10.875,0.1494140625,-0.1904296875,1.0
1588210010063,2020-04-30T01:27:24.039496,10.916,0.14892578125,-0.1904296875,1.0009765625
1588210010102,2020-04-30T01:27:24.054604,10.955,0.14892578125,-0.1904296875,1.00146484375
1588210010142,2020-04-30T01:27:24.068029,10.995,0.1494140625,-0.18994140625,0.998046875
1588210010183,2020-04-30T01:27:24.072611,11.036,0.150390625,-0.18896484375,0.9970703125
1588210010222,2020-04-30T01:27:24.116045,11.075,0.1484375,-0.1865234375,0.99853515625
1588210010263,2020-04-30T01:27:24.152815,11.116,0.14990234375,-0.1904296875,1.0048828125
1588210010303,2020-04-30T01:27:24.159101,11.156,0.15234375,-0.19287109375,1.0068359375
1588210010343,2020-04-30T01:27:24.172998,11.196,0.1552734375,-0.1904296875,1.00244140625
1588210010384,2020-04-30T01:27:24.180765,11.237,0.15283203125,-0.189453125,1.00341796875
1588210010423,2020-04-30T01:27:24.188162,11.276,0.150390625,-0.18994140625,1.0009765625
1588210010464,2020-04-30T01:27:24.218359,11.317,0.14697265625,-0.18798828125,1.0009765625
1588210010504,2020-04-30T01:27:24.248334,11.357,0.14453125,-0.1875,1.00244140625
1588210010543,2020-04-30T01:27:24.277730,11.396,0.14599609375,-0.189453125,0.998046875
1588210010584,2020-04-30T01:27:24.315761,11.437,0.14599609375,-0.1904296875,1.00048828125
1588210010624,2020-04-30T01:27:24.344647,11.477,0.14404296875,-0.1923828125,1.001953125
1588210010665,2020-04-30T01:27:24.352749,11.518,0.14111328125,-0.1923828125,1.00146484375
1588210010704,2020-04-30T01:27:24.375944,11.557,0.14013671875,-0.19140625,1.001953125
1588210010744,2020-04-30T01:27:24.420519,11.597,0.140625,-0.19189453125,1.00048828125
1588210010785,2020-04-30T01:27:24.427304,11.638,0.14013671875,-0.19384765625,0.99755859375
1588210010825,2020-04-30T01:27:24.457146,11.678,0.13818359375,-0.1923828125,0.998046875
1588210010866,2020-04-30T01:27:24.464712,11.719,0.13623046875,-0.1904296875,0.99365234375
1588210010905,2020-04-30T01:27:24.487737,11.758,0.1337890625,-0.18994140625,0.994140625
1588210010945,2020-04-30T01:27:24.524820,11.798,0.12890625,-0.1875,1.00146484375
1588210010986,2020-04-30T01:27:24.547919,11.839,0.13330078125,-0.19287109375,1.00146484375
1588210011025,2020-04-30T01:27:24.593021,11.878,0.14404296875,-0.19287109375,1.0
1588210011066,2020-04-30T01:27:24.608166,11.919,0.14599609375,-0.1923828125,1.0029296875
1588210011106,2020-04-30T01:27:24.615651,11.959,0.1416015625,-0.19140625,1.0029296875
1588210011145,2020-04-30T01:27:24.667581,11.998,0.13818359375,-0.19140625,1.00244140625
1588210011186,2020-04-30T01:27:24.701195,12.039,0.140625,-0.19189453125,1.0029296875
1588210011226,2020-04-30T01:27:24.735121,12.079,0.14453125,-0.18896484375,1.00146484375
1588210011267,2020-04-30T01:27:24.765312,12.12,0.146484375,-0.1884765625,0.99951171875
1588210011306,2020-04-30T01:27:24.825746,12.159,0.14404296875,-0.1904296875,1.0
1588210011346,2020-04-30T01:27:24.884652,12.199,0.14404296875,-0.1923828125,1.0029296875
1588210011387,2020-04-30T01:27:24.900645,12.24,0.14501953125,-0.19140625,1.00146484375
1588210011427,2020-04-30T01:27:24.974655,12.28,0.1455078125,-0.18994140625,1.00048828125
1588210011468,2020-04-30T01:27:25.012158,12.321,0.14794921875,-0.19140625,1.001953125
1588210011507,2020-04-30T01:27:25.042218,12.36,0.1474609375,-0.19140625,1.00048828125
1588210011547,2020-04-30T01:27:25.162631,12.4,0.14501953125,-0.18994140625,1.00146484375
1588210011588,2020-04-30T01:27:25.178152,12.441,0.14453125,-0.189453125,1.0009765625
1588210011627,2020-04-30T01:27:25.259952,12.48,0.14697265625,-0.1884765625,1.0
1588210011668,2020-04-30T01:27:25.320543,12.521,0.14892578125,-0.18896484375,1.001953125
1588210011708,2020-04-30T01:27:25.380709,12.561,0.1494140625,-0.189453125,1.0
1588210011747,2020-04-30T01:27:25.598269,12.6,0.14697265625,-0.189453125,0.99951171875
1588210011788,2020-04-30T01:27:25.719360,12.641,0.14697265625,-0.18994140625,0.99853515625
1588210011828,2020-04-30T01:27:26.152630,12.681,0.1474609375,-0.18896484375,0.9990234375
1588210011869,2020-04-30T01:27:26.272696,12.722,0.1474609375,-0.18896484375,1.001953125
1588210011908,2020-04-30T01:27:26.400133,12.761,0.1494140625,-0.189453125,1.0
1588210011948,2020-04-30T01:27:27.818091,12.801,0.1494140625,-0.18798828125,1.0
1588210011989,2020-04-30T01:27:28.049780,12.842,0.1484375,-0.18701171875,0.99755859375
1588210012029,2020-04-30T01:27:28.374169,12.882,0.146484375,-0.1884765625,0.99951171875
1588210012070,2020-04-30T01:27:28.651049,12.923,0.14990234375,-0.19140625,0.99951171875
1588210012109,2020-04-30T01:27:28.861748,12.962,0.15283203125,-0.19091796875,1.001953125
1588210012149,2020-04-30T01:27:28.883128,13.002,0.15380859375,-0.189453125,1.0009765625
1588210012190,2020-04-30T01:27:28.906280,13.043,0.14990234375,-0.18798828125,1.001953125
1588210012229,2020-04-30T01:27:28.966002,13.082,0.14990234375,-0.1875,1.0
1588210012270,2020-04-30T01:27:29.111087,13.123,0.15234375,-0.18505859375,0.99951171875
1588210012310,2020-04-30T01:27:29.153809,13.163,0.1513671875,-0.18408203125,1.0009765625
1588210012349,2020-04-30T01:27:29.168022,13.202,0.1533203125,-0.1884765625,0.9990234375
1588210012390,2020-04-30T01:27:29.183523,13.243,0.15234375,-0.18994140625,0.9990234375
1588210012430,2020-04-30T01:27:29.206098,13.283,0.15185546875,-0.189453125,1.005859375
1588210012471,2020-04-30T01:27:29.213246,13.324,0.15283203125,-0.1884765625,1.005859375
1588210012511,2020-04-30T01:27:29.370922,13.364,0.15234375,-0.189453125,1.00244140625
1588210012550,2020-04-30T01:27:29.468339,13.403,0.154296875,-0.189453125,1.00048828125
1588210012591,2020-04-30T01:27:29.587857,13.444,0.15185546875,-0.1884765625,1.001953125
1588210012631,2020-04-30T01:27:29.666441,13.484,0.14697265625,-0.18798828125,1.00048828125
1588210012672,2020-04-30T01:27:29.694384,13.525,0.1455078125,-0.18798828125,0.9990234375
1588210012711,2020-04-30T01:27:29.827260,13.564,0.146484375,-0.18798828125,1.00048828125
1588210012751,2020-04-30T01:27:29.924768,13.604,0.14697265625,-0.189453125,1.00048828125
1588210012792,2020-04-30T01:27:29.939757,13.645,0.1455078125,-0.1904296875,1.0009765625
1588210012831,2020-04-30T01:27:29.969830,13.684,0.14501953125,-0.19140625,1.0009765625
1588210012872,2020-04-30T01:27:29.985873,13.725,0.142578125,-0.19189453125,1.0
1588210012912,2020-04-30T01:27:30.000376,13.765,0.14208984375,-0.189453125,1.0
1588210012951,2020-04-30T01:27:30.015388,13.804,0.14111328125,-0.18798828125,1.00146484375
1588210012992,2020-04-30T01:27:30.022254,13.845,0.1357421875,-0.18994140625,1.0029296875
1588210013032,2020-04-30T01:27:30.097265,13.885,0.13720703125,-0.193359375,1.0009765625
1588210013073,2020-04-30T01:27:30.104757,13.926,0.14306640625,-0.19287109375,1.0
1588210013113,2020-04-30T01:27:30.142333,13.966,0.1396484375,-0.1904296875,1.00341796875
1588210013152,2020-04-30T01:27:30.172621,14.005,0.1337890625,-0.19189453125,1.001953125
1588210013193,2020-04-30T01:27:30.175356,14.046,0.13330078125,-0.1923828125,1.0
1588210013233,2020-04-30T01:27:30.247707,14.086,0.1328125,-0.19091796875,1.0029296875
1588210013274,2020-04-30T01:27:30.249355,14.127,0.13330078125,-0.1904296875,1.0009765625
1588210013313,2020-04-30T01:27:30.271992,14.166,0.134765625,-0.19140625,0.9951171875
1588210013353,2020-04-30T01:27:30.292645,14.206,0.13232421875,-0.19189453125,0.99365234375
1588210013394,2020-04-30T01:27:30.297401,14.247,0.12841796875,-0.1943359375,0.99658203125
1588210013433,2020-04-30T01:27:30.375311,14.286,0.12841796875,-0.19384765625,1.0
1588210013474,2020-04-30T01:27:30.378216,14.327,0.1318359375,-0.193359375,1.0048828125
1588210013514,2020-04-30T01:27:30.423758,14.367,0.13818359375,-0.1943359375,1.0048828125
1588210013554,2020-04-30T01:27:30.449820,14.407,0.14111328125,-0.1923828125,1.005859375
1588210013595,2020-04-30T01:27:30.451037,14.448,0.14306640625,-0.18896484375,1.00439453125
1588210013634,2020-04-30T01:27:30.539903,14.487,0.14013671875,-0.189453125,1.0009765625
1588210013674,2020-04-30T01:27:30.542018,14.527,0.13720703125,-0.189453125,1.00048828125
1588210013715,2020-04-30T01:27:30.577424,14.568,0.1376953125,-0.18994140625,1.00146484375
1588210013754,2020-04-30T01:27:30.585267,14.607,0.14013671875,-0.19091796875,1.00244140625
1588210013795,2020-04-30T01:27:30.654747,14.648,0.1416015625,-0.19091796875,1.0
1588210013835,2020-04-30T01:27:30.727733,14.688,0.14306640625,-0.19091796875,1.0029296875
1588210013874,2020-04-30T01:27:30.729865,14.727,0.1416015625,-0.18994140625,0.9990234375
1588210013915,2020-04-30T01:27:30.773446,14.768,0.1396484375,-0.19189453125,1.00146484375
1588210013955,2020-04-30T01:27:30.850460,14.808,0.14501953125,-0.1923828125,1.001953125
1588210013996,2020-04-30T01:27:30.855297,14.849,0.14794921875,-0.193359375,1.00244140625
1588210014035,2020-04-30T01:27:30.931950,14.888,0.14794921875,-0.19189453125,1.00341796875
1588210014075,2020-04-30T01:27:31.133082,14.928,0.1484375,-0.19140625,1.0029296875
1588210014116,2020-04-30T01:27:31.216126,14.969,0.14892578125,-0.189453125,0.998046875
1588210014156,2020-04-30T01:27:31.329160,15.009,0.14794921875,-0.18603515625,1.0
1588210014197,2020-04-30T01:27:31.357665,15.05,0.14697265625,-0.18701171875,1.001953125
1588210014236,2020-04-30T01:27:31.604887,15.089,0.14794921875,-0.1884765625,0.99853515625
1588210014276,2020-04-30T01:27:31.607069,15.129,0.14892578125,-0.1904296875,1.0009765625
1588210014317,2020-04-30T01:27:31.702398,15.17,0.14990234375,-0.19091796875,1.00048828125
1588210014356,2020-04-30T01:27:31.703660,15.209,0.1494140625,-0.18994140625,0.99853515625
1588210014397,2020-04-30T01:27:31.915984,15.25,0.14697265625,-0.1904296875,1.0009765625
1588210014437,2020-04-30T01:27:31.959245,15.29,0.14892578125,-0.18896484375,1.0009765625
1588210014476,2020-04-30T01:27:31.970238,15.329,0.150390625,-0.18798828125,1.00048828125
1588210014517,2020-04-30T01:27:32.159807,15.37,0.150390625,-0.18798828125,1.0009765625
1588210014557,2020-04-30T01:27:32.161074,15.41,0.14990234375,-0.18896484375,1.001953125
1588210014598,2020-04-30T01:27:32.206165,15.451,0.15087890625,-0.1875,0.99853515625
1588210014637,2020-04-30T01:27:32.246801,15.49,0.150390625,-0.1875,0.9990234375
1588210014677,2020-04-30T01:27:32.363764,15.53,0.14990234375,-0.18798828125,0.99755859375
1588210014718,2020-04-30T01:27:32.423577,15.571,0.14892578125,-0.18896484375,0.99951171875
1588210014758,2020-04-30T01:27:32.468156,15.611,0.15087890625,-0.19384765625,1.0009765625
1588210014799,2020-04-30T01:27:32.505423,15.652,0.15283203125,-0.19287109375,1.0009765625
1588210014838,2020-04-30T01:27:32.513710,15.691,0.1533203125,-0.18994140625,1.0
1588210014878,2020-04-30T01:27:32.521285,15.731,0.1513671875,-0.18896484375,1.0009765625
1588210014919,2020-04-30T01:27:32.536133,15.772,0.15185546875,-0.189453125,0.99951171875
1588210014958,2020-04-30T01:27:32.596347,15.811,0.15185546875,-0.1865234375,0.99951171875
1588210014999,2020-04-30T01:27:32.604460,15.852,0.14990234375,-0.18701171875,1.001953125
1588210015039,2020-04-30T01:27:32.641268,15.892,0.15185546875,-0.189453125,0.998046875
1588210015078,2020-04-30T01:27:32.664008,15.931,0.1533203125,-0.18896484375,1.0
1588210015119,2020-04-30T01:27:32.671754,15.972,0.15234375,-0.18994140625,1.00048828125
1588210015159,2020-04-30T01:27:32.775623,16.012,0.150390625,-0.19189453125,0.9990234375
1588210015200,2020-04-30T01:27:32.799836,16.053,0.14990234375,-0.19140625,1.0
1588210015240,2020-04-30T01:27:32.851177,16.093,0.1533203125,-0.189453125,1.0
1588210015279,2020-04-30T01:27:32.872847,16.132,0.15380859375,-0.1875,1.0029296875
1588210015320,2020-04-30T01:27:32.947276,16.173,0.154296875,-0.18798828125,1.00537109375
1588210015360,2020-04-30T01:27:32.954840,16.213,0.154296875,-0.18798828125,1.00048828125
1588210015401,2020-04-30T01:27:32.977298,16.254,0.15283203125,-0.18798828125,0.99951171875
1588210015440,2020-04-30T01:27:33.023823,16.293,0.15234375,-0.18798828125,1.00048828125
1588210015480,2020-04-30T01:27:33.026722,16.333,0.1513671875,-0.189453125,0.99951171875
1588210015521,2020-04-30T01:27:33.059873,16.374,0.150390625,-0.189453125,0.99951171875
1588210015560,2020-04-30T01:27:33.061098,16.413,0.14794921875,-0.1884765625,0.9990234375
1588210015601,2020-04-30T01:27:33.068619,16.454,0.14501953125,-0.19189453125,0.99951171875
1588210015641,2020-04-30T01:27:33.091097,16.494,0.14990234375,-0.193359375,1.001953125
1588210015680,2020-04-30T01:27:33.128725,16.533,0.15087890625,-0.19140625,1.00537109375
1588210015721,2020-04-30T01:27:33.204328,16.574,0.14697265625,-0.19140625,1.00244140625
1588210015761,2020-04-30T01:27:33.218541,16.614,0.142578125,-0.1904296875,1.001953125
1588210015802,2020-04-30T01:27:33.241289,16.655,0.1435546875,-0.18994140625,0.9990234375
1588210015842,2020-04-30T01:27:33.300926,16.695,0.142578125,-0.1884765625,0.99658203125
1588210015881,2020-04-30T01:27:33.352418,16.734,0.140625,-0.1904296875,0.9921875
1588210015922,2020-04-30T01:27:33.428024,16.775,0.138671875,-0.1904296875,0.98779296875
1588210015962,2020-04-30T01:27:33.442445,16.815,0.13525390625,-0.19140625,0.99267578125
1588210016003,2020-04-30T01:27:33.472946,16.856,0.13525390625,-0.193359375,1.0048828125
1588210016042,2020-04-30T01:27:33.494896,16.895,0.14013671875,-0.19384765625,1.0087890625
1588210016082,2020-04-30T01:27:33.517391,16.935,0.1484375,-0.193359375,1.00732421875
1588210016123,2020-04-30T01:27:33.532414,16.976,0.15576171875,-0.1923828125,1.00244140625
1588210016162,2020-04-30T01:27:33.540660,17.015,0.15234375,-0.189453125,0.99951171875
1588210016203,2020-04-30T01:27:33.577521,17.056,0.14404296875,-0.18701171875,0.99755859375
1588210016243,2020-04-30T01:27:33.579449,17.096,0.138671875,-0.185546875,0.99658203125
1588210016283,2020-04-30T01:27:33.602655,17.136,0.14111328125,-0.18798828125,1.0029296875
1588210016324,2020-04-30T01:27:33.611095,17.177,0.1474609375,-0.19091796875,1.0068359375
1588210016363,2020-04-30T01:27:33.684642,17.216,0.15185546875,-0.19091796875,1.0009765625
1588210016404,2020-04-30T01:27:33.707021,17.257,0.15234375,-0.1923828125,0.99951171875
1588210016444,2020-04-30T01:27:33.712597,17.297,0.1494140625,-0.19140625,1.001953125
1588210016483,2020-04-30T01:27:33.750232,17.336,0.14697265625,-0.18994140625,0.9970703125
1588210016524,2020-04-30T01:27:33.772607,17.377,0.1455078125,-0.18798828125,0.99951171875
1588210016564,2020-04-30T01:27:33.780588,17.417,0.1474609375,-0.18603515625,1.0009765625
1588210016603,2020-04-30T01:27:33.787473,17.456,0.14892578125,-0.18896484375,1.00048828125
1588210016644,2020-04-30T01:27:33.827163,17.497,0.15087890625,-0.1904296875,1.001953125
1588210016684,2020-04-30T01:27:33.855961,17.537,0.154296875,-0.1904296875,1.00048828125
1588210016725,2020-04-30T01:27:33.862973,17.578,0.150390625,-0.18896484375,0.99853515625
1588210016764,2020-04-30T01:27:33.877878,17.617,0.1474609375,-0.18994140625,1.00146484375
1588210016804,2020-04-30T01:27:33.884976,17.657,0.1494140625,-0.18896484375,0.9990234375
1588210016845,2020-04-30T01:27:33.900268,17.698,0.15234375,-0.18798828125,1.0
1588210016885,2020-04-30T01:27:33.902577,17.738,0.15185546875,-0.1884765625,1.001953125
1588210016926,2020-04-30T01:27:33.922694,17.779,0.1513671875,-0.1884765625,0.9990234375
1588210016965,2020-04-30T01:27:33.925288,17.818,0.150390625,-0.18701171875,0.9990234375
1588210017005,2020-04-30T01:27:33.933128,17.858,0.15234375,-0.18896484375,0.9990234375
1588210017046,2020-04-30T01:27:33.963485,17.899,0.15185546875,-0.1904296875,0.998046875
1588210017085,2020-04-30T01:27:33.990914,17.938,0.150390625,-0.1904296875,1.0
1588210017126,2020-04-30T01:27:33.999353,17.979,0.1533203125,-0.189453125,1.0
1588210017166,2020-04-30T01:27:34.005360,18.019,0.15283203125,-0.18896484375,0.99951171875
1588210017205,2020-04-30T01:27:34.028378,18.058,0.1533203125,-0.18798828125,1.0
1588210017246,2020-04-30T01:27:34.035080,18.099,0.15283203125,-0.18701171875,1.0
1588210017286,2020-04-30T01:27:34.050111,18.139,0.15234375,-0.1875,1.00048828125
1588210017327,2020-04-30T01:27:34.057882,18.18,0.15234375,-0.18798828125,1.00146484375
1588210017366,2020-04-30T01:27:34.068343,18.219,0.154296875,-0.1884765625,1.00048828125
1588210017406,2020-04-30T01:27:34.073701,18.259,0.1533203125,-0.18798828125,1.0009765625
1588210017447,2020-04-30T01:27:34.088316,18.3,0.15283203125,-0.18798828125,1.00146484375
1588210017487,2020-04-30T01:27:34.136979,18.34,0.154296875,-0.18994140625,1.00048828125
1588210017528,2020-04-30T01:27:34.150690,18.381,0.154296875,-0.1875,1.0
1588210017567,2020-04-30T01:27:34.157537,18.42,0.15234375,-0.18603515625,1.0
1588210017607,2020-04-30T01:27:34.164964,18.46,0.14892578125,-0.18896484375,1.00048828125
1588210017648,2020-04-30T01:27:34.170656,18.501,0.1513671875,-0.19287109375,0.9990234375
1588210017687,2020-04-30T01:27:34.178163,18.54,0.15478515625,-0.19091796875,1.0
1588210017728,2020-04-30T01:27:34.201616,18.581,0.1513671875,-0.1904296875,1.00048828125
1588210017768,2020-04-30T01:27:34.207876,18.621,0.14599609375,-0.18896484375,1.00146484375
1588210017807,2020-04-30T01:27:34.238789,18.66,0.14501953125,-0.189453125,1.00146484375
1588210017848,2020-04-30T01:27:34.252870,18.701,0.146484375,-0.18798828125,1.0009765625
1588210017888,2020-04-30T01:27:34.260224,18.741,0.1474609375,-0.1884765625,0.99853515625
1588210017929,2020-04-30T01:27:34.267765,18.782,0.1455078125,-0.18896484375,0.9970703125
1588210017969,2020-04-30T01:27:34.270101,18.822,0.1435546875,-0.189453125,0.99755859375
1588210018008,2020-04-30T01:27:34.313025,18.861,0.140625,-0.19189453125,0.99609375
1588210018049,2020-04-30T01:27:34.323348,18.902,0.14013671875,-0.1943359375,0.99560546875
1588210018089,2020-04-30T01:27:34.335032,18.942,0.1416015625,-0.19189453125,0.9990234375
1588210018130,2020-04-30T01:27:34.337373,18.983,0.14501953125,-0.19287109375,1.00048828125
1588210018169,2020-04-30T01:27:34.344477,19.022,0.146484375,-0.19189453125,1.00390625
1588210018209,2020-04-30T01:27:34.351929,19.062,0.14794921875,-0.18994140625,1.00341796875
1588210018250,2020-04-30T01:27:34.367413,19.103,0.14697265625,-0.1865234375,0.9990234375
1588210018289,2020-04-30T01:27:34.376696,19.142,0.1484375,-0.18701171875,1.0
1588210018330,2020-04-30T01:27:34.385183,19.183,0.14892578125,-0.1875,1.00244140625
1588210018370,2020-04-30T01:27:34.405525,19.223,0.14697265625,-0.1884765625,1.00048828125
1588210018409,2020-04-30T01:27:34.410687,19.262,0.1494140625,-0.19091796875,1.00048828125
1588210018450,2020-04-30T01:27:34.417983,19.303,0.1533203125,-0.1904296875,1.001953125
1588210018490,2020-04-30T01:27:34.425616,19.343,0.154296875,-0.19091796875,0.99951171875
1588210018531,2020-04-30T01:27:34.439879,19.384,0.14990234375,-0.1884765625,0.99755859375
1588210018571,2020-04-30T01:27:34.454880,19.424,0.14892578125,-0.1875,0.99951171875
1588210018610,2020-04-30T01:27:34.462462,19.463,0.14892578125,-0.18701171875,1.00048828125
1588210018651,2020-04-30T01:27:34.477401,19.504,0.15087890625,-0.189453125,0.99951171875
1588210018691,2020-04-30T01:27:34.484876,19.544,0.15576171875,-0.19091796875,1.00146484375
1588210018732,2020-04-30T01:27:34.486616,19.585,0.15576171875,-0.18994140625,1.001953125
1588210018771,2020-04-30T01:27:34.516281,19.624,0.15283203125,-0.18798828125,1.00146484375
1588210018811,2020-04-30T01:27:34.531156,19.664,0.14892578125,-0.18896484375,1.0009765625
1588210018852,2020-04-30T01:27:34.538638,19.705,0.1533203125,-0.18798828125,0.9970703125
1588210018891,2020-04-30T01:27:34.546149,19.744,0.1533203125,-0.1865234375,1.0009765625
1588210018932,2020-04-30T01:27:34.553642,19.785,0.15283203125,-0.185546875,1.0
1588210018972,2020-04-30T01:27:34.583769,19.825,0.154296875,-0.1884765625,0.99658203125
1588210019012,2020-04-30T01:27:34.591175,19.865,0.15234375,-0.18994140625,0.99951171875
1588210019053,2020-04-30T01:27:34.605470,19.906,0.15234375,-0.189453125,1.0009765625
1588210019092,2020-04-30T01:27:34.612974,19.945,0.15234375,-0.19091796875,0.99951171875
1588210019133,2020-04-30T01:27:34.620477,19.986,0.1533203125,-0.19091796875,0.99951171875
1588210019173,2020-04-30T01:27:34.627366,20.026,0.15380859375,-0.18798828125,1.00048828125
1588210019212,2020-04-30T01:27:34.643400,20.065,0.1533203125,-0.18701171875,0.99853515625
1588210019253,2020-04-30T01:27:34.657382,20.106,0.1533203125,-0.18798828125,0.99951171875
1588210019293,2020-04-30T01:27:34.687409,20.146,0.1533203125,-0.1865234375,1.00048828125
1588210019334,2020-04-30T01:27:34.709869,20.187,0.15380859375,-0.18798828125,0.99853515625
1588210019373,2020-04-30T01:27:34.717987,20.226,0.1533203125,-0.19091796875,0.99853515625
1588210019413,2020-04-30T01:27:34.724862,20.266,0.15234375,-0.1884765625,1.0009765625
1588210019454,2020-04-30T01:27:34.726144,20.307,0.154296875,-0.18994140625,1.0
1588210019493,2020-04-30T01:27:34.739851,20.346,0.15380859375,-0.1884765625,0.9990234375
1588210019534,2020-04-30T01:27:34.741147,20.387,0.154296875,-0.18603515625,0.99951171875
1588210019574,2020-04-30T01:27:34.756147,20.427,0.1533203125,-0.185546875,0.998046875
1588210019614,2020-04-30T01:27:34.792566,20.467,0.15185546875,-0.18896484375,1.00244140625
1588210019655,2020-04-30T01:27:34.794270,20.508,0.15576171875,-0.1904296875,1.0068359375
1588210019694,2020-04-30T01:27:34.814882,20.547,0.15869140625,-0.18994140625,1.00244140625
1588210019735,2020-04-30T01:27:34.816938,20.588,0.158203125,-0.18994140625,0.99951171875
1588210019775,2020-04-30T01:27:34.829839,20.628,0.15234375,-0.189453125,1.00146484375
1588210019814,2020-04-30T01:27:34.832499,20.667,0.14990234375,-0.1875,1.00048828125
1588210019855,2020-04-30T01:27:34.837972,20.708,0.14892578125,-0.1865234375,1.0009765625
1588210019895,2020-04-30T01:27:34.861140,20.748,0.150390625,-0.18798828125,1.00048828125
1588210019934,2020-04-30T01:27:34.868746,20.787,0.1533203125,-0.18896484375,0.9990234375
1588210019975,2020-04-30T01:27:34.882966,20.828,0.150390625,-0.189453125,1.00048828125
1588210020015,2020-04-30T01:27:34.889947,20.868,0.14697265625,-0.1923828125,1.00048828125
1588210020056,2020-04-30T01:27:34.897358,20.909,0.14501953125,-0.19287109375,1.00048828125
1588210020095,2020-04-30T01:27:34.904933,20.948,0.14501953125,-0.19189453125,1.00146484375
1588210020137,2020-04-30T01:27:34.906652,20.99,0.14453125,-0.19189453125,1.00146484375
1588210020176,2020-04-30T01:27:34.927354,21.029,0.1455078125,-0.19189453125,1.00244140625
1588210020216,2020-04-30T01:27:34.928679,21.069,0.14453125,-0.1904296875,1.00146484375
1588210020257,2020-04-30T01:27:34.936261,21.11,0.1435546875,-0.189453125,1.00048828125
1588210020296,2020-04-30T01:27:34.967176,21.149,0.14111328125,-0.19091796875,1.00341796875
1588210020336,2020-04-30T01:27:34.974546,21.189,0.14111328125,-0.1904296875,1.0029296875
1588210020377,2020-04-30T01:27:34.981885,21.23,0.14111328125,-0.18994140625,0.998046875
1588210020416,2020-04-30T01:27:34.988052,21.269,0.1396484375,-0.18994140625,0.99951171875
1588210020457,2020-04-30T01:27:34.996571,21.31,0.13623046875,-0.19091796875,1.0029296875
1588210020497,2020-04-30T01:27:35.003862,21.35,0.13525390625,-0.19287109375,0.99853515625
1588210020536,2020-04-30T01:27:35.010722,21.389,0.140625,-0.19140625,0.99853515625
1588210020577,2020-04-30T01:27:35.018248,21.43,0.14013671875,-0.19091796875,0.99951171875
1588210020617,2020-04-30T01:27:35.041319,21.47,0.1357421875,-0.1904296875,1.0009765625
1588210020658,2020-04-30T01:27:35.071077,21.511,0.13134765625,-0.1904296875,1.00341796875
1588210020698,2020-04-30T01:27:35.085007,21.551,0.13623046875,-0.19091796875,1.0
1588210020737,2020-04-30T01:27:35.092580,21.59,0.1396484375,-0.18994140625,0.9990234375
1588210020778,2020-04-30T01:27:35.100060,21.631,0.14013671875,-0.1904296875,0.9990234375
1588210020818,2020-04-30T01:27:35.108723,21.671,0.13916015625,-0.19189453125,1.0
1588210020859,2020-04-30T01:27:35.110538,21.712,0.13818359375,-0.19287109375,0.99853515625
1588210020898,2020-04-30T01:27:35.146255,21.751,0.138671875,-0.19287109375,0.9990234375
1588210020938,2020-04-30T01:27:35.160121,21.791,0.1396484375,-0.19189453125,1.0029296875
1588210020979,2020-04-30T01:27:35.168943,21.832,0.1435546875,-0.19091796875,1.0068359375
1588210021018,2020-04-30T01:27:35.176993,21.871,0.1455078125,-0.19189453125,1.0048828125
1588210021059,2020-04-30T01:27:35.183403,21.912,0.146484375,-0.18994140625,1.0009765625
1588210021099,2020-04-30T01:27:35.213137,21.952,0.14697265625,-0.18896484375,0.998046875
1588210021138,2020-04-30T01:27:35.227982,21.991,0.14404296875,-0.18896484375,0.99755859375
1588210021179,2020-04-30T01:27:35.236725,22.032,0.14208984375,-0.18701171875,0.99853515625
1588210021219,2020-04-30T01:27:35.244231,22.072,0.14404296875,-0.1875,1.00146484375
1588210021260,2020-04-30T01:27:35.258281,22.113,0.14501953125,-0.18994140625,0.99951171875
1588210021300,2020-04-30T01:27:35.265006,22.153,0.1484375,-0.1923828125,0.9990234375
1588210021339,2020-04-30T01:27:35.273130,22.192,0.15380859375,-0.19287109375,1.001953125
1588210021380,2020-04-30T01:27:35.280304,22.233,0.1513671875,-0.1923828125,1.0029296875
1588210021420,2020-04-30T01:27:35.287507,22.273,0.14794921875,-0.19140625,0.9990234375
1588210021461,2020-04-30T01:27:35.296458,22.314,0.1494140625,-0.19091796875,1.001953125
1588210021500,2020-04-30T01:27:35.310180,22.353,0.1533203125,-0.18798828125,1.00048828125
1588210021540,2020-04-30T01:27:35.312036,22.393,0.15380859375,-0.18603515625,1.00244140625
1588210021581,2020-04-30T01:27:35.319214,22.434,0.1533203125,-0.18603515625,1.0
1588210021620,2020-04-30T01:27:35.341525,22.473,0.15234375,-0.18798828125,0.99755859375
1588210021661,2020-04-30T01:27:35.349791,22.514,0.15478515625,-0.1884765625,1.00146484375
1588210021701,2020-04-30T01:27:35.364020,22.554,0.154296875,-0.1904296875,1.00048828125
1588210021741,2020-04-30T01:27:35.371813,22.594,0.15283203125,-0.19091796875,0.99951171875
1588210021782,2020-04-30T01:27:35.394488,22.635,0.1533203125,-0.1904296875,1.00048828125
1588210021821,2020-04-30T01:27:35.412071,22.674,0.15478515625,-0.189453125,1.001953125
1588210021862,2020-04-30T01:27:35.416754,22.715,0.15478515625,-0.18798828125,1.00048828125
1588210021902,2020-04-30T01:27:35.425165,22.755,0.15478515625,-0.18603515625,1.00244140625
1588210021941,2020-04-30T01:27:35.430778,22.794,0.1552734375,-0.1865234375,1.0009765625
1588210021982,2020-04-30T01:27:35.438660,22.835,0.15478515625,-0.18603515625,0.99951171875
1588210022022,2020-04-30T01:27:35.446724,22.875,0.154296875,-0.18798828125,1.00048828125
1588210022063,2020-04-30T01:27:35.461386,22.916,0.15234375,-0.18896484375,1.0
1588210022102,2020-04-30T01:27:35.475539,22.955,0.15087890625,-0.19189453125,1.00146484375
1588210022142,2020-04-30T01:27:35.489708,22.995,0.15380859375,-0.1923828125,1.0009765625
1588210022183,2020-04-30T01:27:35.512819,23.036,0.15576171875,-0.19140625,1.00048828125
1588210022222,2020-04-30T01:27:35.519781,23.075,0.15234375,-0.189453125,0.99951171875
1588210022263,2020-04-30T01:27:35.527820,23.116,0.14501953125,-0.19091796875,0.99951171875
1588210022303,2020-04-30T01:27:35.534751,23.156,0.1455078125,-0.18896484375,0.9990234375
1588210022343,2020-04-30T01:27:35.542198,23.196,0.14697265625,-0.1875,1.0
1588210022384,2020-04-30T01:27:35.549700,23.237,0.14697265625,-0.1884765625,1.00244140625
1588210022423,2020-04-30T01:27:35.550993,23.276,0.14794921875,-0.189453125,0.99951171875
1588210022464,2020-04-30T01:27:35.564703,23.317,0.1455078125,-0.19091796875,1.0
1588210022504,2020-04-30T01:27:35.566009,23.357,0.14306640625,-0.19091796875,1.001953125
1588210022543,2020-04-30T01:27:35.573497,23.396,0.14208984375,-0.1923828125,1.00146484375
1588210022584,2020-04-30T01:27:35.596001,23.437,0.14111328125,-0.19287109375,1.00244140625
1588210022624,2020-04-30T01:27:35.618501,23.477,0.14111328125,-0.1923828125,1.0029296875
1588210022665,2020-04-30T01:27:35.626003,23.518,0.142578125,-0.19189453125,1.0029296875
1588210022704,2020-04-30T01:27:35.640322,23.557,0.140625,-0.19091796875,1.0048828125
1588210022744,2020-04-30T01:27:35.655325,23.597,0.1396484375,-0.189453125,1.00244140625
1588210022785,2020-04-30T01:27:35.662828,23.638,0.13818359375,-0.18994140625,1.00341796875
1588210022825,2020-04-30T01:27:35.685329,23.678,0.13720703125,-0.19140625,1.00341796875
1588210022866,2020-04-30T01:27:35.692831,23.719,0.1357421875,-0.19091796875,0.9990234375
1588210022905,2020-04-30T01:27:35.700320,23.758,0.13671875,-0.19189453125,1.001953125
1588210022945,2020-04-30T01:27:35.707209,23.798,0.13134765625,-0.1904296875,1.0048828125
1588210022986,2020-04-30T01:27:35.714865,23.839,0.12744140625,-0.19482421875,1.001953125
1588210023025,2020-04-30T01:27:35.722391,23.878,0.1328125,-0.193359375,0.99951171875
1588210023066,2020-04-30T01:27:35.730045,23.919,0.13671875,-0.1923828125,1.0009765625
1588210023106,2020-04-30T01:27:35.737351,23.959,0.13232421875,-0.1923828125,0.99853515625
1588210023145,2020-04-30T01:27:35.738545,23.998,0.12548828125,-0.19189453125,0.998046875
1588210023186,2020-04-30T01:27:35.759720,24.039,0.12744140625,-0.19091796875,1.00244140625
1588210023226,2020-04-30T01:27:35.767270,24.079,0.13037109375,-0.18994140625,1.00341796875
1588210023267,2020-04-30T01:27:35.789923,24.12,0.13427734375,-0.1904296875,1.0009765625
1588210023306,2020-04-30T01:27:35.798015,24.159,0.134765625,-0.19140625,0.99853515625
1588210023346,2020-04-30T01:27:35.799180,24.199,0.13330078125,-0.1923828125,1.0
1588210023387,2020-04-30T01:27:35.829293,24.24,0.12939453125,-0.19384765625,0.99853515625
1588210023427,2020-04-30T01:27:35.836230,24.28,0.12939453125,-0.193359375,1.00048828125
1588210023468,2020-04-30T01:27:35.845699,24.321,0.1337890625,-0.19287109375,1.0048828125
1588210023507,2020-04-30T01:27:35.851249,24.36,0.140625,-0.19482421875,1.0048828125
1588210023547,2020-04-30T01:27:35.873505,24.4,0.14306640625,-0.19287109375,1.001953125
1588210023588,2020-04-30T01:27:35.895730,24.441,0.1435546875,-0.18994140625,1.00390625
1588210023627,2020-04-30T01:27:35.902954,24.48,0.1416015625,-0.18994140625,1.00341796875
1588210023667,2020-04-30T01:27:35.917526,24.52,0.1416015625,-0.1884765625,1.00146484375
1588210023708,2020-04-30T01:27:35.919867,24.561,0.14404296875,-0.1875,0.99853515625
1588210023747,2020-04-30T01:27:35.934935,24.6,0.14697265625,-0.18798828125,1.0
1588210023788,2020-04-30T01:27:35.941417,24.641,0.14697265625,-0.18798828125,1.00048828125
1588210023828,2020-04-30T01:27:35.947440,24.681,0.1455078125,-0.18994140625,1.00146484375
1588210023867,2020-04-30T01:27:35.963016,24.72,0.1484375,-0.193359375,1.00146484375
1588210023908,2020-04-30T01:27:35.970051,24.761,0.150390625,-0.19287109375,1.00146484375
1588210023948,2020-04-30T01:27:35.977997,24.801,0.15234375,-0.19189453125,1.0009765625
1588210023989,2020-04-30T01:27:35.984953,24.842,0.15087890625,-0.19091796875,1.0009765625
1588210024029,2020-04-30T01:27:35.993011,24.882,0.150390625,-0.189453125,1.0009765625
1588210024068,2020-04-30T01:27:36.000600,24.921,0.15283203125,-0.1884765625,1.0
1588210024109,2020-04-30T01:27:36.007447,24.962,0.15234375,-0.18798828125,1.00244140625
1588210024149,2020-04-30T01:27:36.015543,25.002,0.15380859375,-0.18603515625,1.0009765625
1588210024190,2020-04-30T01:27:36.038064,25.043,0.1533203125,-0.189453125,0.99951171875
1588210024229,2020-04-30T01:27:36.044901,25.082,0.154296875,-0.1904296875,0.99951171875
1588210024269,2020-04-30T01:27:36.074957,25.122,0.15380859375,-0.19140625,0.9990234375
1588210024310,2020-04-30T01:27:36.089887,25.163,0.15234375,-0.19091796875,0.9990234375
1588210024349,2020-04-30T01:27:36.097386,25.202,0.1533203125,-0.19140625,0.9990234375
1588210024390,2020-04-30T01:27:36.098677,25.243,0.1552734375,-0.18994140625,1.00048828125
1588210024430,2020-04-30T01:27:36.106174,25.283,0.15478515625,-0.1875,0.99853515625
1588210024470,2020-04-30T01:27:36.121198,25.323,0.1533203125,-0.1875,1.0
1588210024511,2020-04-30T01:27:36.128672,25.364,0.15283203125,-0.18701171875,0.998046875
1588210024550,2020-04-30T01:27:36.136211,25.403,0.1552734375,-0.1884765625,0.998046875
1588210024591,2020-04-30T01:27:36.143675,25.444,0.15625,-0.1904296875,1.0
1588210024631,2020-04-30T01:27:36.150660,25.484,0.15478515625,-0.1884765625,0.9990234375
1588210024670,2020-04-30T01:27:36.173683,25.523,0.154296875,-0.18603515625,0.9970703125
1588210024711,2020-04-30T01:27:36.194896,25.564,0.1552734375,-0.185546875,0.9990234375
1588210024751,2020-04-30T01:27:36.202995,25.604,0.15478515625,-0.1865234375,0.998046875
1588210024792,2020-04-30T01:27:36.209885,25.645,0.15380859375,-0.18798828125,1.0
1588210024831,2020-04-30T01:27:36.217558,25.684,0.15478515625,-0.19140625,0.9990234375
1588210024871,2020-04-30T01:27:36.240145,25.724,0.15771484375,-0.19140625,1.00048828125
1588210024912,2020-04-30T01:27:36.251630,25.765,0.1572265625,-0.18994140625,0.99951171875
1588210024951,2020-04-30T01:27:36.255475,25.804,0.154296875,-0.1884765625,1.0
1588210024992,2020-04-30T01:27:36.257201,25.845,0.15478515625,-0.18798828125,1.00146484375
1588210025032,2020-04-30T01:27:36.263936,25.885,0.15771484375,-0.1865234375,1.00048828125
1588210025072,2020-04-30T01:27:36.271857,25.925,0.15771484375,-0.1865234375,1.00341796875
1588210025113,2020-04-30T01:27:36.279030,25.966,0.15673828125,-0.18798828125,1.00048828125
1588210025152,2020-04-30T01:27:36.294254,26.005,0.15576171875,-0.1884765625,0.998046875
1588210025193,2020-04-30T01:27:36.309082,26.046,0.154296875,-0.1884765625,1.0
1588210025233,2020-04-30T01:27:36.316709,26.086,0.15283203125,-0.189453125,1.0
1588210025272,2020-04-30T01:27:36.337631,26.125,0.15087890625,-0.19091796875,0.9990234375
1588210025313,2020-04-30T01:27:36.344917,26.166,0.15087890625,-0.1904296875,1.0
1588210025353,2020-04-30T01:27:36.352533,26.206,0.15185546875,-0.18994140625,1.00048828125
1588210025394,2020-04-30T01:27:36.359880,26.247,0.1494140625,-0.1884765625,1.00146484375
1588210025433,2020-04-30T01:27:36.368356,26.286,0.14697265625,-0.1884765625,0.99951171875
1588210025473,2020-04-30T01:27:36.383122,26.326,0.14794921875,-0.1884765625,0.99951171875
1588210025514,2020-04-30T01:27:36.397466,26.367,0.1455078125,-0.1884765625,1.00048828125
1588210025554,2020-04-30T01:27:36.404909,26.407,0.1455078125,-0.18994140625,1.00146484375
1588210025595,2020-04-30T01:27:36.412580,26.448,0.14306640625,-0.18994140625,1.001953125
1588210025634,2020-04-30T01:27:36.428819,26.487,0.142578125,-0.19091796875,1.0
1588210025674,2020-04-30T01:27:36.443777,26.527,0.142578125,-0.19189453125,1.00146484375
1588210025715,2020-04-30T01:27:36.450696,26.568,0.14208984375,-0.19287109375,1.0029296875
1588210025754,2020-04-30T01:27:36.458693,26.607,0.13916015625,-0.19287109375,1.0009765625
1588210025795,2020-04-30T01:27:36.466083,26.648,0.13916015625,-0.1904296875,0.99755859375
1588210025835,2020-04-30T01:27:36.473141,26.688,0.1376953125,-0.1884765625,0.998046875
1588210025874,2020-04-30T01:27:36.480534,26.727,0.13330078125,-0.1884765625,0.99951171875
1588210025915,2020-04-30T01:27:36.487415,26.768,0.13330078125,-0.1923828125,0.9970703125
1588210025955,2020-04-30T01:27:36.495515,26.808,0.1396484375,-0.19091796875,1.0
1588210025996,2020-04-30T01:27:36.502466,26.849,0.138671875,-0.19189453125,1.00439453125
1588210026035,2020-04-30T01:27:36.510494,26.888,0.13720703125,-0.1904296875,1.0029296875
1588210026075,2020-04-30T01:27:36.517406,26.928,0.13671875,-0.19189453125,1.0029296875
1588210026116,2020-04-30T01:27:36.518703,26.969,0.1416015625,-0.1923828125,1.00146484375
1588210026156,2020-04-30T01:27:36.532452,27.009,0.13818359375,-0.18896484375,1.0029296875
1588210026197,2020-04-30T01:27:36.533820,27.05,0.13671875,-0.1884765625,1.00341796875
1588210026236,2020-04-30T01:27:36.547398,27.089,0.14013671875,-0.19140625,0.99951171875
1588210026276,2020-04-30T01:27:36.548881,27.129,0.1416015625,-0.19580078125,0.998046875
1588210026317,2020-04-30T01:27:36.556196,27.17,0.13916015625,-0.193359375,1.0009765625
1588210026356,2020-04-30T01:27:36.563712,27.209,0.13818359375,-0.19140625,1.00439453125
1588210026397,2020-04-30T01:27:36.571565,27.25,0.138671875,-0.19140625,1.00830078125
1588210026437,2020-04-30T01:27:36.586185,27.29,0.1435546875,-0.18994140625,1.001953125
1588210026476,2020-04-30T01:27:36.593285,27.329,0.14306640625,-0.18798828125,1.0
1588210026517,2020-04-30T01:27:36.600513,27.37,0.14306640625,-0.181640625,1.00048828125
1588210026557,2020-04-30T01:27:36.615542,27.41,0.1376953125,-0.1708984375,1.001953125
1588210026598,2020-04-30T01:27:36.623029,27.451,0.14013671875,-0.18798828125,1.0126953125
1588210026637,2020-04-30T01:27:36.630515,27.49,0.150390625,-0.220703125,1.02587890625
1588210026677,2020-04-30T01:27:36.637407,27.53,0.1337890625,-0.19921875,1.04443359375
1588210026718,2020-04-30T01:27:36.644901,27.571,0.13134765625,-0.16845703125,0.9853515625
1588210026758,2020-04-30T01:27:36.659909,27.611,0.1220703125,-0.15869140625,0.91162109375
1588210026799,2020-04-30T01:27:36.667438,27.652,0.06689453125,-0.14599609375,1.02490234375
1588210026838,2020-04-30T01:27:36.674913,27.691,0.12255859375,-0.27099609375,1.02197265625
1588210026878,2020-04-30T01:27:36.682461,27.731,0.10546875,-0.3349609375,0.9873046875
1588210026919,2020-04-30T01:27:36.683781,27.772,-0.01953125,-0.26806640625,1.0205078125
1588210026958,2020-04-30T01:27:36.691195,27.811,0.04443359375,-0.1533203125,1.02880859375
1588210026999,2020-04-30T01:27:36.698752,27.852,0.0947265625,-0.10205078125,1.013671875
1588210027039,2020-04-30T01:27:36.706234,27.892,0.06396484375,-0.11669921875,1.01318359375
1588210027078,2020-04-30T01:27:36.713693,27.931,0.01611328125,-0.111328125,1.029296875
1588210027119,2020-04-30T01:27:36.720773,27.972,0.0537109375,-0.0771484375,1.0205078125
1588210027159,2020-04-30T01:27:36.736182,28.012,0.0751953125,-0.0712890625,1.01953125
1588210027199,2020-04-30T01:27:36.743269,28.052,0.07470703125,-0.07666015625,1.01416015625
1588210027240,2020-04-30T01:27:36.750524,28.093,0.05712890625,-0.072265625,1.03173828125
1588210027279,2020-04-30T01:27:36.758032,28.132,0.07470703125,-0.08544921875,1.0263671875
1588210027320,2020-04-30T01:27:36.765176,28.173,0.06884765625,-0.05029296875,1.01513671875
1588210027360,2020-04-30T01:27:36.773026,28.213,0.048828125,-0.00244140625,1.0185546875
1588210027399,2020-04-30T01:27:36.779907,28.252,0.05908203125,-0.0322265625,1.0283203125
1588210027440,2020-04-30T01:27:36.795518,28.293,0.07861328125,-0.0966796875,1.01806640625
1588210027480,2020-04-30T01:27:36.802469,28.333,0.0849609375,-0.13671875,1.01025390625
1588210027521,2020-04-30T01:27:36.809905,28.374,0.03759765625,-0.076171875,1.0224609375
1588210027560,2020-04-30T01:27:36.817408,28.413,0.0546875,-0.119140625,1.05126953125
1588210027600,2020-04-30T01:27:36.818799,28.453,0.09228515625,-0.1259765625,1.08642578125
1588210027641,2020-04-30T01:27:36.832575,28.494,0.13232421875,-0.0927734375,1.0419921875
1588210027680,2020-04-30T01:27:36.833998,28.533,0.09375,-0.041015625,0.99755859375
1588210027721,2020-04-30T01:27:36.841200,28.574,0.0576171875,-0.10107421875,1.0400390625
1588210027761,2020-04-30T01:27:36.848707,28.614,0.05322265625,-0.11572265625,1.0732421875
1588210027801,2020-04-30T01:27:36.863698,28.654,-0.00537109375,-0.03466796875,1.087890625
1588210027842,2020-04-30T01:27:36.871197,28.695,-0.06494140625,-0.02783203125,1.08837890625
1588210027881,2020-04-30T01:27:36.878187,28.734,-0.10302734375,-0.06298828125,1.05859375
1588210027922,2020-04-30T01:27:36.886192,28.775,-0.10693359375,-0.04736328125,1.07373046875
1588210027962,2020-04-30T01:27:36.893235,28.815,-0.11962890625,-0.04541015625,1.095703125
1588210028001,2020-04-30T01:27:36.907415,28.854,-0.14501953125,-0.0693359375,1.087890625
1588210028042,2020-04-30T01:27:36.914966,28.895,-0.2041015625,-0.10693359375,1.12548828125
1588210028082,2020-04-30T01:27:36.922462,28.935,-0.265625,-0.13037109375,1.22216796875
1588210028123,2020-04-30T01:27:36.929910,28.976,-0.29443359375,-0.095703125,1.22412109375
1588210028162,2020-04-30T01:27:36.931331,29.015,-0.279296875,-0.07470703125,1.158203125
1588210028202,2020-04-30T01:27:36.938698,29.055,-0.26904296875,-0.0859375,1.09912109375
1588210028243,2020-04-30T01:27:36.946242,29.096,-0.23974609375,-0.111328125,1.04541015625
1588210028283,2020-04-30T01:27:36.953701,29.136,-0.26513671875,-0.13037109375,1.05615234375
1588210028324,2020-04-30T01:27:36.975537,29.177,-0.23974609375,-0.16259765625,1.04736328125
1588210028363,2020-04-30T01:27:36.982509,29.216,-0.1650390625,-0.1572265625,0.998046875
1588210028403,2020-04-30T01:27:36.983697,29.256,-0.185546875,-0.1708984375,0.935546875
1588210028444,2020-04-30T01:27:36.997406,29.297,-0.15966796875,-0.21484375,0.88232421875
1588210028483,2020-04-30T01:27:36.998736,29.336,-0.146484375,-0.2158203125,0.85009765625
1588210028524,2020-04-30T01:27:37.012729,29.377,-0.1162109375,-0.19482421875,0.8349609375
1588210028564,2020-04-30T01:27:37.014472,29.417,-0.09033203125,-0.2197265625,0.84130859375
1588210028603,2020-04-30T01:27:37.021682,29.456,-0.10986328125,-0.23681640625,0.8984375
1588210028644,2020-04-30T01:27:37.029108,29.497,-0.09765625,-0.22119140625,0.90966796875
1588210028684,2020-04-30T01:27:37.035713,29.537,-0.11669921875,-0.20263671875,0.98779296875
1588210028725,2020-04-30T01:27:37.044043,29.578,-0.08544921875,-0.06640625,0.92626953125
1588210028764,2020-04-30T01:27:37.050945,29.617,-0.1171875,-0.08251953125,0.8798828125
1588210028804,2020-04-30T01:27:37.058203,29.657,-0.1552734375,-0.23046875,0.900390625
1588210028845,2020-04-30T01:27:37.065581,29.698,-0.1572265625,-0.216796875,0.98291015625
1588210028885,2020-04-30T01:27:37.073417,29.738,-0.1533203125,-0.248046875,1.0478515625
1588210028926,2020-04-30T01:27:37.080530,29.779,-0.185546875,-0.21240234375,0.99560546875
1588210028965,2020-04-30T01:27:37.087498,29.818,-0.21826171875,-0.193359375,0.93359375
1588210029005,2020-04-30T01:27:37.094919,29.858,-0.22119140625,-0.166015625,0.921875
1588210029046,2020-04-30T01:27:37.102527,29.899,-0.25048828125,-0.1435546875,0.89501953125
1588210029085,2020-04-30T01:27:37.109953,29.938,-0.3095703125,-0.16748046875,0.87451171875
1588210029126,2020-04-30T01:27:37.117440,29.979,-0.36572265625,-0.197265625,0.9052734375
1588210029166,2020-04-30T01:27:37.124952,30.019,-0.3662109375,-0.1865234375,0.91943359375
1588210029205,2020-04-30T01:27:37.126282,30.058,-0.38916015625,-0.11279296875,0.91064453125
1588210029246,2020-04-30T01:27:37.141199,30.099,-0.44091796875,-0.08837890625,0.890625
1588210029286,2020-04-30T01:27:37.148696,30.139,-0.55078125,-0.10205078125,0.8720703125
1588210029327,2020-04-30T01:27:37.156198,30.18,-0.67431640625,-0.1298828125,0.87109375
1588210029366,2020-04-30T01:27:37.171197,30.219,-0.66845703125,-0.13232421875,0.85205078125
1588210029406,2020-04-30T01:27:37.178113,30.259,-0.6279296875,-0.130859375,0.84033203125
1588210029447,2020-04-30T01:27:37.186193,30.3,-0.6376953125,-0.158203125,0.85302734375
1588210029487,2020-04-30T01:27:37.193172,30.34,-0.6240234375,-0.16796875,0.85400390625
1588210029528,2020-04-30T01:27:37.200515,30.381,-0.59765625,-0.15576171875,0.8642578125
1588210029567,2020-04-30T01:27:37.208049,30.42,-0.560546875,-0.154296875,0.880859375
1588210029607,2020-04-30T01:27:37.214921,30.46,-0.55419921875,-0.17529296875,0.896484375
1588210029648,2020-04-30T01:27:37.230808,30.501,-0.51123046875,-0.18212890625,0.892578125
1588210029687,2020-04-30T01:27:37.237573,30.54,-0.447265625,-0.1630859375,0.876953125
1588210029728,2020-04-30T01:27:37.247769,30.581,-0.49072265625,-0.15869140625,0.896484375
1588210029768,2020-04-30T01:27:37.252876,30.621,-0.55078125,-0.14453125,0.8662109375
1588210029807,2020-04-30T01:27:37.260072,30.66,-0.57080078125,-0.10009765625,0.8349609375
1588210029848,2020-04-30T01:27:37.268079,30.701,-0.60107421875,-0.07080078125,0.8134765625
1588210029888,2020-04-30T01:27:37.275076,30.741,-0.6279296875,-0.0322265625,0.8525390625
1588210029929,2020-04-30T01:27:37.283057,30.782,-0.56103515625,0.02783203125,0.828125
1588210029969,2020-04-30T01:27:37.290098,30.822,-0.52294921875,0.07666015625,0.806640625
1588210030008,2020-04-30T01:27:37.298088,30.861,-0.56396484375,0.12744140625,0.810546875
1588210030049,2020-04-30T01:27:37.305439,30.902,-0.58740234375,0.1708984375,0.78662109375
1588210030089,2020-04-30T01:27:37.312643,30.942,-0.5849609375,0.2041015625,0.77587890625
1588210030130,2020-04-30T01:27:37.320421,30.983,-0.61328125,0.21484375,0.80322265625
1588210030169,2020-04-30T01:27:37.322687,31.022,-0.55224609375,0.2451171875,0.89697265625
1588210030209,2020-04-30T01:27:37.335487,31.062,-0.53662109375,0.18310546875,1.1025390625
1588210030250,2020-04-30T01:27:37.338055,31.103,-0.681640625,-0.0166015625,1.24560546875
1588210030289,2020-04-30T01:27:37.343986,31.142,-0.9462890625,0.12744140625,1.197265625
1588210030330,2020-04-30T01:27:37.351208,31.183,-0.8701171875,0.310546875,1.111328125
1588210030370,2020-04-30T01:27:37.358702,31.223,-0.6171875,0.3046875,1.04052734375
1588210030409,2020-04-30T01:27:37.366201,31.262,-0.56396484375,0.3466796875,0.87451171875
1588210030450,2020-04-30T01:27:37.373287,31.303,-0.49609375,0.27685546875,0.67724609375
1588210030490,2020-04-30T01:27:37.380524,31.343,-0.48779296875,0.0,0.576171875
1588210030531,2020-04-30T01:27:37.388037,31.384,-0.6474609375,-0.18359375,0.62060546875
1588210030571,2020-04-30T01:27:37.395539,31.424,-0.7646484375,-0.1923828125,0.6103515625
1588210030610,2020-04-30T01:27:37.403038,31.463,-0.88134765625,-0.07177734375,0.576171875
1588210030651,2020-04-30T01:27:37.410524,31.504,-0.94677734375,-0.0166015625,0.53076171875
1588210030691,2020-04-30T01:27:37.417411,31.544,-0.9326171875,-0.0927734375,0.419921875
1588210030732,2020-04-30T01:27:37.424913,31.585,-0.90771484375,-0.12255859375,0.28759765625
1588210030771,2020-04-30T01:27:37.432482,31.624,-0.82861328125,-0.23779296875,0.25830078125
1588210030811,2020-04-30T01:27:37.439910,31.664,-0.7734375,-0.205078125,0.28759765625
1588210030852,2020-04-30T01:27:37.447420,31.705,-0.7958984375,0.00146484375,0.39794921875
1588210030891,2020-04-30T01:27:37.448788,31.744,-0.82470703125,0.1455078125,0.3232421875
1588210030931,2020-04-30T01:27:37.462534,31.784,-0.78466796875,0.1533203125,0.26416015625
1588210030972,2020-04-30T01:27:37.463703,31.825,-0.88232421875,-0.10205078125,0.3076171875
1588210031012,2020-04-30T01:27:37.477416,31.865,-0.8759765625,-0.0078125,0.31787109375
1588210031053,2020-04-30T01:27:37.484912,31.906,-0.80224609375,0.11328125,0.2998046875
1588210031092,2020-04-30T01:27:37.486288,31.945,-0.86474609375,0.10595703125,0.29833984375
1588210031132,2020-04-30T01:27:37.499917,31.985,-0.94384765625,0.06298828125,0.2861328125
1588210031173,2020-04-30T01:27:37.501267,32.026,-0.96337890625,0.1435546875,0.255859375
1588210031212,2020-04-30T01:27:37.514912,32.065,-0.96875,0.15478515625,0.201171875
1588210031253,2020-04-30T01:27:37.516211,32.106,-0.9697265625,0.07373046875,0.150390625
1588210031293,2020-04-30T01:27:37.523226,32.146,-1.025390625,0.0380859375,0.16650390625
1588210031332,2020-04-30T01:27:37.531208,32.185,-1.03369140625,0.07177734375,0.1943359375
1588210031373,2020-04-30T01:27:37.538177,32.226,-1.0458984375,0.0634765625,0.20556640625
1588210031413,2020-04-30T01:27:37.546417,32.266,-1.0654296875,0.00048828125,0.19970703125
1588210031454,2020-04-30T01:27:37.557195,32.307,-1.0048828125,0.0166015625,0.20703125
1588210031493,2020-04-30T01:27:37.560707,32.346,-0.99658203125,0.02734375,0.2431640625
1588210031533,2020-04-30T01:27:37.568083,32.386,-0.99560546875,0.02783203125,0.2646484375
1588210031574,2020-04-30T01:27:37.576192,32.427,-1.0029296875,-0.01171875,0.24755859375
1588210031614,2020-04-30T01:27:37.583334,32.467,-1.01220703125,-0.0625,0.2314453125
1588210031655,2020-04-30T01:27:37.590105,32.508,-0.99755859375,-0.04833984375,0.24169921875
1588210031694,2020-04-30T01:27:37.597631,32.547,-0.99609375,-0.033203125,0.240234375
1588210031734,2020-04-30T01:27:37.605134,32.587,-1.0146484375,-0.0498046875,0.22998046875
1588210031775,2020-04-30T01:27:37.612699,32.628,-1.0224609375,-0.05419921875,0.2265625
1588210031814,2020-04-30T01:27:37.627823,32.667,-1.0,-0.0673828125,0.2275390625
1588210031855,2020-04-30T01:27:37.629536,32.708,-1.00048828125,-0.06298828125,0.23583984375
1588210031895,2020-04-30T01:27:37.636616,32.748,-0.998046875,-0.08056640625,0.2421875
1588210031934,2020-04-30T01:27:37.665100,32.787,-0.99072265625,-0.09765625,0.240234375
1588210031975,2020-04-30T01:27:37.666572,32.828,-1.00537109375,-0.072265625,0.2314453125
1588210032015,2020-04-30T01:27:37.679914,32.868,-1.0087890625,-0.0625,0.22314453125
1588210032056,2020-04-30T01:27:37.681273,32.909,-0.9912109375,-0.0654296875,0.22509765625
1588210032095,2020-04-30T01:27:37.696246,32.948,-1.00244140625,-0.052734375,0.22802734375
1588210032135,2020-04-30T01:27:37.703716,32.988,-0.986328125,-0.04443359375,0.22607421875
1588210032176,2020-04-30T01:27:37.710830,33.029,-0.994140625,-0.04150390625,0.228515625
1588210032216,2020-04-30T01:27:37.718700,33.069,-1.0078125,-0.03564453125,0.2158203125
1588210032257,2020-04-30T01:27:37.725949,33.11,-1.025390625,-0.06298828125,0.2119140625
1588210032296,2020-04-30T01:27:37.733700,33.149,-1.01220703125,-0.0830078125,0.20654296875
1588210032336,2020-04-30T01:27:37.740825,33.189,-1.00048828125,-0.0634765625,0.19873046875
1588210032377,2020-04-30T01:27:37.747442,33.23,-1.00830078125,-0.05615234375,0.19091796875
1588210032416,2020-04-30T01:27:37.758439,33.269,-1.017578125,-0.068359375,0.1806640625
1588210032457,2020-04-30T01:27:37.762690,33.31,-1.04052734375,-0.07568359375,0.16943359375
1588210032497,2020-04-30T01:27:37.770586,33.35,-1.0380859375,-0.08544921875,0.1689453125
1588210032536,2020-04-30T01:27:37.777568,33.389,-1.02880859375,-0.0908203125,0.17578125
1588210032577,2020-04-30T01:27:37.785074,33.43,-1.001953125,-0.08642578125,0.18212890625
1588210032617,2020-04-30T01:27:37.792652,33.47,-0.9990234375,-0.06787109375,0.1865234375
1588210032658,2020-04-30T01:27:37.800070,33.511,-1.0068359375,-0.0400390625,0.18896484375
1588210032698,2020-04-30T01:27:37.807555,33.551,-1.01904296875,-0.03173828125,0.18505859375
1588210032737,2020-04-30T01:27:37.809443,33.59,-1.01953125,-0.0419921875,0.17578125
1588210032778,2020-04-30T01:27:37.817078,33.631,-1.02294921875,-0.05126953125,0.16552734375
1588210032818,2020-04-30T01:27:37.824560,33.671,-1.0205078125,-0.05810546875,0.16650390625
1588210032859,2020-04-30T01:27:37.832117,33.712,-1.01806640625,-0.06103515625,0.16943359375
1588210032898,2020-04-30T01:27:37.838894,33.751,-1.02001953125,-0.064453125,0.1708984375
1588210032938,2020-04-30T01:27:37.846049,33.791,-1.0263671875,-0.06494140625,0.17333984375
1588210032979,2020-04-30T01:27:37.852873,33.832,-1.02099609375,-0.0625,0.173828125
1588210033018,2020-04-30T01:27:37.867875,33.871,-1.01513671875,-0.0634765625,0.16552734375
1588210033059,2020-04-30T01:27:37.875825,33.912,-1.0205078125,-0.05810546875,0.16748046875
1588210033099,2020-04-30T01:27:37.882907,33.952,-1.015625,-0.06005859375,0.17138671875
1588210033138,2020-04-30T01:27:37.890398,33.991,-1.0126953125,-0.06298828125,0.1728515625
1588210033179,2020-04-30T01:27:37.897367,34.032,-1.017578125,-0.06787109375,0.17626953125
1588210033219,2020-04-30T01:27:37.905382,34.072,-1.01611328125,-0.07373046875,0.17333984375
1588210033260,2020-04-30T01:27:37.912313,34.113,-1.01708984375,-0.07666015625,0.17236328125
1588210033300,2020-04-30T01:27:37.919754,34.153,-1.021484375,-0.06884765625,0.173828125
1588210033339,2020-04-30T01:27:37.927267,34.192,-1.02099609375,-0.06884765625,0.173828125
1588210033380,2020-04-30T01:27:37.928545,34.233,-1.01611328125,-0.0732421875,0.17138671875
1588210033420,2020-04-30T01:27:37.942249,34.273,-1.013671875,-0.07421875,0.1748046875
1588210033461,2020-04-30T01:27:37.943548,34.314,-1.01318359375,-0.07763671875,0.17529296875
1588210033500,2020-04-30T01:27:37.957253,34.353,-1.01708984375,-0.08740234375,0.1767578125
