epoch  (ms),time  (-07:00),elapsed  (s),X-Axis  (g),Y-Axis  (g),Z-Axis  (g)
1588210839164,2020-04-30T01:40:41.361575,0.0,-0.24169921875,0.03759765625,1.00341796875
1588210839203,2020-04-30T01:40:41.391571,0.039,-0.2431640625,0.03759765625,1.01171875
1588210839244,2020-04-30T01:40:41.406572,0.08,-0.2431640625,0.037109375,1.009765625
1588210839284,2020-04-30T01:40:41.436578,0.12,-0.2421875,0.03759765625,1.009765625
1588210839323,2020-04-30T01:40:41.459072,0.159,-0.24267578125,0.03759765625,1.01123046875
1588210839363,2020-04-30T01:40:41.489096,0.199,-0.24267578125,0.037109375,1.01025390625
1588210839402,2020-04-30T01:40:41.511578,0.238,-0.2412109375,0.03662109375,1.00927734375
1588210839442,2020-04-30T01:40:41.526597,0.278,-0.24267578125,0.03759765625,1.01025390625
1588210839481,2020-04-30T01:40:41.571584,0.317,-0.2421875,0.03662109375,1.01171875
1588210839521,2020-04-30T01:40:41.586594,0.357,-0.24267578125,0.037109375,1.01025390625
1588210839561,2020-04-30T01:40:41.616577,0.397,-0.24365234375,0.03759765625,1.0107421875
1588210839600,2020-04-30T01:40:41.631624,0.436,-0.244140625,0.037109375,1.0107421875
1588210839640,2020-04-30T01:40:41.646578,0.476,-0.24267578125,0.0380859375,1.009765625
1588210839679,2020-04-30T01:40:41.684083,0.515,-0.2431640625,0.0380859375,1.01123046875
1588210839719,2020-04-30T01:40:41.699099,0.555,-0.24365234375,0.037109375,1.01025390625
1588210839760,2020-04-30T01:40:41.736591,0.596,-0.244140625,0.03759765625,1.0107421875
1588210839799,2020-04-30T01:40:41.751596,0.635,-0.244140625,0.03759765625,1.01220703125
1588210839839,2020-04-30T01:40:41.781602,0.675,-0.2421875,0.03662109375,1.009765625
1588210839878,2020-04-30T01:40:41.804101,0.714,-0.24365234375,0.0380859375,1.0107421875
1588210839918,2020-04-30T01:40:41.819121,0.754,-0.2431640625,0.03759765625,1.01123046875
1588210839958,2020-04-30T01:40:41.849101,0.794,-0.24267578125,0.037109375,1.01123046875
1588210839997,2020-04-30T01:40:41.864080,0.833,-0.24267578125,0.037109375,1.01123046875
1588210840037,2020-04-30T01:40:41.886576,0.873,-0.24267578125,0.037109375,1.01025390625
1588210840076,2020-04-30T01:40:41.909107,0.912,-0.2431640625,0.03857421875,1.01171875
1588210840116,2020-04-30T01:40:41.931714,0.952,-0.24365234375,0.03662109375,1.01123046875
1588210840155,2020-04-30T01:40:41.954204,0.991,-0.24365234375,0.03759765625,1.0107421875
1588210840195,2020-04-30T01:40:41.969196,1.031,-0.2421875,0.03759765625,1.0126953125
1588210840234,2020-04-30T01:40:41.991685,1.07,-0.244140625,0.03662109375,1.01171875
1588210840275,2020-04-30T01:40:42.014206,1.111,-0.2431640625,0.037109375,1.01123046875
1588210840315,2020-04-30T01:40:42.036711,1.151,-0.2431640625,0.03759765625,1.0126953125
1588210840355,2020-04-30T01:40:42.059208,1.191,-0.2431640625,0.03759765625,1.01171875
1588210840394,2020-04-30T01:40:42.081701,1.23,-0.2431640625,0.037109375,1.01171875
1588210840434,2020-04-30T01:40:42.096691,1.27,-0.2431640625,0.03759765625,1.01123046875
1588210840473,2020-04-30T01:40:42.119207,1.309,-0.2421875,0.037109375,1.01123046875
1588210840513,2020-04-30T01:40:42.141694,1.349,-0.24267578125,0.0380859375,1.01220703125
1588210840552,2020-04-30T01:40:42.164179,1.388,-0.2431640625,0.03759765625,1.01220703125
1588210840592,2020-04-30T01:40:42.194232,1.428,-0.24365234375,0.037109375,1.0107421875
1588210840631,2020-04-30T01:40:42.209190,1.467,-0.2431640625,0.03857421875,1.0126953125
1588210840671,2020-04-30T01:40:42.239200,1.507,-0.24267578125,0.03759765625,1.0126953125
1588210840712,2020-04-30T01:40:42.254201,1.548,-0.2431640625,0.0380859375,1.01123046875
1588210840752,2020-04-30T01:40:42.276685,1.588,-0.24365234375,0.0390625,1.01123046875
1588210840791,2020-04-30T01:40:42.299242,1.627,-0.24267578125,0.03857421875,1.01123046875
1588210840831,2020-04-30T01:40:42.314191,1.667,-0.24267578125,0.037109375,1.0107421875
1588210840870,2020-04-30T01:40:42.344195,1.706,-0.24365234375,0.0380859375,1.01123046875
1588210840910,2020-04-30T01:40:42.359222,1.746,-0.24267578125,0.03759765625,1.0126953125
1588210840949,2020-04-30T01:40:42.389198,1.785,-0.24267578125,0.0390625,1.01123046875
1588210840989,2020-04-30T01:40:42.404204,1.825,-0.244140625,0.03759765625,1.01123046875
1588210841028,2020-04-30T01:40:42.419209,1.864,-0.24462890625,0.03857421875,1.0107421875
1588210841068,2020-04-30T01:40:42.449212,1.904,-0.2431640625,0.03759765625,1.01025390625
1588210841107,2020-04-30T01:40:42.464223,1.943,-0.2421875,0.03857421875,1.0107421875
1588210841147,2020-04-30T01:40:42.494186,1.983,-0.244140625,0.03759765625,1.01123046875
1588210841187,2020-04-30T01:40:42.509259,2.023,-0.24365234375,0.03759765625,1.01171875
