epoch  (ms),time  (-07:00),elapsed  (s),X-Axis  (g),Y-Axis  (g),Z-Axis  (g)
1588210839196,2020-04-30T01:40:41.385320,0.0,0.083984375,-0.09619140625,1.00830078125
1588210839235,2020-04-30T01:40:41.400316,0.039,0.08447265625,-0.09619140625,1.01806640625
1588210839276,2020-04-30T01:40:41.430342,0.08,0.08447265625,-0.09716796875,1.01611328125
1588210839316,2020-04-30T01:40:41.445327,0.12,0.08251953125,-0.095703125,1.015625
1588210839357,2020-04-30T01:40:41.467867,0.161,0.08203125,-0.0966796875,1.01611328125
1588210839396,2020-04-30T01:40:41.490352,0.2,0.083984375,-0.09716796875,1.015625
1588210839437,2020-04-30T01:40:41.505358,0.241,0.083984375,-0.09765625,1.01611328125
1588210839477,2020-04-30T01:40:41.535361,0.281,0.083984375,-0.095703125,1.0166015625
1588210839518,2020-04-30T01:40:41.550322,0.322,0.08203125,-0.09716796875,1.01513671875
1588210839557,2020-04-30T01:40:41.587877,0.361,0.0849609375,-0.09716796875,1.01513671875
1588210839598,2020-04-30T01:40:41.602854,0.402,0.08447265625,-0.0966796875,1.01611328125
1588210839638,2020-04-30T01:40:41.617866,0.442,0.08349609375,-0.09716796875,1.01708984375
1588210839679,2020-04-30T01:40:41.647961,0.483,0.08251953125,-0.095703125,1.01708984375
1588210839718,2020-04-30T01:40:41.662864,0.522,0.0830078125,-0.09716796875,1.01611328125
1588210839759,2020-04-30T01:40:41.692884,0.563,0.0830078125,-0.09716796875,1.015625
1588210839801,2020-04-30T01:40:41.707954,0.605,0.083984375,-0.0986328125,1.0146484375
1588210839840,2020-04-30T01:40:41.730315,0.644,0.08251953125,-0.0966796875,1.01611328125
1588210839881,2020-04-30T01:40:41.752879,0.685,0.08349609375,-0.0966796875,1.01708984375
1588210839921,2020-04-30T01:40:41.767907,0.725,0.083984375,-0.09765625,1.015625
1588210839962,2020-04-30T01:40:41.797820,0.766,0.08349609375,-0.0966796875,1.015625
1588210840001,2020-04-30T01:40:41.812816,0.805,0.08349609375,-0.0966796875,1.015625
1588210840042,2020-04-30T01:40:41.835309,0.846,0.08349609375,-0.09716796875,1.015625
1588210840082,2020-04-30T01:40:41.857821,0.886,0.08349609375,-0.09765625,1.0146484375
1588210840123,2020-04-30T01:40:41.887814,0.927,0.0849609375,-0.095703125,1.01611328125
1588210840162,2020-04-30T01:40:41.910311,0.966,0.08349609375,-0.09716796875,1.015625
1588210840203,2020-04-30T01:40:41.925312,1.007,0.08251953125,-0.0966796875,1.01611328125
1588210840243,2020-04-30T01:40:41.947925,1.047,0.0830078125,-0.09716796875,1.0166015625
1588210840284,2020-04-30T01:40:41.970424,1.088,0.08447265625,-0.0986328125,1.017578125
1588210840323,2020-04-30T01:40:41.992969,1.127,0.0830078125,-0.09716796875,1.015625
1588210840364,2020-04-30T01:40:42.015417,1.168,0.0830078125,-0.09619140625,1.01708984375
1588210840405,2020-04-30T01:40:42.037929,1.209,0.08349609375,-0.09619140625,1.01708984375
1588210840445,2020-04-30T01:40:42.052915,1.249,0.08349609375,-0.09716796875,1.01513671875
1588210840486,2020-04-30T01:40:42.082906,1.29,0.0830078125,-0.09619140625,1.0166015625
1588210840526,2020-04-30T01:40:42.097931,1.33,0.083984375,-0.09765625,1.0166015625
1588210840567,2020-04-30T01:40:42.120421,1.371,0.08349609375,-0.09716796875,1.01611328125
1588210840606,2020-04-30T01:40:42.142925,1.41,0.083984375,-0.09716796875,1.01708984375
1588210840647,2020-04-30T01:40:42.157936,1.451,0.08349609375,-0.095703125,1.015625
1588210840687,2020-04-30T01:40:42.187930,1.491,0.08349609375,-0.09716796875,1.015625
1588210840728,2020-04-30T01:40:42.202919,1.532,0.08349609375,-0.09716796875,1.0166015625
1588210840767,2020-04-30T01:40:42.232928,1.571,0.0830078125,-0.09716796875,1.01708984375
1588210840808,2020-04-30T01:40:42.247960,1.612,0.0830078125,-0.0986328125,1.01611328125
1588210840848,2020-04-30T01:40:42.262930,1.652,0.0849609375,-0.09716796875,1.01708984375
1588210840889,2020-04-30T01:40:42.292924,1.693,0.08349609375,-0.09814453125,1.01611328125
1588210840928,2020-04-30T01:40:42.307934,1.732,0.08251953125,-0.09765625,1.01611328125
1588210840969,2020-04-30T01:40:42.337976,1.773,0.0830078125,-0.09765625,1.015625
1588210841010,2020-04-30T01:40:42.352919,1.814,0.08349609375,-0.09814453125,1.01611328125
1588210841050,2020-04-30T01:40:42.375412,1.854,0.0830078125,-0.09716796875,1.0166015625
1588210841091,2020-04-30T01:40:42.405416,1.895,0.0830078125,-0.09814453125,1.0185546875
1588210841131,2020-04-30T01:40:42.420414,1.935,0.08251953125,-0.09765625,1.01611328125
1588210841172,2020-04-30T01:40:42.450483,1.976,0.08349609375,-0.0966796875,1.015625
1588210841211,2020-04-30T01:40:42.465427,2.015,0.08349609375,-0.09716796875,1.0166015625
