epoch  (ms),time  (-07:00),elapsed  (s),X-Axis  (deg/s),Y-Axis  (deg/s),Z-Axis  (deg/s)
1588210839025,2020-04-30T01:40:41.300367,0.0,-0.20579268038272858,-0.18292683362960815,0.36204269528388977
1588210839064,2020-04-30T01:40:41.337835,0.039,-0.049542684108018875,-0.038109757006168365,0.32774391770362854
1588210839104,2020-04-30T01:40:41.375329,0.079,-0.2591463327407837,-0.25533536076545715,0.1257621943950653
1588210839142,2020-04-30T01:40:41.382923,0.117,-0.27439025044441223,-0.2286585420370102,0.16006097197532654
1588210839183,2020-04-30T01:40:41.405331,0.158,-0.2820121943950653,-0.3010670840740204,0.11051829159259796
1588210839221,2020-04-30T01:40:41.435336,0.196,-0.2896341383457184,-0.20579268038272858,0.19435976445674896
1588210839260,2020-04-30T01:40:41.465413,0.235,-0.2820121943950653,-0.3125,0.13338415324687958
1588210839300,2020-04-30T01:40:41.510333,0.275,-0.26676830649375916,-0.22484757006168365,0.14862805604934692
1588210839339,2020-04-30T01:40:41.525383,0.314,-0.29725611209869385,-0.27439025044441223,0.11814024299383163
1588210839379,2020-04-30T01:40:41.577874,0.354,-0.2820121943950653,-0.20198170840740204,0.11814024299383163
1588210839419,2020-04-30T01:40:41.615340,0.394,-0.2515243887901306,-0.2705792784690857,0.11051829159259796
1588210839458,2020-04-30T01:40:41.667911,0.433,-0.2629573345184326,-0.2820121943950653,0.13338415324687958
1588210839498,2020-04-30T01:40:41.697898,0.473,-0.31631097197532654,-0.21722561120986938,0.13719512522220612
1588210839537,2020-04-30T01:40:41.720340,0.512,-0.2096036672592163,-0.2820121943950653,0.13719512522220612
1588210839575,2020-04-30T01:40:41.780328,0.55,-0.27820122241973877,-0.19435976445674896,0.14862805604934692
1588210839615,2020-04-30T01:40:41.795334,0.59,-0.26676830649375916,-0.30868902802467346,0.11814024299383163
1588210839654,2020-04-30T01:40:41.817894,0.629,-0.2591463327407837,-0.19435976445674896,0.17530487477779388
1588210839694,2020-04-30T01:40:41.840333,0.669,-0.2591463327407837,-0.2896341383457184,0.13338415324687958
1588210839734,2020-04-30T01:40:41.855359,0.709,-0.3201219439506531,-0.17911586165428162,0.15243902802467346
1588210839773,2020-04-30T01:40:41.885323,0.748,-0.2629573345184326,-0.29725611209869385,0.08765243738889694
1588210839813,2020-04-30T01:40:41.900335,0.788,-0.2591463327407837,-0.27820122241973877,0.1143292710185051
1588210839852,2020-04-30T01:40:41.922909,0.827,-0.26676830649375916,-0.2515243887901306,0.14862805604934692
1588210839892,2020-04-30T01:40:41.945345,0.867,-0.2820121943950653,-0.28582316637039185,0.1143292710185051
1588210839931,2020-04-30T01:40:41.967948,0.906,-0.24390244483947754,-0.240091472864151,0.12957316637039185
1588210839969,2020-04-30T01:40:41.997950,0.944,-0.2591463327407837,-0.323932945728302,0.1143292710185051
1588210840009,2020-04-30T01:40:42.012992,0.984,-0.2820121943950653,-0.19435976445674896,0.15243902802467346
1588210840048,2020-04-30T01:40:42.035472,1.023,-0.26676830649375916,-0.30868902802467346,0.10670731961727142
1588210840088,2020-04-30T01:40:42.057974,1.063,-0.28582316637039185,-0.18292683362960815,0.1676829308271408
1588210840128,2020-04-30T01:40:42.080475,1.103,-0.22103658318519592,-0.3010670840740204,0.11051829159259796
1588210840167,2020-04-30T01:40:42.102980,1.142,-0.23246951401233673,-0.26676830649375916,0.11051829159259796
1588210840207,2020-04-30T01:40:42.117969,1.182,-0.25533536076545715,-0.27439025044441223,0.13338415324687958
1588210840246,2020-04-30T01:40:42.140480,1.221,-0.27820122241973877,-0.20579268038272858,0.19435976445674896
1588210840286,2020-04-30T01:40:42.162945,1.261,-0.2705792784690857,-0.26676830649375916,0.1448170691728592
1588210840325,2020-04-30T01:40:42.185440,1.3,-0.22103658318519592,-0.2705792784690857,0.12957316637039185
1588210840363,2020-04-30T01:40:42.207954,1.338,-0.26676830649375916,-0.240091472864151,0.1676829308271408
1588210840403,2020-04-30T01:40:42.230459,1.378,-0.23246951401233673,-0.3010670840740204,0.12195122241973877
1588210840443,2020-04-30T01:40:42.245461,1.418,-0.2820121943950653,-0.23246951401233673,0.1867378056049347
1588210840482,2020-04-30T01:40:42.267958,1.457,-0.25533536076545715,-0.3353658616542816,0.10670731961727142
1588210840522,2020-04-30T01:40:42.290452,1.497,-0.2705792784690857,-0.240091472864151,0.1257621943950653
1588210840561,2020-04-30T01:40:42.312947,1.536,-0.2591463327407837,-0.26676830649375916,0.08003048598766327
1588210840601,2020-04-30T01:40:42.335449,1.576,-0.23246951401233673,-0.1676829308271408,0.12195122241973877
1588210840640,2020-04-30T01:40:42.350457,1.615,-0.26676830649375916,-0.23628048598766327,0.1257621943950653
1588210840680,2020-04-30T01:40:42.380500,1.655,-0.2591463327407837,-0.24390244483947754,0.1676829308271408
1588210840719,2020-04-30T01:40:42.395487,1.694,-0.23628048598766327,-0.27439025044441223,0.14100609719753265
1588210840757,2020-04-30T01:40:42.417978,1.732,-0.20579268038272858,-0.27439025044441223,0.13719512522220612
1588210840797,2020-04-30T01:40:42.440464,1.772,-0.27439025044441223,-0.19054877758026123,0.14862805604934692
1588210840837,2020-04-30T01:40:42.455441,1.812,-0.3048780560493469,-0.3429878056049347,0.09908536821603775
1588210840876,2020-04-30T01:40:42.485464,1.851,-0.30868902802467346,-0.14862805604934692,0.16006097197532654
1588210840916,2020-04-30T01:40:42.500457,1.891,-0.25533536076545715,-0.3125,0.1143292710185051
1588210840955,2020-04-30T01:40:42.522988,1.93,-0.24771341681480408,-0.2286585420370102,0.17911586165428162
1588210840995,2020-04-30T01:40:42.545471,1.97,-0.2705792784690857,-0.3010670840740204,0.10289634019136429
1588210841034,2020-04-30T01:40:42.560445,2.009,-0.21722561120986938,-0.240091472864151,0.12957316637039185
1588210841074,2020-04-30T01:40:42.590469,2.049,-0.240091472864151,-0.23246951401233673,0.15625
1588210841113,2020-04-30T01:40:42.605556,2.088,-0.21722561120986938,-0.2705792784690857,0.13338415324687958
1588210841151,2020-04-30T01:40:42.635596,2.126,-0.27820122241973877,-0.19054877758026123,0.13338415324687958
1588210841191,2020-04-30T01:40:42.650804,2.166,-0.3048780560493469,-0.2591463327407837,0.15625
