epoch  (ms),time  (-07:00),elapsed  (s),X-Axis  (T),Y-Axis  (T),Z-Axis  (T)
1588210838957,2020-04-30T01:40:41.277969,0.0,-231.8125,-50.4375,26.875
1588210839057,2020-04-30T01:40:41.322827,0.1,-232.1875,-50.0625,26.9375
1588210839156,2020-04-30T01:40:41.390322,0.199,-231.125,-51.125,26.5625
1588210839256,2020-04-30T01:40:41.442832,0.299,-232.1875,-50.8125,27.6875
1588210839356,2020-04-30T01:40:41.547880,0.399,-232.5625,-51.1875,26.125
1588210839455,2020-04-30T01:40:41.645345,0.498,-231.875,-50.8125,26.9375
1588210839555,2020-04-30T01:40:41.735329,0.598,-231.5,-53.75,26.5625
1588210839654,2020-04-30T01:40:41.825325,0.697,-231.5,-52.625,27.6875
1588210839755,2020-04-30T01:40:41.870373,0.798,-231.8125,-50.8125,27.3125
1588210839855,2020-04-30T01:40:41.930335,0.898,-231.5,-55.1875,26.9375
1588210839955,2020-04-30T01:40:41.975460,0.998,-231.8125,-51.1875,26.9375
1588210840054,2020-04-30T01:40:42.042991,1.097,-231.5,-50.8125,27.6875
1588210840154,2020-04-30T01:40:42.087944,1.197,-232.1875,-51.1875,27.3125
1588210840254,2020-04-30T01:40:42.147969,1.297,-231.875,-50.4375,27.3125
1588210840353,2020-04-30T01:40:42.192961,1.396,-231.5,-51.1875,26.5625
1588210840453,2020-04-30T01:40:42.252952,1.496,-231.5,-50.8125,26.1875
1588210840552,2020-04-30T01:40:42.297960,1.595,-231.875,-56.625,27.3125
1588210840652,2020-04-30T01:40:42.357961,1.695,-231.5,-51.875,27.3125
1588210840752,2020-04-30T01:40:42.402976,1.795,-231.5,-50.8125,27.3125
1588210840853,2020-04-30T01:40:42.462989,1.896,-231.125,-52.625,26.9375
1588210840952,2020-04-30T01:40:42.507986,1.995,-231.875,-51.1875,26.1875
1588210841052,2020-04-30T01:40:42.575431,2.095,-231.875,-50.4375,27.3125
1588210841151,2020-04-30T01:40:42.620772,2.194,-231.5,-51.5,27.3125
