epoch  (ms),time  (-07:00),elapsed  (s),X-Axis  (g),Y-Axis  (g),Z-Axis  (g)
1588210839175,2020-04-30T01:40:41.308193,0.0,-0.20166015625,0.3037109375,-0.89990234375
1588210839213,2020-04-30T01:40:41.315060,0.038,-0.203125,0.3056640625,-0.90771484375
1588210839253,2020-04-30T01:40:41.323745,0.078,-0.2021484375,0.30517578125,-0.9052734375
1588210839292,2020-04-30T01:40:41.330570,0.117,-0.203125,0.30517578125,-0.9072265625
1588210839332,2020-04-30T01:40:41.344968,0.157,-0.20361328125,0.30517578125,-0.9052734375
1588210839371,2020-04-30T01:40:41.361242,0.196,-0.20361328125,0.30517578125,-0.9052734375
1588210839411,2020-04-30T01:40:41.368100,0.236,-0.203125,0.30615234375,-0.90576171875
1588210839451,2020-04-30T01:40:41.376252,0.276,-0.203125,0.3056640625,-0.9052734375
1588210839489,2020-04-30T01:40:41.383157,0.314,-0.20263671875,0.30517578125,-0.9052734375
1588210839528,2020-04-30T01:40:41.390575,0.353,-0.20263671875,0.3046875,-0.9052734375
1588210839568,2020-04-30T01:40:41.398076,0.393,-0.20263671875,0.3037109375,-0.9052734375
1588210839607,2020-04-30T01:40:41.404965,0.432,-0.20361328125,0.30517578125,-0.90576171875
1588210839647,2020-04-30T01:40:41.421251,0.472,-0.2041015625,0.3046875,-0.90576171875
1588210839686,2020-04-30T01:40:41.435615,0.511,-0.20361328125,0.30615234375,-0.9052734375
1588210839726,2020-04-30T01:40:41.443076,0.551,-0.20361328125,0.3056640625,-0.9052734375
1588210839765,2020-04-30T01:40:41.450576,0.59,-0.20458984375,0.3046875,-0.9052734375
1588210839804,2020-04-30T01:40:41.457466,0.629,-0.203125,0.30517578125,-0.90576171875
1588210839843,2020-04-30T01:40:41.467280,0.668,-0.203125,0.30419921875,-0.90478515625
1588210839883,2020-04-30T01:40:41.473087,0.708,-0.20361328125,0.3046875,-0.9052734375
1588210839922,2020-04-30T01:40:41.487466,0.747,-0.203125,0.30615234375,-0.9052734375
1588210839962,2020-04-30T01:40:41.495581,0.787,-0.20361328125,0.3046875,-0.90625
1588210840001,2020-04-30T01:40:41.503083,0.826,-0.203125,0.30419921875,-0.9052734375
1588210840041,2020-04-30T01:40:41.510625,0.866,-0.203125,0.30517578125,-0.9052734375
1588210840080,2020-04-30T01:40:41.524995,0.905,-0.20263671875,0.30419921875,-0.90478515625
1588210840118,2020-04-30T01:40:41.532472,0.943,-0.20263671875,0.30419921875,-0.90478515625
1588210840158,2020-04-30T01:40:41.539993,0.983,-0.203125,0.3046875,-0.90478515625
1588210840198,2020-04-30T01:40:41.547466,1.023,-0.20458984375,0.3046875,-0.90478515625
1588210840237,2020-04-30T01:40:41.563075,1.062,-0.2041015625,0.3046875,-0.90625
1588210840277,2020-04-30T01:40:41.570574,1.102,-0.203125,0.30517578125,-0.90576171875
1588210840316,2020-04-30T01:40:41.577460,1.141,-0.203125,0.30419921875,-0.90673828125
1588210840356,2020-04-30T01:40:41.584963,1.181,-0.20361328125,0.3046875,-0.9052734375
1588210840395,2020-04-30T01:40:41.592469,1.22,-0.20361328125,0.3056640625,-0.90673828125
1588210840433,2020-04-30T01:40:41.599967,1.258,-0.203125,0.30517578125,-0.90478515625
1588210840473,2020-04-30T01:40:41.608087,1.298,-0.203125,0.30517578125,-0.904296875
1588210840513,2020-04-30T01:40:41.622469,1.338,-0.2041015625,0.30419921875,-0.90380859375
1588210840552,2020-04-30T01:40:41.638102,1.377,-0.2041015625,0.3046875,-0.90478515625
1588210840592,2020-04-30T01:40:41.645579,1.417,-0.20361328125,0.3056640625,-0.90478515625
1588210840631,2020-04-30T01:40:41.652468,1.456,-0.203125,0.30517578125,-0.90478515625
1588210840671,2020-04-30T01:40:41.660580,1.496,-0.20361328125,0.30517578125,-0.90576171875
1588210840710,2020-04-30T01:40:41.667504,1.535,-0.20361328125,0.3046875,-0.9052734375
1588210840748,2020-04-30T01:40:41.675599,1.573,-0.203125,0.30517578125,-0.90478515625
1588210840788,2020-04-30T01:40:41.682466,1.613,-0.203125,0.3046875,-0.9072265625
1588210840827,2020-04-30T01:40:41.689976,1.652,-0.2041015625,0.30517578125,-0.90625
1588210840867,2020-04-30T01:40:41.698261,1.692,-0.203125,0.30517578125,-0.90576171875
1588210840907,2020-04-30T01:40:41.712471,1.732,-0.203125,0.30615234375,-0.90478515625
1588210840946,2020-04-30T01:40:41.720606,1.771,-0.20458984375,0.30517578125,-0.904296875
1588210840986,2020-04-30T01:40:41.727466,1.811,-0.2041015625,0.30419921875,-0.9052734375
1588210841024,2020-04-30T01:40:41.734971,1.849,-0.203125,0.3056640625,-0.90625
1588210841063,2020-04-30T01:40:41.743096,1.888,-0.20361328125,0.3056640625,-0.90478515625
1588210841103,2020-04-30T01:40:41.749984,1.928,-0.20263671875,0.30517578125,-0.90576171875
1588210841142,2020-04-30T01:40:41.764971,1.967,-0.203125,0.30517578125,-0.90478515625
1588210841182,2020-04-30T01:40:41.772476,2.007,-0.203125,0.30517578125,-0.90576171875
1588210841222,2020-04-30T01:40:41.780000,2.047,-0.20263671875,0.3056640625,-0.90673828125
