epoch  (ms),time  (-07:00),elapsed  (s),Pressure  (Pa)
1588210838990,2020-04-30T01:40:41.310318,0.0,97903.796875
1588210839037,2020-04-30T01:40:41.325524,0.047,97903.875
1588210839084,2020-04-30T01:40:41.347860,0.094,97903.59375
1588210839131,2020-04-30T01:40:41.355452,0.141,97903.5625
1588210839178,2020-04-30T01:40:41.377820,0.188,97903.59375
1588210839225,2020-04-30T01:40:41.392947,0.235,97903.234375
1588210839272,2020-04-30T01:40:41.422838,0.282,97903.4375
1588210839317,2020-04-30T01:40:41.452950,0.327,97902.3125
1588210839364,2020-04-30T01:40:41.482830,0.374,97902.59375
1588210839411,2020-04-30T01:40:41.497983,0.421,97902.3984375
1588210839458,2020-04-30T01:40:41.527866,0.468,97902.9921875
1588210839505,2020-04-30T01:40:41.543035,0.515,97902.890625
1588210839551,2020-04-30T01:40:41.565310,0.561,97903.328125
1588210839598,2020-04-30T01:40:41.595437,0.608,97902.4453125
1588210839645,2020-04-30T01:40:41.632870,0.655,97903.390625
1588210839691,2020-04-30T01:40:41.655454,0.701,97903.5625
1588210839738,2020-04-30T01:40:41.677887,0.748,97903.15625
1588210839784,2020-04-30T01:40:41.700446,0.794,97903.0078125
1588210839831,2020-04-30T01:40:41.722880,0.841,97903.3828125
1588210839878,2020-04-30T01:40:41.745428,0.888,97903.234375
1588210839925,2020-04-30T01:40:41.782808,0.935,97902.9765625
1588210839972,2020-04-30T01:40:41.805422,0.982,97903.25
1588210840019,2020-04-30T01:40:41.827817,1.029,97903.75
1588210840064,2020-04-30T01:40:41.850923,1.074,97903.265625
1588210840111,2020-04-30T01:40:41.872815,1.121,97903.546875
1588210840158,2020-04-30T01:40:41.895434,1.168,97903.7109375
1588210840205,2020-04-30T01:40:41.940316,1.215,97902.9375
1588210840252,2020-04-30T01:40:41.955650,1.262,97904.109375
1588210840299,2020-04-30T01:40:41.985455,1.309,97904.546875
1588210840345,2020-04-30T01:40:42.000643,1.355,97904.78125
1588210840392,2020-04-30T01:40:42.030451,1.402,97903.953125
1588210840438,2020-04-30T01:40:42.045674,1.448,97904.234375
1588210840485,2020-04-30T01:40:42.075433,1.495,97902.96875
1588210840531,2020-04-30T01:40:42.105631,1.541,97903.625
1588210840578,2020-04-30T01:40:42.135462,1.588,97904.234375
1588210840625,2020-04-30T01:40:42.150644,1.635,97904.46875
1588210840672,2020-04-30T01:40:42.180417,1.682,97904.140625
1588210840719,2020-04-30T01:40:42.195662,1.729,97904.078125
1588210840766,2020-04-30T01:40:42.225422,1.776,97904.1484375
1588210840813,2020-04-30T01:40:42.255637,1.823,97903.75
1588210840858,2020-04-30T01:40:42.277943,1.868,97903.984375
1588210840905,2020-04-30T01:40:42.300658,1.915,97904.75
1588210840952,2020-04-30T01:40:42.322945,1.962,97904.65625
1588210840999,2020-04-30T01:40:42.345718,2.009,97905.0859375
1588210841046,2020-04-30T01:40:42.367921,2.056,97906.015625
1588210841093,2020-04-30T01:40:42.413152,2.103,97905.578125
1588210841139,2020-04-30T01:40:42.435415,2.149,97905.578125
1588210841186,2020-04-30T01:40:42.458137,2.196,97905.421875
1588210841232,2020-04-30T01:40:42.480344,2.242,97905.6875
