epoch  (ms),time  (-07:00),elapsed  (s),X-Axis  (T),Y-Axis  (T),Z-Axis  (T)
1588210838937,2020-04-30T01:40:41.282155,0.0,259.375,123.625,-14.6875
1588210839037,2020-04-30T01:40:41.289094,0.1,259.75,122.5625,-15.5
1588210839136,2020-04-30T01:40:41.312047,0.199,259.75,122.1875,-15.5
1588210839236,2020-04-30T01:40:41.327737,0.299,259.375,116.6875,-15.5
1588210839336,2020-04-30T01:40:41.342738,0.399,259.375,123.6875,-15.5
1588210839435,2020-04-30T01:40:41.364562,0.498,259.0,122.1875,-15.5
1588210839535,2020-04-30T01:40:41.408882,0.598,259.0,124.0625,-15.875
1588210839635,2020-04-30T01:40:41.425226,0.698,259.375,121.0625,-15.125
1588210839733,2020-04-30T01:40:41.447760,0.796,259.0,122.5625,-15.125
1588210839832,2020-04-30T01:40:41.477734,0.895,259.0,123.3125,-15.5
1588210839932,2020-04-30T01:40:41.492721,0.995,259.375,123.3125,-16.3125
1588210840031,2020-04-30T01:40:41.529563,1.094,259.375,124.0625,-15.5
1588210840131,2020-04-30T01:40:41.552056,1.194,259.375,122.9375,-14.75
1588210840231,2020-04-30T01:40:41.581444,1.294,259.375,123.3125,-15.875
1588210840330,2020-04-30T01:40:41.603981,1.393,259.0,123.3125,-15.875
1588210840430,2020-04-30T01:40:41.633962,1.493,259.75,124.375,-15.125
1588210840528,2020-04-30T01:40:41.663953,1.591,258.6875,124.0625,-15.5
1588210840628,2020-04-30T01:40:41.695225,1.691,259.0,123.3125,-15.875
1588210840727,2020-04-30T01:40:41.717055,1.79,259.75,121.8125,-15.875
1588210840827,2020-04-30T01:40:41.738968,1.89,259.0,122.1875,-15.5
1588210840926,2020-04-30T01:40:41.753955,1.989,259.0,122.9375,-15.125
1588210841026,2020-04-30T01:40:41.776390,2.089,259.375,124.0625,-15.5
1588210841126,2020-04-30T01:40:41.791426,2.189,260.125,120.375,-15.875
1588210841225,2020-04-30T01:40:41.807654,2.288,259.375,124.375,-14.75
