epoch  (ms),time  (-07:00),elapsed  (s),X-Axis  (deg/s),Y-Axis  (deg/s),Z-Axis  (deg/s)
1588210839033,2020-04-30T01:40:41.325363,0.0,-0.3048780560493469,-0.14862805604934692,-0.08003048598766327
1588210839074,2020-04-30T01:40:41.340332,0.041,0.11814024299383163,0.03429878130555153,-0.6516768336296082
1588210839114,2020-04-30T01:40:41.355327,0.081,0.21341463923454285,-0.0838414654135704,-0.26676830649375916
1588210839155,2020-04-30T01:40:41.370314,0.122,0.15625,-0.09527438879013062,-0.2286585420370102
1588210839196,2020-04-30T01:40:41.392828,0.163,0.21722561120986938,-0.10670731961727142,-0.26676830649375916
1588210839235,2020-04-30T01:40:41.407849,0.202,0.2096036672592163,-0.14100609719753265,-0.240091472864151
1588210839276,2020-04-30T01:40:41.437836,0.243,0.20579268038272858,-0.10670731961727142,-0.27820122241973877
1588210839316,2020-04-30T01:40:41.452832,0.283,0.17149390280246735,-0.10670731961727142,-0.2705792784690857
1588210839357,2020-04-30T01:40:41.475306,0.324,0.16387195885181427,-0.09527438879013062,-0.30868902802467346
1588210839396,2020-04-30T01:40:41.497855,0.363,0.14100609719753265,-0.10289634019136429,-0.22484757006168365
1588210839437,2020-04-30T01:40:41.512839,0.404,0.21341463923454285,-0.12195122241973877,-0.2591463327407837
1588210839477,2020-04-30T01:40:41.542886,0.444,0.21341463923454285,-0.11814024299383163,-0.29725611209869385
1588210839518,2020-04-30T01:40:41.557858,0.485,0.17530487477779388,-0.10289634019136429,-0.2934451401233673
1588210839557,2020-04-30T01:40:41.595320,0.524,0.17530487477779388,-0.08765243738889694,-0.2896341383457184
1588210839598,2020-04-30T01:40:41.610337,0.565,0.13338415324687958,-0.1257621943950653,-0.27439025044441223
1588210839638,2020-04-30T01:40:41.625319,0.605,0.16387195885181427,-0.10670731961727142,-0.25533536076545715
1588210839679,2020-04-30T01:40:41.655335,0.646,0.21722561120986938,-0.09146341681480408,-0.2820121943950653
1588210839720,2020-04-30T01:40:41.670490,0.687,0.13719512522220612,-0.09146341681480408,-0.2896341383457184
1588210839759,2020-04-30T01:40:41.700318,0.726,0.13338415324687958,-0.1257621943950653,-0.2591463327407837
1588210839801,2020-04-30T01:40:41.715312,0.768,0.15625,-0.1257621943950653,-0.24390244483947754
1588210839840,2020-04-30T01:40:41.737888,0.807,0.22103658318519592,-0.16387195885181427,-0.23628048598766327
1588210839881,2020-04-30T01:40:41.760354,0.848,0.1867378056049347,-0.10289634019136429,-0.2820121943950653
1588210839921,2020-04-30T01:40:41.775322,0.888,0.21722561120986938,-0.09908536821603775,-0.2705792784690857
1588210839962,2020-04-30T01:40:41.805304,0.929,0.18292683362960815,-0.10289634019136429,-0.25533536076545715
1588210840001,2020-04-30T01:40:41.820325,0.968,0.13338415324687958,-0.10289634019136429,-0.28582316637039185
1588210840042,2020-04-30T01:40:41.842820,1.009,0.22103658318519592,-0.15243902802467346,-0.2896341383457184
1588210840082,2020-04-30T01:40:41.865313,1.049,0.17911586165428162,-0.11051829159259796,-0.3048780560493469
1588210840123,2020-04-30T01:40:41.895317,1.09,0.1867378056049347,-0.11051829159259796,-0.2629573345184326
1588210840162,2020-04-30T01:40:41.917820,1.129,0.15625,-0.060975611209869385,-0.2896341383457184
1588210840203,2020-04-30T01:40:41.932819,1.17,0.12957316637039185,-0.08765243738889694,-0.27439025044441223
1588210840243,2020-04-30T01:40:41.955425,1.21,0.15243902802467346,-0.1143292710185051,-0.2629573345184326
1588210840284,2020-04-30T01:40:41.977929,1.251,0.14862805604934692,-0.08003048598766327,-0.27820122241973877
1588210840325,2020-04-30T01:40:42.000415,1.292,0.18292683362960815,-0.0838414654135704,-0.2591463327407837
1588210840364,2020-04-30T01:40:42.022908,1.331,0.1676829308271408,-0.10670731961727142,-0.2705792784690857
1588210840405,2020-04-30T01:40:42.045446,1.372,0.2096036672592163,-0.11051829159259796,-0.25533536076545715
1588210840445,2020-04-30T01:40:42.060415,1.412,0.19054877758026123,-0.12195122241973877,-0.2629573345184326
1588210840486,2020-04-30T01:40:42.090417,1.453,0.19435976445674896,-0.12195122241973877,-0.24771341681480408
1588210840526,2020-04-30T01:40:42.105415,1.493,0.1867378056049347,-0.0838414654135704,-0.323932945728302
1588210840567,2020-04-30T01:40:42.127919,1.534,0.18292683362960815,-0.1448170691728592,-0.27439025044441223
1588210840606,2020-04-30T01:40:42.150421,1.573,0.1676829308271408,-0.0838414654135704,-0.22103658318519592
1588210840647,2020-04-30T01:40:42.165409,1.614,0.19435976445674896,-0.06478658318519592,-0.2820121943950653
1588210840687,2020-04-30T01:40:42.195437,1.654,0.1981707364320755,-0.11051829159259796,-0.2705792784690857
1588210840728,2020-04-30T01:40:42.210414,1.695,0.20198170840740204,-0.10289634019136429,-0.25533536076545715
1588210840767,2020-04-30T01:40:42.240424,1.734,0.16387195885181427,-0.10289634019136429,-0.27439025044441223
1588210840808,2020-04-30T01:40:42.255419,1.775,0.19435976445674896,-0.10670731961727142,-0.2934451401233673
1588210840848,2020-04-30T01:40:42.270422,1.815,0.2591463327407837,-0.12195122241973877,-0.3048780560493469
1588210840889,2020-04-30T01:40:42.300429,1.856,0.18292683362960815,-0.12195122241973877,-0.30868902802467346
1588210840928,2020-04-30T01:40:42.315424,1.895,0.19435976445674896,-0.09908536821603775,-0.27820122241973877
1588210840969,2020-04-30T01:40:42.345457,1.936,0.21341463923454285,-0.09527438879013062,-0.27439025044441223
1588210841010,2020-04-30T01:40:42.360452,1.977,0.12957316637039185,-0.12957316637039185,-0.2934451401233673
1588210841050,2020-04-30T01:40:42.382926,2.017,0.18292683362960815,-0.14100609719753265,-0.25533536076545715
1588210841091,2020-04-30T01:40:42.412927,2.058,0.18292683362960815,-0.12957316637039185,-0.3201219439506531
1588210841131,2020-04-30T01:40:42.427925,2.098,0.13338415324687958,-0.1257621943950653,-0.3010670840740204
1588210841172,2020-04-30T01:40:42.457921,2.139,0.11814024299383163,-0.14100609719753265,-0.2820121943950653
1588210841211,2020-04-30T01:40:42.472928,2.178,0.19435976445674896,-0.10289634019136429,-0.2820121943950653
