epoch  (ms),time  (-07:00),elapsed  (s),Pressure  (Pa)
1588210838995,2020-04-30T01:40:41.285417,0.0,97878.0625
1588210839042,2020-04-30T01:40:41.300484,0.047,97878.421875
1588210839089,2020-04-30T01:40:41.345318,0.094,97878.859375
1588210839136,2020-04-30T01:40:41.375443,0.141,97878.3671875
1588210839183,2020-04-30T01:40:41.412818,0.188,97877.390625
1588210839230,2020-04-30T01:40:41.435450,0.235,97877.0625
1588210839275,2020-04-30T01:40:41.495323,0.28,97877.4296875
1588210839322,2020-04-30T01:40:41.510453,0.327,97877.3046875
1588210839369,2020-04-30T01:40:41.555324,0.374,97877.984375
1588210839416,2020-04-30T01:40:41.578008,0.421,97877.78125
1588210839463,2020-04-30T01:40:41.682876,0.468,97877.609375
1588210839509,2020-04-30T01:40:41.698095,0.514,97876.8046875
1588210839556,2020-04-30T01:40:41.742890,0.561,97875.921875
1588210839603,2020-04-30T01:40:41.780459,0.608,97875.9375
1588210839649,2020-04-30T01:40:41.802895,0.654,97876.6953125
1588210839695,2020-04-30T01:40:41.840455,0.7,97876.640625
1588210839742,2020-04-30T01:40:41.862902,0.747,97877.0625
1588210839789,2020-04-30T01:40:41.885439,0.794,97876.46875
1588210839836,2020-04-30T01:40:41.907907,0.841,97876.5859375
1588210839883,2020-04-30T01:40:41.930445,0.888,97876.4921875
1588210839930,2020-04-30T01:40:41.952968,0.935,97877.90625
1588210839977,2020-04-30T01:40:41.998182,0.982,97878.1875
1588210840022,2020-04-30T01:40:42.020456,1.027,97877.9375
1588210840069,2020-04-30T01:40:42.043242,1.074,97877.265625
1588210840116,2020-04-30T01:40:42.065449,1.121,97877.21875
1588210840163,2020-04-30T01:40:42.088173,1.168,97877.28125
1588210840210,2020-04-30T01:40:42.125447,1.215,97876.859375
1588210840256,2020-04-30T01:40:42.148186,1.261,97876.859375
1588210840303,2020-04-30T01:40:42.170461,1.308,97877.234375
1588210840350,2020-04-30T01:40:42.185666,1.355,97877.3984375
1588210840397,2020-04-30T01:40:42.215487,1.402,97877.5625
1588210840444,2020-04-30T01:40:42.245692,1.449,97877.96875
1588210840491,2020-04-30T01:40:42.275444,1.496,97877.46875
1588210840536,2020-04-30T01:40:42.290679,1.541,97877.2109375
1588210840583,2020-04-30T01:40:42.320523,1.588,97877.046875
1588210840630,2020-04-30T01:40:42.335678,1.635,97877.25
1588210840677,2020-04-30T01:40:42.365459,1.682,97876.75
1588210840724,2020-04-30T01:40:42.395746,1.729,97877.984375
1588210840771,2020-04-30T01:40:42.425469,1.776,97878.3203125
1588210840818,2020-04-30T01:40:42.440734,1.823,97878.65625
1588210840864,2020-04-30T01:40:42.470490,1.869,97878.3203125
1588210840911,2020-04-30T01:40:42.485703,1.916,97877.984375
1588210840957,2020-04-30T01:40:42.530488,1.962,97878.0625
1588210841004,2020-04-30T01:40:42.545743,2.009,97877.890625
1588210841050,2020-04-30T01:40:42.568002,2.055,97877.390625
1588210841097,2020-04-30T01:40:42.590729,2.102,97877.140625
1588210841144,2020-04-30T01:40:42.612971,2.149,97876.96875
1588210841191,2020-04-30T01:40:42.635931,2.196,97877.015625
1588210841238,2020-04-30T01:40:42.658220,2.243,97877.015625
