epoch  (ms),time  (-07:00),elapsed  (s),X-Axis  (g),Y-Axis  (g),Z-Axis  (g)
1588210839194,2020-04-30T01:40:41.366774,0.0,-0.8662109375,-0.232421875,-0.47607421875
1588210839234,2020-04-30T01:40:41.389327,0.04,-0.873046875,-0.2333984375,-0.48095703125
1588210839275,2020-04-30T01:40:41.419283,0.081,-0.87158203125,-0.23291015625,-0.4794921875
1588210839314,2020-04-30T01:40:41.441798,0.12,-0.8720703125,-0.23291015625,-0.47900390625
1588210839354,2020-04-30T01:40:41.456780,0.16,-0.87109375,-0.2333984375,-0.47900390625
1588210839393,2020-04-30T01:40:41.486795,0.199,-0.8720703125,-0.23193359375,-0.47998046875
1588210839433,2020-04-30T01:40:41.501781,0.239,-0.8720703125,-0.2333984375,-0.47998046875
1588210839473,2020-04-30T01:40:41.516769,0.279,-0.8720703125,-0.2333984375,-0.47802734375
1588210839514,2020-04-30T01:40:41.546791,0.32,-0.87109375,-0.23291015625,-0.47900390625
1588210839553,2020-04-30T01:40:41.561774,0.359,-0.87109375,-0.232421875,-0.4794921875
1588210839593,2020-04-30T01:40:41.591792,0.399,-0.87109375,-0.232421875,-0.48095703125
1588210839632,2020-04-30T01:40:41.606826,0.438,-0.87158203125,-0.232421875,-0.4794921875
1588210839672,2020-04-30T01:40:41.629299,0.478,-0.8720703125,-0.23291015625,-0.478515625
1588210839713,2020-04-30T01:40:41.651781,0.519,-0.8720703125,-0.23193359375,-0.4794921875
1588210839752,2020-04-30T01:40:41.666778,0.558,-0.87158203125,-0.2314453125,-0.478515625
1588210839792,2020-04-30T01:40:41.696816,0.598,-0.87109375,-0.23193359375,-0.47802734375
1588210839831,2020-04-30T01:40:41.711790,0.637,-0.87158203125,-0.23193359375,-0.47998046875
1588210839871,2020-04-30T01:40:41.734286,0.677,-0.8720703125,-0.232421875,-0.4794921875
1588210839911,2020-04-30T01:40:41.756789,0.717,-0.87060546875,-0.2314453125,-0.478515625
1588210839952,2020-04-30T01:40:41.779291,0.758,-0.87158203125,-0.23193359375,-0.47802734375
1588210839991,2020-04-30T01:40:41.801787,0.797,-0.8720703125,-0.23193359375,-0.4775390625
1588210840031,2020-04-30T01:40:41.816790,0.837,-0.87255859375,-0.23193359375,-0.4794921875
1588210840070,2020-04-30T01:40:41.846808,0.876,-0.8720703125,-0.232421875,-0.47900390625
1588210840110,2020-04-30T01:40:41.869293,0.916,-0.869140625,-0.232421875,-0.47900390625
1588210840151,2020-04-30T01:40:41.891844,0.957,-0.87158203125,-0.23193359375,-0.4775390625
1588210840190,2020-04-30T01:40:41.914334,0.996,-0.87158203125,-0.23291015625,-0.47802734375
1588210840230,2020-04-30T01:40:41.936808,1.036,-0.87060546875,-0.232421875,-0.47998046875
1588210840269,2020-04-30T01:40:41.952010,1.075,-0.87109375,-0.232421875,-0.47802734375
1588210840309,2020-04-30T01:40:41.974457,1.115,-0.87109375,-0.232421875,-0.478515625
1588210840349,2020-04-30T01:40:41.996923,1.155,-0.8720703125,-0.232421875,-0.478515625
1588210840390,2020-04-30T01:40:42.019428,1.196,-0.87109375,-0.2333984375,-0.4775390625
1588210840429,2020-04-30T01:40:42.041920,1.235,-0.87255859375,-0.23193359375,-0.4775390625
1588210840469,2020-04-30T01:40:42.056954,1.275,-0.87158203125,-0.232421875,-0.4775390625
1588210840508,2020-04-30T01:40:42.086917,1.314,-0.87060546875,-0.232421875,-0.47802734375
1588210840548,2020-04-30T01:40:42.101918,1.354,-0.87158203125,-0.2333984375,-0.47802734375
1588210840587,2020-04-30T01:40:42.124413,1.393,-0.87060546875,-0.23291015625,-0.4775390625
1588210840628,2020-04-30T01:40:42.146996,1.434,-0.87109375,-0.232421875,-0.47705078125
1588210840668,2020-04-30T01:40:42.161927,1.474,-0.87158203125,-0.23291015625,-0.47802734375
1588210840707,2020-04-30T01:40:42.191920,1.513,-0.87158203125,-0.232421875,-0.4775390625
1588210840747,2020-04-30T01:40:42.206920,1.553,-0.8720703125,-0.23193359375,-0.47802734375
1588210840786,2020-04-30T01:40:42.236926,1.592,-0.87158203125,-0.232421875,-0.4775390625
1588210840828,2020-04-30T01:40:42.251932,1.634,-0.87158203125,-0.232421875,-0.47900390625
1588210840867,2020-04-30T01:40:42.266918,1.673,-0.87158203125,-0.23291015625,-0.47900390625
1588210840907,2020-04-30T01:40:42.296999,1.713,-0.87158203125,-0.2333984375,-0.478515625
1588210840946,2020-04-30T01:40:42.311928,1.752,-0.8720703125,-0.232421875,-0.478515625
1588210840986,2020-04-30T01:40:42.341965,1.792,-0.8720703125,-0.232421875,-0.47802734375
1588210841025,2020-04-30T01:40:42.356924,1.831,-0.87158203125,-0.2333984375,-0.47900390625
1588210841066,2020-04-30T01:40:42.371930,1.872,-0.87109375,-0.23291015625,-0.4794921875
1588210841106,2020-04-30T01:40:42.401966,1.912,-0.87109375,-0.232421875,-0.478515625
1588210841145,2020-04-30T01:40:42.416924,1.951,-0.873046875,-0.232421875,-0.478515625
1588210841185,2020-04-30T01:40:42.446957,1.991,-0.87060546875,-0.2333984375,-0.47900390625
1588210841224,2020-04-30T01:40:42.484473,2.03,-0.87060546875,-0.232421875,-0.47900390625
