epoch  (ms),time  (-07:00),elapsed  (s),X-Axis  (T),Y-Axis  (T),Z-Axis  (T)
1588210838948,2020-04-30T01:40:41.294128,0.0,-89.5,-11.4375,-198.375
1588210839048,2020-04-30T01:40:41.324071,0.1,-91.0,-11.4375,-198.8125
1588210839148,2020-04-30T01:40:41.354096,0.2,-89.875,-11.4375,-198.4375
1588210839246,2020-04-30T01:40:41.421591,0.298,-90.25,-18.4375,-197.625
1588210839345,2020-04-30T01:40:41.474076,0.397,-91.0,-9.9375,-198.8125
1588210839445,2020-04-30T01:40:41.556575,0.497,-89.875,-10.6875,-198.875
1588210839544,2020-04-30T01:40:41.601575,0.596,-90.25,-12.9375,-198.4375
1588210839644,2020-04-30T01:40:41.676599,0.696,-90.625,-16.625,-198.5
1588210839744,2020-04-30T01:40:41.729094,0.796,-89.875,-9.9375,-197.75
1588210839842,2020-04-30T01:40:41.796579,0.894,-90.625,-10.3125,-198.5
1588210839941,2020-04-30T01:40:41.841627,0.993,-89.875,-12.1875,-198.875
1588210840041,2020-04-30T01:40:41.901593,1.093,-89.875,-17.0,-198.0625
1588210840141,2020-04-30T01:40:41.946703,1.193,-90.625,-10.6875,-197.75
1588210840240,2020-04-30T01:40:42.006684,1.292,-90.25,-10.6875,-197.75
1588210840338,2020-04-30T01:40:42.051699,1.39,-89.875,-10.3125,-198.125
1588210840438,2020-04-30T01:40:42.111688,1.49,-91.0,-14.0,-197.375
1588210840538,2020-04-30T01:40:42.156771,1.59,-89.125,-12.1875,-198.125
1588210840637,2020-04-30T01:40:42.224206,1.689,-89.5,-11.0625,-198.5625
1588210840737,2020-04-30T01:40:42.269227,1.789,-90.25,-9.9375,-198.5625
1588210840836,2020-04-30T01:40:42.329204,1.888,-89.875,-11.8125,-198.875
1588210840935,2020-04-30T01:40:42.374188,1.987,-90.25,-10.6875,-197.375
1588210841034,2020-04-30T01:40:42.434218,2.086,-90.625,-11.0625,-197.6875
1588210841134,2020-04-30T01:40:42.479239,2.186,-90.625,-11.0625,-198.125
1588210841233,2020-04-30T01:40:42.539114,2.285,-90.625,-11.8125,-198.875
