epoch  (ms),time  (-07:00),elapsed  (s),X-Axis  (T),Y-Axis  (T),Z-Axis  (T)
1588210838936,2020-04-30T01:40:41.285906,0.0,165.75,-13.875,-70.125
1588210839036,2020-04-30T01:40:41.292523,0.1,166.125,-13.875,-70.9375
1588210839136,2020-04-30T01:40:41.301276,0.2,166.125,-18.625,-69.75
1588210839237,2020-04-30T01:40:41.322469,0.301,165.75,-15.0,-70.125
1588210839336,2020-04-30T01:40:41.359962,0.4,165.75,-14.625,-70.5625
1588210839436,2020-04-30T01:40:41.375608,0.5,165.75,-20.8125,-70.125
1588210839535,2020-04-30T01:40:41.397494,0.599,165.75,-13.875,-70.1875
1588210839637,2020-04-30T01:40:41.420575,0.701,166.125,-14.25,-70.9375
1588210839736,2020-04-30T01:40:41.449969,0.8,166.5,-18.25,-70.5625
1588210839836,2020-04-30T01:40:41.467102,0.9,166.5,-13.5,-70.5625
1588210839935,2020-04-30T01:40:41.494965,0.999,166.125,-15.3125,-70.1875
1588210840035,2020-04-30T01:40:41.510018,1.099,165.75,-14.625,-70.1875
1588210840136,2020-04-30T01:40:41.533752,1.2,166.125,-13.875,-69.375
1588210840236,2020-04-30T01:40:41.562466,1.3,167.25,-13.5,-70.1875
1588210840335,2020-04-30T01:40:41.578756,1.399,165.4375,-18.25,-69.8125
1588210840435,2020-04-30T01:40:41.601251,1.499,165.75,-14.25,-70.1875
1588210840536,2020-04-30T01:40:41.637468,1.6,165.75,-13.875,-70.5625
1588210840636,2020-04-30T01:40:41.653750,1.7,165.4375,-15.3125,-69.8125
1588210840735,2020-04-30T01:40:41.668808,1.799,166.125,-14.25,-70.1875
1588210840835,2020-04-30T01:40:41.691265,1.899,167.25,-15.3125,-69.4375
1588210840934,2020-04-30T01:40:41.719968,1.998,165.75,-14.625,-70.5625
1588210841035,2020-04-30T01:40:41.742478,2.099,165.75,-13.5,-70.9375
1588210841135,2020-04-30T01:40:41.758093,2.199,165.75,-14.25,-71.3125
1588210841235,2020-04-30T01:40:41.781166,2.299,165.75,-18.25,-70.9375
