{
  "info": {
    "model": "6",
    "hardware": "0.2",
    "serial": "029E15",
    "manufacturer": "MbientLab Inc",
    "firmware": "1.5.0"
  },
  "cpp_state": [
    2,
    0,
    5,
    1,
    1,
    54,
    25,
    1,
    0,
    0,
    0,
    2,
    0,
    1,
    2,
    3,
    0,
    3,
    1,
    2,
    0,
    4,
    1,
    0,
    4,
    0,
    3,
    1,
    2,
    5,
    0,
    2,
    5,
    3,
    3,
    3,
    3,
    3,
    6,
    0,
    0,
    0,
    7,
    0,
    0,
    0,
    8,
    0,
    0,
    0,
    9,
    0,
    3,
    1,
    28,
    10,
    0,
    0,
    1,
    28,
    11,
    0,
    2,
    5,
    8,
    0,
    0,
    16,
    0,
    12,
    0,
    0,
    1,
    8,
    13,
    0,
    1,
    0,
    15,
    0,
    2,
    2,
    8,
    0,
    16,
    255,
    255,
    17,
    0,
    8,
    2,
    0,
    0,
    18,
    0,
    0,
    0,
    19,
    0,
    1,
    0,
    20,
    0,
    0,
    0,
    21,
    0,
    2,
    0,
    22,
    255,
    255,
    23,
    255,
    255,
    24,
    255,
    255,
    25,
    0,
    2,
    8,
    3,
    0,
    6,
    0,
    2,
    0,
    1,
    0,
    254,
    0,
    5,
    1,
    0,
    45,
    1,
    1,
    255,
    0,
    1,
    0,
    1,
    1,
    0,
    0,
    3,
    4,
    255,
    0,
    7,
    2,
    3,
    2,
    1,
    0,
    3,
    4,
    255,
    0,
    8,
    2,
    1,
    2,
    1,
    0,
    3,
    4,
    255,
    0,
    8,
    2,
    1,
    2,
    1,
    2,
    3,
    4,
    255,
    0,
    8,
    2,
    1,
    2,
    1,
    4,
    3,
    11,
    255,
    0,
    33,
    0,
    1,
    1,
    0,
    0,
    3,
    14,
    255,
    0,
    36,
    0,
    1,
    1,
    0,
    0,
    3,
    17,
    255,
    0,
    28,
    0,
    1,
    1,
    0,
    0,
    3,
    25,
    255,
    0,
    1,
    0,
    1,
    1,
    0,
    0,
    3,
    28,
    255,
    0,
    7,
    2,
    3,
    2,
    1,
    0,
    3,
    218,
    255,
    0,
    1,
    0,
    1,
    2,
    0,
    0,
    4,
    193,
    0,
    0,
    2,
    6,
    1,
    2,
    1,
    0,
    4,
    193,
    1,
    0,
    2,
    6,
    1,
    2,
    1,
    0,
    4,
    193,
    2,
    0,
    2,
    6,
    1,
    2,
    1,
    0,
    4,
    193,
    3,
    0,
    2,
    6,
    1,
    2,
    1,
    0,
    11,
    196,
    255,
    0,
    31,
    0,
    1,
    5,
    0,
    0,
    11,
    197,
    255,
    0,
    1,
    0,
    1,
    4,
    0,
    0,
    17,
    10,
    255,
    0,
    17,
    203,
    255,
    0,
    29,
    0,
    1,
    6,
    0,
    0,
    17,
    204,
    255,
    0,
    14,
    0,
    1,
    3,
    0,
    0,
    17,
    204,
    255,
    0,
    1,
    0,
    1,
    2,
    0,
    1,
    17,
    204,
    255,
    0,
    1,
    0,
    1,
    1,
    0,
    0,
    18,
    1,
    255,
    0,
    3,
    3,
    1,
    4,
    0,
    0,
    18,
    2,
    255,
    0,
    4,
    3,
    1,
    4,
    1,
    0,
    18,
    193,
    255,
    0,
    3,
    3,
    1,
    4,
    0,
    0,
    19,
    5,
    255,
    0,
    5,
    4,
    3,
    2,
    1,
    0,
    19,
    5,
    255,
    0,
    6,
    4,
    1,
    2,
    1,
    0,
    19,
    5,
    255,
    0,
    6,
    4,
    1,
    2,
    1,
    2,
    19,
    5,
    255,
    0,
    6,
    4,
    1,
    2,
    1,
    4,
    19,
    7,
    255,
    0,
    5,
    4,
    3,
    2,
    1,
    0,
    20,
    3,
    255,
    0,
    1,
    0,
    1,
    4,
    0,
    0,
    21,
    5,
    255,
    0,
    12,
    8,
    3,
    2,
    1,
    0,
    21,
    5,
    255,
    0,
    13,
    8,
    1,
    2,
    1,
    0,
    21,
    5,
    255,
    0,
    13,
    8,
    1,
    2,
    1,
    2,
    21,
    5,
    255,
    0,
    13,
    8,
    1,
    2,
    1,
    4,
    21,
    9,
    255,
    0,
    12,
    8,
    3,
    2,
    1,
    0,
    25,
    4,
    255,
    0,
    26,
    0,
    1,
    13,
    1,
    0,
    25,
    5,
    255,
    0,
    24,
    0,
    1,
    13,
    1,
    0,
    25,
    6,
    255,
    0,
    24,
    0,
    1,
    13,
    1,
    0,
    25,
    7,
    255,
    0,
    22,
    0,
    4,
    4,
    1,
    0,
    25,
    8,
    255,
    0,
    23,
    0,
    4,
    4,
    1,
    0,
    25,
    9,
    255,
    0,
    25,
    0,
    3,
    4,
    1,
    0,
    25,
    10,
    255,
    0,
    25,
    0,
    3,
    4,
    1,
    0,
    25,
    203,
    255,
    0,
    34,
    0,
    3,
    1,
    0,
    0,
    254,
    196,
    255,
    0,
    1,
    0,
    1,
    4,
    0,
    0,
    5,
    3,
    40,
    3,
    7,
    48,
    129,
    11,
    192,
    0,
    20,
    20,
    20,
    4,
    10,
    24,
    72,
    8,
    17,
    0,
    0,
    18,
    44,
    0,
    19,
    40,
    0,
    20,
    0,
    3,
    25,
    0,
    19,
    0,
    8,
    61,
    13,
    129,
    147,
    113,
    1,
    0,
    0,
    0,
    150,
    11,
    141,
    196,
    113,
    1,
    0,
    0,
    1,
    34,
    81,
    2,
    214,
    113,
    1,
    0,
    0,
    2,
    213,
    137,
    4,
    214,
    113,
    1,
    0,
    0,
    3,
    24,
    22,
    10,
    214,
    113,
    1,
    0,
    0,
    4,
    180,
    218,
    183,
    147,
    113,
    1,
    0,
    0,
    5,
    52,
    65,
    197,
    146,
    113,
    1,
    0,
    0,
    6,
    235,
    131,
    245,
    248,
    113,
    1,
    0,
    0,
    7,
    0
  ]
}