epoch  (ms),time  (-07:00),elapsed  (s),X-Axis  (g),Y-Axis  (g),Z-Axis  (g)
1588210812049,2020-04-30T01:40:13.959388,0.0,-0.0263671875,0.03955078125,1.01171875
1588210812088,2020-04-30T01:40:13.966822,0.039,-0.025390625,0.0400390625,1.0205078125
1588210812128,2020-04-30T01:40:13.981827,0.079,-0.02490234375,0.0400390625,1.017578125
1588210812167,2020-04-30T01:40:13.989333,0.118,-0.02587890625,0.04052734375,1.01806640625
1588210812207,2020-04-30T01:40:14.004344,0.158,-0.02685546875,0.0400390625,1.0185546875
1588210812246,2020-04-30T01:40:14.011884,0.197,-0.0263671875,0.04052734375,1.01904296875
1588210812286,2020-04-30T01:40:14.018687,0.237,-0.025390625,0.04052734375,1.01806640625
1588210812325,2020-04-30T01:40:14.026846,0.276,-0.02587890625,0.0400390625,1.0185546875
1588210812366,2020-04-30T01:40:14.033689,0.317,-0.02587890625,0.0400390625,1.01904296875
1588210812406,2020-04-30T01:40:14.042883,0.357,-0.0263671875,0.03955078125,1.01953125
1588210812446,2020-04-30T01:40:14.049623,0.397,-0.02490234375,0.0400390625,1.0185546875
1588210812485,2020-04-30T01:40:14.056840,0.436,-0.02490234375,0.04052734375,1.01904296875
1588210812525,2020-04-30T01:40:14.065187,0.476,-0.02587890625,0.041015625,1.02001953125
1588210812564,2020-04-30T01:40:14.071845,0.515,-0.025390625,0.0400390625,1.01953125
1588210812604,2020-04-30T01:40:14.086823,0.555,-0.02587890625,0.0400390625,1.01806640625
1588210812643,2020-04-30T01:40:14.093971,0.594,-0.02587890625,0.0390625,1.02001953125
1588210812683,2020-04-30T01:40:14.101823,0.634,-0.02587890625,0.0419921875,1.01953125
1588210812722,2020-04-30T01:40:14.109333,0.673,-0.02490234375,0.041015625,1.02001953125
1588210812762,2020-04-30T01:40:14.116826,0.713,-0.02490234375,0.04052734375,1.01904296875
1588210812801,2020-04-30T01:40:14.124318,0.752,-0.02587890625,0.04150390625,1.01953125
1588210812841,2020-04-30T01:40:14.131187,0.792,-0.025390625,0.0400390625,1.01904296875
1588210812882,2020-04-30T01:40:14.140348,0.833,-0.025390625,0.04052734375,1.01904296875
1588210812922,2020-04-30T01:40:14.147789,0.873,-0.025390625,0.0400390625,1.0205078125
1588210812961,2020-04-30T01:40:14.155778,0.912,-0.02587890625,0.041015625,1.01904296875
1588210813001,2020-04-30T01:40:14.162675,0.952,-0.02685546875,0.04052734375,1.01904296875
1588210813040,2020-04-30T01:40:14.169866,0.991,-0.02587890625,0.04052734375,1.01953125
1588210813080,2020-04-30T01:40:14.178049,1.031,-0.0263671875,0.03955078125,1.02001953125
1588210813119,2020-04-30T01:40:14.187943,1.07,-0.02587890625,0.04052734375,1.0185546875
1588210813159,2020-04-30T01:40:14.193162,1.11,-0.02685546875,0.03955078125,1.02001953125
1588210813198,2020-04-30T01:40:14.206499,1.149,-0.02587890625,0.04052734375,1.01904296875
1588210813238,2020-04-30T01:40:14.215257,1.189,-0.02587890625,0.04052734375,1.01953125
1588210813278,2020-04-30T01:40:14.221463,1.229,-0.0244140625,0.041015625,1.02001953125
1588210813317,2020-04-30T01:40:14.228976,1.268,-0.02685546875,0.04150390625,1.01904296875
1588210813358,2020-04-30T01:40:14.238425,1.309,-0.0283203125,0.0400390625,1.0185546875
1588210813398,2020-04-30T01:40:14.252199,1.349,-0.02587890625,0.04052734375,1.01904296875
1588210813437,2020-04-30T01:40:14.259029,1.388,-0.02587890625,0.03955078125,1.0185546875
1588210813477,2020-04-30T01:40:14.260965,1.428,-0.0263671875,0.04150390625,1.01953125
1588210813516,2020-04-30T01:40:14.273800,1.467,-0.02490234375,0.04052734375,1.02001953125
1588210813556,2020-04-30T01:40:14.281349,1.507,-0.02587890625,0.041015625,1.01904296875
1588210813595,2020-04-30T01:40:14.289517,1.546,-0.02587890625,0.0400390625,1.02001953125
1588210813635,2020-04-30T01:40:14.304029,1.586,-0.02587890625,0.0400390625,1.02001953125
1588210813675,2020-04-30T01:40:14.305908,1.626,-0.025390625,0.04052734375,1.01953125
1588210813714,2020-04-30T01:40:14.320396,1.665,-0.0263671875,0.041015625,1.01953125
1588210813754,2020-04-30T01:40:14.328075,1.705,-0.02587890625,0.04052734375,1.01904296875
1588210813793,2020-04-30T01:40:14.341583,1.744,-0.02587890625,0.04150390625,1.0205078125
1588210813833,2020-04-30T01:40:14.343250,1.784,-0.02685546875,0.041015625,1.01953125
1588210813874,2020-04-30T01:40:14.350134,1.825,-0.02685546875,0.0400390625,1.01953125
