epoch  (ms),time  (-07:00),elapsed  (s),X-Axis  (g),Y-Axis  (g),Z-Axis  (g)
1588210812059,2020-04-30T01:40:14.043734,0.0,-0.865234375,-0.2314453125,-0.4765625
1588210812099,2020-04-30T01:40:14.066224,0.04,-0.873046875,-0.232421875,-0.4794921875
1588210812140,2020-04-30T01:40:14.088725,0.081,-0.87060546875,-0.232421875,-0.47900390625
1588210812180,2020-04-30T01:40:14.118715,0.121,-0.8720703125,-0.23291015625,-0.4794921875
1588210812219,2020-04-30T01:40:14.141818,0.16,-0.8720703125,-0.2333984375,-0.4794921875
1588210812259,2020-04-30T01:40:14.179058,0.2,-0.87109375,-0.23291015625,-0.47900390625
1588210812298,2020-04-30T01:40:14.193880,0.239,-0.8720703125,-0.232421875,-0.47900390625
1588210812339,2020-04-30T01:40:14.223895,0.28,-0.87158203125,-0.2314453125,-0.4775390625
1588210812379,2020-04-30T01:40:14.261395,0.32,-0.8720703125,-0.23291015625,-0.4794921875
1588210812418,2020-04-30T01:40:14.276436,0.359,-0.87109375,-0.23193359375,-0.47998046875
1588210812458,2020-04-30T01:40:14.306389,0.399,-0.87353515625,-0.23291015625,-0.47900390625
1588210812497,2020-04-30T01:40:14.352106,0.438,-0.87109375,-0.232421875,-0.48046875
1588210812537,2020-04-30T01:40:14.366575,0.478,-0.8720703125,-0.23291015625,-0.47900390625
1588210812578,2020-04-30T01:40:14.396378,0.519,-0.87158203125,-0.23291015625,-0.47900390625
1588210812618,2020-04-30T01:40:14.411433,0.559,-0.87060546875,-0.23291015625,-0.4794921875
1588210812657,2020-04-30T01:40:14.441421,0.598,-0.873046875,-0.232421875,-0.47705078125
1588210812697,2020-04-30T01:40:14.456426,0.638,-0.87158203125,-0.232421875,-0.47900390625
1588210812736,2020-04-30T01:40:14.478908,0.677,-0.87158203125,-0.2333984375,-0.478515625
1588210812776,2020-04-30T01:40:14.501400,0.717,-0.87158203125,-0.23095703125,-0.478515625
1588210812817,2020-04-30T01:40:14.516387,0.758,-0.87109375,-0.232421875,-0.47900390625
1588210812856,2020-04-30T01:40:14.546427,0.797,-0.87109375,-0.2333984375,-0.47802734375
1588210812896,2020-04-30T01:40:14.561406,0.837,-0.87109375,-0.23193359375,-0.4794921875
1588210812935,2020-04-30T01:40:14.583895,0.876,-0.87158203125,-0.2314453125,-0.478515625
1588210812975,2020-04-30T01:40:14.606433,0.916,-0.87158203125,-0.232421875,-0.47705078125
1588210813016,2020-04-30T01:40:14.628992,0.957,-0.87109375,-0.2314453125,-0.4775390625
1588210813056,2020-04-30T01:40:14.651429,0.997,-0.8720703125,-0.232421875,-0.47705078125
1588210813095,2020-04-30T01:40:14.666461,1.036,-0.87158203125,-0.232421875,-0.4794921875
1588210813135,2020-04-30T01:40:14.688956,1.076,-0.87109375,-0.23193359375,-0.478515625
1588210813174,2020-04-30T01:40:14.711445,1.115,-0.8720703125,-0.23095703125,-0.4775390625
1588210813214,2020-04-30T01:40:14.733948,1.155,-0.87060546875,-0.232421875,-0.478515625
1588210813255,2020-04-30T01:40:14.756444,1.196,-0.87158203125,-0.2333984375,-0.47900390625
1588210813294,2020-04-30T01:40:14.778908,1.235,-0.8720703125,-0.23193359375,-0.47900390625
1588210813334,2020-04-30T01:40:14.793914,1.275,-0.87060546875,-0.232421875,-0.4794921875
1588210813373,2020-04-30T01:40:14.816399,1.314,-0.87109375,-0.2333984375,-0.478515625
1588210813413,2020-04-30T01:40:14.838909,1.354,-0.87255859375,-0.23291015625,-0.47900390625
1588210813454,2020-04-30T01:40:14.861413,1.395,-0.8720703125,-0.23193359375,-0.4794921875
1588210813494,2020-04-30T01:40:14.883891,1.435,-0.8720703125,-0.23193359375,-0.478515625
1588210813533,2020-04-30T01:40:14.898908,1.474,-0.8720703125,-0.232421875,-0.47802734375
1588210813573,2020-04-30T01:40:14.928960,1.514,-0.87158203125,-0.23193359375,-0.47802734375
1588210813612,2020-04-30T01:40:14.943904,1.553,-0.87060546875,-0.23193359375,-0.4775390625
1588210813652,2020-04-30T01:40:14.966401,1.593,-0.873046875,-0.23193359375,-0.47802734375
1588210813693,2020-04-30T01:40:14.988976,1.634,-0.8720703125,-0.232421875,-0.47802734375
1588210813732,2020-04-30T01:40:15.003899,1.673,-0.87109375,-0.23193359375,-0.4775390625
1588210813772,2020-04-30T01:40:15.033978,1.713,-0.8720703125,-0.23291015625,-0.47802734375
1588210813811,2020-04-30T01:40:15.048910,1.752,-0.87158203125,-0.232421875,-0.478515625
1588210813851,2020-04-30T01:40:15.078934,1.792,-0.87255859375,-0.23193359375,-0.47900390625
1588210813892,2020-04-30T01:40:15.101485,1.833,-0.87255859375,-0.232421875,-0.478515625
