epoch  (ms),time  (-07:00),elapsed  (s),X-Axis  (g),Y-Axis  (g),Z-Axis  (g)
1588210812021,2020-04-30T01:40:13.962504,0.0,-0.2021484375,0.30322265625,-0.8994140625
1588210812061,2020-04-30T01:40:13.969414,0.04,-0.20361328125,0.30517578125,-0.90771484375
1588210812100,2020-04-30T01:40:13.976936,0.079,-0.2041015625,0.30517578125,-0.9072265625
1588210812140,2020-04-30T01:40:13.984397,0.119,-0.203125,0.30517578125,-0.90576171875
1588210812180,2020-04-30T01:40:13.985728,0.159,-0.203125,0.3056640625,-0.90576171875
1588210812219,2020-04-30T01:40:13.999432,0.198,-0.20263671875,0.3056640625,-0.9052734375
1588210812257,2020-04-30T01:40:14.000685,0.236,-0.20263671875,0.30419921875,-0.90576171875
1588210812297,2020-04-30T01:40:14.008186,0.276,-0.20361328125,0.30517578125,-0.904296875
1588210812336,2020-04-30T01:40:14.015682,0.315,-0.203125,0.30517578125,-0.90478515625
1588210812376,2020-04-30T01:40:14.022508,0.355,-0.203125,0.30517578125,-0.9052734375
1588210812415,2020-04-30T01:40:14.030684,0.394,-0.203125,0.3046875,-0.9052734375
1588210812455,2020-04-30T01:40:14.037508,0.434,-0.20361328125,0.30517578125,-0.90625
1588210812494,2020-04-30T01:40:14.045683,0.473,-0.203125,0.30517578125,-0.90576171875
1588210812534,2020-04-30T01:40:14.052673,0.513,-0.203125,0.30517578125,-0.90380859375
1588210812572,2020-04-30T01:40:14.059432,0.551,-0.203125,0.3037109375,-0.90478515625
1588210812612,2020-04-30T01:40:14.081902,0.591,-0.20361328125,0.3046875,-0.90673828125
1588210812651,2020-04-30T01:40:14.083180,0.63,-0.20361328125,0.3046875,-0.90625
1588210812691,2020-04-30T01:40:14.090687,0.67,-0.20361328125,0.30517578125,-0.90576171875
1588210812730,2020-04-30T01:40:14.098233,0.709,-0.20361328125,0.3046875,-0.90478515625
1588210812770,2020-04-30T01:40:14.105686,0.749,-0.203125,0.3046875,-0.9052734375
1588210812809,2020-04-30T01:40:14.113181,0.788,-0.20361328125,0.30419921875,-0.9052734375
1588210812848,2020-04-30T01:40:14.120010,0.827,-0.20263671875,0.30517578125,-0.90625
1588210812887,2020-04-30T01:40:14.127682,0.866,-0.20458984375,0.30517578125,-0.90673828125
1588210812927,2020-04-30T01:40:14.135188,0.906,-0.20361328125,0.3046875,-0.9052734375
1588210812966,2020-04-30T01:40:14.142684,0.945,-0.20263671875,0.3046875,-0.9052734375
1588210813006,2020-04-30T01:40:14.151245,0.985,-0.20361328125,0.30419921875,-0.90478515625
1588210813045,2020-04-30T01:40:14.157835,1.024,-0.20361328125,0.3056640625,-0.9052734375
1588210813085,2020-04-30T01:40:14.165843,1.064,-0.20361328125,0.30517578125,-0.90576171875
1588210813124,2020-04-30T01:40:14.179578,1.103,-0.20361328125,0.30517578125,-0.904296875
1588210813162,2020-04-30T01:40:14.188245,1.141,-0.203125,0.3046875,-0.904296875
1588210813202,2020-04-30T01:40:14.194570,1.181,-0.203125,0.30419921875,-0.90478515625
1588210813242,2020-04-30T01:40:14.202091,1.221,-0.203125,0.3056640625,-0.90576171875
1588210813281,2020-04-30T01:40:14.203605,1.26,-0.203125,0.3056640625,-0.9052734375
1588210813321,2020-04-30T01:40:14.210891,1.3,-0.203125,0.3056640625,-0.904296875
1588210813360,2020-04-30T01:40:14.219970,1.339,-0.20361328125,0.3056640625,-0.90478515625
1588210813400,2020-04-30T01:40:14.225881,1.379,-0.20361328125,0.30517578125,-0.90625
1588210813438,2020-04-30T01:40:14.233357,1.417,-0.203125,0.3046875,-0.90625
1588210813477,2020-04-30T01:40:14.240494,1.456,-0.203125,0.3056640625,-0.904296875
1588210813517,2020-04-30T01:40:14.248358,1.496,-0.20361328125,0.30419921875,-0.90478515625
1588210813556,2020-04-30T01:40:14.255425,1.535,-0.203125,0.30615234375,-0.90625
1588210813596,2020-04-30T01:40:14.262679,1.575,-0.2041015625,0.30517578125,-0.9052734375
1588210813636,2020-04-30T01:40:14.270179,1.615,-0.20361328125,0.30419921875,-0.9052734375
1588210813675,2020-04-30T01:40:14.277063,1.654,-0.20361328125,0.3046875,-0.9052734375
1588210813715,2020-04-30T01:40:14.285185,1.694,-0.203125,0.30517578125,-0.904296875
1588210813753,2020-04-30T01:40:14.292081,1.732,-0.20263671875,0.30517578125,-0.904296875
1588210813792,2020-04-30T01:40:14.300230,1.771,-0.203125,0.30517578125,-0.9052734375
1588210813832,2020-04-30T01:40:14.307073,1.811,-0.203125,0.3046875,-0.90576171875
1588210813871,2020-04-30T01:40:14.308485,1.85,-0.203125,0.3037109375,-0.90478515625
