epoch  (ms),time  (-07:00),elapsed  (s),X-Axis  (T),Y-Axis  (T),Z-Axis  (T)
1589227882024,2020-05-11T20:12:49.753310,0.0,264.4375,139.625,-7.375
1589227882122,2020-05-11T20:12:49.813283,0.098,264.8125,138.5,-7.375
1589227882221,2020-05-11T20:12:49.873282,0.197,264.4375,137.4375,-7.375
1589227882321,2020-05-11T20:12:49.993293,0.297,264.8125,132.625,-7.0
1589227882421,2020-05-11T20:12:50.083291,0.397,263.3125,138.875,-6.625
1589227882520,2020-05-11T20:12:50.233287,0.496,264.4375,140.0,-8.1875
1589227882618,2020-05-11T20:12:50.338396,0.594,264.4375,138.1875,-7.0
1589227882718,2020-05-11T20:12:50.458401,0.694,263.6875,138.1875,-7.375
1589227882818,2020-05-11T20:12:50.578345,0.794,264.0625,138.875,-8.1875
1589227882917,2020-05-11T20:12:50.698389,0.893,264.4375,139.625,-8.5625
1589227883017,2020-05-11T20:12:50.788350,0.993,265.5625,134.5,-7.4375
1589227883116,2020-05-11T20:12:50.923405,1.092,263.6875,135.9375,-7.0
1589227883216,2020-05-11T20:12:51.013653,1.192,264.4375,137.4375,-7.0
1589227883314,2020-05-11T20:12:51.148402,1.29,264.8125,138.5,-8.1875
1589227883414,2020-05-11T20:12:51.268364,1.39,264.4375,139.625,-7.8125
1589227883513,2020-05-11T20:12:51.388366,1.489,264.0625,138.5625,-7.8125
1589227883613,2020-05-11T20:12:51.478336,1.589,264.125,137.8125,-7.8125
1589227883713,2020-05-11T20:12:51.628402,1.689,264.0625,139.625,-7.8125
1589227883812,2020-05-11T20:12:51.718403,1.788,264.0625,139.625,-7.8125
1589227883912,2020-05-11T20:12:51.838456,1.888,264.4375,139.625,-7.8125
1589227884010,2020-05-11T20:12:51.943361,1.986,264.0625,139.25,-7.0
1589227884110,2020-05-11T20:12:52.078404,2.086,264.0625,139.25,-7.8125
1589227884209,2020-05-11T20:12:52.198412,2.185,264.8125,138.875,-7.4375
1589227884309,2020-05-11T20:12:52.348370,2.285,264.8125,140.375,-7.4375
1589227884408,2020-05-11T20:12:52.453403,2.384,264.8125,139.625,-7.4375
1589227884508,2020-05-11T20:12:52.603367,2.484,264.8125,139.625,-8.1875
1589227884608,2020-05-11T20:12:52.693420,2.584,264.0625,139.625,-7.8125
1589227884707,2020-05-11T20:12:52.828405,2.683,265.1875,140.0,-7.8125
1589227884805,2020-05-11T20:12:52.918412,2.781,264.8125,138.875,-8.1875
1589227884905,2020-05-11T20:12:53.038367,2.881,263.75,140.375,-8.5625
1589227885005,2020-05-11T20:12:53.128386,2.981,264.4375,137.8125,-6.625
1589227885104,2020-05-11T20:12:53.278407,3.08,264.4375,138.1875,-7.8125
1589227885204,2020-05-11T20:12:53.368473,3.18,263.75,140.0,-7.4375
1589227885303,2020-05-11T20:12:53.488360,3.279,264.4375,138.1875,-7.8125
1589227885402,2020-05-11T20:12:53.578469,3.378,264.8125,139.25,-7.0
1589227885501,2020-05-11T20:12:53.713432,3.477,264.4375,135.5625,-7.0
1589227885601,2020-05-11T20:12:53.833418,3.577,263.6875,137.8125,-8.1875
1589227885700,2020-05-11T20:12:53.953507,3.676,264.0625,137.0625,-7.4375
1589227885800,2020-05-11T20:12:54.043420,3.776,265.1875,138.1875,-7.4375
1589227885900,2020-05-11T20:12:54.178375,3.876,264.4375,137.4375,-7.8125
1589227885999,2020-05-11T20:12:54.283436,3.975,264.0625,138.875,-7.8125
1589227886097,2020-05-11T20:12:54.418426,4.073,264.8125,136.6875,-8.5625
1589227886197,2020-05-11T20:12:54.523377,4.173,265.1875,134.875,-7.4375
1589227886297,2020-05-11T20:12:54.643427,4.273,264.125,140.75,-7.8125
1589227886396,2020-05-11T20:12:54.733552,4.372,263.375,140.375,-7.8125
1589227886496,2020-05-11T20:12:54.868432,4.472,264.4375,140.375,-8.5625
1589227886595,2020-05-11T20:12:54.973387,4.571,264.125,135.9375,-7.8125
1589227886695,2020-05-11T20:12:55.093515,4.671,263.75,140.75,-7.4375
1589227886795,2020-05-11T20:12:55.183551,4.771,263.375,139.25,-7.8125
1589227886893,2020-05-11T20:12:55.303418,4.869,264.4375,140.0,-7.8125
1589227886992,2020-05-11T20:12:55.408476,4.968,264.4375,137.4375,-7.0
1589227887092,2020-05-11T20:12:55.558546,5.068,264.0625,138.875,-7.4375
1589227887192,2020-05-11T20:12:55.648384,5.168,264.8125,139.25,-7.4375
1589227887291,2020-05-11T20:12:55.768391,5.267,264.4375,138.875,-7.8125
1589227887391,2020-05-11T20:12:55.858440,5.367,264.8125,131.875,-7.8125
1589227887490,2020-05-11T20:12:56.008384,5.466,263.375,138.5625,-8.1875
1589227887589,2020-05-11T20:12:56.113453,5.565,264.4375,140.75,-7.8125
1589227887688,2020-05-11T20:12:56.233415,5.664,264.0625,141.875,-7.4375
1589227887788,2020-05-11T20:12:56.323477,5.764,263.6875,138.1875,-7.0
1589227887887,2020-05-11T20:12:56.473401,5.863,264.4375,139.625,-7.8125
1589227887987,2020-05-11T20:12:56.563445,5.963,264.4375,139.625,-8.1875
1589227888087,2020-05-11T20:12:56.698392,6.063,264.8125,137.8125,-7.4375
1589227888186,2020-05-11T20:12:56.788484,6.162,264.0625,133.0,-6.625
1589227888284,2020-05-11T20:12:56.923399,6.26,264.4375,138.875,-7.4375
1589227888384,2020-05-11T20:12:57.013479,6.36,265.1875,140.75,-7.8125
1589227888484,2020-05-11T20:12:57.133389,6.46,264.4375,138.875,-7.8125
1589227888583,2020-05-11T20:12:57.283388,6.559,264.4375,136.6875,-7.4375
1589227888683,2020-05-11T20:12:57.433553,6.659,264.4375,139.625,-7.4375
1589227888782,2020-05-11T20:12:57.613452,6.758,264.4375,139.625,-7.8125
1589227888882,2020-05-11T20:12:57.748424,6.858,264.4375,140.75,-7.8125
1589227888980,2020-05-11T20:12:57.898414,6.956,264.0625,135.25,-7.4375
1589227889080,2020-05-11T20:12:58.003441,7.056,264.0625,139.25,-8.1875
1589227889179,2020-05-11T20:12:58.123399,7.155,264.8125,138.5625,-7.8125
1589227889279,2020-05-11T20:12:58.228447,7.255,264.0625,137.8125,-7.8125
1589227889379,2020-05-11T20:12:58.393511,7.355,264.8125,137.0625,-6.625
1589227889478,2020-05-11T20:12:58.498402,7.454,264.8125,138.1875,-7.4375
1589227889578,2020-05-11T20:12:58.633467,7.554,264.0625,139.25,-6.625
1589227889676,2020-05-11T20:12:58.738414,7.652,264.0625,138.9375,-7.8125
1589227889776,2020-05-11T20:12:58.888398,7.752,264.0625,137.0625,-7.8125
1589227889875,2020-05-11T20:12:59.008460,7.851,264.4375,139.25,-7.4375
1589227889975,2020-05-11T20:12:59.173402,7.951,265.1875,137.8125,-7.8125
1589227890074,2020-05-11T20:12:59.263453,8.05,264.8125,137.4375,-7.4375
1589227890174,2020-05-11T20:12:59.398410,8.15,264.8125,139.25,-7.8125
1589227890274,2020-05-11T20:12:59.503475,8.25,264.125,139.25,-7.8125
1589227890373,2020-05-11T20:12:59.653480,8.349,263.6875,140.0,-7.0
1589227890471,2020-05-11T20:12:59.758501,8.447,264.8125,137.8125,-7.0
1589227890571,2020-05-11T20:12:59.908415,8.547,264.0625,140.375,-7.0
1589227890671,2020-05-11T20:13:00.028470,8.647,264.5,138.1875,-7.4375
1589227890770,2020-05-11T20:13:00.178475,8.746,265.1875,140.375,-7.8125
1589227890870,2020-05-11T20:13:00.328468,8.846,263.6875,140.375,-7.8125
1589227890969,2020-05-11T20:13:00.463428,8.945,264.4375,139.25,-7.4375
1589227891069,2020-05-11T20:13:00.583489,9.045,263.75,138.5625,-7.0
1589227891167,2020-05-11T20:13:00.763451,9.143,265.1875,139.25,-7.4375
1589227891267,2020-05-11T20:13:00.928493,9.243,264.8125,138.875,-6.625
1589227891366,2020-05-11T20:13:01.108491,9.342,263.6875,140.75,-7.8125
1589227891466,2020-05-11T20:13:01.258476,9.442,264.0625,140.375,-8.1875
1589227891566,2020-05-11T20:13:01.439154,9.542,263.6875,138.875,-7.8125
1589227891665,2020-05-11T20:13:01.543445,9.641,264.4375,139.625,-8.1875
1589227891765,2020-05-11T20:13:01.693487,9.741,264.0625,139.625,-7.4375
1589227891863,2020-05-11T20:13:01.798497,9.839,263.6875,140.0,-7.0
1589227891963,2020-05-11T20:13:01.978579,9.939,265.1875,138.1875,-7.8125
1589227892062,2020-05-11T20:13:02.098467,10.038,264.0625,136.6875,-8.5625
1589227892162,2020-05-11T20:13:02.338494,10.138,264.8125,140.75,-8.1875
1589227892261,2020-05-11T20:13:02.428514,10.237,264.4375,138.875,-7.8125
1589227892361,2020-05-11T20:13:02.593437,10.337,264.0625,141.125,-8.1875
1589227892461,2020-05-11T20:13:02.698483,10.437,264.0625,136.3125,-7.8125
1589227892559,2020-05-11T20:13:02.878490,10.535,264.8125,139.625,-7.4375
1589227892658,2020-05-11T20:13:02.968514,10.634,264.0625,140.375,-8.1875
1589227892758,2020-05-11T20:13:03.133836,10.734,264.4375,139.625,-8.1875
1589227892858,2020-05-11T20:13:03.238499,10.834,264.8125,137.0625,-7.4375
1589227892957,2020-05-11T20:13:03.403482,10.933,264.8125,138.1875,-7.0
1589227893057,2020-05-11T20:13:03.508489,11.033,264.4375,139.625,-8.1875
1589227893156,2020-05-11T20:13:03.643503,11.132,264.8125,138.875,-7.8125
1589227893255,2020-05-11T20:13:03.733473,11.231,264.8125,133.75,-8.1875
1589227893354,2020-05-11T20:13:03.883462,11.33,264.0625,141.5,-7.0
1589227893454,2020-05-11T20:13:04.003516,11.43,264.8125,140.0,-7.0
1589227893553,2020-05-11T20:13:04.183507,11.529,264.8125,140.375,-7.0
1589227893653,2020-05-11T20:13:04.363502,11.629,264.0625,135.5625,-7.4375
1589227893753,2020-05-11T20:13:04.558521,11.729,264.4375,138.875,-8.1875
1589227893852,2020-05-11T20:13:04.723516,11.828,264.8125,139.625,-7.0
1589227893952,2020-05-11T20:13:04.843464,11.928,264.4375,139.625,-7.4375
1589227894051,2020-05-11T20:13:04.993483,12.027,264.4375,131.875,-7.4375
1589227894150,2020-05-11T20:13:05.188507,12.126,263.6875,137.4375,-7.8125
1589227894249,2020-05-11T20:13:05.308475,12.225,264.4375,138.5625,-7.8125
1589227894349,2020-05-11T20:13:05.429745,12.325,263.75,136.3125,-7.8125
1589227894448,2020-05-11T20:13:05.578808,12.424,263.6875,137.8125,-7.4375
1589227894548,2020-05-11T20:13:05.788549,12.524,264.4375,139.25,-7.8125
1589227894648,2020-05-11T20:13:05.893578,12.624,264.4375,140.375,-7.8125
1589227894747,2020-05-11T20:13:06.088583,12.723,264.0625,138.875,-7.8125
1589227894845,2020-05-11T20:13:06.208570,12.821,264.8125,135.9375,-6.625
1589227894945,2020-05-11T20:13:06.373572,12.921,264.8125,138.9375,-7.0
1589227895045,2020-05-11T20:13:06.463609,13.021,264.0625,140.375,-7.8125
1589227895144,2020-05-11T20:13:06.703596,13.12,263.6875,139.25,-7.8125
1589227895244,2020-05-11T20:13:06.823737,13.22,264.4375,139.625,-8.1875
1589227895343,2020-05-11T20:13:06.973831,13.319,264.8125,137.0625,-7.0
1589227895443,2020-05-11T20:13:07.078579,13.419,264.4375,138.9375,-7.0
1589227895543,2020-05-11T20:13:07.243583,13.519,264.0625,138.5625,-8.1875
1589227895641,2020-05-11T20:13:07.348718,13.617,264.5,137.0625,-7.0
1589227895740,2020-05-11T20:13:07.498595,13.716,264.4375,138.1875,-7.8125
1589227895840,2020-05-11T20:13:07.603585,13.816,265.1875,140.75,-7.8125
1589227895940,2020-05-11T20:13:07.784262,13.916,264.0625,139.625,-7.0
1589227896039,2020-05-11T20:13:07.933448,14.015,264.8125,140.375,-7.4375
1589227896139,2020-05-11T20:13:08.113552,14.115,265.1875,140.0,-8.1875
1589227896238,2020-05-11T20:13:08.234023,14.214,264.4375,138.875,-7.8125
1589227896338,2020-05-11T20:13:08.413545,14.314,264.8125,136.3125,-7.4375
1589227896436,2020-05-11T20:13:08.593619,14.412,265.1875,138.875,-7.4375
1589227896536,2020-05-11T20:13:08.728588,14.512,263.6875,139.25,-7.4375
1589227896635,2020-05-11T20:13:08.848595,14.611,264.4375,140.0,-8.1875
1589227896735,2020-05-11T20:13:09.013553,14.711,264.8125,138.9375,-7.0
1589227896835,2020-05-11T20:13:09.118552,14.811,264.4375,138.1875,-8.1875
1589227896934,2020-05-11T20:13:09.268544,14.91,264.0625,136.3125,-8.1875
1589227897034,2020-05-11T20:13:09.388560,15.01,265.1875,139.625,-7.4375
1589227897132,2020-05-11T20:13:09.613558,15.108,265.1875,136.6875,-7.8125
1589227897232,2020-05-11T20:13:09.838575,15.208,264.4375,140.0,-7.4375
1589227897331,2020-05-11T20:13:09.958549,15.307,265.1875,138.875,-8.5625
1589227897431,2020-05-11T20:13:10.123554,15.407,264.0625,140.0,-7.8125
1589227897530,2020-05-11T20:13:10.288565,15.506,264.0625,134.5,-7.8125
1589227897630,2020-05-11T20:13:10.453569,15.606,263.75,138.5625,-7.4375
1589227897730,2020-05-11T20:13:10.588554,15.706,264.4375,140.375,-8.1875
1589227897829,2020-05-11T20:13:10.738647,15.805,263.75,140.0,-7.8125
1589227897927,2020-05-11T20:13:10.858759,15.903,264.0625,134.875,-7.4375
1589227898027,2020-05-11T20:13:11.008584,16.003,264.4375,140.375,-7.4375
1589227898127,2020-05-11T20:13:11.143674,16.103,264.4375,139.625,-7.8125
1589227898226,2020-05-11T20:13:11.278578,16.202,264.4375,139.625,-7.4375
1589227898326,2020-05-11T20:13:11.413573,16.302,264.4375,133.375,-7.8125
1589227898425,2020-05-11T20:13:11.563585,16.401,264.4375,140.0,-7.4375
1589227898525,2020-05-11T20:13:11.668646,16.501,264.125,137.8125,-7.8125
1589227898625,2020-05-11T20:13:11.878567,16.601,264.0625,140.0,-8.1875
1589227898723,2020-05-11T20:13:11.998579,16.699,264.0625,134.875,-7.0
1589227898822,2020-05-11T20:13:12.133559,16.798,263.75,140.0,-7.0
1589227898922,2020-05-11T20:13:12.238576,16.898,264.4375,137.8125,-7.0
1589227899022,2020-05-11T20:13:12.434350,16.998,264.4375,139.625,-7.4375
1589227899121,2020-05-11T20:13:12.583595,17.097,264.8125,133.0,-7.0
1589227899221,2020-05-11T20:13:12.733598,17.197,264.5,139.25,-7.4375
1589227899321,2020-05-11T20:13:12.853637,17.297,264.0625,138.5625,-8.5625
1589227899419,2020-05-11T20:13:12.973627,17.395,263.75,136.6875,-7.4375
1589227899518,2020-05-11T20:13:13.093627,17.494,264.8125,135.9375,-7.8125
1589227899618,2020-05-11T20:13:13.243607,17.594,263.75,139.25,-7.8125
1589227899717,2020-05-11T20:13:13.393585,17.693,264.125,138.1875,-7.8125
1589227899817,2020-05-11T20:13:13.513579,17.793,265.1875,138.9375,-7.8125
1589227899917,2020-05-11T20:13:13.618582,17.893,264.4375,135.5625,-7.4375
1589227900016,2020-05-11T20:13:13.738595,17.992,264.8125,141.875,-7.0
1589227900116,2020-05-11T20:13:13.828598,18.092,263.375,139.625,-7.4375
1589227900214,2020-05-11T20:13:13.948587,18.19,264.4375,137.8125,-7.8125
1589227900314,2020-05-11T20:13:14.038640,18.29,264.4375,137.8125,-7.8125
1589227900413,2020-05-11T20:13:14.158580,18.389,264.125,137.8125,-7.4375
1589227900513,2020-05-11T20:13:14.248589,18.489,264.4375,141.125,-8.1875
1589227900612,2020-05-11T20:13:14.383600,18.588,264.5,139.25,-7.8125
1589227900712,2020-05-11T20:13:14.473589,18.688,264.125,137.8125,-6.625
1589227900812,2020-05-11T20:13:14.593587,18.788,264.5,136.3125,-6.625
1589227900910,2020-05-11T20:13:14.683647,18.886,264.4375,140.375,-8.5625
1589227901009,2020-05-11T20:13:14.803600,18.985,264.4375,138.875,-8.1875
1589227901109,2020-05-11T20:13:14.908598,19.085,265.1875,139.625,-7.8125
1589227901209,2020-05-11T20:13:15.028590,19.185,264.125,138.5625,-7.8125
1589227901308,2020-05-11T20:13:15.118868,19.284,264.0625,141.125,-7.8125
1589227901408,2020-05-11T20:13:15.253613,19.384,263.6875,139.625,-7.8125
1589227901508,2020-05-11T20:13:15.343612,19.484,264.8125,141.125,-7.8125
1589227901606,2020-05-11T20:13:15.463598,19.582,264.8125,140.75,-7.4375
1589227901705,2020-05-11T20:13:15.568599,19.681,264.4375,139.625,-7.8125
1589227901805,2020-05-11T20:13:15.688590,19.781,264.125,138.1875,-9.75
1589227901904,2020-05-11T20:13:15.778601,19.88,264.8125,138.1875,-7.8125
1589227902004,2020-05-11T20:13:15.898612,19.98,264.125,139.3125,-8.1875
1589227902104,2020-05-11T20:13:15.988592,20.08,264.4375,137.8125,-7.8125
1589227902203,2020-05-11T20:13:16.108604,20.179,264.4375,138.9375,-8.1875
1589227902301,2020-05-11T20:13:16.258597,20.277,264.0625,140.0,-7.0
1589227902401,2020-05-11T20:13:16.393686,20.377,264.8125,138.9375,-8.1875
1589227902501,2020-05-11T20:13:16.483640,20.477,263.75,139.25,-7.4375
1589227902600,2020-05-11T20:13:16.603648,20.576,264.8125,135.625,-7.4375
1589227902700,2020-05-11T20:13:16.708681,20.676,264.8125,139.25,-7.4375
1589227902800,2020-05-11T20:13:16.828607,20.776,264.125,137.4375,-7.0
1589227902899,2020-05-11T20:13:16.918600,20.875,264.8125,138.1875,-7.4375
1589227902999,2020-05-11T20:13:17.038607,20.975,264.125,131.5625,-8.1875
1589227903097,2020-05-11T20:13:17.128600,21.073,265.5625,141.125,-7.0
1589227903196,2020-05-11T20:13:17.263622,21.172,264.4375,140.75,-8.1875
1589227903296,2020-05-11T20:13:17.353615,21.272,264.4375,136.6875,-7.8125
1589227903396,2020-05-11T20:13:17.473609,21.372,263.0,134.125,-7.8125
1589227903495,2020-05-11T20:13:17.563621,21.471,264.125,140.0,-7.8125
1589227903595,2020-05-11T20:13:17.683633,21.571,264.5,138.5625,-8.1875
1589227903695,2020-05-11T20:13:17.788607,21.671,265.5625,138.9375,-7.8125
1589227903793,2020-05-11T20:13:17.923634,21.769,264.4375,133.375,-7.8125
1589227903892,2020-05-11T20:13:18.013613,21.868,264.125,136.3125,-7.8125
1589227903992,2020-05-11T20:13:18.133636,21.968,264.4375,140.0,-7.4375
1589227904091,2020-05-11T20:13:18.223608,22.067,264.4375,139.25,-8.1875
1589227904191,2020-05-11T20:13:18.358616,22.167,264.4375,134.5,-7.4375
1589227904291,2020-05-11T20:13:18.448645,22.267,264.8125,138.9375,-7.4375
1589227904390,2020-05-11T20:13:18.583627,22.366,264.4375,140.0,-9.0
1589227904490,2020-05-11T20:13:18.673691,22.466,264.8125,139.25,-8.1875
1589227904588,2020-05-11T20:13:18.793703,22.564,264.8125,135.25,-8.5625
1589227904688,2020-05-11T20:13:18.883624,22.664,264.5,140.375,-7.8125
1589227904787,2020-05-11T20:13:19.003635,22.763,264.125,139.25,-7.0
1589227904887,2020-05-11T20:13:19.093647,22.863,264.5,138.9375,-7.4375
1589227904987,2020-05-11T20:13:19.213680,22.963,265.1875,135.25,-7.8125
1589227905086,2020-05-11T20:13:19.318619,23.062,263.75,139.625,-7.8125
1589227905186,2020-05-11T20:13:19.439494,23.162,264.5,139.625,-8.1875
1589227905284,2020-05-11T20:13:19.543628,23.26,264.125,140.0,-7.8125
1589227905383,2020-05-11T20:13:19.678623,23.359,264.8125,140.375,-9.0
1589227905483,2020-05-11T20:13:19.768621,23.459,264.125,138.5625,-7.0
1589227905583,2020-05-11T20:13:19.888641,23.559,263.75,138.1875,-8.1875
1589227905682,2020-05-11T20:13:19.978623,23.658,264.125,139.625,-7.8125
1589227905782,2020-05-11T20:13:20.098632,23.758,264.4375,138.9375,-8.1875
1589227905882,2020-05-11T20:13:20.263634,23.858,265.1875,138.9375,-8.1875
1589227905981,2020-05-11T20:13:20.353630,23.957,264.4375,140.375,-7.4375
1589227906079,2020-05-11T20:13:20.488636,24.055,264.4375,139.625,-7.4375
1589227906179,2020-05-11T20:13:20.578638,24.155,264.125,137.8125,-7.8125
1589227906279,2020-05-11T20:13:20.698645,24.255,264.8125,139.625,-7.8125
1589227906378,2020-05-11T20:13:20.788640,24.354,264.125,137.0625,-7.8125
1589227906478,2020-05-11T20:13:20.923643,24.454,264.125,139.625,-6.625
1589227906577,2020-05-11T20:13:21.013638,24.553,264.5,140.0,-8.1875
1589227906677,2020-05-11T20:13:21.133639,24.653,264.125,138.1875,-7.8125
1589227906777,2020-05-11T20:13:21.223657,24.753,264.8125,140.375,-7.8125
1589227906875,2020-05-11T20:13:21.343639,24.851,264.125,137.4375,-8.5625
1589227906974,2020-05-11T20:13:21.434607,24.95,264.8125,137.8125,-7.8125
1589227907074,2020-05-11T20:13:21.553689,25.05,264.0625,138.1875,-7.8125
1589227907174,2020-05-11T20:13:21.643641,25.15,264.4375,138.1875,-8.1875
1589227907273,2020-05-11T20:13:21.763641,25.249,264.8125,135.25,-7.4375
1589227907373,2020-05-11T20:13:21.853645,25.349,264.8125,138.9375,-7.4375
1589227907472,2020-05-11T20:13:21.988640,25.448,264.8125,138.9375,-8.1875
1589227907571,2020-05-11T20:13:22.093646,25.547,264.4375,138.1875,-8.1875
1589227907670,2020-05-11T20:13:22.213639,25.646,264.8125,133.75,-7.4375
1589227907770,2020-05-11T20:13:22.318652,25.746,263.75,135.25,-7.8125
1589227907869,2020-05-11T20:13:22.438673,25.845,264.4375,138.5625,-7.4375
1589227907969,2020-05-11T20:13:22.528652,25.945,264.125,140.375,-7.4375
1589227908069,2020-05-11T20:13:22.663651,26.045,263.75,134.5,-8.1875
1589227908168,2020-05-11T20:13:22.753651,26.144,263.75,139.625,-7.4375
1589227908268,2020-05-11T20:13:22.873647,26.244,264.0625,140.0,-7.8125
1589227908366,2020-05-11T20:13:22.963655,26.342,264.8125,139.25,-8.1875
1589227908466,2020-05-11T20:13:23.083649,26.442,264.0625,133.0,-7.8125
1589227908565,2020-05-11T20:13:23.173647,26.541,264.8125,140.375,-7.4375
1589227908665,2020-05-11T20:13:23.308648,26.641,264.4375,140.0,-8.1875
1589227908764,2020-05-11T20:13:23.398664,26.74,264.4375,138.9375,-7.8125
1589227908864,2020-05-11T20:13:23.518660,26.84,264.8125,135.9375,-7.4375
1589227908964,2020-05-11T20:13:23.608653,26.94,264.8125,139.25,-7.4375
1589227909063,2020-05-11T20:13:23.728658,27.039,263.75,140.375,-8.1875
1589227909161,2020-05-11T20:13:23.848681,27.137,264.4375,139.25,-8.5625
1589227909261,2020-05-11T20:13:23.968663,27.237,264.125,135.9375,-7.4375
1589227909361,2020-05-11T20:13:24.058662,27.337,264.8125,140.75,-6.25
1589227909460,2020-05-11T20:13:24.223707,27.436,264.8125,139.625,-8.1875
1589227909560,2020-05-11T20:13:24.313710,27.536,264.5,140.375,-7.8125
1589227909659,2020-05-11T20:13:24.448728,27.635,264.8125,139.625,-8.1875
1589227909759,2020-05-11T20:13:24.538748,27.735,263.75,138.1875,-6.625
1589227909859,2020-05-11T20:13:24.658668,27.835,264.4375,138.9375,-7.0
1589227909957,2020-05-11T20:13:24.763709,27.933,264.0625,138.875,-7.8125
1589227910056,2020-05-11T20:13:24.883667,28.032,265.1875,140.75,-7.4375
1589227910156,2020-05-11T20:13:24.988710,28.132,263.75,138.1875,-8.5625
1589227910256,2020-05-11T20:13:25.108671,28.232,264.4375,138.9375,-8.1875
1589227910355,2020-05-11T20:13:25.198674,28.331,264.8125,139.25,-7.8125
1589227910455,2020-05-11T20:13:25.318681,28.431,263.75,139.25,-7.0
1589227910554,2020-05-11T20:13:25.408673,28.53,264.5,138.5625,-7.8125
1589227910654,2020-05-11T20:13:25.528681,28.63,263.75,139.25,-8.1875
1589227910752,2020-05-11T20:13:25.633683,28.728,264.5,138.1875,-7.8125
1589227910852,2020-05-11T20:13:25.753682,28.828,264.8125,137.8125,-7.8125
1589227910951,2020-05-11T20:13:25.843694,28.927,264.5,139.3125,-8.1875
1589227911051,2020-05-11T20:13:25.963678,29.027,263.75,139.25,-7.8125
1589227911151,2020-05-11T20:13:26.053688,29.127,264.8125,141.5,-8.1875
1589227911250,2020-05-11T20:13:26.188676,29.226,264.8125,136.6875,-7.4375
1589227911350,2020-05-11T20:13:26.278684,29.326,264.125,138.1875,-7.8125
1589227911449,2020-05-11T20:13:26.413680,29.425,264.8125,136.6875,-7.8125
1589227911548,2020-05-11T20:13:26.503695,29.524,264.125,137.8125,-7.4375
1589227911647,2020-05-11T20:13:26.623683,29.623,264.8125,138.9375,-7.0
1589227911747,2020-05-11T20:13:26.713687,29.723,264.5,139.625,-7.4375
1589227911846,2020-05-11T20:13:26.833690,29.822,264.8125,140.0,-7.8125
1589227911946,2020-05-11T20:13:26.923685,29.922,264.5,134.875,-7.4375
1589227912046,2020-05-11T20:13:27.043678,30.022,265.1875,139.25,-7.8125
1589227912145,2020-05-11T20:13:27.133683,30.121,264.125,138.5625,-7.8125
1589227912245,2020-05-11T20:13:27.253696,30.221,264.125,138.9375,-7.4375
1589227912343,2020-05-11T20:13:27.358686,30.319,264.8125,134.875,-8.1875
1589227912443,2020-05-11T20:13:27.478694,30.419,264.8125,138.5625,-8.1875
1589227912542,2020-05-11T20:13:27.568703,30.518,263.75,140.375,-7.8125
1589227912642,2020-05-11T20:13:27.703741,30.618,264.125,140.375,-7.0
1589227912741,2020-05-11T20:13:27.793719,30.717,263.75,133.75,-7.4375
1589227912841,2020-05-11T20:13:27.928710,30.817,264.8125,140.375,-7.8125
1589227912941,2020-05-11T20:13:28.018699,30.917,264.4375,139.25,-7.4375
1589227913040,2020-05-11T20:13:28.183694,31.016,264.125,139.625,-9.0
1589227913138,2020-05-11T20:13:28.273695,31.114,264.125,134.875,-7.4375
1589227913238,2020-05-11T20:13:28.393717,31.214,264.5,139.625,-8.5625
1589227913338,2020-05-11T20:13:28.483700,31.314,264.125,139.625,-7.0
1589227913437,2020-05-11T20:13:28.618708,31.413,264.0625,138.9375,-8.1875
1589227913537,2020-05-11T20:13:28.708703,31.513,264.8125,134.5,-7.0
1589227913636,2020-05-11T20:13:28.828707,31.612,264.8125,140.375,-7.4375
1589227913736,2020-05-11T20:13:28.933708,31.712,264.125,138.1875,-8.5625
1589227913836,2020-05-11T20:13:29.053704,31.812,264.4375,138.5625,-7.4375
1589227913934,2020-05-11T20:13:29.158710,31.91,264.8125,135.9375,-8.1875
1589227914033,2020-05-11T20:13:29.278717,32.009,264.5,139.625,-7.4375
1589227914133,2020-05-11T20:13:29.398713,32.109,264.8125,138.9375,-8.1875
1589227914233,2020-05-11T20:13:29.488709,32.209,263.75,137.0625,-7.4375
1589227914332,2020-05-11T20:13:29.608716,32.308,264.125,137.8125,-7.4375
1589227914432,2020-05-11T20:13:29.713751,32.408,264.8125,140.375,-8.5625
1589227914531,2020-05-11T20:13:29.833710,32.507,263.75,140.75,-7.8125
1589227914631,2020-05-11T20:13:29.923729,32.607,264.8125,139.625,-8.5625
1589227914729,2020-05-11T20:13:30.043734,32.705,264.8125,139.25,-8.1875
1589227914829,2020-05-11T20:13:30.133713,32.805,264.5,138.5625,-7.8125
1589227914928,2020-05-11T20:13:30.268770,32.904,263.375,140.0,-8.1875
1589227915028,2020-05-11T20:13:30.358712,33.004,264.125,138.9375,-7.8125
1589227915128,2020-05-11T20:13:30.478731,33.104,263.75,139.625,-7.4375
1589227915227,2020-05-11T20:13:30.568720,33.203,264.5,138.9375,-8.1875
1589227915327,2020-05-11T20:13:30.718724,33.303,263.75,139.625,-8.1875
1589227915426,2020-05-11T20:13:30.808727,33.402,264.4375,137.0625,-7.8125
1589227915525,2020-05-11T20:13:30.943725,33.501,264.4375,139.625,-7.8125
1589227915624,2020-05-11T20:13:31.033720,33.6,264.5,136.6875,-7.4375
1589227915724,2020-05-11T20:13:31.153732,33.7,264.8125,139.25,-6.625
1589227915823,2020-05-11T20:13:31.243731,33.799,263.75,138.5625,-7.0
1589227915923,2020-05-11T20:13:31.363736,33.899,264.5,140.0,-7.4375
1589227916023,2020-05-11T20:13:31.453728,33.999,263.75,138.9375,-7.0
1589227916122,2020-05-11T20:13:31.588723,34.098,264.4375,139.625,-7.8125
1589227916222,2020-05-11T20:13:31.678718,34.198,264.8125,138.5625,-7.4375
1589227916320,2020-05-11T20:13:31.798730,34.296,264.125,139.625,-7.4375
1589227916420,2020-05-11T20:13:31.888755,34.396,264.5,140.0,-7.8125
1589227916519,2020-05-11T20:13:32.008757,34.495,264.5,140.75,-8.1875
1589227916619,2020-05-11T20:13:32.143774,34.595,264.5,135.25,-8.1875
1589227916718,2020-05-11T20:13:32.263813,34.694,264.125,140.0,-7.0
1589227916818,2020-05-11T20:13:32.353736,34.794,264.0625,141.125,-8.1875
1589227916918,2020-05-11T20:13:32.473726,34.894,264.125,139.625,-8.5625
1589227917017,2020-05-11T20:13:32.563773,34.993,264.4375,133.375,-8.1875
1589227917115,2020-05-11T20:13:32.698737,35.091,264.4375,140.75,-7.0
1589227917215,2020-05-11T20:13:32.803741,35.191,264.4375,141.125,-8.1875
1589227917315,2020-05-11T20:13:32.923765,35.291,264.125,141.5,-7.4375
1589227917414,2020-05-11T20:13:33.013750,35.39,264.4375,137.0625,-7.8125
1589227917514,2020-05-11T20:13:33.133763,35.49,264.4375,140.0,-7.0
1589227917613,2020-05-11T20:13:33.253758,35.589,264.125,140.0,-7.0
1589227917713,2020-05-11T20:13:33.373739,35.689,264.4375,139.25,-7.4375
1589227917811,2020-05-11T20:13:33.463747,35.787,265.1875,128.9375,-7.0
1589227917911,2020-05-11T20:13:33.583742,35.887,264.8125,138.9375,-6.625
1589227918010,2020-05-11T20:13:33.673738,35.986,263.75,137.8125,-7.0
1589227918110,2020-05-11T20:13:33.793755,36.086,263.375,138.9375,-7.4375
1589227918210,2020-05-11T20:13:33.898741,36.186,263.375,134.875,-7.0
1589227918309,2020-05-11T20:13:34.018741,36.285,264.5,138.1875,-6.625
1589227918409,2020-05-11T20:13:34.108758,36.385,264.125,140.75,-7.8125
1589227918508,2020-05-11T20:13:34.228743,36.484,263.75,138.9375,-7.4375
1589227918607,2020-05-11T20:13:34.318739,36.583,264.125,133.75,-7.0
1589227918706,2020-05-11T20:13:34.438779,36.682,264.125,139.25,-7.8125
1589227918806,2020-05-11T20:13:34.543757,36.782,263.375,141.125,-7.0
1589227918905,2020-05-11T20:13:34.663745,36.881,264.125,140.75,-8.1875
1589227919005,2020-05-11T20:13:34.753750,36.981,263.0,138.9375,-6.625
1589227919105,2020-05-11T20:13:34.888742,37.081,263.75,138.5625,-7.4375
1589227919204,2020-05-11T20:13:35.008758,37.18,263.375,138.9375,-8.5625
1589227919304,2020-05-11T20:13:35.128755,37.28,263.75,140.75,-9.0
1589227919402,2020-05-11T20:13:35.218847,37.378,263.75,137.4375,-7.4375
1589227919502,2020-05-11T20:13:35.353751,37.478,263.0,137.0625,-8.1875
1589227919601,2020-05-11T20:13:35.443780,37.577,263.375,139.25,-7.8125
1589227919701,2020-05-11T20:13:35.563785,37.677,263.75,137.8125,-7.8125
1589227919800,2020-05-11T20:13:35.668764,37.776,264.125,140.75,-7.4375
1589227919900,2020-05-11T20:13:35.788755,37.876,263.375,137.4375,-7.0
1589227920000,2020-05-11T20:13:35.878765,37.976,263.375,138.9375,-7.4375
1589227920098,2020-05-11T20:13:35.998806,38.074,264.125,138.9375,-7.4375
1589227920197,2020-05-11T20:13:36.133759,38.173,264.125,140.375,-7.0
1589227920297,2020-05-11T20:13:36.268763,38.273,263.375,136.6875,-7.4375
1589227920397,2020-05-11T20:13:36.358807,38.373,263.375,140.0,-7.8125
1589227920496,2020-05-11T20:13:36.478756,38.472,263.75,138.5625,-7.4375
1589227920596,2020-05-11T20:13:36.568755,38.572,264.125,139.3125,-7.0
1589227920696,2020-05-11T20:13:36.688799,38.672,263.375,138.9375,-7.8125
1589227920795,2020-05-11T20:13:36.778769,38.771,263.0,139.625,-7.4375
1589227920893,2020-05-11T20:13:36.913784,38.869,263.375,138.5625,-8.1875
1589227920993,2020-05-11T20:13:37.003782,38.969,263.375,139.625,-8.5625
1589227921092,2020-05-11T20:13:37.123779,39.068,263.75,138.5625,-7.4375
1589227921192,2020-05-11T20:13:37.213772,39.168,263.75,140.375,-7.0
1589227921292,2020-05-11T20:13:37.348783,39.268,263.75,137.4375,-7.8125
1589227921391,2020-05-11T20:13:37.439026,39.367,263.75,140.375,-8.1875
1589227921491,2020-05-11T20:13:37.573775,39.467,263.375,138.9375,-8.1875
1589227921591,2020-05-11T20:13:37.663781,39.567,262.625,139.625,-7.8125
1589227921689,2020-05-11T20:13:37.783768,39.665,264.4375,132.25,-8.1875
1589227921788,2020-05-11T20:13:37.873772,39.764,263.375,139.3125,-7.4375
1589227921888,2020-05-11T20:13:38.008784,39.864,263.0,138.9375,-7.8125
1589227921987,2020-05-11T20:13:38.098772,39.963,263.75,137.0625,-7.4375
1589227922087,2020-05-11T20:13:38.218780,40.063,263.75,132.625,-7.4375
1589227922187,2020-05-11T20:13:38.308774,40.163,264.125,140.0,-8.1875
1589227922286,2020-05-11T20:13:38.428920,40.262,263.75,139.625,-8.1875
1589227922386,2020-05-11T20:13:38.518794,40.362,262.625,138.5625,-7.4375
1589227922484,2020-05-11T20:13:38.653792,40.46,264.8125,134.5,-7.4375
1589227922584,2020-05-11T20:13:38.773776,40.56,263.375,140.0,-7.0
1589227922683,2020-05-11T20:13:38.863777,40.659,263.375,140.75,-7.8125
1589227922783,2020-05-11T20:13:38.983821,40.759,264.125,138.5625,-6.625
1589227922883,2020-05-11T20:13:39.073786,40.859,264.125,135.25,-7.4375
1589227922982,2020-05-11T20:13:39.208819,40.958,263.75,139.25,-8.1875
1589227923082,2020-05-11T20:13:39.328789,41.058,263.75,138.9375,-8.1875
1589227923180,2020-05-11T20:13:39.448866,41.156,263.75,138.5625,-8.1875
1589227923279,2020-05-11T20:13:39.538792,41.255,262.625,137.8125,-7.8125
1589227923379,2020-05-11T20:13:39.658887,41.355,263.375,140.375,-7.4375
1589227923479,2020-05-11T20:13:39.748865,41.455,264.125,140.375,-7.8125
1589227923578,2020-05-11T20:13:39.868886,41.554,263.375,138.5625,-8.1875
1589227923678,2020-05-11T20:13:39.958892,41.654,264.125,137.4375,-7.8125
1589227923778,2020-05-11T20:13:40.108855,41.754,263.75,138.5625,-7.4375
1589227923877,2020-05-11T20:13:40.213847,41.853,263.75,136.6875,-7.4375
1589227923977,2020-05-11T20:13:40.348842,41.953,263.75,139.3125,-9.0
1589227924075,2020-05-11T20:13:40.439020,42.051,264.5,138.1875,-8.5625
1589227924175,2020-05-11T20:13:40.558804,42.151,263.75,138.9375,-8.1875
1589227924274,2020-05-11T20:13:40.648845,42.25,263.375,139.25,-7.8125
1589227924374,2020-05-11T20:13:40.768956,42.35,263.0,138.1875,-8.1875
1589227924473,2020-05-11T20:13:40.858817,42.449,263.375,140.375,-8.1875
1589227924573,2020-05-11T20:13:40.993828,42.549,263.75,139.3125,-8.1875
1589227924673,2020-05-11T20:13:41.083850,42.649,263.375,140.75,-8.1875
1589227924772,2020-05-11T20:13:41.203854,42.748,263.75,134.125,-8.1875
1589227924870,2020-05-11T20:13:41.293879,42.846,263.0,140.375,-8.1875
1589227924970,2020-05-11T20:13:41.413874,42.946,263.375,139.625,-8.1875
1589227925070,2020-05-11T20:13:41.503920,43.046,263.75,139.25,-7.8125
1589227925169,2020-05-11T20:13:41.638870,43.145,263.0,136.3125,-8.1875
1589227925269,2020-05-11T20:13:41.728900,43.245,263.75,141.125,-8.1875
1589227925368,2020-05-11T20:13:41.863885,43.344,263.75,138.5625,-7.8125
1589227925468,2020-05-11T20:13:41.953869,43.444,263.375,138.1875,-8.1875
1589227925568,2020-05-11T20:13:42.073859,43.544,264.125,133.375,-7.4375
1589227925667,2020-05-11T20:13:42.163883,43.643,263.375,140.75,-8.1875
1589227925765,2020-05-11T20:13:42.283876,43.741,263.0,137.8125,-8.1875
1589227925865,2020-05-11T20:13:42.373868,43.841,264.125,138.1875,-7.8125
1589227925965,2020-05-11T20:13:42.493925,43.941,263.75,134.875,-7.0
1589227926064,2020-05-11T20:13:42.613892,44.04,263.75,139.625,-7.0
1589227926164,2020-05-11T20:13:42.748874,44.14,263.75,139.625,-7.4375
1589227926263,2020-05-11T20:13:42.838991,44.239,263.75,139.625,-8.1875
1589227926363,2020-05-11T20:13:42.973882,44.339,263.75,134.125,-8.1875
1589227926463,2020-05-11T20:13:43.063842,44.439,263.375,139.625,-7.8125
1589227926561,2020-05-11T20:13:43.183896,44.537,263.0,138.5625,-7.8125
1589227926660,2020-05-11T20:13:43.303854,44.636,264.125,139.625,-8.1875
1589227926760,2020-05-11T20:13:43.424060,44.736,263.75,138.9375,-7.4375
1589227926860,2020-05-11T20:13:43.513909,44.836,263.75,138.9375,-7.8125
1589227926959,2020-05-11T20:13:43.648885,44.935,263.375,138.5625,-8.5625
1589227927059,2020-05-11T20:13:43.738883,45.035,263.75,140.0,-8.1875
1589227927158,2020-05-11T20:13:43.858867,45.134,263.375,140.75,-7.8125
1589227927258,2020-05-11T20:13:43.963872,45.234,263.75,140.375,-8.1875
1589227927356,2020-05-11T20:13:44.113914,45.332,262.625,140.0,-8.5625
1589227927456,2020-05-11T20:13:44.203914,45.432,263.75,138.9375,-7.8125
1589227927555,2020-05-11T20:13:44.323883,45.531,263.375,135.625,-8.5625
1589227927655,2020-05-11T20:13:44.413885,45.631,263.75,136.6875,-7.0
1589227927755,2020-05-11T20:13:44.563893,45.731,263.375,138.9375,-7.0
1589227927854,2020-05-11T20:13:44.653890,45.83,263.375,138.1875,-7.8125
1589227927954,2020-05-11T20:13:44.773883,45.93,263.375,138.9375,-7.8125
1589227928053,2020-05-11T20:13:44.878885,46.029,264.125,138.1875,-7.0
1589227928152,2020-05-11T20:13:45.013895,46.128,263.0,138.9375,-7.8125
1589227928251,2020-05-11T20:13:45.103897,46.227,263.0,132.625,-6.625
1589227928351,2020-05-11T20:13:45.223880,46.327,264.125,138.5625,-7.4375
1589227928450,2020-05-11T20:13:45.313909,46.426,263.75,139.3125,-7.8125
1589227928550,2020-05-11T20:13:45.434450,46.526,263.0,138.5625,-8.5625
1589227928650,2020-05-11T20:13:45.523892,46.626,264.125,132.625,-8.1875
1589227928749,2020-05-11T20:13:45.658901,46.725,263.75,138.5625,-7.0
1589227928849,2020-05-11T20:13:45.748899,46.825,263.75,139.25,-8.1875
1589227928947,2020-05-11T20:13:45.868879,46.923,263.375,138.5625,-8.5625
1589227929047,2020-05-11T20:13:45.958882,47.023,263.75,133.75,-7.0
1589227929146,2020-05-11T20:13:46.078888,47.122,263.75,139.25,-7.4375
1589227929246,2020-05-11T20:13:46.183893,47.222,264.8125,140.0,-6.625
1589227929345,2020-05-11T20:13:46.318914,47.321,263.375,137.4375,-7.0
1589227929445,2020-05-11T20:13:46.408902,47.421,264.5,139.25,-6.25
1589227929545,2020-05-11T20:13:46.529009,47.521,263.375,139.625,-6.625
1589227929644,2020-05-11T20:13:46.618846,47.62,263.75,140.375,-7.4375
1589227929744,2020-05-11T20:13:46.738917,47.72,263.75,140.75,-7.8125
1589227929842,2020-05-11T20:13:46.828893,47.818,264.125,140.75,-7.8125
1589227929942,2020-05-11T20:13:46.963902,47.918,264.5,139.3125,-7.4375
1589227930041,2020-05-11T20:13:47.068901,48.017,264.125,140.0,-9.375
1589227930141,2020-05-11T20:13:47.188907,48.117,264.125,140.75,-9.0
1589227930240,2020-05-11T20:13:47.308904,48.216,262.25,144.0625,-12.125
1589227930340,2020-05-11T20:13:47.398929,48.316,262.25,145.1875,-15.625
1589227930440,2020-05-11T20:13:47.518932,48.416,263.0,145.1875,-14.875
1589227930539,2020-05-11T20:13:47.608964,48.515,263.0,141.875,-12.125
1589227930637,2020-05-11T20:13:47.743967,48.613,263.375,142.9375,-10.1875
1589227930737,2020-05-11T20:13:47.833913,48.713,263.75,143.6875,-9.375
1589227930837,2020-05-11T20:13:47.983924,48.813,263.375,142.625,-9.75
1589227930936,2020-05-11T20:13:48.073825,48.912,263.75,138.1875,-10.125
1589227931036,2020-05-11T20:13:48.223911,49.012,263.75,144.0625,-10.1875
1589227931135,2020-05-11T20:13:48.313923,49.111,264.125,141.5,-9.375
1589227931235,2020-05-11T20:13:48.448941,49.211,263.75,142.25,-10.125
1589227931335,2020-05-11T20:13:48.538919,49.311,263.0,138.1875,-10.125
1589227931433,2020-05-11T20:13:48.673931,49.409,262.625,145.5625,-14.4375
1589227931532,2020-05-11T20:13:48.793954,49.508,262.625,144.4375,-16.4375
1589227931632,2020-05-11T20:13:48.913919,49.608,263.375,144.0625,-12.875
1589227931732,2020-05-11T20:13:49.003928,49.708,263.0,134.5,-10.5625
1589227931831,2020-05-11T20:13:49.123913,49.807,263.375,142.625,-7.8125
1589227931931,2020-05-11T20:13:49.228991,49.907,264.125,141.125,-8.1875
1589227932030,2020-05-11T20:13:49.348969,50.006,264.125,142.625,-10.125
1589227932129,2020-05-11T20:13:49.453946,50.105,263.75,137.0625,-9.75
1589227932228,2020-05-11T20:13:49.588925,50.204,264.125,141.5,-9.375
1589227932328,2020-05-11T20:13:49.678924,50.304,263.375,141.875,-10.5625
1589227932427,2020-05-11T20:13:49.843922,50.403,264.875,140.75,-9.0
1589227932527,2020-05-11T20:13:49.963948,50.503,263.75,134.875,-7.4375
1589227932627,2020-05-11T20:13:50.098940,50.603,263.75,143.3125,-10.1875
1589227932726,2020-05-11T20:13:50.188929,50.702,263.375,144.8125,-13.3125
1589227932824,2020-05-11T20:13:50.308941,50.8,262.625,143.3125,-10.9375
1589227932924,2020-05-11T20:13:50.413933,50.9,263.75,140.375,-8.5625
1589227933024,2020-05-11T20:13:50.533936,51.0,263.375,139.3125,-7.4375
1589227933123,2020-05-11T20:13:50.653992,51.099,263.375,140.375,-7.4375
1589227933223,2020-05-11T20:13:50.774027,51.199,263.75,138.5625,-7.4375
1589227933322,2020-05-11T20:13:50.863932,51.298,264.125,139.3125,-7.0
1589227933422,2020-05-11T20:13:50.998946,51.398,264.125,140.0,-7.4375
1589227933522,2020-05-11T20:13:51.088927,51.498,264.125,141.875,-7.0
1589227933620,2020-05-11T20:13:51.208940,51.596,264.125,140.375,-6.625
1589227933719,2020-05-11T20:13:51.298938,51.695,265.1875,142.25,-9.75
1589227933819,2020-05-11T20:13:51.418932,51.795,262.625,143.6875,-12.125
1589227933919,2020-05-11T20:13:51.508943,51.895,263.375,143.0,-10.5625
1589227934018,2020-05-11T20:13:51.643972,51.994,263.375,140.0,-7.8125
1589227934118,2020-05-11T20:13:51.733943,52.094,264.5,141.875,-7.4375
1589227934217,2020-05-11T20:13:51.853998,52.193,263.375,136.6875,-8.5625
1589227934317,2020-05-11T20:13:51.943959,52.293,263.375,140.0,-9.375
1589227934415,2020-05-11T20:13:52.063961,52.391,263.0,140.375,-10.9375
1589227934515,2020-05-11T20:13:52.153938,52.491,263.375,141.875,-9.375
1589227934614,2020-05-11T20:13:52.318963,52.59,264.125,141.5,-9.75
1589227934714,2020-05-11T20:13:52.408951,52.69,263.375,141.125,-8.5625
1589227934814,2020-05-11T20:13:52.528956,52.79,263.375,136.3125,-9.0
1589227934913,2020-05-11T20:13:52.618955,52.889,263.0,141.125,-9.0
1589227935013,2020-05-11T20:13:52.738966,52.989,263.75,141.5,-9.0
1589227935111,2020-05-11T20:13:52.828948,53.087,263.375,140.0,-6.25
1589227935211,2020-05-11T20:13:52.948952,53.187,263.75,136.0,1.5625
1589227935310,2020-05-11T20:13:53.038940,53.286,265.1875,136.6875,9.375
1589227935410,2020-05-11T20:13:53.173970,53.386,264.8125,135.25,7.8125
1589227935509,2020-05-11T20:13:53.263946,53.485,264.8125,138.9375,-0.375
1589227935609,2020-05-11T20:13:53.398963,53.585,263.75,134.5,-5.4375
1589227935709,2020-05-11T20:13:53.488957,53.685,263.0,140.375,-7.4375
1589227935808,2020-05-11T20:13:53.623950,53.784,263.375,140.0,-9.75
1589227935906,2020-05-11T20:13:53.713959,53.882,263.75,141.125,-10.1875
1589227936006,2020-05-11T20:13:53.833948,53.982,263.0,134.125,-11.75
1589227936106,2020-05-11T20:13:53.938948,54.082,263.75,140.75,-10.9375
1589227936205,2020-05-11T20:13:54.058960,54.181,262.625,141.125,-11.3125
1589227936305,2020-05-11T20:13:54.148956,54.281,263.0,141.125,-10.5625
1589227936404,2020-05-11T20:13:54.269005,54.38,263.0,137.4375,-11.3125
1589227936504,2020-05-11T20:13:54.358983,54.48,262.625,141.875,-10.9375
1589227936602,2020-05-11T20:13:54.478905,54.578,263.0,140.75,-10.9375
1589227936702,2020-05-11T20:13:54.583965,54.678,262.625,141.125,-12.5
1589227936801,2020-05-11T20:13:54.703980,54.777,263.375,136.6875,-10.9375
1589227936901,2020-05-11T20:13:54.794006,54.877,263.75,141.5,-4.25
1589227937001,2020-05-11T20:13:54.928964,54.977,263.75,140.0,1.5625
1589227937100,2020-05-11T20:13:55.018967,55.076,265.1875,139.625,5.0625
1589227937200,2020-05-11T20:13:55.138975,55.176,264.5,136.3125,3.125
1589227937300,2020-05-11T20:13:55.229095,55.276,262.625,140.375,-2.6875
1589227937398,2020-05-11T20:13:55.348959,55.374,263.0,140.75,-8.5625
1589227937497,2020-05-11T20:13:55.439186,55.473,263.75,140.0,-10.1875
1589227937597,2020-05-11T20:13:55.559004,55.573,262.625,139.6875,-10.9375
1589227937696,2020-05-11T20:13:55.663978,55.672,263.0,141.5,-10.1875
1589227937796,2020-05-11T20:13:55.784003,55.772,263.75,142.25,-11.3125
1589227937896,2020-05-11T20:13:55.873981,55.872,263.75,140.375,-10.5625
1589227937995,2020-05-11T20:13:55.994031,55.971,264.125,141.875,-10.9375
1589227938093,2020-05-11T20:13:56.083998,56.069,263.75,139.3125,-10.9375
1589227938193,2020-05-11T20:13:56.248979,56.169,264.125,140.0,-9.75
1589227938293,2020-05-11T20:13:56.353999,56.269,264.875,140.75,-10.5625
1589227938392,2020-05-11T20:13:56.474010,56.368,263.375,140.0,-9.75
1589227938492,2020-05-11T20:13:56.564007,56.468,263.0,142.25,-9.75
1589227938591,2020-05-11T20:13:56.683992,56.567,264.125,141.125,-9.75
1589227938691,2020-05-11T20:13:56.804022,56.667,263.375,137.0625,-9.375
1589227938791,2020-05-11T20:13:56.909003,56.767,263.375,140.0,-9.375
1589227938889,2020-05-11T20:13:57.028995,56.865,263.375,141.5,-10.1875
1589227938988,2020-05-11T20:13:57.118985,56.964,263.375,141.125,-10.9375
1589227939088,2020-05-11T20:13:57.239058,57.064,263.75,141.875,-11.3125
1589227939188,2020-05-11T20:13:57.329047,57.164,264.5,141.875,-9.75
1589227939287,2020-05-11T20:13:57.464123,57.263,264.125,141.125,-10.9375
1589227939387,2020-05-11T20:13:57.554040,57.363,264.125,140.75,-9.75
1589227939487,2020-05-11T20:13:57.673998,57.463,264.125,139.3125,-9.75
1589227939585,2020-05-11T20:13:57.763994,57.561,263.75,140.375,-9.75
1589227939684,2020-05-11T20:13:57.883988,57.66,264.125,141.5,-10.5625
1589227939784,2020-05-11T20:13:57.974002,57.76,264.125,140.75,-10.1875
1589227939883,2020-05-11T20:13:58.094025,57.859,264.125,136.6875,-10.5625
1589227939983,2020-05-11T20:13:58.184033,57.959,263.75,138.5625,-9.375
1589227940083,2020-05-11T20:13:58.304015,58.059,263.75,140.375,-9.75
1589227940182,2020-05-11T20:13:58.394019,58.158,263.75,140.375,-9.75
1589227940282,2020-05-11T20:13:58.514021,58.258,264.125,135.25,-9.75
1589227940380,2020-05-11T20:13:58.604022,58.356,265.25,139.6875,-9.375
1589227940480,2020-05-11T20:13:58.739012,58.456,263.75,141.125,-10.1875
1589227940579,2020-05-11T20:13:58.829011,58.555,264.125,140.75,-9.375
1589227940679,2020-05-11T20:13:58.949003,58.655,263.75,136.0,-10.1875
1589227940779,2020-05-11T20:13:59.039012,58.755,263.75,141.5,-9.0
1589227940878,2020-05-11T20:13:59.174008,58.854,263.375,141.125,-9.375
1589227940978,2020-05-11T20:13:59.279011,58.954,263.75,140.75,-10.1875
1589227941077,2020-05-11T20:13:59.399029,59.053,263.375,133.75,-9.75
1589227941175,2020-05-11T20:13:59.489010,59.151,263.375,140.375,-9.75
1589227941275,2020-05-11T20:13:59.609035,59.251,263.375,140.75,-10.1875
1589227941375,2020-05-11T20:13:59.714027,59.351,263.75,141.125,-10.1875
1589227941474,2020-05-11T20:13:59.834017,59.45,263.375,138.1875,-10.1875
1589227941574,2020-05-11T20:13:59.939013,59.55,264.5,141.125,-9.375
1589227941674,2020-05-11T20:14:00.059007,59.65,263.0,141.5,-10.9375
1589227941773,2020-05-11T20:14:00.194026,59.749,263.75,138.9375,-10.5625
1589227941871,2020-05-11T20:14:00.329030,59.847,264.5,135.25,-9.0
1589227941971,2020-05-11T20:14:00.419021,59.947,263.375,141.125,-9.0
1589227942071,2020-05-11T20:14:00.554047,60.047,263.75,140.75,-10.1875
1589227942170,2020-05-11T20:14:00.644023,60.146,264.125,140.75,-9.375
1589227942270,2020-05-11T20:14:00.764044,60.246,263.375,141.125,-10.1875
1589227942369,2020-05-11T20:14:00.854024,60.345,263.75,138.9375,-10.1875
1589227942469,2020-05-11T20:14:00.989026,60.445,263.375,141.125,-10.1875
1589227942569,2020-05-11T20:14:01.078985,60.545,264.125,133.75,-10.1875
1589227942667,2020-05-11T20:14:01.199045,60.643,264.125,136.6875,-9.375
1589227942766,2020-05-11T20:14:01.319039,60.742,264.125,140.75,-10.1875
1589227942866,2020-05-11T20:14:01.439200,60.842,263.75,140.75,-10.1875
1589227942966,2020-05-11T20:14:01.529043,60.942,263.75,140.0,-9.75
1589227943065,2020-05-11T20:14:01.664041,61.041,264.125,142.625,-9.375
1589227943165,2020-05-11T20:14:01.769035,61.141,264.875,140.4375,-9.375
1589227943264,2020-05-11T20:14:01.904100,61.24,264.125,140.375,-10.1875
1589227943362,2020-05-11T20:14:01.994055,61.338,264.125,141.125,-9.375
1589227943462,2020-05-11T20:14:02.114034,61.438,263.0,140.0,-9.75
1589227943562,2020-05-11T20:14:02.219043,61.538,263.75,139.6875,-10.5625
1589227943661,2020-05-11T20:14:02.339035,61.637,264.125,140.0,-10.5625
1589227943761,2020-05-11T20:14:02.429226,61.737,264.125,142.25,-9.375
1589227943861,2020-05-11T20:14:02.549044,61.837,263.0,140.375,-9.75
1589227943960,2020-05-11T20:14:02.639041,61.936,263.0,140.0,-9.375
1589227944060,2020-05-11T20:14:02.759037,62.036,263.75,138.1875,-9.375
1589227944158,2020-05-11T20:14:02.849054,62.134,264.125,141.5,-9.75
1589227944258,2020-05-11T20:14:02.969078,62.234,264.125,138.9375,-10.1875
1589227944357,2020-05-11T20:14:03.059110,62.333,264.875,140.375,-10.1875
1589227944457,2020-05-11T20:14:03.179086,62.433,263.75,140.75,-10.1875
1589227944556,2020-05-11T20:14:03.269100,62.532,264.125,140.75,-10.5625
1589227944656,2020-05-11T20:14:03.404057,62.632,264.5,140.75,-10.1875
1589227944756,2020-05-11T20:14:03.509052,62.732,264.5,139.3125,-10.1875
1589227944854,2020-05-11T20:14:03.629052,62.83,263.75,140.75,-10.5625
1589227944953,2020-05-11T20:14:03.719055,62.929,263.375,138.9375,-9.375
1589227945053,2020-05-11T20:14:03.839081,63.029,263.75,139.6875,-9.375
1589227945153,2020-05-11T20:14:03.929038,63.129,264.5,140.0,-10.1875
1589227945252,2020-05-11T20:14:04.079050,63.228,264.125,139.6875,-10.5625
1589227945352,2020-05-11T20:14:04.199050,63.328,264.5,138.1875,-9.375
1589227945451,2020-05-11T20:14:04.349044,63.427,264.125,139.3125,-9.75
1589227945550,2020-05-11T20:14:04.439277,63.526,263.75,140.375,-9.75
1589227945649,2020-05-11T20:14:04.574065,63.625,264.125,136.375,-9.75
1589227945749,2020-05-11T20:14:04.664082,63.725,263.0,135.25,-9.75
1589227945848,2020-05-11T20:14:04.784069,63.824,263.75,141.125,-9.375
1589227945948,2020-05-11T20:14:04.874061,63.924,264.125,139.6875,-9.375
1589227946048,2020-05-11T20:14:04.994101,64.024,264.5,140.375,-9.75
1589227946147,2020-05-11T20:14:05.084058,64.123,263.75,136.0,-9.0
1589227946245,2020-05-11T20:14:05.219181,64.221,263.375,141.125,-10.1875
1589227946345,2020-05-11T20:14:05.309047,64.321,264.5,140.375,-9.75
1589227946445,2020-05-11T20:14:05.429435,64.421,264.125,141.875,-9.75
1589227946544,2020-05-11T20:14:05.519052,64.52,264.125,137.4375,-10.5625
1589227946644,2020-05-11T20:14:05.639062,64.62,264.125,141.875,-9.375
1589227946743,2020-05-11T20:14:05.744072,64.719,263.75,141.5,-10.1875
1589227946843,2020-05-11T20:14:05.864052,64.819,264.5,142.25,-10.1875
1589227946943,2020-05-11T20:14:05.954057,64.919,263.75,134.125,-10.1875
1589227947041,2020-05-11T20:14:06.089060,65.017,263.75,141.125,-10.1875
1589227947140,2020-05-11T20:14:06.209085,65.116,263.75,140.75,-9.375
1589227947240,2020-05-11T20:14:06.314061,65.216,263.75,140.0,-10.1875
1589227947340,2020-05-11T20:14:06.434661,65.316,264.125,137.4375,-9.75
1589227947439,2020-05-11T20:14:06.524018,65.415,264.125,140.375,-9.75
1589227947539,2020-05-11T20:14:06.644093,65.515,264.5,141.125,-10.5625
1589227947638,2020-05-11T20:14:06.734106,65.614,263.75,140.75,-9.75
1589227947737,2020-05-11T20:14:06.854062,65.713,264.875,133.75,-9.75
1589227947836,2020-05-11T20:14:06.959076,65.812,264.5,141.5,-10.5625
1589227947936,2020-05-11T20:14:07.094108,65.912,264.5,142.25,-10.1875
1589227948035,2020-05-11T20:14:07.184079,66.011,263.75,140.375,-10.9375
1589227948135,2020-05-11T20:14:07.304080,66.111,263.75,140.375,-10.1875
1589227948235,2020-05-11T20:14:07.409097,66.211,264.125,140.375,-9.75
1589227948334,2020-05-11T20:14:07.544041,66.31,263.75,141.5,-10.5625
1589227948432,2020-05-11T20:14:07.634079,66.408,264.5,139.6875,-10.1875
1589227948532,2020-05-11T20:14:07.754107,66.508,263.75,136.375,-9.75
1589227948632,2020-05-11T20:14:07.859061,66.608,263.75,138.9375,-9.375
1589227948731,2020-05-11T20:14:07.979074,66.707,265.25,140.75,-9.75
1589227948831,2020-05-11T20:14:08.069088,66.807,264.125,137.0625,-9.75
1589227948930,2020-05-11T20:14:08.219188,66.906,263.75,138.1875,-9.375
1589227949030,2020-05-11T20:14:08.324093,67.006,263.75,141.125,-9.75
1589227949130,2020-05-11T20:14:08.444102,67.106,264.125,140.0625,-10.1875
1589227949228,2020-05-11T20:14:08.534041,67.204,264.125,140.0625,-9.75
1589227949327,2020-05-11T20:14:08.684134,67.303,263.75,140.75,-9.375
1589227949427,2020-05-11T20:14:08.774137,67.403,264.125,139.3125,-10.1875
1589227949527,2020-05-11T20:14:08.894121,67.503,264.875,138.9375,-9.75
1589227949626,2020-05-11T20:14:08.984090,67.602,263.375,140.75,-10.9375
1589227949726,2020-05-11T20:14:09.104089,67.702,264.5,140.0,-9.75
1589227949825,2020-05-11T20:14:09.194127,67.801,264.125,140.75,-10.1875
1589227949924,2020-05-11T20:14:09.329082,67.9,263.0,141.875,-9.375
1589227950023,2020-05-11T20:14:09.419093,67.999,263.75,141.125,-9.375
1589227950123,2020-05-11T20:14:09.539094,68.099,263.375,140.75,-10.5625
1589227950222,2020-05-11T20:14:09.629097,68.198,263.375,139.3125,-10.9375
1589227950322,2020-05-11T20:14:09.749099,68.298,263.375,141.125,-10.1875
1589227950422,2020-05-11T20:14:09.839095,68.398,263.75,140.375,-9.375
1589227950521,2020-05-11T20:14:09.974097,68.497,264.125,142.25,-10.1875
1589227950621,2020-05-11T20:14:10.064099,68.597,264.875,140.0625,-9.75
1589227950719,2020-05-11T20:14:10.199125,68.695,263.75,141.875,-9.75
1589227950819,2020-05-11T20:14:10.289370,68.795,264.125,136.0,-10.9375
1589227950918,2020-05-11T20:14:10.424256,68.894,264.875,140.75,-9.375
1589227951018,2020-05-11T20:14:10.529112,68.994,264.875,140.375,-10.1875
1589227951117,2020-05-11T20:14:10.649114,69.093,263.75,139.6875,-10.5625
1589227951217,2020-05-11T20:14:10.739151,69.193,264.125,134.875,-9.375
1589227951317,2020-05-11T20:14:10.859167,69.293,264.125,141.5,-10.5625
1589227951416,2020-05-11T20:14:10.949184,69.392,264.125,140.375,-9.75
1589227951514,2020-05-11T20:14:11.084185,69.49,264.875,139.6875,-10.1875
1589227951614,2020-05-11T20:14:11.174104,69.59,264.125,136.75,-9.75
1589227951714,2020-05-11T20:14:11.294134,69.69,263.75,141.125,-10.1875
1589227951813,2020-05-11T20:14:11.384106,69.789,264.125,139.6875,-10.1875
1589227951913,2020-05-11T20:14:11.504075,69.889,264.125,141.875,-9.75
1589227952012,2020-05-11T20:14:11.594162,69.988,265.25,134.875,-9.75
1589227952112,2020-05-11T20:14:11.729119,70.088,264.5,141.125,-10.1875
1589227952210,2020-05-11T20:14:11.834154,70.186,264.125,140.75,-10.5625
1589227952310,2020-05-11T20:14:11.954110,70.286,263.75,141.875,-11.3125
1589227952409,2020-05-11T20:14:12.059106,70.385,263.0,136.375,-10.1875
1589227952509,2020-05-11T20:14:12.209104,70.485,263.75,138.5625,-10.1875
1589227952609,2020-05-11T20:14:12.314125,70.585,263.75,137.0625,-10.1875
1589227952708,2020-05-11T20:14:12.449133,70.684,263.75,139.3125,-10.5625
1589227952808,2020-05-11T20:14:12.554099,70.784,264.125,137.4375,-9.375
1589227952907,2020-05-11T20:14:12.674106,70.883,263.75,139.6875,-10.5625
1589227953006,2020-05-11T20:14:12.764114,70.982,264.125,141.5,-10.1875
1589227953105,2020-05-11T20:14:12.899161,71.081,263.75,141.125,-10.1875
1589227953205,2020-05-11T20:14:13.019123,71.181,264.5,141.875,-10.1875
1589227953304,2020-05-11T20:14:13.139132,71.28,264.5,140.4375,-9.75
1589227953404,2020-05-11T20:14:13.244118,71.38,263.375,141.5,-10.9375
1589227953504,2020-05-11T20:14:13.364120,71.48,263.375,141.875,-10.1875
1589227953603,2020-05-11T20:14:13.454114,71.579,264.125,140.75,-9.375
1589227953701,2020-05-11T20:14:13.574144,71.677,264.125,142.25,-9.75
1589227953801,2020-05-11T20:14:13.664131,71.777,264.875,142.25,-10.1875
1589227953901,2020-05-11T20:14:13.784202,71.877,264.125,140.75,-10.5625
1589227954000,2020-05-11T20:14:13.874143,71.976,263.75,141.125,-9.75
1589227954100,2020-05-11T20:14:14.009128,72.076,264.125,139.3125,-9.75
1589227954199,2020-05-11T20:14:14.099138,72.175,264.125,140.75,-10.5625
1589227954299,2020-05-11T20:14:14.219122,72.275,264.5,142.25,-10.1875
1589227954399,2020-05-11T20:14:14.309145,72.375,264.125,139.3125,-9.375
1589227954497,2020-05-11T20:14:14.429583,72.473,263.75,140.0625,-10.1875
1589227954596,2020-05-11T20:14:14.519099,72.572,263.375,141.125,-10.5625
1589227954696,2020-05-11T20:14:14.654130,72.672,264.5,140.0625,-10.5625
1589227954796,2020-05-11T20:14:14.774134,72.772,263.375,141.5,-10.1875
1589227954895,2020-05-11T20:14:14.894218,72.871,263.75,140.75,-10.1875
1589227954995,2020-05-11T20:14:14.984180,72.971,264.875,141.5,-9.75
1589227955094,2020-05-11T20:14:15.104137,73.07,264.125,136.375,-10.1875
1589227955193,2020-05-11T20:14:15.194184,73.169,263.75,141.5,-9.375
1589227955292,2020-05-11T20:14:15.329265,73.268,262.6875,141.875,-10.5625
1589227955392,2020-05-11T20:14:15.419090,73.368,264.125,140.375,-10.1875
1589227955491,2020-05-11T20:14:15.539090,73.467,263.375,136.0,-9.375
1589227955591,2020-05-11T20:14:15.659110,73.567,264.5,140.75,-10.1875
1589227955691,2020-05-11T20:14:15.749189,73.667,263.75,141.875,-10.1875
1589227955790,2020-05-11T20:14:15.869146,73.766,264.5,140.75,-9.75
1589227955888,2020-05-11T20:14:15.959172,73.864,264.125,136.6875,-10.1875
1589227955988,2020-05-11T20:14:16.079139,73.964,264.125,140.0,-10.1875
1589227956088,2020-05-11T20:14:16.229201,74.064,264.125,140.0,-9.75
1589227956187,2020-05-11T20:14:16.364198,74.163,264.5,140.75,-10.1875
1589227956287,2020-05-11T20:14:16.454194,74.263,264.125,133.75,-9.75
1589227956386,2020-05-11T20:14:16.574122,74.362,263.75,140.375,-10.9375
1589227956486,2020-05-11T20:14:16.664154,74.462,264.125,138.5625,-10.5625
1589227956586,2020-05-11T20:14:16.784160,74.562,264.125,140.375,-10.1875
1589227956684,2020-05-11T20:14:16.874168,74.66,263.75,139.3125,-10.5625
1589227956783,2020-05-11T20:14:17.009186,74.759,264.5,140.75,-10.5625
1589227956883,2020-05-11T20:14:17.099182,74.859,264.5,140.4375,-10.5625
1589227956983,2020-05-11T20:14:17.219151,74.959,264.5,140.75,-10.9375
1589227957082,2020-05-11T20:14:17.324156,75.058,264.5,137.0625,-9.375
1589227957182,2020-05-11T20:14:17.444369,75.158,264.875,140.75,-9.75
1589227957281,2020-05-11T20:14:17.534119,75.257,264.5,140.375,-10.5625
1589227957381,2020-05-11T20:14:17.669157,75.357,264.875,141.5,-10.1875
1589227957479,2020-05-11T20:14:17.774153,75.455,263.375,141.5,-10.1875
1589227957579,2020-05-11T20:14:17.894237,75.555,264.125,140.0625,-10.5625
1589227957678,2020-05-11T20:14:17.984166,75.654,263.75,141.125,-10.1875
1589227957778,2020-05-11T20:14:18.104163,75.754,264.125,141.875,-10.5625
1589227957878,2020-05-11T20:14:18.209191,75.854,264.5,142.25,-9.75
1589227957977,2020-05-11T20:14:18.329157,75.953,264.125,141.125,-10.1875
1589227958077,2020-05-11T20:14:18.419176,76.053,263.75,141.875,-9.75
1589227958175,2020-05-11T20:14:18.539136,76.151,263.75,140.0625,-10.1875
1589227958275,2020-05-11T20:14:18.629209,76.251,264.5,140.0625,-10.1875
1589227958374,2020-05-11T20:14:18.764231,76.35,264.125,140.4375,-10.1875
1589227958474,2020-05-11T20:14:18.869155,76.45,264.125,141.125,-10.1875
1589227958573,2020-05-11T20:14:18.989167,76.549,264.5,140.375,-10.1875
1589227958673,2020-05-11T20:14:19.094207,76.649,264.125,141.125,-9.75
1589227958773,2020-05-11T20:14:19.214242,76.749,264.5,139.3125,-10.1875
1589227958871,2020-05-11T20:14:19.319182,76.847,264.125,139.6875,-10.9375
1589227958970,2020-05-11T20:14:19.439373,76.946,264.125,137.4375,-9.375
1589227959070,2020-05-11T20:14:19.529117,77.046,264.125,141.125,-10.1875
1589227959170,2020-05-11T20:14:19.649188,77.146,263.375,140.375,-10.5625
1589227959269,2020-05-11T20:14:19.739184,77.245,264.5,140.375,-10.1875
1589227959369,2020-05-11T20:14:19.859171,77.345,264.125,137.4375,-10.1875
1589227959468,2020-05-11T20:14:19.964169,77.444,263.75,141.125,-9.75
1589227959568,2020-05-11T20:14:20.084185,77.544,264.5,141.5,-10.9375
1589227959666,2020-05-11T20:14:20.219195,77.642,263.75,141.125,-9.0
1589227959766,2020-05-11T20:14:20.339217,77.742,263.75,136.75,-9.375
1589227959865,2020-05-11T20:14:20.429433,77.841,264.5,141.5,-10.1875
1589227959965,2020-05-11T20:14:20.564189,77.941,263.4375,142.625,-10.5625
1589227960065,2020-05-11T20:14:20.655177,78.041,264.875,141.125,-10.5625
1589227960164,2020-05-11T20:14:20.774134,78.14,263.4375,138.9375,-10.5625
1589227960264,2020-05-11T20:14:20.864195,78.24,263.75,141.5,-9.75
1589227960363,2020-05-11T20:14:20.984195,78.339,264.5,139.6875,-10.9375
1589227960462,2020-05-11T20:14:21.074191,78.438,264.125,141.125,-10.1875
1589227960561,2020-05-11T20:14:21.194237,78.537,264.125,135.625,-10.1875
1589227960661,2020-05-11T20:14:21.284205,78.637,264.125,141.125,-10.1875
1589227960760,2020-05-11T20:14:21.404221,78.736,263.375,139.3125,-9.75
1589227960860,2020-05-11T20:14:21.509157,78.836,263.75,142.625,-9.75
1589227960960,2020-05-11T20:14:21.644252,78.936,264.5,138.5625,-9.75
1589227961059,2020-05-11T20:14:21.749196,79.035,264.125,140.75,-10.9375
1589227961157,2020-05-11T20:14:21.869222,79.133,263.75,143.0,-10.5625
1589227961257,2020-05-11T20:14:21.959189,79.233,263.75,139.6875,-9.75
1589227961357,2020-05-11T20:14:22.079187,79.333,263.75,138.9375,-10.1875
1589227961456,2020-05-11T20:14:22.169192,79.432,264.5,140.75,-9.0
1589227961556,2020-05-11T20:14:22.304226,79.532,263.75,141.875,-10.1875
1589227961655,2020-05-11T20:14:22.394266,79.631,263.75,141.125,-10.1875
1589227961755,2020-05-11T20:14:22.514198,79.731,264.5,141.5,-10.5625
1589227961855,2020-05-11T20:14:22.604179,79.831,263.75,140.0625,-10.1875
1589227961954,2020-05-11T20:14:22.724206,79.93,264.125,140.375,-10.5625
1589227962052,2020-05-11T20:14:22.814216,80.028,263.75,142.625,-10.1875
1589227962152,2020-05-11T20:14:22.949312,80.128,264.125,141.875,-9.75
1589227962252,2020-05-11T20:14:23.039237,80.228,264.125,140.0625,-10.9375
1589227962351,2020-05-11T20:14:23.174214,80.327,263.75,141.125,-9.75
1589227962451,2020-05-11T20:14:23.264227,80.427,264.5,141.125,-10.9375
1589227962550,2020-05-11T20:14:23.399221,80.526,264.5,141.5,-10.5625
1589227962650,2020-05-11T20:14:23.489170,80.626,264.125,141.5,-10.5625
1589227962748,2020-05-11T20:14:23.624374,80.724,264.125,141.125,-9.75
1589227962848,2020-05-11T20:14:23.714241,80.824,263.75,137.4375,-10.1875
1589227962947,2020-05-11T20:14:23.834224,80.923,263.75,139.3125,-10.5625
1589227963047,2020-05-11T20:14:23.924252,81.023,264.5,141.125,-10.5625
1589227963147,2020-05-11T20:14:24.059224,81.123,264.125,141.125,-10.5625
1589227963246,2020-05-11T20:14:24.149222,81.222,263.375,136.375,-10.1875
1589227963346,2020-05-11T20:14:24.314176,81.322,264.125,140.75,-10.9375
1589227963446,2020-05-11T20:14:24.404245,81.422,264.125,138.5625,-9.75
1589227963544,2020-05-11T20:14:24.524176,81.52,263.75,142.25,-10.1875
1589227963643,2020-05-11T20:14:24.614266,81.619,264.125,137.8125,-9.375
1589227963743,2020-05-11T20:14:24.749225,81.719,263.75,141.5,-8.625
1589227963842,2020-05-11T20:14:24.884233,81.818,263.375,141.5,-10.1875
1589227963942,2020-05-11T20:14:24.974229,81.918,264.5,141.125,-10.1875
1589227964042,2020-05-11T20:14:25.124261,82.018,263.75,134.5,-9.75
1589227964141,2020-05-11T20:14:25.214232,82.117,264.5,141.125,-10.1875
1589227964239,2020-05-11T20:14:25.364253,82.215,264.125,141.125,-10.1875
1589227964339,2020-05-11T20:14:25.454226,82.315,264.5,140.0625,-10.1875
1589227964439,2020-05-11T20:14:25.574242,82.415,263.75,136.375,-10.1875
1589227964538,2020-05-11T20:14:25.664245,82.514,264.125,140.0625,-10.1875
1589227964638,2020-05-11T20:14:25.784256,82.614,264.125,142.25,-10.9375
1589227964737,2020-05-11T20:14:25.874264,82.713,264.5,141.125,-10.1875
1589227964837,2020-05-11T20:14:26.009261,82.813,264.5,136.0,-10.5625
1589227964937,2020-05-11T20:14:26.099247,82.913,264.5,140.75,-10.1875
1589227965035,2020-05-11T20:14:26.219279,83.011,264.5,141.875,-10.9375
1589227965134,2020-05-11T20:14:26.309270,83.11,264.5,137.4375,-11.3125
1589227965234,2020-05-11T20:14:26.429684,83.21,264.5,140.4375,-10.1875
1589227965334,2020-05-11T20:14:26.534279,83.31,264.125,140.0625,-9.75
1589227965433,2020-05-11T20:14:26.654249,83.409,263.75,140.375,-10.9375
1589227965533,2020-05-11T20:14:26.744251,83.509,263.75,140.0625,-10.1875
1589227965633,2020-05-11T20:14:26.864249,83.609,263.375,140.4375,-9.375
1589227965732,2020-05-11T20:14:26.954243,83.708,263.75,140.75,-10.1875
1589227965830,2020-05-11T20:14:27.089252,83.806,264.125,141.5,-10.1875
1589227965930,2020-05-11T20:14:27.179239,83.906,264.125,141.125,-9.75
1589227966029,2020-05-11T20:14:27.299287,84.005,263.75,141.5,-9.375
1589227966129,2020-05-11T20:14:27.389258,84.105,264.125,139.6875,-9.75
1589227966229,2020-05-11T20:14:27.509267,84.205,264.875,141.125,-10.1875
1589227966328,2020-05-11T20:14:27.614223,84.304,264.125,140.375,-10.9375
1589227966426,2020-05-11T20:14:27.749253,84.402,264.125,140.4375,-10.1875
1589227966526,2020-05-11T20:14:27.839267,84.502,263.4375,139.3125,-10.1875
1589227966626,2020-05-11T20:14:27.959261,84.602,264.125,141.5,-10.5625
1589227966725,2020-05-11T20:14:28.049270,84.701,264.5,140.4375,-9.375
1589227966825,2020-05-11T20:14:28.169377,84.801,264.125,140.75,-10.1875
1589227966925,2020-05-11T20:14:28.304266,84.901,264.125,141.125,-10.1875
1589227967024,2020-05-11T20:14:28.424447,85.0,264.125,140.75,-10.1875
1589227967124,2020-05-11T20:14:28.529205,85.1,264.5,137.8125,-9.375
1589227967222,2020-05-11T20:14:28.649284,85.198,264.5,141.5,-9.75
1589227967321,2020-05-11T20:14:28.739265,85.297,263.75,136.375,-9.75
1589227967421,2020-05-11T20:14:28.859270,85.397,264.125,140.75,-9.75
1589227967521,2020-05-11T20:14:28.949266,85.497,264.125,136.375,-9.75
1589227967620,2020-05-11T20:14:29.084275,85.596,264.5,141.125,-10.1875
1589227967720,2020-05-11T20:14:29.174264,85.696,263.0625,141.125,-9.75
1589227967820,2020-05-11T20:14:29.294283,85.796,264.125,142.25,-10.9375
1589227967918,2020-05-11T20:14:29.399300,85.894,263.75,137.8125,-9.375
1589227968017,2020-05-11T20:14:29.519228,85.993,264.125,140.75,-10.1875
1589227968117,2020-05-11T20:14:29.609281,86.093,263.4375,143.0,-10.5625
1589227968216,2020-05-11T20:14:29.729260,86.192,264.875,139.3125,-10.5625
1589227968316,2020-05-11T20:14:29.819266,86.292,264.125,135.625,-9.375
1589227968416,2020-05-11T20:14:29.939269,86.392,263.375,141.875,-10.1875
1589227968515,2020-05-11T20:14:30.044284,86.491,264.875,139.3125,-9.75
1589227968615,2020-05-11T20:14:30.164272,86.591,263.75,140.75,-10.1875
1589227968713,2020-05-11T20:14:30.269357,86.689,264.125,135.25,-10.1875
1589227968813,2020-05-11T20:14:30.389304,86.789,264.125,141.125,-9.375
1589227968912,2020-05-11T20:14:30.479279,86.888,263.75,141.125,-10.1875
1589227969012,2020-05-11T20:14:30.614228,86.988,264.5,138.1875,-9.375
1589227969112,2020-05-11T20:14:30.704298,87.088,263.375,137.4375,-9.75
1589227969211,2020-05-11T20:14:30.824286,87.187,264.125,138.1875,-10.1875
1589227969311,2020-05-11T20:14:30.914290,87.287,263.75,141.5,-9.75
1589227969410,2020-05-11T20:14:31.034333,87.386,263.75,140.0625,-10.1875
1589227969508,2020-05-11T20:14:31.124300,87.484,264.5,141.125,-10.1875
