epoch  (ms),time  (-07:00),elapsed  (s),X-Axis  (T),Y-Axis  (T),Z-Axis  (T)
1589227881974,2020-05-11T20:12:49.598437,0.0,-206.9375,74.25,100.125
1589227882074,2020-05-11T20:12:49.620721,0.1,-207.625,72.125,100.125
1589227882175,2020-05-11T20:12:49.643650,0.201,-208.0,67.8125,99.375
1589227882274,2020-05-11T20:12:49.657578,0.3,-207.625,74.25,99.8125
1589227882375,2020-05-11T20:12:49.672536,0.401,-207.3125,72.125,100.1875
1589227882477,2020-05-11T20:12:49.709372,0.503,-207.3125,72.5,100.1875
1589227882576,2020-05-11T20:12:49.725058,0.602,-207.25,72.8125,99.375
1589227882677,2020-05-11T20:12:49.746870,0.703,-207.625,69.25,100.1875
1589227882777,2020-05-11T20:12:49.761868,0.803,-208.0,72.125,99.75
1589227882878,2020-05-11T20:12:49.778218,0.904,-207.625,72.125,99.75
1589227882979,2020-05-11T20:12:49.793231,1.005,-207.625,73.5625,99.75
1589227883079,2020-05-11T20:12:49.815038,1.105,-207.625,72.8125,99.8125
1589227883180,2020-05-11T20:12:49.830083,1.206,-207.625,69.25,100.5625
1589227883279,2020-05-11T20:12:49.860734,1.305,-206.5625,70.6875,100.5625
1589227883380,2020-05-11T20:12:49.875717,1.406,-207.625,72.8125,100.5625
1589227883481,2020-05-11T20:12:49.897540,1.507,-207.625,72.8125,99.8125
1589227883581,2020-05-11T20:12:49.912540,1.607,-207.3125,74.625,99.8125
1589227883682,2020-05-11T20:12:49.934354,1.708,-207.25,66.375,100.1875
1589227883782,2020-05-11T20:12:49.949357,1.808,-207.625,73.5625,99.375
1589227883883,2020-05-11T20:12:49.965708,1.909,-208.375,71.375,99.375
1589227883982,2020-05-11T20:12:49.980724,2.008,-207.3125,72.8125,99.8125
1589227884084,2020-05-11T20:12:50.002542,2.11,-207.3125,71.0625,99.8125
1589227884185,2020-05-11T20:12:50.025041,2.211,-207.625,64.1875,100.9375
1589227884284,2020-05-11T20:12:50.046911,2.31,-207.625,73.9375,99.0
1589227884385,2020-05-11T20:12:50.062538,2.411,-207.625,72.5,99.8125
1589227884485,2020-05-11T20:12:50.085043,2.511,-207.625,72.125,99.8125
1589227884586,2020-05-11T20:12:50.100047,2.612,-208.0,72.125,99.8125
1589227884687,2020-05-11T20:12:50.121915,2.713,-207.625,67.0625,100.1875
1589227884787,2020-05-11T20:12:50.136916,2.813,-207.3125,72.5,100.1875
1589227884888,2020-05-11T20:12:50.153219,2.914,-207.25,72.125,99.375
1589227884987,2020-05-11T20:12:50.168220,3.013,-206.1875,72.8125,99.8125
1589227885088,2020-05-11T20:12:50.197569,3.114,-207.625,72.8125,99.375
1589227885189,2020-05-11T20:12:50.212545,3.215,-208.375,66.6875,100.1875
1589227885289,2020-05-11T20:12:50.234354,3.315,-208.0,71.0625,99.8125
1589227885390,2020-05-11T20:12:50.249357,3.416,-207.625,71.375,99.375
1589227885490,2020-05-11T20:12:50.265725,3.516,-207.3125,73.9375,99.8125
1589227885591,2020-05-11T20:12:50.288228,3.617,-206.9375,73.9375,100.1875
1589227885690,2020-05-11T20:12:50.325162,3.716,-207.3125,68.5,100.5625
1589227885792,2020-05-11T20:12:50.348514,3.818,-207.625,73.1875,99.4375
1589227885893,2020-05-11T20:12:50.377676,3.919,-207.25,72.5,100.1875
1589227885992,2020-05-11T20:12:50.400951,4.018,-207.25,73.1875,100.1875
1589227886093,2020-05-11T20:12:50.437681,4.119,-208.0,73.9375,99.375
1589227886194,2020-05-11T20:12:50.460174,4.22,-208.0,69.625,99.375
1589227886294,2020-05-11T20:12:50.489484,4.32,-207.625,71.75,100.1875
1589227886395,2020-05-11T20:12:50.504476,4.421,-207.625,71.75,100.1875
1589227886495,2020-05-11T20:12:50.519417,4.521,-208.0,74.25,99.8125
1589227886596,2020-05-11T20:12:50.535785,4.622,-207.3125,72.5,99.8125
1589227886697,2020-05-11T20:12:50.550796,4.723,-206.9375,70.3125,99.75
1589227886796,2020-05-11T20:12:50.572610,4.822,-206.9375,72.125,100.5625
1589227886897,2020-05-11T20:12:50.587609,4.923,-207.3125,70.6875,99.4375
1589227886997,2020-05-11T20:12:50.632680,5.023,-208.0,71.75,100.1875
1589227887098,2020-05-11T20:12:50.647668,5.124,-207.625,72.125,99.8125
1589227887198,2020-05-11T20:12:50.669461,5.224,-208.0,71.375,99.8125
1589227887299,2020-05-11T20:12:50.684472,5.325,-206.9375,73.1875,99.8125
1589227887400,2020-05-11T20:12:50.700884,5.426,-206.9375,72.5,99.375
1589227887500,2020-05-11T20:12:50.716323,5.526,-208.0,71.75,100.1875
1589227887601,2020-05-11T20:12:50.737608,5.627,-207.3125,73.9375,99.8125
1589227887700,2020-05-11T20:12:50.752619,5.726,-207.3125,73.1875,99.375
1589227887801,2020-05-11T20:12:50.775102,5.827,-207.625,73.9375,100.1875
1589227887902,2020-05-11T20:12:50.790122,5.928,-207.625,72.5,99.8125
1589227888002,2020-05-11T20:12:50.811918,6.028,-207.3125,71.375,100.1875
1589227888103,2020-05-11T20:12:50.826904,6.129,-206.9375,73.9375,99.75
1589227888203,2020-05-11T20:12:50.849415,6.229,-208.0,71.375,99.8125
1589227888304,2020-05-11T20:12:50.864417,6.33,-207.625,75.0,100.5625
1589227888405,2020-05-11T20:12:50.880795,6.431,-206.9375,71.375,99.375
1589227888504,2020-05-11T20:12:50.895844,6.53,-206.9375,68.875,100.1875
1589227888605,2020-05-11T20:12:50.917621,6.631,-206.5625,69.9375,100.1875
1589227888705,2020-05-11T20:12:50.940256,6.731,-208.0,71.375,99.375
1589227888806,2020-05-11T20:12:50.961985,6.832,-207.625,72.5,99.8125
1589227888906,2020-05-11T20:12:50.976961,6.932,-208.0,71.75,100.5625
1589227889007,2020-05-11T20:12:50.993652,7.033,-207.3125,68.125,99.375
1589227889108,2020-05-11T20:12:51.014469,7.134,-206.5625,73.1875,100.1875
1589227889208,2020-05-11T20:12:51.030753,7.234,-207.3125,72.125,99.8125
1589227889309,2020-05-11T20:12:51.045786,7.335,-207.3125,72.5,99.375
1589227889408,2020-05-11T20:12:51.082695,7.434,-208.0,71.75,100.1875
1589227889509,2020-05-11T20:12:51.097668,7.535,-207.25,65.625,100.9375
1589227889610,2020-05-11T20:12:51.119422,7.636,-207.625,73.5625,99.8125
1589227889710,2020-05-11T20:12:51.134450,7.736,-207.625,72.8125,99.375
1589227889811,2020-05-11T20:12:51.156991,7.837,-209.0625,74.625,99.8125
1589227889911,2020-05-11T20:12:51.171985,7.937,-207.6875,73.1875,99.4375
1589227890012,2020-05-11T20:12:51.188351,8.038,-207.625,66.0,99.8125
1589227890113,2020-05-11T20:12:51.203963,8.139,-207.625,71.75,99.8125
1589227890212,2020-05-11T20:12:51.225973,8.238,-207.625,72.5,99.375
1589227890313,2020-05-11T20:12:51.248295,8.339,-206.5625,72.5,99.8125
1589227890413,2020-05-11T20:12:51.276906,8.439,-207.3125,72.5,99.0
1589227890514,2020-05-11T20:12:51.291917,8.54,-206.9375,66.375,99.8125
1589227890615,2020-05-11T20:12:51.321922,8.641,-206.5625,72.125,99.4375
1589227890715,2020-05-11T20:12:51.336916,8.741,-206.9375,71.75,100.5625
1589227890816,2020-05-11T20:12:51.353614,8.842,-207.3125,73.1875,100.1875
1589227890916,2020-05-11T20:12:51.368271,8.942,-208.0,71.75,100.1875
1589227891017,2020-05-11T20:12:51.390148,9.043,-207.625,68.875,99.8125
1589227891118,2020-05-11T20:12:51.405771,9.144,-207.3125,69.625,99.8125
1589227891217,2020-05-11T20:12:51.429194,9.243,-207.625,71.0625,99.8125
1589227891318,2020-05-11T20:12:51.449408,9.344,-207.3125,73.1875,99.8125
1589227891418,2020-05-11T20:12:51.465770,9.444,-207.625,72.5,99.4375
1589227891519,2020-05-11T20:12:51.480772,9.545,-207.3125,73.1875,99.375
1589227891619,2020-05-11T20:12:51.502585,9.645,-208.0,72.125,99.8125
1589227891720,2020-05-11T20:12:51.517585,9.746,-208.0,72.125,99.8125
1589227891821,2020-05-11T20:12:51.539417,9.847,-206.9375,69.25,100.1875
1589227891920,2020-05-11T20:12:51.561918,9.946,-206.9375,71.75,99.8125
1589227892021,2020-05-11T20:12:51.578278,10.047,-207.625,72.5,100.1875
1589227892121,2020-05-11T20:12:51.593265,10.147,-208.0,73.5625,99.8125
1589227892222,2020-05-11T20:12:51.608269,10.248,-207.625,74.25,100.5625
1589227892322,2020-05-11T20:12:51.630139,10.348,-207.625,66.0,100.1875
1589227892423,2020-05-11T20:12:51.645974,10.449,-207.3125,72.5,99.0
1589227892524,2020-05-11T20:12:51.667632,10.55,-206.9375,70.6875,99.4375
1589227892624,2020-05-11T20:12:51.682626,10.65,-207.3125,73.1875,100.1875
1589227892725,2020-05-11T20:12:51.704481,10.751,-207.625,72.125,99.8125
1589227892824,2020-05-11T20:12:51.719462,10.85,-207.3125,67.4375,100.5625
1589227892925,2020-05-11T20:12:51.735787,10.951,-207.3125,71.375,99.4375
1589227893025,2020-05-11T20:12:51.756925,11.051,-206.9375,70.6875,99.8125
1589227893126,2020-05-11T20:12:51.773267,11.152,-207.3125,73.5625,98.625
1589227893227,2020-05-11T20:12:51.788525,11.253,-206.9375,72.5,99.375
1589227893327,2020-05-11T20:12:51.810089,11.353,-206.5625,67.0625,101.0
1589227893428,2020-05-11T20:12:51.825138,11.454,-208.0,73.5625,99.8125
1589227893527,2020-05-11T20:12:51.846966,11.553,-207.3125,72.8125,99.0
1589227893628,2020-05-11T20:12:51.861969,11.654,-207.3125,73.1875,100.1875
1589227893728,2020-05-11T20:12:51.878491,11.754,-207.3125,74.625,99.375
1589227893829,2020-05-11T20:12:51.899477,11.855,-208.0,71.0625,99.8125
1589227893930,2020-05-11T20:12:51.915809,11.956,-207.625,66.375,99.0625
1589227894030,2020-05-11T20:12:51.930764,12.056,-208.0,71.75,99.4375
1589227894131,2020-05-11T20:12:51.952587,12.157,-207.3125,72.8125,99.8125
1589227894230,2020-05-11T20:12:51.981931,12.256,-207.625,73.1875,100.1875
1589227894332,2020-05-11T20:12:51.998282,12.358,-208.0,71.75,100.1875
1589227894431,2020-05-11T20:12:52.020097,12.457,-207.625,73.5625,99.0625
1589227894532,2020-05-11T20:12:52.041975,12.558,-208.0,73.5625,99.4375
1589227894633,2020-05-11T20:12:52.057023,12.659,-207.3125,71.375,99.8125
1589227894733,2020-05-11T20:12:52.073384,12.759,-207.3125,71.0625,99.8125
1589227894834,2020-05-11T20:12:52.088325,12.86,-207.625,72.875,100.1875
1589227894934,2020-05-11T20:12:52.110139,12.96,-208.0,73.1875,99.4375
1589227895035,2020-05-11T20:12:52.125135,13.061,-207.3125,72.8125,100.1875
1589227895134,2020-05-11T20:12:52.147585,13.16,-207.625,67.4375,99.8125
1589227895235,2020-05-11T20:12:52.162625,13.261,-206.9375,73.5625,100.625
1589227895335,2020-05-11T20:12:52.184448,13.361,-207.3125,73.1875,99.8125
1589227895436,2020-05-11T20:12:52.199421,13.462,-207.3125,75.0,99.8125
1589227895537,2020-05-11T20:12:52.222604,13.563,-207.625,71.75,99.4375
1589227895637,2020-05-11T20:12:52.245179,13.663,-208.375,66.0,100.1875
1589227895738,2020-05-11T20:12:52.267639,13.764,-207.625,71.75,99.8125
1589227895837,2020-05-11T20:12:52.283750,13.863,-206.9375,71.375,99.375
1589227895938,2020-05-11T20:12:52.312637,13.964,-206.9375,73.5625,100.5625
1589227896038,2020-05-11T20:12:52.327603,14.064,-206.9375,73.5625,99.8125
1589227896139,2020-05-11T20:12:52.349424,14.165,-208.375,65.625,100.1875
1589227896240,2020-05-11T20:12:52.365120,14.266,-207.625,71.75,100.1875
1589227896340,2020-05-11T20:12:52.387603,14.366,-207.3125,71.75,99.375
1589227896441,2020-05-11T20:12:52.402609,14.467,-207.625,71.75,100.1875
1589227896541,2020-05-11T20:12:52.424450,14.567,-206.5625,72.5,100.1875
1589227896642,2020-05-11T20:12:52.439659,14.668,-206.5625,64.1875,99.8125
1589227896741,2020-05-11T20:12:52.463600,14.767,-208.0,71.75,99.8125
1589227896842,2020-05-11T20:12:52.478512,14.868,-206.9375,72.125,99.8125
1589227896942,2020-05-11T20:12:52.500150,14.968,-207.3125,74.3125,100.625
1589227897043,2020-05-11T20:12:52.515137,15.069,-207.3125,72.125,100.1875
1589227897144,2020-05-11T20:12:52.538554,15.17,-206.9375,70.6875,99.0
1589227897244,2020-05-11T20:12:52.553303,15.27,-206.9375,71.75,99.8125
1589227897345,2020-05-11T20:12:52.575789,15.371,-208.0,73.5625,99.375
1589227897444,2020-05-11T20:12:52.590780,15.47,-206.1875,71.75,100.1875
1589227897545,2020-05-11T20:12:52.612622,15.571,-207.3125,74.625,100.1875
1589227897645,2020-05-11T20:12:52.636028,15.671,-207.625,71.75,99.375
1589227897746,2020-05-11T20:12:52.657662,15.772,-207.625,73.1875,99.8125
1589227897847,2020-05-11T20:12:52.701991,15.873,-208.0,72.125,99.8125
1589227897947,2020-05-11T20:12:52.716991,15.973,-206.9375,68.875,99.4375
1589227898048,2020-05-11T20:12:52.733332,16.074,-208.0,72.125,100.1875
1589227898147,2020-05-11T20:12:52.748328,16.173,-206.5625,71.75,100.1875
1589227898249,2020-05-11T20:12:52.770107,16.275,-207.625,73.5625,99.8125
1589227898348,2020-05-11T20:12:52.785098,16.374,-206.9375,72.5,100.1875
1589227898449,2020-05-11T20:12:52.806933,16.475,-206.1875,69.625,99.8125
1589227898550,2020-05-11T20:12:52.821937,16.576,-207.25,74.25,99.75
1589227898650,2020-05-11T20:12:52.838397,16.676,-208.0,71.75,100.5625
1589227898751,2020-05-11T20:12:52.853554,16.777,-207.3125,72.125,99.4375
1589227898851,2020-05-11T20:12:52.875152,16.877,-207.3125,73.5625,99.8125
1589227898952,2020-05-11T20:12:52.890161,16.978,-207.3125,66.6875,100.1875
1589227899051,2020-05-11T20:12:52.912049,17.077,-207.3125,73.1875,99.4375
1589227899152,2020-05-11T20:12:52.927730,17.178,-206.5625,71.75,100.1875
1589227899253,2020-05-11T20:12:52.958323,17.279,-207.3125,73.5625,99.0
1589227899353,2020-05-11T20:12:52.973723,17.379,-206.9375,73.9375,100.1875
1589227899454,2020-05-11T20:12:53.002663,17.48,-207.3125,66.375,100.1875
1589227899554,2020-05-11T20:12:53.017677,17.58,-207.3125,72.5,100.1875
1589227899655,2020-05-11T20:12:53.039442,17.681,-207.3125,71.75,99.0
1589227899754,2020-05-11T20:12:53.054436,17.78,-208.0,74.25,100.1875
1589227899855,2020-05-11T20:12:53.070869,17.881,-207.3125,72.125,100.1875
1589227899957,2020-05-11T20:12:53.085912,17.983,-206.9375,64.9375,100.1875
1589227900056,2020-05-11T20:12:53.107663,18.082,-207.625,71.75,99.8125
1589227900157,2020-05-11T20:12:53.122670,18.183,-207.625,69.9375,101.0
1589227900257,2020-05-11T20:12:53.144487,18.283,-207.625,71.375,99.8125
1589227900358,2020-05-11T20:12:53.159485,18.384,-207.625,71.75,99.4375
1589227900458,2020-05-11T20:12:53.182065,18.484,-208.0,67.8125,99.8125
1589227900559,2020-05-11T20:12:53.196988,18.585,-208.0,71.75,100.1875
1589227900660,2020-05-11T20:12:53.214159,18.686,-207.625,73.1875,99.0
1589227900759,2020-05-11T20:12:53.228487,18.785,-207.3125,72.8125,99.8125
1589227900860,2020-05-11T20:12:53.250170,18.886,-208.0,73.5625,99.8125
1589227900960,2020-05-11T20:12:53.265153,18.986,-208.0,68.125,99.8125
1589227901061,2020-05-11T20:12:53.294484,19.087,-208.0,70.6875,99.8125
1589227901161,2020-05-11T20:12:53.309439,19.187,-208.0,72.125,99.375
1589227901262,2020-05-11T20:12:53.326086,19.288,-207.3125,70.3125,99.8125
1589227901363,2020-05-11T20:12:53.342336,19.389,-207.625,72.5,100.1875
1589227901462,2020-05-11T20:12:53.378439,19.488,-208.0,71.0625,99.0
1589227901563,2020-05-11T20:12:53.393694,19.589,-207.3125,72.5,100.1875
1589227901663,2020-05-11T20:12:53.415229,19.689,-207.625,73.1875,99.8125
1589227901764,2020-05-11T20:12:53.430627,19.79,-207.625,74.625,99.0
1589227901865,2020-05-11T20:12:53.451935,19.891,-207.625,74.3125,100.1875
1589227901965,2020-05-11T20:12:53.466944,19.991,-208.0,70.6875,98.25
1589227902066,2020-05-11T20:12:53.483561,20.092,-208.375,72.875,99.4375
1589227902166,2020-05-11T20:12:53.498342,20.192,-208.0,73.9375,99.8125
1589227902267,2020-05-11T20:12:53.520182,20.293,-207.3125,70.6875,99.4375
1589227902366,2020-05-11T20:12:53.535240,20.392,-207.3125,72.5,99.0625
1589227902467,2020-05-11T20:12:53.557731,20.493,-206.9375,70.6875,99.0625
1589227902568,2020-05-11T20:12:53.572726,20.594,-208.375,72.8125,99.4375
1589227902668,2020-05-11T20:12:53.594507,20.694,-208.375,71.75,99.0
1589227902769,2020-05-11T20:12:53.609507,20.795,-207.625,66.6875,99.8125
1589227902869,2020-05-11T20:12:53.625920,20.895,-207.3125,72.125,99.8125
1589227902970,2020-05-11T20:12:53.641135,20.996,-207.625,71.75,99.0625
1589227903071,2020-05-11T20:12:53.662733,21.097,-207.625,73.5625,99.8125
1589227903170,2020-05-11T20:12:53.677739,21.196,-207.3125,72.8125,98.625
1589227903271,2020-05-11T20:12:53.692738,21.297,-207.3125,67.8125,99.0
1589227903371,2020-05-11T20:12:53.722014,21.397,-206.9375,72.125,99.8125
1589227903472,2020-05-11T20:12:53.736927,21.498,-207.625,73.1875,99.8125
1589227903573,2020-05-11T20:12:53.753354,21.599,-207.3125,73.5625,99.4375
1589227903673,2020-05-11T20:12:53.768360,21.699,-206.5625,73.1875,99.0625
1589227903774,2020-05-11T20:12:53.790922,21.8,-207.3125,64.1875,99.0
1589227903874,2020-05-11T20:12:53.805841,21.9,-208.0,72.5,99.4375
1589227903975,2020-05-11T20:12:53.827647,22.001,-207.3125,72.125,98.625
1589227904074,2020-05-11T20:12:53.842767,22.1,-208.0,71.75,99.8125
1589227904175,2020-05-11T20:12:53.864535,22.201,-207.3125,74.25,99.8125
1589227904276,2020-05-11T20:12:53.879538,22.302,-207.625,66.0,99.375
1589227904376,2020-05-11T20:12:53.896001,22.402,-207.3125,74.3125,99.4375
1589227904477,2020-05-11T20:12:53.918436,22.503,-208.0,73.1875,98.25
1589227904577,2020-05-11T20:12:53.940247,22.603,-208.375,74.3125,99.8125
1589227904678,2020-05-11T20:12:53.955258,22.704,-207.3125,72.5,98.625
1589227904779,2020-05-11T20:12:53.976993,22.805,-208.75,68.875,99.0
1589227904878,2020-05-11T20:12:53.992009,22.904,-207.3125,72.875,99.4375
1589227904979,2020-05-11T20:12:54.014567,23.005,-208.0,72.125,99.0
1589227905079,2020-05-11T20:12:54.030383,23.105,-207.625,73.9375,99.8125
1589227905180,2020-05-11T20:12:54.060342,23.206,-207.625,70.3125,99.4375
1589227905281,2020-05-11T20:12:54.075237,23.307,-207.625,74.625,99.8125
1589227905381,2020-05-11T20:12:54.097077,23.407,-207.3125,72.875,99.4375
1589227905482,2020-05-11T20:12:54.111995,23.508,-207.625,72.8125,98.625
1589227905582,2020-05-11T20:12:54.128422,23.608,-207.3125,72.125,99.4375
1589227905683,2020-05-11T20:12:54.143347,23.709,-206.9375,72.875,99.4375
1589227905782,2020-05-11T20:12:54.165843,23.808,-208.0,72.125,99.0625
1589227905883,2020-05-11T20:12:54.180857,23.909,-207.625,73.1875,99.0
1589227905984,2020-05-11T20:12:54.202651,24.01,-208.0,73.9375,99.0625
1589227906084,2020-05-11T20:12:54.225144,24.11,-207.625,70.3125,99.4375
1589227906185,2020-05-11T20:12:54.247745,24.211,-208.0,73.1875,99.8125
1589227906285,2020-05-11T20:12:54.262764,24.311,-207.625,72.125,99.4375
1589227906386,2020-05-11T20:12:54.284499,24.412,-207.625,72.8125,99.8125
1589227906487,2020-05-11T20:12:54.307002,24.513,-207.625,74.625,99.0
1589227906586,2020-05-11T20:12:54.323530,24.612,-207.625,65.25,99.0625
1589227906688,2020-05-11T20:12:54.338618,24.714,-208.0,71.375,99.0
1589227906787,2020-05-11T20:12:54.360902,24.813,-208.0,72.125,98.25
1589227906888,2020-05-11T20:12:54.375248,24.914,-207.3125,74.3125,99.4375
1589227906989,2020-05-11T20:12:54.396999,25.015,-208.75,73.9375,99.4375
1589227907089,2020-05-11T20:12:54.412769,25.115,-207.625,66.375,99.8125
1589227907190,2020-05-11T20:12:54.434715,25.216,-207.3125,73.9375,99.4375
1589227907290,2020-05-11T20:12:54.449455,25.316,-207.625,72.5,99.4375
1589227907391,2020-05-11T20:12:54.466085,25.417,-207.3125,72.8125,99.4375
1589227907490,2020-05-11T20:12:54.480838,25.516,-207.3125,73.5625,99.0625
1589227907591,2020-05-11T20:12:54.502651,25.617,-207.3125,66.6875,99.0625
1589227907692,2020-05-11T20:12:54.517649,25.718,-207.3125,69.9375,99.4375
1589227907792,2020-05-11T20:12:54.539508,25.818,-207.625,72.5,98.625
1589227907893,2020-05-11T20:12:54.554512,25.919,-207.3125,71.375,98.6875
1589227907993,2020-05-11T20:12:54.571178,26.019,-208.0,72.8125,99.0625
1589227908094,2020-05-11T20:12:54.586216,26.12,-207.3125,69.625,99.8125
1589227908193,2020-05-11T20:12:54.607746,26.219,-208.0,73.1875,99.0625
1589227908294,2020-05-11T20:12:54.623072,26.32,-208.0,70.6875,98.25
1589227908396,2020-05-11T20:12:54.645258,26.422,-206.5625,73.5625,99.4375
1589227908495,2020-05-11T20:12:54.661237,26.521,-207.625,71.0625,99.4375
1589227908596,2020-05-11T20:12:54.682742,26.622,-208.0,73.1875,99.4375
1589227908696,2020-05-11T20:12:54.697744,26.722,-206.1875,73.1875,99.0625
1589227908797,2020-05-11T20:12:54.728615,26.823,-208.0,72.5,99.8125
1589227908896,2020-05-11T20:12:54.750224,26.922,-206.9375,68.875,99.8125
1589227908998,2020-05-11T20:12:54.765272,27.024,-207.625,73.1875,99.0625
1589227909099,2020-05-11T20:12:54.787748,27.125,-207.625,72.5,99.0625
1589227909198,2020-05-11T20:12:54.802744,27.224,-207.625,73.5625,99.8125
1589227909299,2020-05-11T20:12:54.824500,27.325,-207.625,73.1875,99.0
1589227909399,2020-05-11T20:12:54.839515,27.425,-207.3125,66.375,99.8125
1589227909500,2020-05-11T20:12:54.856007,27.526,-207.625,73.1875,99.8125
1589227909600,2020-05-11T20:12:54.871064,27.626,-207.3125,71.375,99.0625
1589227909701,2020-05-11T20:12:54.892749,27.727,-208.0,73.5625,99.8125
1589227909802,2020-05-11T20:12:54.907745,27.828,-207.3125,72.5,99.0625
1589227909901,2020-05-11T20:12:54.929494,27.927,-207.625,66.6875,99.0625
1589227910002,2020-05-11T20:12:54.944450,28.028,-207.6875,71.375,99.0625
1589227910102,2020-05-11T20:12:54.960860,28.128,-206.9375,71.0625,99.8125
1589227910203,2020-05-11T20:12:54.975900,28.229,-207.3125,73.9375,99.8125
1589227910303,2020-05-11T20:12:55.005163,28.329,-207.3125,73.1875,99.4375
1589227910404,2020-05-11T20:12:55.020173,28.43,-207.625,66.0,100.1875
1589227910503,2020-05-11T20:12:55.050253,28.529,-207.6875,71.0625,99.4375
1589227910604,2020-05-11T20:12:55.065268,28.63,-207.3125,72.125,99.0625
1589227910706,2020-05-11T20:12:55.086996,28.732,-207.3125,70.6875,99.4375
1589227910805,2020-05-11T20:12:55.101992,28.831,-207.625,72.8125,98.625
1589227910906,2020-05-11T20:12:55.118445,28.932,-207.625,68.5,99.4375
1589227911006,2020-05-11T20:12:55.133458,29.032,-206.9375,71.75,99.4375
1589227911107,2020-05-11T20:12:55.155254,29.133,-207.3125,73.5625,100.25
1589227911207,2020-05-11T20:12:55.170267,29.233,-207.625,72.875,99.4375
1589227911308,2020-05-11T20:12:55.192000,29.334,-207.3125,73.5625,99.8125
1589227911407,2020-05-11T20:12:55.207524,29.433,-207.625,72.5,99.0625
1589227911508,2020-05-11T20:12:55.223356,29.534,-207.3125,73.1875,100.25
1589227911608,2020-05-11T20:12:55.245139,29.634,-207.3125,72.875,99.0625
1589227911709,2020-05-11T20:12:55.266969,29.735,-207.3125,69.25,99.4375
1589227911810,2020-05-11T20:12:55.282664,29.836,-206.9375,72.125,98.6875
1589227911910,2020-05-11T20:12:55.304447,29.936,-208.0,71.0625,99.4375
1589227912011,2020-05-11T20:12:55.319462,30.037,-207.6875,72.125,99.4375
1589227912110,2020-05-11T20:12:55.343427,30.136,-207.625,71.75,99.4375
1589227912211,2020-05-11T20:12:55.358396,30.237,-207.3125,67.0625,99.0625
1589227912311,2020-05-11T20:12:55.380187,30.337,-207.3125,71.75,99.0625
1589227912412,2020-05-11T20:12:55.410183,30.438,-206.9375,70.6875,99.0625
1589227912513,2020-05-11T20:12:55.432094,30.539,-207.6875,72.5,99.0625
1589227912613,2020-05-11T20:12:55.446944,30.639,-206.5625,70.6875,99.0
1589227912714,2020-05-11T20:12:55.477028,30.74,-207.3125,67.8125,100.625
1589227912813,2020-05-11T20:12:55.491970,30.839,-207.625,71.75,99.0625
1589227912915,2020-05-11T20:12:55.508289,30.941,-206.9375,74.625,99.4375
1589227913014,2020-05-11T20:12:55.523291,31.04,-207.3125,73.9375,99.4375
1589227913115,2020-05-11T20:12:55.545159,31.141,-208.0,74.3125,98.625
1589227913215,2020-05-11T20:12:55.560218,31.241,-208.0,70.3125,99.0625
1589227913316,2020-05-11T20:12:55.582017,31.342,-207.3125,72.125,99.0625
1589227913416,2020-05-11T20:12:55.604511,31.442,-207.625,70.6875,99.8125
1589227913517,2020-05-11T20:12:55.628359,31.543,-207.6875,71.375,99.8125
1589227913618,2020-05-11T20:12:55.650810,31.644,-208.0,73.1875,98.625
1589227913717,2020-05-11T20:12:55.694385,31.743,-206.9375,73.9375,97.875
1589227913818,2020-05-11T20:12:55.698171,31.844,-208.375,74.625,99.8125
1589227913918,2020-05-11T20:12:55.710135,31.944,-207.625,73.5625,98.625
1589227914019,2020-05-11T20:12:55.725114,32.045,-207.625,66.375,99.0625
1589227914119,2020-05-11T20:12:55.740123,32.145,-208.0,72.125,99.4375
1589227914220,2020-05-11T20:12:55.762028,32.246,-208.0,69.25,99.4375
1589227914319,2020-05-11T20:12:55.776957,32.345,-207.3125,72.5,100.1875
1589227914420,2020-05-11T20:12:55.793308,32.446,-206.5625,73.1875,99.4375
1589227914520,2020-05-11T20:12:55.808300,32.546,-207.625,65.625,99.8125
1589227914621,2020-05-11T20:12:55.830133,32.647,-207.3125,70.3125,99.4375
1589227914721,2020-05-11T20:12:55.845171,32.747,-206.1875,72.125,99.8125
1589227914822,2020-05-11T20:12:55.867004,32.848,-207.625,74.625,99.8125
1589227914923,2020-05-11T20:12:55.882013,32.949,-207.625,72.5,99.4375
1589227915022,2020-05-11T20:12:55.898716,33.048,-207.625,72.125,99.4375
1589227915124,2020-05-11T20:12:55.927001,33.15,-208.0,70.3125,99.4375
1589227915223,2020-05-11T20:12:55.943313,33.249,-207.625,72.125,98.25
1589227915324,2020-05-11T20:12:55.964466,33.35,-206.9375,72.125,99.0625
1589227915424,2020-05-11T20:12:55.980812,33.45,-207.3125,72.875,99.4375
1589227915525,2020-05-11T20:12:55.995805,33.551,-207.3125,72.125,98.625
1589227915625,2020-05-11T20:12:56.017625,33.651,-207.3125,70.3125,99.0625
1589227915726,2020-05-11T20:12:56.032624,33.752,-207.6875,72.875,99.4375
1589227915825,2020-05-11T20:12:56.054520,33.851,-206.9375,69.9375,99.8125
1589227915926,2020-05-11T20:12:56.069517,33.952,-208.0,73.9375,99.4375
1589227916027,2020-05-11T20:12:56.107022,34.053,-207.625,72.875,99.8125
1589227916127,2020-05-11T20:12:56.129519,34.153,-207.625,73.5625,99.8125
1589227916228,2020-05-11T20:12:56.146257,34.254,-207.3125,72.5,98.3125
1589227916328,2020-05-11T20:12:56.161264,34.354,-207.3125,66.6875,100.1875
1589227916429,2020-05-11T20:12:56.182628,34.455,-208.0,73.1875,99.875
1589227916528,2020-05-11T20:12:56.205174,34.554,-207.625,70.3125,99.0625
1589227916629,2020-05-11T20:12:56.227178,34.655,-206.5625,71.0625,99.8125
1589227916729,2020-05-11T20:12:56.249517,34.755,-208.375,73.1875,99.0625
1589227916830,2020-05-11T20:12:56.273661,34.856,-207.625,67.8125,99.0625
1589227916931,2020-05-11T20:12:56.288457,34.957,-208.0,72.5,99.0625
1589227917031,2020-05-11T20:12:56.310267,35.057,-207.3125,70.3125,99.0625
1589227917132,2020-05-11T20:12:56.325928,35.158,-207.3125,73.1875,100.625
1589227917231,2020-05-11T20:12:56.347672,35.257,-207.6875,71.75,99.4375
1589227917333,2020-05-11T20:12:56.362694,35.359,-207.6875,71.375,99.4375
1589227917432,2020-05-11T20:12:56.384465,35.458,-206.9375,69.9375,99.0625
1589227917533,2020-05-11T20:12:56.399463,35.559,-208.0,71.75,99.8125
1589227917634,2020-05-11T20:12:56.416283,35.66,-207.3125,71.375,99.8125
1589227917734,2020-05-11T20:12:56.431801,35.76,-207.625,73.5625,100.1875
1589227917835,2020-05-11T20:12:56.452688,35.861,-206.5625,72.875,99.4375
1589227917935,2020-05-11T20:12:56.467669,35.961,-207.3125,71.4375,99.4375
1589227918036,2020-05-11T20:12:56.489494,36.062,-206.9375,73.5625,99.4375
1589227918135,2020-05-11T20:12:56.504500,36.161,-207.625,66.0,100.1875
1589227918236,2020-05-11T20:12:56.520923,36.262,-207.3125,72.875,99.4375
1589227918337,2020-05-11T20:12:56.535895,36.363,-206.1875,71.0625,99.0625
1589227918437,2020-05-11T20:12:56.558484,36.463,-206.9375,73.1875,100.25
1589227918538,2020-05-11T20:12:56.580887,36.564,-207.3125,72.875,99.0625
1589227918638,2020-05-11T20:12:56.602754,36.664,-207.3125,64.5625,99.0625
1589227918739,2020-05-11T20:12:56.617757,36.765,-206.5625,71.375,99.875
1589227918838,2020-05-11T20:12:56.639504,36.864,-206.9375,71.4375,99.4375
1589227918939,2020-05-11T20:12:56.654454,36.965,-206.1875,74.3125,100.1875
1589227919041,2020-05-11T20:12:56.671332,37.067,-206.9375,74.625,99.4375
1589227919140,2020-05-11T20:12:56.685912,37.166,-206.25,68.5,99.4375
1589227919241,2020-05-11T20:12:56.700920,37.267,-206.1875,74.625,99.8125
1589227919341,2020-05-11T20:12:56.722673,37.367,-206.5625,75.375,95.875
1589227919442,2020-05-11T20:12:56.737678,37.468,-206.9375,78.25,93.5
1589227919543,2020-05-11T20:12:56.759506,37.569,-207.3125,76.8125,94.3125
1589227919643,2020-05-11T20:12:56.789522,37.669,-206.9375,75.0,97.875
1589227919744,2020-05-11T20:12:56.807327,37.77,-205.875,75.0,99.875
1589227919843,2020-05-11T20:12:56.821379,37.869,-206.1875,74.3125,99.0625
1589227919944,2020-05-11T20:12:56.842819,37.97,-206.1875,72.125,98.25
1589227920044,2020-05-11T20:12:56.857651,38.07,-206.1875,76.0625,98.625
1589227920145,2020-05-11T20:12:56.879451,38.171,-206.9375,74.625,99.4375
1589227920246,2020-05-11T20:12:56.894461,38.272,-206.9375,76.0625,98.3125
1589227920346,2020-05-11T20:12:56.910860,38.372,-206.5625,76.0625,98.25
1589227920447,2020-05-11T20:12:56.931969,38.473,-207.3125,72.5,98.25
1589227920546,2020-05-11T20:12:56.955180,38.572,-206.5625,75.0,98.25
1589227920647,2020-05-11T20:12:56.970195,38.673,-206.1875,74.3125,99.0625
1589227920749,2020-05-11T20:12:56.992024,38.775,-206.25,72.875,98.3125
1589227920848,2020-05-11T20:12:57.007008,38.874,-205.875,75.75,98.6875
1589227920949,2020-05-11T20:12:57.023556,38.975,-205.875,68.875,97.0625
1589227921049,2020-05-11T20:12:57.044506,39.075,-206.9375,77.875,93.9375
1589227921150,2020-05-11T20:12:57.061314,39.176,-206.5625,77.1875,94.75
1589227921250,2020-05-11T20:12:57.075873,39.276,-206.5625,75.375,97.875
1589227921351,2020-05-11T20:12:57.097638,39.377,-206.25,75.375,99.875
1589227921452,2020-05-11T20:12:57.112638,39.478,-205.875,69.25,101.0
1589227921551,2020-05-11T20:12:57.134461,39.577,-206.25,73.9375,100.25
1589227921652,2020-05-11T20:12:57.149465,39.678,-205.5,72.125,99.8125
1589227921752,2020-05-11T20:12:57.165811,39.778,-206.5625,74.3125,99.4375
1589227921853,2020-05-11T20:12:57.186961,39.879,-206.1875,75.0,98.6875
1589227921953,2020-05-11T20:12:57.203315,39.979,-206.5625,68.875,98.6875
1589227922054,2020-05-11T20:12:57.218312,40.08,-206.5625,75.75,99.0625
1589227922155,2020-05-11T20:12:57.240152,40.181,-206.9375,73.5625,97.875
1589227922254,2020-05-11T20:12:57.255130,40.28,-205.5,74.625,98.6875
1589227922355,2020-05-11T20:12:57.278310,40.381,-206.1875,73.9375,98.25
1589227922455,2020-05-11T20:12:57.293315,40.481,-206.1875,71.75,99.0625
1589227922556,2020-05-11T20:12:57.315124,40.582,-206.25,73.1875,98.6875
1589227922656,2020-05-11T20:12:57.330145,40.682,-205.5,73.1875,98.25
1589227922757,2020-05-11T20:12:57.352024,40.783,-206.1875,68.5,98.25
1589227922858,2020-05-11T20:12:57.367019,40.884,-206.1875,75.75,98.25
1589227922958,2020-05-11T20:12:57.391097,40.984,-206.5625,73.5625,98.6875
1589227923059,2020-05-11T20:12:57.405887,41.085,-207.6875,73.1875,99.4375
1589227923158,2020-05-11T20:12:57.428581,41.184,-205.5,74.625,105.375
1589227923259,2020-05-11T20:12:57.444206,41.285,-206.1875,69.9375,95.875
1589227923359,2020-05-11T20:12:57.480185,41.385,-205.875,75.0,95.5
1589227923460,2020-05-11T20:12:57.495149,41.486,-206.25,76.4375,99.4375
1589227923560,2020-05-11T20:12:57.524499,41.586,-205.875,74.3125,101.4375
1589227923661,2020-05-11T20:12:57.539463,41.687,-207.3125,72.875,98.6875
1589227923762,2020-05-11T20:12:57.556041,41.788,-206.9375,66.375,99.0625
1589227923861,2020-05-11T20:12:57.577038,41.887,-206.9375,75.0,98.3125
1589227923962,2020-05-11T20:12:57.594638,41.988,-206.5625,74.625,98.25
1589227924062,2020-05-11T20:12:57.608696,42.088,-206.25,73.1875,99.0625
1589227924163,2020-05-11T20:12:57.630243,42.189,-206.5625,73.9375,97.875
1589227924263,2020-05-11T20:12:57.645222,42.289,-206.25,71.75,97.125
1589227924364,2020-05-11T20:12:57.682001,42.39,-206.9375,74.3125,99.5
1589227924465,2020-05-11T20:12:57.704479,42.491,-206.5625,72.125,104.625
1589227924564,2020-05-11T20:12:57.719483,42.59,-206.9375,73.1875,96.6875
1589227924666,2020-05-11T20:12:57.735962,42.692,-206.5625,75.375,95.9375
1589227924765,2020-05-11T20:12:57.751109,42.791,-206.5625,75.75,97.0625
1589227924866,2020-05-11T20:12:57.772726,42.892,-205.125,74.625,104.1875
1589227924966,2020-05-11T20:12:57.787722,42.992,-207.3125,74.3125,97.125
1589227925067,2020-05-11T20:12:57.809519,43.093,-207.3125,71.375,97.125
1589227925167,2020-05-11T20:12:57.825229,43.193,-206.9375,75.375,96.6875
1589227925268,2020-05-11T20:12:57.847078,43.294,-208.0,73.9375,96.6875
1589227925369,2020-05-11T20:12:57.869475,43.395,-207.6875,74.3125,97.125
1589227925468,2020-05-11T20:12:57.885854,43.494,-206.25,72.875,97.5
1589227925569,2020-05-11T20:12:57.900850,43.595,-207.3125,67.0625,97.875
1589227925669,2020-05-11T20:12:57.922662,43.695,-207.6875,74.3125,97.125
1589227925770,2020-05-11T20:12:57.937647,43.796,-206.9375,73.1875,97.9375
1589227925870,2020-05-11T20:12:57.959528,43.896,-205.125,71.75,106.9375
1589227925971,2020-05-11T20:12:57.974519,43.997,-205.125,71.375,112.125
1589227926070,2020-05-11T20:12:58.005233,44.096,-204.75,64.5625,110.9375
1589227926171,2020-05-11T20:12:58.020231,44.197,-206.25,71.75,104.25
1589227926272,2020-05-11T20:12:58.042026,44.298,-206.9375,69.9375,98.3125
1589227926372,2020-05-11T20:12:58.056973,44.398,-206.5625,73.5625,96.6875
1589227926473,2020-05-11T20:12:58.079465,44.499,-208.0,72.5,95.5
1589227926573,2020-05-11T20:12:58.094481,44.599,-207.3125,72.5,96.6875
1589227926674,2020-05-11T20:12:58.110858,44.7,-206.5625,72.875,96.6875
1589227926773,2020-05-11T20:12:58.125833,44.799,-207.3125,72.875,96.6875
1589227926875,2020-05-11T20:12:58.147663,44.901,-206.9375,69.625,98.6875
1589227926974,2020-05-11T20:12:58.177737,45.0,-206.25,71.0625,102.625
1589227927075,2020-05-11T20:12:58.199520,45.101,-205.5,71.75,108.9375
1589227927176,2020-05-11T20:12:58.215236,45.202,-205.125,72.125,110.5
1589227927276,2020-05-11T20:12:58.237025,45.302,-205.5,71.375,106.9375
1589227927377,2020-05-11T20:12:58.252027,45.403,-205.5,68.1875,100.625
1589227927477,2020-05-11T20:12:58.268352,45.503,-205.875,73.5625,97.9375
1589227927578,2020-05-11T20:12:58.290163,45.604,-207.6875,72.125,98.3125
1589227927679,2020-05-11T20:12:58.319469,45.705,-206.9375,73.5625,97.5
1589227927778,2020-05-11T20:12:58.334475,45.804,-206.5625,73.5625,97.125
1589227927879,2020-05-11T20:12:58.350856,45.905,-207.6875,65.25,97.125
1589227927979,2020-05-11T20:12:58.365914,46.005,-206.9375,74.3125,97.125
1589227928080,2020-05-11T20:12:58.387760,46.106,-207.6875,72.125,96.75
1589227928180,2020-05-11T20:12:58.402763,46.206,-206.9375,73.9375,96.6875
1589227928281,2020-05-11T20:12:58.424789,46.307,-207.3125,73.9375,97.5
1589227928382,2020-05-11T20:12:58.439549,46.408,-206.9375,69.625,97.0625
1589227928481,2020-05-11T20:12:58.461990,46.507,-207.3125,72.875,97.5
1589227928583,2020-05-11T20:12:58.476998,46.609,-206.9375,71.0625,96.3125
1589227928682,2020-05-11T20:12:58.493438,46.708,-206.5625,75.0,97.125
1589227928783,2020-05-11T20:12:58.508385,46.809,-206.5625,73.9375,96.6875
1589227928883,2020-05-11T20:12:58.530177,46.909,-207.6875,73.1875,96.3125
1589227928984,2020-05-11T20:12:58.545168,47.01,-207.6875,74.3125,97.125
1589227929085,2020-05-11T20:12:58.567037,47.111,-206.5625,72.875,96.3125
1589227929185,2020-05-11T20:12:58.582045,47.211,-206.5625,71.0625,97.125
1589227929286,2020-05-11T20:12:58.598711,47.312,-207.6875,70.3125,96.75
1589227929385,2020-05-11T20:12:58.621180,47.411,-206.9375,73.9375,96.75
1589227929486,2020-05-11T20:12:58.642757,47.512,-207.6875,74.625,96.75
1589227929587,2020-05-11T20:12:58.657734,47.613,-206.9375,74.3125,96.3125
1589227929687,2020-05-11T20:12:58.672683,47.713,-207.6875,64.9375,97.125
1589227929788,2020-05-11T20:12:58.695177,47.814,-206.9375,76.4375,95.9375
1589227929888,2020-05-11T20:12:58.710158,47.914,-206.9375,72.875,96.6875
1589227929989,2020-05-11T20:12:58.731997,48.015,-207.6875,73.9375,97.125
1589227930088,2020-05-11T20:12:58.746999,48.114,-208.0625,72.125,96.375
1589227930189,2020-05-11T20:12:58.763505,48.215,-207.3125,64.9375,96.75
1589227930291,2020-05-11T20:12:58.778488,48.317,-207.3125,72.125,96.375
1589227930390,2020-05-11T20:12:58.800348,48.416,-206.9375,72.875,97.125
1589227930491,2020-05-11T20:12:58.815321,48.517,-206.5625,74.625,97.5
1589227930591,2020-05-11T20:12:58.852869,48.617,-206.9375,74.625,95.9375
1589227930692,2020-05-11T20:12:58.867675,48.718,-206.25,67.0625,97.5
1589227930793,2020-05-11T20:12:58.889511,48.819,-207.3125,74.3125,97.125
1589227930893,2020-05-11T20:12:58.904470,48.919,-207.6875,73.1875,95.9375
1589227930994,2020-05-11T20:12:58.928376,49.02,-207.6875,74.3125,97.125
1589227931093,2020-05-11T20:12:58.943396,49.119,-206.9375,74.3125,97.5
1589227931194,2020-05-11T20:12:58.965296,49.22,-207.6875,70.3125,97.125
1589227931294,2020-05-11T20:12:58.980323,49.32,-206.9375,74.3125,96.75
1589227931395,2020-05-11T20:12:59.002040,49.421,-207.3125,73.9375,96.75
1589227931496,2020-05-11T20:12:59.017038,49.522,-206.25,75.375,97.125
1589227931596,2020-05-11T20:12:59.033525,49.622,-206.9375,71.75,96.75
1589227931697,2020-05-11T20:12:59.048494,49.723,-206.9375,74.3125,97.125
1589227931796,2020-05-11T20:12:59.071025,49.822,-206.25,75.0,97.1875
1589227931897,2020-05-11T20:12:59.085998,49.923,-206.625,75.0,97.1875
1589227931997,2020-05-11T20:12:59.107814,50.023,-207.3125,71.75,97.125
1589227932098,2020-05-11T20:12:59.122759,50.124,-207.3125,73.1875,96.75
1589227932199,2020-05-11T20:12:59.144523,50.225,-207.6875,73.5625,97.125
1589227932299,2020-05-11T20:12:59.159473,50.325,-207.3125,73.9375,97.125
1589227932400,2020-05-11T20:12:59.175874,50.426,-207.6875,74.3125,97.125
1589227932500,2020-05-11T20:12:59.191024,50.526,-206.625,70.3125,98.3125
1589227932601,2020-05-11T20:12:59.212649,50.627,-207.6875,73.1875,97.125
1589227932702,2020-05-11T20:12:59.228584,50.728,-206.9375,71.4375,97.5
1589227932801,2020-05-11T20:12:59.250890,50.827,-206.9375,75.75,96.75
1589227932902,2020-05-11T20:12:59.273509,50.928,-206.9375,75.75,96.75
1589227933002,2020-05-11T20:12:59.295349,51.028,-208.0625,67.0625,97.125
1589227933103,2020-05-11T20:12:59.311008,51.129,-208.0625,73.1875,96.75
1589227933203,2020-05-11T20:12:59.332752,51.229,-207.6875,72.875,96.375
1589227933304,2020-05-11T20:12:59.347760,51.33,-207.3125,75.375,97.5625
1589227933403,2020-05-11T20:12:59.369473,51.429,-208.0625,74.625,96.75
1589227933504,2020-05-11T20:12:59.384475,51.53,-207.6875,69.25,97.125
1589227933605,2020-05-11T20:12:59.400879,51.631,-207.6875,73.5625,97.5625
1589227933705,2020-05-11T20:12:59.415887,51.731,-206.9375,74.3125,97.125
1589227933806,2020-05-11T20:12:59.437673,51.832,-207.3125,75.75,97.125
1589227933906,2020-05-11T20:12:59.452667,51.932,-206.625,72.875,97.125
1589227934007,2020-05-11T20:12:59.475272,52.033,-206.25,72.875,96.75
1589227934106,2020-05-11T20:12:59.497768,52.132,-206.625,74.3125,97.5
1589227934208,2020-05-11T20:12:59.534529,52.234,-207.3125,74.3125,97.125
1589227934309,2020-05-11T20:12:59.549520,52.335,-207.6875,72.5,97.9375
1589227934408,2020-05-11T20:12:59.566016,52.434,-208.375,74.3125,96.75
1589227934509,2020-05-11T20:12:59.581463,52.535,-207.3125,74.625,97.125
1589227934609,2020-05-11T20:12:59.602759,52.635,-207.3125,72.875,97.5625
1589227934710,2020-05-11T20:12:59.617778,52.736,-208.75,73.5625,97.1875
1589227934810,2020-05-11T20:12:59.639635,52.836,-207.6875,67.8125,97.5
1589227934911,2020-05-11T20:12:59.661999,52.937,-206.9375,74.625,97.5
1589227935012,2020-05-11T20:12:59.677266,53.038,-208.0625,74.3125,97.9375
1589227935111,2020-05-11T20:12:59.699485,53.137,-208.75,75.375,95.9375
1589227935212,2020-05-11T20:12:59.714525,53.238,-207.6875,73.5625,96.375
1589227935312,2020-05-11T20:12:59.730897,53.338,-207.3125,68.875,97.125
1589227935413,2020-05-11T20:12:59.751987,53.439,-206.9375,73.5625,97.125
1589227935513,2020-05-11T20:12:59.768536,53.539,-207.3125,72.5,96.75
1589227935614,2020-05-11T20:12:59.783561,53.64,-206.9375,75.375,97.9375
1589227935713,2020-05-11T20:12:59.805277,53.739,-206.25,75.375,96.75
1589227935814,2020-05-11T20:12:59.820325,53.84,-207.3125,68.875,97.125
1589227935916,2020-05-11T20:12:59.842059,53.942,-206.625,72.875,96.75
1589227936015,2020-05-11T20:12:59.857775,54.041,-207.3125,73.9375,97.5
1589227936116,2020-05-11T20:12:59.879476,54.142,-207.3125,73.5625,97.125
1589227936216,2020-05-11T20:12:59.894490,54.242,-206.9375,74.625,96.75
1589227936317,2020-05-11T20:12:59.910891,54.343,-207.6875,72.5,97.1875
1589227936417,2020-05-11T20:12:59.925888,54.443,-207.6875,75.75,97.5625
1589227936518,2020-05-11T20:12:59.948361,54.544,-208.0625,75.0,96.75
1589227936619,2020-05-11T20:12:59.963504,54.645,-207.3125,72.125,97.5
1589227936718,2020-05-11T20:12:59.985260,54.744,-206.625,73.1875,97.125
1589227936819,2020-05-11T20:13:00.000323,54.845,-207.3125,73.5625,97.125
1589227936919,2020-05-11T20:13:00.022040,54.945,-207.3125,74.3125,96.75
1589227937020,2020-05-11T20:13:00.037985,55.046,-207.3125,74.3125,97.125
1589227937120,2020-05-11T20:13:00.060197,55.146,-206.9375,68.875,97.5625
1589227937221,2020-05-11T20:13:00.075966,55.247,-206.625,73.1875,96.0
1589227937320,2020-05-11T20:13:00.097693,55.346,-206.9375,73.5625,96.375
1589227937421,2020-05-11T20:13:00.112660,55.447,-206.625,75.75,97.5625
1589227937522,2020-05-11T20:13:00.134498,55.548,-206.625,73.9375,96.375
1589227937622,2020-05-11T20:13:00.150211,55.648,-207.6875,67.0625,97.5
1589227937723,2020-05-11T20:13:00.172733,55.749,-207.3125,73.5625,97.1875
1589227937823,2020-05-11T20:13:00.209556,55.849,-206.9375,72.5,97.1875
1589227937924,2020-05-11T20:13:00.226586,55.95,-207.6875,74.3125,97.5625
1589227938023,2020-05-11T20:13:00.248716,56.049,-208.0625,74.3125,97.9375
1589227938125,2020-05-11T20:13:00.277781,56.151,-207.6875,69.625,97.9375
1589227938226,2020-05-11T20:13:00.293004,56.252,-207.6875,75.0,98.375
1589227938325,2020-05-11T20:13:00.315255,56.351,-207.3125,72.875,98.3125
1589227938426,2020-05-11T20:13:00.331157,56.452,-208.0625,74.625,98.3125
1589227938526,2020-05-11T20:13:00.360260,56.552,-208.0625,72.875,97.9375
1589227938627,2020-05-11T20:13:00.375265,56.653,-207.3125,74.3125,97.125
1589227938727,2020-05-11T20:13:00.397055,56.753,-207.6875,73.1875,97.9375
1589227938828,2020-05-11T20:13:00.412065,56.854,-208.0625,74.3125,97.5
1589227938927,2020-05-11T20:13:00.431891,56.953,-206.9375,72.125,97.1875
1589227939028,2020-05-11T20:13:00.443430,57.054,-207.3125,75.0,97.9375
1589227939129,2020-05-11T20:13:00.465161,57.155,-207.3125,73.5625,97.9375
1589227939229,2020-05-11T20:13:00.480197,57.255,-207.3125,71.75,97.125
1589227939330,2020-05-11T20:13:00.502014,57.356,-207.6875,73.5625,97.1875
1589227939430,2020-05-11T20:13:00.517037,57.456,-208.375,65.625,97.9375
1589227939531,2020-05-11T20:13:00.533451,57.557,-207.3125,74.6875,97.9375
1589227939630,2020-05-11T20:13:00.548703,57.656,-207.3125,73.5625,97.9375
1589227939731,2020-05-11T20:13:00.570301,57.757,-208.0625,74.625,97.9375
1589227939831,2020-05-11T20:13:00.586059,57.857,-207.3125,73.5625,97.125
1589227939932,2020-05-11T20:13:00.607767,57.958,-208.0625,67.8125,97.5625
1589227940033,2020-05-11T20:13:00.622781,58.059,-206.9375,72.875,97.5625
1589227940133,2020-05-11T20:13:00.644560,58.159,-206.9375,72.875,97.5625
1589227940234,2020-05-11T20:13:00.674560,58.26,-207.6875,74.6875,97.5625
1589227940334,2020-05-11T20:13:00.689553,58.36,-206.9375,74.3125,98.375
1589227940435,2020-05-11T20:13:00.706283,58.461,-207.3125,68.1875,97.625
1589227940534,2020-05-11T20:13:00.721295,58.56,-208.0625,73.1875,97.9375
1589227940635,2020-05-11T20:13:00.742777,58.661,-208.0625,73.5625,97.125
1589227940735,2020-05-11T20:13:00.757776,58.761,-206.625,74.6875,98.375
1589227940836,2020-05-11T20:13:00.779495,58.862,-207.6875,75.75,97.1875
1589227940937,2020-05-11T20:13:00.794507,58.963,-208.0625,72.875,98.3125
1589227941037,2020-05-11T20:13:00.810878,59.063,-207.6875,74.3125,98.0
1589227941138,2020-05-11T20:13:00.832003,59.164,-208.0625,74.6875,97.5625
1589227941237,2020-05-11T20:13:00.848409,59.263,-207.3125,74.6875,98.375
1589227941338,2020-05-11T20:13:00.863524,59.364,-207.3125,75.375,97.5625
1589227941438,2020-05-11T20:13:00.885391,59.464,-207.3125,74.3125,97.9375
1589227941539,2020-05-11T20:13:00.909252,59.565,-207.6875,73.9375,98.375
1589227941640,2020-05-11T20:13:00.930278,59.666,-207.3125,75.75,97.5625
1589227941740,2020-05-11T20:13:00.945264,59.766,-208.0625,70.0,98.75
1589227941841,2020-05-11T20:13:00.975284,59.867,-207.6875,74.3125,97.1875
1589227941940,2020-05-11T20:13:00.990350,59.966,-208.0625,72.5,99.125
1589227942042,2020-05-11T20:13:01.012738,60.068,-209.125,72.5,97.5625
1589227942141,2020-05-11T20:13:01.027237,60.167,-208.75,74.625,97.9375
1589227942242,2020-05-11T20:13:01.043730,60.268,-208.0625,65.625,97.5
1589227942343,2020-05-11T20:13:01.058953,60.369,-208.0625,72.875,97.9375
1589227942443,2020-05-11T20:13:01.080212,60.469,-208.4375,72.5,97.1875
1589227942544,2020-05-11T20:13:01.095198,60.57,-208.0625,73.5625,97.5625
1589227942644,2020-05-11T20:13:01.117017,60.67,-207.3125,73.1875,97.9375
1589227942745,2020-05-11T20:13:01.132010,60.771,-207.3125,68.1875,97.9375
1589227942844,2020-05-11T20:13:01.148479,60.87,-207.3125,75.375,97.5625
1589227942945,2020-05-11T20:13:01.163838,60.971,-207.3125,74.3125,97.1875
1589227943045,2020-05-11T20:13:01.186237,61.071,-208.4375,75.0,98.375
1589227943146,2020-05-11T20:13:01.207088,61.172,-207.3125,75.0,97.5625
1589227943247,2020-05-11T20:13:01.223590,61.273,-208.4375,73.1875,97.5625
1589227943347,2020-05-11T20:13:01.238486,61.373,-207.6875,73.1875,98.0
1589227943448,2020-05-11T20:13:01.260253,61.474,-208.4375,72.875,96.75
1589227943547,2020-05-11T20:13:01.282754,61.573,-206.9375,73.9375,97.1875
1589227943648,2020-05-11T20:13:01.304544,61.674,-207.6875,73.1875,98.375
1589227943748,2020-05-11T20:13:01.319580,61.774,-208.0625,75.0,97.1875
1589227943849,2020-05-11T20:13:01.336119,61.875,-206.9375,73.9375,97.5625
1589227943949,2020-05-11T20:13:01.351179,61.975,-207.6875,71.4375,96.75
1589227944050,2020-05-11T20:13:01.372732,62.076,-207.6875,67.8125,98.0
1589227944151,2020-05-11T20:13:01.387754,62.177,-207.3125,73.25,97.1875
1589227944250,2020-05-11T20:13:01.409555,62.276,-207.3125,73.5625,98.0
1589227944352,2020-05-11T20:13:01.424584,62.378,-208.0625,72.5,98.375
1589227944451,2020-05-11T20:13:01.447042,62.477,-207.0,72.875,97.1875
1589227944552,2020-05-11T20:13:01.462065,62.578,-208.0625,63.8125,97.5625
1589227944652,2020-05-11T20:13:01.486035,62.678,-207.3125,75.75,98.375
1589227944753,2020-05-11T20:13:01.500894,62.779,-207.3125,71.75,97.5625
1589227944853,2020-05-11T20:13:01.522697,62.879,-208.0625,73.9375,97.9375
1589227944954,2020-05-11T20:13:01.537704,62.98,-207.6875,74.3125,97.5625
1589227945055,2020-05-11T20:13:01.559538,63.081,-208.0625,72.125,97.5625
1589227945154,2020-05-11T20:13:01.590997,63.18,-208.0625,73.9375,98.0
1589227945255,2020-05-11T20:13:01.612754,63.281,-207.6875,71.75,97.5625
1589227945355,2020-05-11T20:13:01.627734,63.381,-207.3125,74.6875,97.5625
1589227945456,2020-05-11T20:13:01.649588,63.482,-208.0625,73.5625,97.5625
1589227945556,2020-05-11T20:13:01.664599,63.582,-207.6875,73.9375,97.5625
1589227945657,2020-05-11T20:13:01.679591,63.683,-206.9375,74.3125,97.5625
1589227945758,2020-05-11T20:13:01.704298,63.784,-207.3125,73.5625,98.375
1589227945857,2020-05-11T20:13:01.718617,63.883,-206.625,70.6875,97.5625
1589227945959,2020-05-11T20:13:01.740234,63.985,-206.9375,71.0625,98.375
1589227946058,2020-05-11T20:13:01.755259,64.084,-208.4375,73.1875,96.75
1589227946159,2020-05-11T20:13:01.777061,64.185,-207.6875,73.1875,97.1875
1589227946259,2020-05-11T20:13:01.792066,64.285,-208.0625,75.375,98.3125
1589227946360,2020-05-11T20:13:01.808661,64.386,-207.3125,67.0625,97.5625
1589227946461,2020-05-11T20:13:01.829618,64.487,-208.4375,73.5625,97.9375
1589227946561,2020-05-11T20:13:01.845941,64.587,-208.0625,73.5625,98.375
1589227946662,2020-05-11T20:13:01.860988,64.688,-208.0625,76.125,97.1875
1589227946761,2020-05-11T20:13:01.882731,64.787,-208.0625,74.3125,97.1875
1589227946862,2020-05-11T20:13:01.905230,64.888,-206.9375,67.4375,98.3125
1589227946962,2020-05-11T20:13:01.927058,64.988,-207.0,73.5625,98.0
1589227947063,2020-05-11T20:13:01.942075,65.089,-208.0625,73.5625,97.9375
1589227947164,2020-05-11T20:13:01.958767,65.19,-207.6875,71.4375,97.1875
1589227947264,2020-05-11T20:13:01.973809,65.29,-207.6875,74.6875,97.625
1589227947365,2020-05-11T20:13:01.995282,65.391,-206.9375,70.6875,97.9375
1589227947464,2020-05-11T20:13:02.010415,65.49,-207.6875,73.9375,97.625
1589227947565,2020-05-11T20:13:02.032064,65.591,-208.0625,73.5625,97.5625
1589227947665,2020-05-11T20:13:02.047054,65.691,-207.3125,72.5,97.5625
1589227947766,2020-05-11T20:13:02.063775,65.792,-207.6875,73.9375,97.5625
1589227947866,2020-05-11T20:13:02.084504,65.892,-207.3125,73.9375,97.5625
1589227947967,2020-05-11T20:13:02.100897,65.993,-208.0625,72.125,97.5625
1589227948068,2020-05-11T20:13:02.115879,66.094,-207.6875,75.75,97.9375
1589227948167,2020-05-11T20:13:02.137698,66.193,-207.6875,69.625,97.9375
1589227948269,2020-05-11T20:13:02.152712,66.295,-206.9375,73.1875,97.5625
1589227948368,2020-05-11T20:13:02.174569,66.394,-208.0625,72.875,97.5625
1589227948469,2020-05-11T20:13:02.189562,66.495,-207.6875,73.5625,97.9375
1589227948569,2020-05-11T20:13:02.206117,66.595,-208.0625,74.6875,97.5625
1589227948670,2020-05-11T20:13:02.234627,66.696,-207.6875,69.25,97.5625
1589227948771,2020-05-11T20:13:02.266120,66.797,-207.3125,72.5,97.9375
1589227948871,2020-05-11T20:13:02.288660,66.897,-207.6875,71.75,98.0
1589227948972,2020-05-11T20:13:02.310250,66.998,-207.3125,75.75,97.9375
1589227949071,2020-05-11T20:13:02.325905,67.097,-207.6875,73.1875,97.9375
1589227949172,2020-05-11T20:13:02.348939,67.198,-207.6875,71.4375,97.5625
1589227949272,2020-05-11T20:13:02.364089,67.298,-208.0625,75.375,98.375
1589227949373,2020-05-11T20:13:02.393372,67.399,-207.6875,71.75,97.5625
1589227949474,2020-05-11T20:13:02.415875,67.5,-208.4375,74.6875,97.9375
1589227949574,2020-05-11T20:13:02.437673,67.6,-207.3125,75.0,96.75
1589227949675,2020-05-11T20:13:02.453357,67.701,-207.6875,71.4375,97.1875
1589227949774,2020-05-11T20:13:02.475859,67.8,-208.0625,74.6875,98.75
1589227949875,2020-05-11T20:13:02.490861,67.901,-207.6875,73.5625,97.1875
1589227949975,2020-05-11T20:13:02.512685,68.001,-208.4375,69.625,97.9375
1589227950076,2020-05-11T20:13:02.527679,68.102,-208.0625,74.6875,97.9375
1589227950176,2020-05-11T20:13:02.549516,68.202,-208.0625,71.4375,98.375
1589227950277,2020-05-11T20:13:02.564519,68.303,-207.6875,75.375,97.1875
1589227950378,2020-05-11T20:13:02.581137,68.404,-208.0625,74.6875,97.9375
1589227950478,2020-05-11T20:13:02.595850,68.504,-207.6875,66.375,97.625
1589227950579,2020-05-11T20:13:02.610896,68.605,-208.0625,73.9375,96.4375
1589227950678,2020-05-11T20:13:02.632681,68.704,-207.3125,72.875,97.1875
1589227950779,2020-05-11T20:13:02.647672,68.805,-207.6875,72.5,98.375
1589227950879,2020-05-11T20:13:02.669578,68.905,-207.3125,75.0,96.75
1589227950980,2020-05-11T20:13:02.684557,69.006,-206.625,70.6875,97.5625
1589227951080,2020-05-11T20:13:02.701232,69.106,-207.3125,72.875,98.0
1589227951181,2020-05-11T20:13:02.722727,69.207,-206.9375,73.1875,97.9375
1589227951282,2020-05-11T20:13:02.744553,69.308,-207.3125,76.125,97.5625
1589227951381,2020-05-11T20:13:02.759557,69.407,-207.3125,76.4375,98.0
1589227951482,2020-05-11T20:13:02.775884,69.508,-207.6875,73.1875,97.9375
1589227951582,2020-05-11T20:13:02.790891,69.608,-207.6875,75.375,97.5625
1589227951683,2020-05-11T20:13:02.812715,69.709,-208.0625,74.3125,97.1875
1589227951783,2020-05-11T20:13:02.827733,69.809,-207.6875,71.75,98.0
1589227951884,2020-05-11T20:13:02.849547,69.91,-206.9375,73.9375,98.375
1589227951985,2020-05-11T20:13:02.864517,70.011,-208.0625,72.5,97.1875
1589227952084,2020-05-11T20:13:02.881102,70.11,-208.4375,74.6875,98.75
1589227952186,2020-05-11T20:13:02.896268,70.212,-207.6875,74.625,98.3125
1589227952285,2020-05-11T20:13:02.917828,70.311,-206.9375,64.9375,97.9375
1589227952386,2020-05-11T20:13:02.955261,70.412,-207.3125,74.6875,97.5625
1589227952486,2020-05-11T20:13:02.977066,70.512,-207.3125,72.875,98.0
1589227952587,2020-05-11T20:13:02.992078,70.613,-207.0,75.0,98.375
1589227952687,2020-05-11T20:13:03.022061,70.713,-207.6875,75.0,96.75
1589227952788,2020-05-11T20:13:03.037056,70.814,-208.0625,70.3125,98.75
1589227952887,2020-05-11T20:13:03.053641,70.913,-207.0,75.0,98.0
1589227952988,2020-05-11T20:13:03.068649,71.014,-207.6875,73.5625,97.5625
1589227953089,2020-05-11T20:13:03.090193,71.115,-207.3125,75.0,98.0
1589227953189,2020-05-11T20:13:03.105994,71.215,-207.3125,75.375,97.125
1589227953290,2020-05-11T20:13:03.127761,71.316,-207.6875,74.3125,97.5625
1589227953390,2020-05-11T20:13:03.142773,71.416,-207.6875,74.6875,97.9375
1589227953491,2020-05-11T20:13:03.164500,71.517,-207.3125,75.375,97.1875
1589227953590,2020-05-11T20:13:03.179552,71.616,-208.0625,66.75,97.5625
1589227953691,2020-05-11T20:13:03.196104,71.717,-207.3125,75.375,97.5625
1589227953791,2020-05-11T20:13:03.211111,71.817,-208.0625,75.375,97.5625
1589227953892,2020-05-11T20:13:03.232776,71.918,-206.9375,75.0,96.75
1589227953992,2020-05-11T20:13:03.247780,72.018,-208.0625,73.1875,97.9375
1589227954093,2020-05-11T20:13:03.269570,72.119,-207.3125,68.5,97.5625
1589227954192,2020-05-11T20:13:03.284589,72.218,-208.0625,73.9375,97.9375
1589227954293,2020-05-11T20:13:03.301092,72.319,-207.6875,75.75,97.125
1589227954395,2020-05-11T20:13:03.316108,72.421,-206.625,72.5,97.5625
1589227954494,2020-05-11T20:13:03.344577,72.52,-207.3125,73.5625,96.75
1589227954595,2020-05-11T20:13:03.359560,72.621,-208.0625,68.1875,97.9375
1589227954695,2020-05-11T20:13:03.383402,72.721,-207.3125,75.75,97.1875
1589227954796,2020-05-11T20:13:03.398405,72.822,-207.6875,74.3125,98.375
1589227954896,2020-05-11T20:13:03.420198,72.922,-207.6875,73.9375,97.1875
1589227954997,2020-05-11T20:13:03.435195,73.023,-206.9375,72.875,97.1875
1589227955096,2020-05-11T20:13:03.457015,73.122,-207.6875,73.1875,98.0
1589227955197,2020-05-11T20:13:03.472013,73.223,-207.6875,73.9375,97.9375
1589227955298,2020-05-11T20:13:03.502104,73.324,-207.3125,75.75,97.1875
1589227955398,2020-05-11T20:13:03.517065,73.424,-207.3125,72.5,97.9375
1589227955499,2020-05-11T20:13:03.533730,73.525,-207.6875,75.0,97.9375
1589227955599,2020-05-11T20:13:03.554560,73.625,-208.0625,74.6875,96.8125
1589227955700,2020-05-11T20:13:03.569569,73.726,-208.0625,75.75,97.9375
1589227955799,2020-05-11T20:13:03.586222,73.825,-208.4375,75.0,97.1875
1589227955900,2020-05-11T20:13:03.607058,73.926,-207.3125,67.0625,97.1875
1589227956000,2020-05-11T20:13:03.637596,74.026,-208.4375,71.4375,97.5625
1589227956101,2020-05-11T20:13:03.652786,74.127,-207.6875,72.875,97.5625
1589227956201,2020-05-11T20:13:03.674599,74.227,-208.0625,74.3125,97.5625
1589227956302,2020-05-11T20:13:03.690267,74.328,-208.0625,75.375,97.5625
1589227956403,2020-05-11T20:13:03.712037,74.429,-207.0,71.0625,97.1875
1589227956502,2020-05-11T20:13:03.735203,74.528,-208.0625,73.9375,97.1875
1589227956604,2020-05-11T20:13:03.757027,74.63,-206.625,74.6875,97.5625
1589227956703,2020-05-11T20:13:03.772023,74.729,-207.0,73.1875,97.1875
1589227956804,2020-05-11T20:13:03.788546,74.83,-207.3125,75.375,97.5625
1589227956904,2020-05-11T20:13:03.809596,74.93,-208.0625,72.875,97.5625
1589227957005,2020-05-11T20:13:03.826101,75.031,-207.3125,76.4375,97.625
1589227957104,2020-05-11T20:13:03.841086,75.13,-207.3125,75.75,96.8125
1589227957206,2020-05-11T20:13:03.862751,75.232,-207.6875,68.5,97.1875
1589227957307,2020-05-11T20:13:03.877701,75.333,-207.3125,74.6875,97.1875
1589227957406,2020-05-11T20:13:03.899522,75.432,-207.3125,74.3125,97.1875
1589227957507,2020-05-11T20:13:03.915319,75.533,-207.3125,75.75,98.375
1589227957607,2020-05-11T20:13:03.937026,75.633,-208.4375,74.3125,97.1875
1589227957708,2020-05-11T20:13:03.967032,75.734,-207.3125,67.0625,98.8125
1589227957808,2020-05-11T20:13:03.984218,75.834,-208.0625,73.9375,97.625
1589227957909,2020-05-11T20:13:04.012797,75.935,-207.3125,72.5,97.1875
1589227958010,2020-05-11T20:13:04.034581,76.036,-208.0625,73.9375,97.1875
1589227958109,2020-05-11T20:13:04.049588,76.135,-208.0625,74.3125,97.625
1589227958210,2020-05-11T20:13:04.066084,76.236,-206.9375,68.5,97.9375
1589227958310,2020-05-11T20:13:04.080916,76.336,-207.0,73.9375,98.0
1589227958411,2020-05-11T20:13:04.110203,76.437,-208.0625,73.5625,98.0
1589227958511,2020-05-11T20:13:04.125198,76.537,-207.3125,74.6875,97.5625
1589227958612,2020-05-11T20:13:04.147028,76.638,-207.3125,75.75,97.5625
1589227958711,2020-05-11T20:13:04.162038,76.737,-208.0625,70.0,97.5625
1589227958813,2020-05-11T20:13:04.178872,76.839,-207.6875,72.125,97.5625
1589227958914,2020-05-11T20:13:04.193590,76.94,-207.0,72.5,97.1875
1589227959013,2020-05-11T20:13:04.215273,77.039,-206.25,73.5625,98.0
1589227959114,2020-05-11T20:13:04.231837,77.14,-207.3125,72.5,98.0
1589227959214,2020-05-11T20:13:04.267131,77.24,-207.6875,75.0,97.625
1589227959315,2020-05-11T20:13:04.282080,77.341,-207.3125,74.6875,97.5625
1589227959415,2020-05-11T20:13:04.298890,77.441,-208.0625,73.9375,97.1875
1589227959516,2020-05-11T20:13:04.313560,77.542,-207.0,71.0625,96.8125
1589227959615,2020-05-11T20:13:04.335427,77.641,-207.6875,73.1875,97.1875
1589227959716,2020-05-11T20:13:04.358594,77.742,-206.625,70.6875,97.1875
1589227959817,2020-05-11T20:13:04.380980,77.843,-207.0,75.0,97.5625
1589227959917,2020-05-11T20:13:04.395950,77.943,-206.625,72.5,96.4375
1589227960018,2020-05-11T20:13:04.417699,78.044,-207.6875,69.25,97.1875
1589227960118,2020-05-11T20:13:04.433431,78.144,-207.3125,74.3125,98.0
1589227960219,2020-05-11T20:13:04.454544,78.245,-207.3125,72.5,97.1875
1589227960318,2020-05-11T20:13:04.469535,78.344,-207.6875,73.5625,98.375
1589227960419,2020-05-11T20:13:04.486102,78.445,-207.6875,75.75,97.9375
1589227960519,2020-05-11T20:13:04.501339,78.545,-207.3125,71.75,96.8125
1589227960620,2020-05-11T20:13:04.522758,78.646,-207.3125,73.5625,97.625
1589227960720,2020-05-11T20:13:04.537771,78.746,-207.6875,75.375,98.375
1589227960821,2020-05-11T20:13:04.552798,78.847,-208.0625,72.5,98.375
1589227960922,2020-05-11T20:13:04.582088,78.948,-207.0,76.125,98.0
1589227961021,2020-05-11T20:13:04.597025,79.047,-207.3125,72.875,98.375
1589227961123,2020-05-11T20:13:04.613378,79.149,-207.6875,75.375,97.1875
1589227961222,2020-05-11T20:13:04.634532,79.248,-207.6875,76.4375,96.75
1589227961323,2020-05-11T20:13:04.650884,79.349,-207.0,70.3125,98.0
1589227961423,2020-05-11T20:13:04.665884,79.449,-206.625,74.3125,96.4375
1589227961524,2020-05-11T20:13:04.687794,79.55,-207.6875,72.125,98.0
1589227961624,2020-05-11T20:13:04.702787,79.65,-207.3125,74.6875,98.0
1589227961725,2020-05-11T20:13:04.732105,79.751,-207.6875,73.9375,97.5625
1589227961826,2020-05-11T20:13:04.747090,79.852,-208.4375,68.1875,98.0
1589227961925,2020-05-11T20:13:04.763768,79.951,-208.4375,75.375,98.0
1589227962026,2020-05-11T20:13:04.778932,80.052,-207.3125,73.1875,97.1875
1589227962126,2020-05-11T20:13:04.800223,80.152,-206.25,73.1875,97.9375
1589227962227,2020-05-11T20:13:04.815202,80.253,-207.3125,73.9375,97.9375
1589227962327,2020-05-11T20:13:04.837037,80.353,-207.6875,66.375,97.5625
1589227962428,2020-05-11T20:13:04.852037,80.454,-208.0625,73.5625,97.625
1589227962527,2020-05-11T20:13:04.874541,80.553,-207.0,74.6875,97.5625
1589227962628,2020-05-11T20:13:04.889625,80.654,-207.0,75.375,96.8125
1589227962728,2020-05-11T20:13:04.906650,80.754,-208.0625,73.9375,97.5625
1589227962829,2020-05-11T20:13:04.921162,80.855,-208.75,74.3125,98.0
1589227962930,2020-05-11T20:13:04.942791,80.956,-207.3125,73.9375,98.0
1589227963030,2020-05-11T20:13:04.957790,81.056,-207.3125,75.0,98.0
1589227963131,2020-05-11T20:13:04.979557,81.157,-206.9375,70.0,97.9375
1589227963230,2020-05-11T20:13:04.994596,81.256,-206.9375,73.1875,97.1875
1589227963332,2020-05-11T20:13:05.025883,81.358,-207.6875,73.9375,97.1875
1589227963431,2020-05-11T20:13:05.041391,81.457,-207.0,74.6875,98.375
1589227963532,2020-05-11T20:13:05.062693,81.558,-207.3125,74.6875,98.375
1589227963632,2020-05-11T20:13:05.077734,81.658,-206.9375,69.25,97.5625
1589227963733,2020-05-11T20:13:05.099584,81.759,-207.3125,73.25,97.1875
1589227963834,2020-05-11T20:13:05.114584,81.86,-206.9375,72.125,97.1875
1589227963934,2020-05-11T20:13:05.131346,81.96,-208.4375,74.3125,97.9375
1589227964035,2020-05-11T20:13:05.146345,82.061,-208.0625,73.9375,97.5625
1589227964134,2020-05-11T20:13:05.167778,82.16,-207.3125,68.1875,97.5625
1589227964235,2020-05-11T20:13:05.182744,82.261,-207.6875,73.5625,98.375
1589227964335,2020-05-11T20:13:05.204577,82.361,-207.6875,71.75,96.75
1589227964436,2020-05-11T20:13:05.219593,82.462,-207.0,72.5,97.1875
1589227964536,2020-05-11T20:13:05.242092,82.562,-206.625,74.3125,96.75
1589227964637,2020-05-11T20:13:05.257090,82.663,-207.6875,72.875,97.5625
1589227964736,2020-05-11T20:13:05.273677,82.762,-208.0625,73.9375,98.375
1589227964837,2020-05-11T20:13:05.288392,82.863,-206.9375,73.5625,97.5625
1589227964937,2020-05-11T20:13:05.310237,82.963,-207.3125,67.0625,97.5625
1589227965038,2020-05-11T20:13:05.325210,83.064,-207.6875,72.875,97.1875
1589227965139,2020-05-11T20:13:05.347070,83.165,-207.3125,72.5,98.0
1589227965239,2020-05-11T20:13:05.362064,83.265,-208.0625,74.6875,96.8125
1589227965340,2020-05-11T20:13:05.386129,83.366,-207.6875,74.6875,97.1875
1589227965439,2020-05-11T20:13:05.401328,83.465,-207.3125,68.5,98.375
1589227965541,2020-05-11T20:13:05.422897,83.567,-207.0,71.75,97.1875
1589227965640,2020-05-11T20:13:05.443865,83.666,-207.6875,73.9375,96.8125
1589227965741,2020-05-11T20:13:05.452781,83.767,-206.9375,76.125,97.9375
1589227965842,2020-05-11T20:13:05.474608,83.868,-207.6875,75.0,97.9375
1589227965942,2020-05-11T20:13:05.490227,83.968,-207.3125,69.25,97.5625
1589227966043,2020-05-11T20:13:05.512085,84.069,-207.6875,73.25,97.625
1589227966143,2020-05-11T20:13:05.527122,84.169,-207.0,72.875,97.1875
1589227966244,2020-05-11T20:13:05.551020,84.27,-207.3125,75.0,98.0
1589227966343,2020-05-11T20:13:05.565993,84.369,-208.0625,75.0,97.625
1589227966444,2020-05-11T20:13:05.595385,84.47,-207.6875,74.6875,97.1875
1589227966544,2020-05-11T20:13:05.610513,84.57,-207.3125,73.9375,96.8125
1589227966645,2020-05-11T20:13:05.632201,84.671,-208.0625,75.375,96.8125
1589227966746,2020-05-11T20:13:05.647201,84.772,-208.0625,71.75,98.375
1589227966846,2020-05-11T20:13:05.663598,84.872,-207.6875,75.0,98.0
1589227966947,2020-05-11T20:13:05.708911,84.973,-207.6875,72.875,97.5625
1589227967046,2020-05-11T20:13:05.730387,85.072,-207.3125,74.3125,97.1875
1589227967147,2020-05-11T20:13:05.745380,85.173,-207.0,73.9375,97.1875
1589227967247,2020-05-11T20:13:05.767135,85.273,-207.0,63.5,98.0
1589227967348,2020-05-11T20:13:05.782143,85.374,-207.375,73.5625,98.0625
1589227967448,2020-05-11T20:13:05.798472,85.474,-208.0625,71.75,98.0
1589227967549,2020-05-11T20:13:05.813475,85.575,-206.625,75.75,97.625
1589227967648,2020-05-11T20:13:05.835296,85.674,-207.3125,73.9375,97.625
1589227967750,2020-05-11T20:13:05.850299,85.776,-207.6875,72.5,98.0
1589227967851,2020-05-11T20:13:05.872134,85.877,-207.6875,75.0,98.375
1589227967950,2020-05-11T20:13:05.887792,85.976,-207.3125,75.0,98.0
1589227968051,2020-05-11T20:13:05.909667,86.077,-207.3125,72.875,97.5625
1589227968151,2020-05-11T20:13:05.924616,86.177,-207.0,74.6875,97.5625
1589227968252,2020-05-11T20:13:05.940968,86.278,-207.3125,74.3125,98.0
1589227968352,2020-05-11T20:13:05.955967,86.378,-207.0,72.875,98.0
1589227968453,2020-05-11T20:13:05.977819,86.479,-208.0625,73.9375,97.1875
1589227968552,2020-05-11T20:13:06.000467,86.578,-208.0625,67.4375,98.0
1589227968653,2020-05-11T20:13:06.022196,86.679,-207.375,74.3125,97.625
1589227968753,2020-05-11T20:13:06.037151,86.779,-207.3125,71.4375,97.1875
1589227968854,2020-05-11T20:13:06.053493,86.88,-207.3125,73.9375,97.1875
1589227968955,2020-05-11T20:13:06.068493,86.981,-208.4375,74.6875,98.0
1589227969055,2020-05-11T20:13:06.090323,87.081,-207.3125,68.875,97.9375
1589227969156,2020-05-11T20:13:06.105323,87.182,-207.3125,72.875,98.375
1589227969255,2020-05-11T20:13:06.127804,87.281,-207.0,73.5625,97.5625
1589227969356,2020-05-11T20:13:06.142823,87.382,-207.0,72.5,98.0
1589227969456,2020-05-11T20:13:06.164652,87.482,-207.6875,73.9375,98.0
1589227969557,2020-05-11T20:13:06.179646,87.583,-207.3125,72.125,97.625
