epoch  (ms),time  (-07:00),elapsed  (s),X-Axis  (g),Y-Axis  (g),Z-Axis  (g)
1588210856418,2020-04-30T01:40:57.014541,0.0,-0.24072265625,0.0380859375,1.0048828125
1588210856458,2020-04-30T01:40:57.029751,0.04,-0.2431640625,0.03759765625,1.01318359375
1588210856497,2020-04-30T01:40:57.066913,0.079,-0.24365234375,0.037109375,1.0107421875
1588210856537,2020-04-30T01:40:57.081888,0.119,-0.2431640625,0.037109375,1.01025390625
1588210856578,2020-04-30T01:40:57.104387,0.16,-0.2431640625,0.0380859375,1.01025390625
1588210856617,2020-04-30T01:40:57.126865,0.199,-0.24267578125,0.03759765625,1.01025390625
1588210856657,2020-04-30T01:40:57.141863,0.239,-0.24365234375,0.037109375,1.01123046875
1588210856696,2020-04-30T01:40:57.171849,0.278,-0.24267578125,0.0380859375,1.0107421875
1588210856736,2020-04-30T01:40:57.186904,0.318,-0.2431640625,0.0380859375,1.01123046875
1588210856775,2020-04-30T01:40:57.216846,0.357,-0.2451171875,0.03759765625,1.01123046875
1588210856815,2020-04-30T01:40:57.231916,0.397,-0.2421875,0.03759765625,1.009765625
1588210856855,2020-04-30T01:40:57.246919,0.437,-0.2431640625,0.0390625,1.01171875
