epoch  (ms),time  (-07:00),elapsed  (s),X-Axis  (T),Y-Axis  (T),Z-Axis  (T)
1588210856157,2020-04-30T01:40:56.926642,0.0,-227.1875,60.875,111.4375
1588210856257,2020-04-30T01:40:56.970901,0.1,-227.9375,58.0,113.8125
1588210856358,2020-04-30T01:40:57.001095,0.201,-226.5,57.625,112.6875
1588210856459,2020-04-30T01:40:57.068166,0.302,-226.875,59.0625,113.0625
1588210856558,2020-04-30T01:40:57.128137,0.401,-226.875,59.4375,113.125
1588210856659,2020-04-30T01:40:57.188143,0.502,-226.125,58.75,112.375
1588210856760,2020-04-30T01:40:57.248162,0.603,-226.5,59.4375,112.6875
1588210856860,2020-04-30T01:40:57.308018,0.703,-227.25,56.5625,112.6875
