epoch  (ms),time  (-07:00),elapsed  (s),Pressure  (Pa)
1588210856230,2020-04-30T01:40:56.952385,0.0,97913.8125
1588210856277,2020-04-30T01:40:56.960618,0.047,97912.34375
1588210856324,2020-04-30T01:40:56.982892,0.094,97910.5859375
1588210856371,2020-04-30T01:40:56.990501,0.141,97909.875
1588210856418,2020-04-30T01:40:57.012834,0.188,97910.90625
1588210856465,2020-04-30T01:40:57.043042,0.235,97911.8125
1588210856512,2020-04-30T01:40:57.072295,0.282,97911.828125
1588210856558,2020-04-30T01:40:57.087814,0.328,97911.765625
1588210856605,2020-04-30T01:40:57.117394,0.375,97912.9296875
1588210856651,2020-04-30T01:40:57.132640,0.421,97912.5859375
1588210856698,2020-04-30T01:40:57.162272,0.468,97913.21875
1588210856745,2020-04-30T01:40:57.192603,0.515,97913.6015625
1588210856791,2020-04-30T01:40:57.214776,0.561,97914.703125
1588210856838,2020-04-30T01:40:57.237709,0.608,97915.140625
1588210856885,2020-04-30T01:40:57.259644,0.655,97914.9609375
