epoch  (ms),time  (-07:00),elapsed  (s),X-Axis  (T),Y-Axis  (T),Z-Axis  (T)
1588210856172,2020-04-30T01:40:56.915766,0.0,166.5,-13.125,-69.75
1588210856271,2020-04-30T01:40:56.928519,0.099,166.5,-13.5,-70.125
1588210856371,2020-04-30T01:40:56.953745,0.199,166.125,-15.6875,-70.125
1588210856471,2020-04-30T01:40:56.975762,0.299,166.5,-13.125,-70.5625
1588210856570,2020-04-30T01:40:56.991124,0.398,165.4375,-13.5,-70.1875
1588210856671,2020-04-30T01:40:57.008836,0.499,166.125,-15.0,-70.1875
1588210856771,2020-04-30T01:40:57.024378,0.599,166.875,-14.25,-70.1875
1588210856870,2020-04-30T01:40:57.043921,0.698,165.75,-13.875,-70.9375
