epoch  (ms),time  (-07:00),elapsed  (s),X-Axis  (T),Y-Axis  (T),Z-Axis  (T)
1588210856127,2020-04-30T01:40:56.919497,0.0,-79.5625,151.6875,344.0
1588210856226,2020-04-30T01:40:56.932224,0.099,-79.25,151.3125,343.6875
1588210856326,2020-04-30T01:40:56.942878,0.199,-80.3125,144.625,344.4375
1588210856426,2020-04-30T01:40:56.958776,0.299,-79.25,151.0,344.875
1588210856527,2020-04-30T01:40:56.973639,0.4,-79.1875,149.5,344.0625
1588210856626,2020-04-30T01:40:56.996689,0.499,-79.5625,150.9375,343.6875
1588210856726,2020-04-30T01:40:57.017856,0.599,-79.5625,151.0,343.75
1588210856826,2020-04-30T01:40:57.039249,0.699,-79.5625,150.625,344.125
