epoch  (ms),time  (-07:00),elapsed  (s),X-Axis  (deg/s),Y-Axis  (deg/s),Z-Axis  (deg/s)
1588210856220,2020-04-30T01:40:56.946972,0.0,0.5144817233085632,-0.7050305008888245,-0.647865891456604
1588210856260,2020-04-30T01:40:56.954772,0.04,0.17911586165428162,-1.09375,0.24390244483947754
1588210856299,2020-04-30T01:40:56.969727,0.079,-0.6592987775802612,-1.120426893234253,0.5411585569381714
1588210856339,2020-04-30T01:40:56.984458,0.119,-0.5487805008888245,-0.9870427250862122,0.26676830649375916
1588210856378,2020-04-30T01:40:56.999513,0.158,-0.5602134466171265,-1.0480183362960815,0.323932945728302
1588210856418,2020-04-30T01:40:57.022316,0.198,-0.5297256112098694,-1.0327744483947754,0.32774391770362854
1588210856458,2020-04-30T01:40:57.038120,0.238,-0.5106707215309143,-1.0403963327407837,0.3429878056049347
1588210856497,2020-04-30T01:40:57.074347,0.277,-0.5068597793579102,-1.0175305604934692,0.28582316637039185
1588210856537,2020-04-30T01:40:57.089384,0.317,-0.5144817233085632,-0.9946646690368652,0.3010670840740204
1588210856578,2020-04-30T01:40:57.111869,0.358,-0.5564024448394775,-1.0289634466171265,0.3010670840740204
1588210856617,2020-04-30T01:40:57.134355,0.397,-0.5144817233085632,-1.0251524448394775,0.32774391770362854
1588210856657,2020-04-30T01:40:57.149369,0.437,-0.5068597793579102,-0.9870427250862122,0.29725611209869385
1588210856696,2020-04-30T01:40:57.179389,0.476,-0.4611280560493469,-1.0099085569381714,0.3010670840740204
1588210856736,2020-04-30T01:40:57.194359,0.516,-0.5487805008888245,-0.9870427250862122,0.30868902802467346
1588210856775,2020-04-30T01:40:57.224350,0.555,-0.5259146690368652,-0.9984756112098694,0.3315548896789551
1588210856815,2020-04-30T01:40:57.239391,0.595,-0.5602134466171265,-1.0365853309631348,0.3353658616542816
1588210856855,2020-04-30T01:40:57.254352,0.635,-0.5259146690368652,-1.0060975551605225,0.35060974955558777
