epoch  (ms),time  (-07:00),elapsed  (s),X-Axis  (deg/s),Y-Axis  (deg/s),Z-Axis  (deg/s)
1588210856223,2020-04-30T01:40:56.921747,0.0,-0.6059451103210449,-0.2286585420370102,0.27439025044441223
1588210856263,2020-04-30T01:40:56.934451,0.04,-0.5754573345184326,-0.09527438879013062,0.6288110017776489
1588210856304,2020-04-30T01:40:56.941910,0.081,-0.4573170840740204,-0.44207316637039185,0.3887195289134979
1588210856344,2020-04-30T01:40:56.943549,0.121,-0.5487805008888245,-0.25533536076545715,0.36204269528388977
1588210856385,2020-04-30T01:40:56.951141,0.162,-0.5259146690368652,-0.2896341383457184,0.44588416814804077
1588210856424,2020-04-30T01:40:56.958205,0.201,-0.5144817233085632,-0.2705792784690857,0.4268292784690857
1588210856464,2020-04-30T01:40:56.966554,0.241,-0.5144817233085632,-0.31631097197532654,0.42301830649375916
1588210856505,2020-04-30T01:40:56.973052,0.282,-0.4992378056049347,-0.30868902802467346,0.4153963625431061
1588210856544,2020-04-30T01:40:56.987324,0.321,-0.5792682766914368,-0.2591463327407837,0.39253050088882446
1588210856585,2020-04-30T01:40:56.988681,0.362,-0.5525915026664734,-0.323932945728302,0.4039634168148041
1588210856625,2020-04-30T01:40:56.996080,0.402,-0.5259146690368652,-0.2705792784690857,0.35060974955558777
1588210856664,2020-04-30T01:40:57.003568,0.441,-0.4992378056049347,-0.2896341383457184,0.39253050088882446
1588210856705,2020-04-30T01:40:57.010865,0.482,-0.5259146690368652,-0.2591463327407837,0.42301830649375916
1588210856745,2020-04-30T01:40:57.019114,0.522,-0.5259146690368652,-0.2934451401233673,0.4382621943950653
1588210856784,2020-04-30T01:40:57.025527,0.561,-0.5144817233085632,-0.2896341383457184,0.41158536076545715
1588210856826,2020-04-30T01:40:57.041017,0.603,-0.5640243887901306,-0.31631097197532654,0.39253050088882446
1588210856865,2020-04-30T01:40:57.055007,0.642,-0.5411585569381714,-0.3010670840740204,0.4077743887901306
